\relax 
\providecommand\hyper@newdestlabel[2]{}
\providecommand\HyperFirstAtBeginDocument{\AtBeginDocument}
\HyperFirstAtBeginDocument{\ifx\hyper@anchor\@undefined
\global\let\oldcontentsline\contentsline
\gdef\contentsline#1#2#3#4{\oldcontentsline{#1}{#2}{#3}}
\global\let\oldnewlabel\newlabel
\gdef\newlabel#1#2{\newlabelxx{#1}#2}
\gdef\newlabelxx#1#2#3#4#5#6{\oldnewlabel{#1}{{#2}{#3}}}
\AtEndDocument{\ifx\hyper@anchor\@undefined
\let\contentsline\oldcontentsline
\let\newlabel\oldnewlabel
\fi}
\fi}
\global\let\hyper@last\relax 
\gdef\HyperFirstAtBeginDocument#1{#1}
\providecommand\HyField@AuxAddToFields[1]{}
\providecommand\HyField@AuxAddToCoFields[2]{}
\citation{cichocki2016tensor}
\citation{kolda2018tensor}
\citation{kolda2008scalable}
\citation{OseTyrt09}
\citation{Kolda2009TensorDA}
\citation{Os16}
\citation{Domanov2020OnUA}
\citation{Otta14}
\newlabel{sec:intro}{{1}{1}{Introduction}{section.1}{}}
\newlabel{sec:intro@cref}{{[section][1][]1}{[1][1][]1}}
\@writefile{toc}{\contentsline {section}{\numberline {1}Introduction}{1}{section.1}\protected@file@percent }
\citation{Kolda2009TensorDA}
\citation{DomDeLath14}
\citation{Oseledets2011TensorTrainD}
\citation{deSilvLim08}
\citation{Beylkin05algorithmsfor}
\citation{8081290}
\citation{els}
\citation{bigoni2016}
\citation{wang2019distributed}
\citation{rakhuba2016}
\citation{Os20}
\citation{grasedyck2013literature}
\citation{kour2020efficient}
\citation{de2008tensor}
\newlabel{sec:method}{{2}{3}{The method}{section.2}{}}
\newlabel{sec:method@cref}{{[section][2][]2}{[1][3][]3}}
\@writefile{toc}{\contentsline {section}{\numberline {2}The method}{3}{section.2}\protected@file@percent }
\newlabel{subsec:Notation}{{2.1}{3}{Notation}{subsection.3}{}}
\newlabel{subsec:Notation@cref}{{[subsection][1][2]2.1}{[1][3][]3}}
\@writefile{toc}{\contentsline {subsection}{\numberline {2.1}Notation}{3}{subsection.3}\protected@file@percent }
\newlabel{eq:datum}{{2.1}{3}{Notation}{equation.4}{}}
\newlabel{eq:datum@cref}{{[equation][1][2]2.1}{[1][3][]3}}
\newlabel{eq:tensor}{{2.2}{3}{Notation}{equation.5}{}}
\newlabel{eq:tensor@cref}{{[equation][2][2]2.2}{[1][3][]3}}
\newlabel{eq:CP}{{2.3}{3}{Notation}{equation.6}{}}
\newlabel{eq:CP@cref}{{[equation][3][2]2.3}{[1][3][]3}}
\newlabel{eq:best}{{2.4}{3}{Notation}{equation.8}{}}
\newlabel{eq:best@cref}{{[subsection][1][2]2.1}{[1][3][]3}}
\citation{uschmajew2012local}
\citation{rohwedder2013local}
\citation{espig2015convergence}
\citation{wang2015accelerating}
\citation{oseledets2018alternating}
\citation{friedland2013best}
\newlabel{subsec:ALS}{{2.2}{4}{Alternating least square (ALS)}{subsection.9}{}}
\newlabel{subsec:ALS@cref}{{[subsection][2][2]2.2}{[1][4][]4}}
\@writefile{toc}{\contentsline {subsection}{\numberline {2.2}Alternating least square (ALS)}{4}{subsection.9}\protected@file@percent }
\newlabel{subsec:ASVD}{{2.3}{4}{Alternating Singular Value Decomposition (ASVD)}{subsection.13}{}}
\newlabel{subsec:ASVD@cref}{{[subsection][3][2]2.3}{[1][4][]4}}
\@writefile{toc}{\contentsline {subsection}{\numberline {2.3}Alternating Singular Value Decomposition (ASVD)}{4}{subsection.13}\protected@file@percent }
\newlabel{subsec:CP-TT}{{2.4}{5}{CP-TT}{subsection.18}{}}
\newlabel{subsec:CP-TT@cref}{{[subsection][4][2]2.4}{[1][5][]5}}
\@writefile{toc}{\contentsline {subsection}{\numberline {2.4}CP-TT}{5}{subsection.18}\protected@file@percent }
\@writefile{lof}{\contentsline {figure}{\numberline {1}{\ignorespaces Schematic representation of the CP-TT iteration for a $3$rd order tensor $F$.}}{6}{figure.19}\protected@file@percent }
\newlabel{cpttscheme}{{1}{6}{Schematic representation of the CP-TT iteration for a $3$rd order tensor $F$}{figure.19}{}}
\newlabel{cpttscheme@cref}{{[figure][1][]1}{[1][5][]6}}
\@writefile{toc}{\contentsline {subsection}{\numberline {2.5}Optimization of the CP coefficients}{7}{subsection.27}\protected@file@percent }
\newlabel{sec:math}{{3}{8}{Properties of the CP-TT method}{section.47}{}}
\newlabel{sec:math@cref}{{[section][3][]3}{[1][8][]8}}
\@writefile{toc}{\contentsline {section}{\numberline {3}Properties of the CP-TT method}{8}{section.47}\protected@file@percent }
\@writefile{toc}{\contentsline {subsection}{\numberline {3.1}Orthogonality properties}{8}{subsection.48}\protected@file@percent }
\@writefile{loa}{\contentsline {algorithm}{\numberline {2.1}{\ignorespaces Scheme of the computation algorithm of the CP-TT term}}{9}{algorithm.30}\protected@file@percent }
\newlabel{alg:algCPTT}{{2.1}{9}{Optimization of the CP coefficients}{ALC@unique.46}{}}
\newlabel{alg:algCPTT@cref}{{[algorithm][1][2]2.1}{[1][8][]9}}
\newlabel{eq:orthGu}{{3.3}{10}{Orthogonality properties}{equation.51}{}}
\newlabel{eq:orthGu@cref}{{[equation][3][3]3.3}{[1][9][]10}}
\newlabel{eq:Gprop}{{3.4}{10}{Orthogonality properties}{equation.52}{}}
\newlabel{eq:Gprop@cref}{{[equation][4][3]3.4}{[1][10][]10}}
\@writefile{toc}{\contentsline {paragraph}{Example:Properties in the $4$-th dimensional case}{11}{section*.53}\protected@file@percent }
\@writefile{toc}{\contentsline {subsection}{\numberline {3.2}CP-TT is optimal for $d=2$, and it retrieves exactly a rank$-1$ tensor}{11}{subsection.54}\protected@file@percent }
\@writefile{toc}{\contentsline {subsection}{\numberline {3.3}Computing $k$ terms: stability}{12}{subsection.56}\protected@file@percent }
\newlabel{eq:modified_opt}{{3.5}{12}{Computing $k$ terms: stability}{equation.57}{}}
\newlabel{eq:modified_opt@cref}{{[equation][5][3]3.5}{[1][12][]12}}
\citation{badeau2008fast}
\citation{phan2013fast}
\citation{vervliet2019exploiting}
\citation{kaya2015scalable}
\@writefile{toc}{\contentsline {subsection}{\numberline {3.4}Discretization and computational costs}{13}{subsection.62}\protected@file@percent }
\@writefile{toc}{\contentsline {subsubsection}{\numberline {3.4.1}Computing the POD of an unfolding without storing it}{13}{subsubsection.63}\protected@file@percent }
\newlabel{eq:PODfibers}{{3.12}{13}{Computing the POD of an unfolding without storing it}{equation.68}{}}
\newlabel{eq:PODfibers@cref}{{[equation][12][3]3.12}{[1][13][]13}}
\newlabel{eq:matrixA}{{3.14}{14}{Computing the POD of an unfolding without storing it}{equation.70}{}}
\newlabel{eq:matrixA@cref}{{[equation][14][3]3.14}{[1][14][]14}}
\@writefile{loa}{\contentsline {algorithm}{\numberline {3.1}{\ignorespaces POD decomposition of the unfolding}}{14}{algorithm.72}\protected@file@percent }
\newlabel{alg:UnU}{{3.1}{14}{Computing the POD of an unfolding without storing it}{algorithm.72}{}}
\newlabel{alg:UnU@cref}{{[algorithm][1][3]3.1}{[1][14][]14}}
\@writefile{toc}{\contentsline {subsubsection}{\numberline {3.4.2}Computational cost}{14}{subsubsection.80}\protected@file@percent }
\citation{de2000multilinear}
\newlabel{sec:numExp}{{4}{15}{Numerical Experiments}{section.82}{}}
\newlabel{sec:numExp@cref}{{[section][4][]4}{[1][15][]15}}
\@writefile{toc}{\contentsline {section}{\numberline {4}Numerical Experiments}{15}{section.82}\protected@file@percent }
\newlabel{refF}{{4.1}{15}{Numerical Experiments}{equation.83}{}}
\newlabel{refF@cref}{{[equation][1][4]4.1}{[1][15][]15}}
\@writefile{toc}{\contentsline {subsection}{\numberline {4.1}Results for functions in $L^2(\Omega )$}{15}{subsection.85}\protected@file@percent }
\@writefile{lof}{\contentsline {figure}{\numberline {2}{\ignorespaces Plot associated to functions described in Eq.\textup  {\hbox {\mathsurround \z@ \normalfont  (\ignorespaces \ref  {refF}\unskip \@@italiccorr )}}. On the left, the $L^2$ norm decrease of the difference between the exact function $F$ and its approximation in the 4-dimensional tensor of the 32 $L^2$ functions, $\beta =2.1$, using ALS in red, ASVD in blue and the CP-TT method in black. On the right, the difference between both norms the difference between the exact function $F$ and its approximation $\|R\|_{ALS}-\|R\|_{CP-TT}$ in red and $\|R\|_{ASVD}-\|R\|_{CP-TT}$ in black.}}{16}{figure.86}\protected@file@percent }
\newlabel{refI2}{{2}{16}{Plot associated to functions described in Eq.\eqref {refF}. On the left, the $L^2$ norm decrease of the difference between the exact function $F$ and its approximation in the 4-dimensional tensor of the 32 $L^2$ functions, $\beta =2.1$, using ALS in red, ASVD in blue and the CP-TT method in black. On the right, the difference between both norms the difference between the exact function $F$ and its approximation $\|R\|_{ALS}-\|R\|_{CP-TT}$ in red and $\|R\|_{ASVD}-\|R\|_{CP-TT}$ in black}{figure.86}{}}
\newlabel{refI2@cref}{{[figure][2][]2}{[1][16][]16}}
\@writefile{lof}{\contentsline {figure}{\numberline {3}{\ignorespaces Plot associated to functions described in Eq.\textup  {\hbox {\mathsurround \z@ \normalfont  (\ignorespaces \ref  {refF}\unskip \@@italiccorr )}}. On the left, the $L^2$ norm decrease of the difference between the exact function $F$ and its approximation in the 12-dimensional tensor of the 32 $L^2$ functions, $\beta =6.1$, using ALS in red, ASVD in blue and the CP-TT method in black. The dotted line shows as a constant the last point that converged on the ASVD method. On the right, the difference between both norms the difference between the exact function $F$ and its approximation $\|R\|_{ALS}-\|R\|_{CP-TT}$ in red and $\|R\|_{ASVD}-\|R\|_{CP-TT}$ in black.}}{16}{figure.88}\protected@file@percent }
\newlabel{refI3}{{3}{16}{Plot associated to functions described in Eq.\eqref {refF}. On the left, the $L^2$ norm decrease of the difference between the exact function $F$ and its approximation in the 12-dimensional tensor of the 32 $L^2$ functions, $\beta =6.1$, using ALS in red, ASVD in blue and the CP-TT method in black. The dotted line shows as a constant the last point that converged on the ASVD method. On the right, the difference between both norms the difference between the exact function $F$ and its approximation $\|R\|_{ALS}-\|R\|_{CP-TT}$ in red and $\|R\|_{ASVD}-\|R\|_{CP-TT}$ in black}{figure.88}{}}
\newlabel{refI3@cref}{{[figure][3][]3}{[1][16][]16}}
\@writefile{lof}{\contentsline {figure}{\numberline {4}{\ignorespaces Plot associated to functions described in Eq.\textup  {\hbox {\mathsurround \z@ \normalfont  (\ignorespaces \ref  {refF}\unskip \@@italiccorr )}}. On the left, the $L^2$ norm decrease of the difference between the exact function $F$ and its approximation in the 16-dimensional tensor of the 32 $L^2$ functions, $\beta =8.1$, using ALS in red, ASVD in blue and the CP-TT method in black. The dotted line shows as a constant the last point that converged on the ASVD and CP-TT methods. On the right, the difference between both norms the difference between the exact function $F$ and its approximation $\|R\|_{ALS}-\|R\|_{CP-TT}$ in red and $\|R\|_{ASVD}-\|R\|_{CP-TT}$ in black.}}{17}{figure.90}\protected@file@percent }
\newlabel{refI5}{{4}{17}{Plot associated to functions described in Eq.\eqref {refF}. On the left, the $L^2$ norm decrease of the difference between the exact function $F$ and its approximation in the 16-dimensional tensor of the 32 $L^2$ functions, $\beta =8.1$, using ALS in red, ASVD in blue and the CP-TT method in black. The dotted line shows as a constant the last point that converged on the ASVD and CP-TT methods. On the right, the difference between both norms the difference between the exact function $F$ and its approximation $\|R\|_{ALS}-\|R\|_{CP-TT}$ in red and $\|R\|_{ASVD}-\|R\|_{CP-TT}$ in black}{figure.90}{}}
\newlabel{refI5@cref}{{[figure][4][]4}{[1][16][]17}}
\@writefile{toc}{\contentsline {subsection}{\numberline {4.2}Results for functions in $H^1(\Omega )$}{17}{subsection.96}\protected@file@percent }
\@writefile{lof}{\contentsline {figure}{\numberline {5}{\ignorespaces Plot associated to functions described in Eq.\textup  {\hbox {\mathsurround \z@ \normalfont  (\ignorespaces \ref  {refF}\unskip \@@italiccorr )}}. On the left, the $L^2$ norm decrease of the difference between the exact function $F$ and its approximation in the 12-dimensional tensor of the 32 $L^2$ functions, $\beta =6.1$, using ALS in red, ALS without the relaxed fixed point in green, the ASVD in blue and the CP-TT method in black. The dotted line shows as a constant the last point that converged on the ALS method. On the right, the difference between both norms the difference between the exact function $F$ and its approximation $\|R\|_{ALS}-\|R\|_{CP-TT}$ in red and $\|R\|_{ASVD}-\|R\|_{CP-TT}$ in black.}}{18}{figure.92}\protected@file@percent }
\newlabel{refI4}{{5}{18}{Plot associated to functions described in Eq.\eqref {refF}. On the left, the $L^2$ norm decrease of the difference between the exact function $F$ and its approximation in the 12-dimensional tensor of the 32 $L^2$ functions, $\beta =6.1$, using ALS in red, ALS without the relaxed fixed point in green, the ASVD in blue and the CP-TT method in black. The dotted line shows as a constant the last point that converged on the ALS method. On the right, the difference between both norms the difference between the exact function $F$ and its approximation $\|R\|_{ALS}-\|R\|_{CP-TT}$ in red and $\|R\|_{ASVD}-\|R\|_{CP-TT}$ in black}{figure.92}{}}
\newlabel{refI4@cref}{{[figure][5][]5}{[1][17][]18}}
\@writefile{lof}{\contentsline {figure}{\numberline {6}{\ignorespaces Plot associated to functions described in Eq.\textup  {\hbox {\mathsurround \z@ \normalfont  (\ignorespaces \ref  {refF}\unskip \@@italiccorr )}}. On the left, the $L^2$ norm decrease of the difference between the exact function $F$ and its approximation in the 4-dimensional tensor of the 32 $H^1$ functions, $\beta =3.1$, using ALS in red, the ASVD method in blue and the CP-TT method in black. On the right, the difference between both norms of the difference between the exact function $F$ and its approximation $\|R\|_{ALS}-\|R\|_{CP-TT}$ in red and $\|R\|_{ASVD}-\|R\|_{CP-TT}$ in black.}}{18}{figure.97}\protected@file@percent }
\newlabel{refI7}{{6}{18}{Plot associated to functions described in Eq.\eqref {refF}. On the left, the $L^2$ norm decrease of the difference between the exact function $F$ and its approximation in the 4-dimensional tensor of the 32 $H^1$ functions, $\beta =3.1$, using ALS in red, the ASVD method in blue and the CP-TT method in black. On the right, the difference between both norms of the difference between the exact function $F$ and its approximation $\|R\|_{ALS}-\|R\|_{CP-TT}$ in red and $\|R\|_{ASVD}-\|R\|_{CP-TT}$ in black}{figure.97}{}}
\newlabel{refI7@cref}{{[figure][6][]6}{[1][17][]18}}
\@writefile{toc}{\contentsline {section}{\numberline {5}Conclusions and perspectives}{18}{section.106}\protected@file@percent }
\@writefile{lot}{\contentsline {table}{\numberline {1}{\ignorespaces Mean and standard deviation of the norm decay of the residual for the 32 random $L^2(\Omega )$ functions. The results shown are for different number of terms on each of the dimensions tested. }}{19}{table.94}\protected@file@percent }
\newlabel{tab:tableL2}{{1}{19}{Mean and standard deviation of the norm decay of the residual for the 32 random $L^2(\Omega )$ functions. The results shown are for different number of terms on each of the dimensions tested}{table.94}{}}
\newlabel{tab:tableL2@cref}{{[table][1][]1}{[1][17][]19}}
\@writefile{lof}{\contentsline {figure}{\numberline {7}{\ignorespaces Plot associated to functions described in Eq.\textup  {\hbox {\mathsurround \z@ \normalfont  (\ignorespaces \ref  {refF}\unskip \@@italiccorr )}}. On the left, the $L^2$ norm decrease of the difference between the exact function $F$ and its approximation in the 12-dimensional tensor of the 32 $H^1$ functions, $\beta =7.1$, using ALS in red, the ASVD method in blue and the CP-TT method in black. On the right, the difference between both norms of the difference between the exact function $F$ and its approximation $\|R\|_{ALS}-\|R\|_{CP-TT}$ in red and $\|R\|_{ASVD}-\|R\|_{CP-TT}$ in black. }}{19}{figure.99}\protected@file@percent }
\newlabel{refI8}{{7}{19}{Plot associated to functions described in Eq.\eqref {refF}. On the left, the $L^2$ norm decrease of the difference between the exact function $F$ and its approximation in the 12-dimensional tensor of the 32 $H^1$ functions, $\beta =7.1$, using ALS in red, the ASVD method in blue and the CP-TT method in black. On the right, the difference between both norms of the difference between the exact function $F$ and its approximation $\|R\|_{ALS}-\|R\|_{CP-TT}$ in red and $\|R\|_{ASVD}-\|R\|_{CP-TT}$ in black}{figure.99}{}}
\newlabel{refI8@cref}{{[figure][7][]7}{[1][17][]19}}
\bibstyle{siamplain}
\bibdata{biblioCPTT}
\bibcite{badeau2008fast}{1}
\bibcite{Beylkin05algorithmsfor}{2}
\bibcite{bigoni2016}{3}
\bibcite{Os16}{4}
\@writefile{lof}{\contentsline {figure}{\numberline {8}{\ignorespaces Plot associated to functions described in Eq.\textup  {\hbox {\mathsurround \z@ \normalfont  (\ignorespaces \ref  {refF}\unskip \@@italiccorr )}}. On the left, the $L^2$ norm decrease of the difference between the exact function $F$ and its approximation in the 16-dimensional tensor of the 32 $H^1$ functions, $\beta =9.1$ using ALS in red, the ASVD method in blue and the CP-TT method in black. On the right, the difference between both norms of the difference between the exact function $F$ and its approximation $\|R\|_{ALS}-\|R\|_{CP-TT}$ in red and $\|R\|_{ASVD}-\|R\|_{CP-TT}$ in black. Both tests are made for 100 terms.}}{20}{figure.101}\protected@file@percent }
\newlabel{refI9}{{8}{20}{Plot associated to functions described in Eq.\eqref {refF}. On the left, the $L^2$ norm decrease of the difference between the exact function $F$ and its approximation in the 16-dimensional tensor of the 32 $H^1$ functions, $\beta =9.1$ using ALS in red, the ASVD method in blue and the CP-TT method in black. On the right, the difference between both norms of the difference between the exact function $F$ and its approximation $\|R\|_{ALS}-\|R\|_{CP-TT}$ in red and $\|R\|_{ASVD}-\|R\|_{CP-TT}$ in black. Both tests are made for 100 terms}{figure.101}{}}
\newlabel{refI9@cref}{{[figure][8][]8}{[1][17][]20}}
\@writefile{toc}{\contentsline {section}{References}{20}{section*.107}\protected@file@percent }
\bibcite{cichocki2016tensor}{5}
\bibcite{de2000multilinear}{6}
\bibcite{deSilvLim08}{7}
\bibcite{de2008tensor}{8}
\bibcite{Domanov2020OnUA}{9}
\bibcite{DomDeLath14}{10}
\bibcite{espig2015convergence}{11}
\bibcite{friedland2013best}{12}
\bibcite{Otta14}{13}
\bibcite{grasedyck2013literature}{14}
\@writefile{lot}{\contentsline {table}{\numberline {2}{\ignorespaces Mean and standard deviation of the norm decay of the residual for the 32 random $H^1(\Omega )$ functions. The results shown are for different number of terms on each of the dimensions tested. }}{21}{table.103}\protected@file@percent }
\newlabel{tab:tableH1}{{2}{21}{Mean and standard deviation of the norm decay of the residual for the 32 random $H^1(\Omega )$ functions. The results shown are for different number of terms on each of the dimensions tested}{table.103}{}}
\newlabel{tab:tableH1@cref}{{[table][2][]2}{[1][17][]21}}
\bibcite{kaya2015scalable}{15}
\bibcite{Kolda2009TensorDA}{16}
\bibcite{kolda2018tensor}{17}
\bibcite{kolda2008scalable}{18}
\bibcite{kour2020efficient}{19}
\bibcite{Oseledets2011TensorTrainD}{20}
\bibcite{OseTyrt09}{21}
\bibcite{oseledets2018alternating}{22}
\bibcite{Os20}{23}
\bibcite{phan2013fast}{24}
\bibcite{els}{25}
\bibcite{rakhuba2016}{26}
\bibcite{rohwedder2013local}{27}
\bibcite{uschmajew2012local}{28}
\bibcite{8081290}{29}
\bibcite{vervliet2019exploiting}{30}
\bibcite{wang2015accelerating}{31}
\bibcite{wang2019distributed}{32}
