\relax 
\providecommand \oddpage@label [2]{}
\@writefile{toc}{\contentsline {section}{\numberline {1} TTr1}{1}\protected@file@percent }
\@writefile{loa}{\contentsline {algocf}{\numberline {1}{\ignorespaces Algorithm of TTr1SVD}}{3}\protected@file@percent }
\@writefile{toc}{\contentsline {subsection}{\numberline {1.1}Conlusions}{4}\protected@file@percent }
