\relax 
\providecommand\hyper@newdestlabel[2]{}
\providecommand\HyperFirstAtBeginDocument{\AtBeginDocument}
\HyperFirstAtBeginDocument{\ifx\hyper@anchor\@undefined
\global\let\oldcontentsline\contentsline
\gdef\contentsline#1#2#3#4{\oldcontentsline{#1}{#2}{#3}}
\global\let\oldnewlabel\newlabel
\gdef\newlabel#1#2{\newlabelxx{#1}#2}
\gdef\newlabelxx#1#2#3#4#5#6{\oldnewlabel{#1}{{#2}{#3}}}
\AtEndDocument{\ifx\hyper@anchor\@undefined
\let\contentsline\oldcontentsline
\let\newlabel\oldnewlabel
\fi}
\fi}
\global\let\hyper@last\relax 
\gdef\HyperFirstAtBeginDocument#1{#1}
\providecommand\HyField@AuxAddToFields[1]{}
\providecommand\HyField@AuxAddToCoFields[2]{}
\@writefile{toc}{\contentsline {section}{\numberline {1}Rank-adaptive Tucker Decomposition}{1}{section.1}}
\@writefile{toc}{\contentsline {subsection}{\numberline {1.1}Tucker Docomposition and Notations}{1}{subsection.1.1}}
\@writefile{toc}{\contentsline {subsection}{\numberline {1.2}Error Analysis}{1}{subsection.1.2}}
\newlabel{maincor}{{1}{1}{}{mycor.1}{}}
\@writefile{loa}{\contentsline {algorithm}{\numberline {1}{\ignorespaces RankAdaptiveTucker\relax }}{2}{algorithm.1}}
\@writefile{toc}{\contentsline {section}{\numberline {2}Gradually Adapting Algorithm}{2}{section.2}}
\@writefile{loa}{\contentsline {algorithm}{\numberline {2}{\ignorespaces Gradually Adapting Algorithm\relax }}{3}{algorithm.2}}
\@writefile{toc}{\contentsline {section}{\numberline {3}Global Greedy Algorithm}{4}{section.3}}
\@writefile{loa}{\contentsline {algorithm}{\numberline {3}{\ignorespaces Global Greedy Algorithm\relax }}{4}{algorithm.3}}
\@writefile{toc}{\contentsline {section}{\numberline {4}Hierarchical Merge Algorithm}{4}{section.4}}
\@writefile{toc}{\contentsline {subsection}{\numberline {4.1}Hierarchical Partitioning Format (HPF)}{5}{subsection.4.1}}
\@writefile{loa}{\contentsline {algorithm}{\numberline {4}{\ignorespaces Hierarchical Merge Algorithm\relax }}{7}{algorithm.4}}
\@writefile{toc}{\contentsline {section}{\numberline {5}Linear Algebra in HPF}{7}{section.5}}
\@writefile{toc}{\contentsline {subsection}{\numberline {5.1}Scaling, Addtition and norm}{8}{subsection.5.1}}
\@writefile{toc}{\contentsline {subsection}{\numberline {5.2}Tensor Matrix Multiplication}{8}{subsection.5.2}}
\@writefile{toc}{\contentsline {section}{\numberline {6}Numerical Results}{9}{section.6}}
\@writefile{toc}{\contentsline {subsection}{\numberline {6.1}Newton Function}{9}{subsection.6.1}}
\@writefile{lof}{\contentsline {figure}{\numberline {1}{\ignorespaces With fixed relative error 1\%\relax }}{10}{figure.caption.1}}
\@writefile{lof}{\contentsline {figure}{\numberline {2}{\ignorespaces With fixed relative error 0.1\%\relax }}{11}{figure.caption.2}}
\@writefile{lof}{\contentsline {figure}{\numberline {3}{\ignorespaces With fixed absolute error 100\relax }}{11}{figure.caption.3}}
\@writefile{toc}{\contentsline {subsection}{\numberline {6.2}Video Tensor}{12}{subsection.6.2}}
\@writefile{lof}{\contentsline {figure}{\numberline {4}{\ignorespaces With fixed relative error\relax }}{12}{figure.caption.4}}
\providecommand*\caption@xref[2]{\@setref\relax\@undefined{#1}}
\newlabel{fig:test}{{4}{12}{With fixed relative error\relax }{figure.caption.4}{}}
\@writefile{lof}{\contentsline {figure}{\numberline {5}{\ignorespaces With fixed absolute error 100\relax }}{12}{figure.caption.5}}
\@writefile{toc}{\contentsline {subsection}{\numberline {6.3}A Counter Example}{12}{subsection.6.3}}
\bibstyle{apa}
\bibdata{mybib}
\@writefile{lof}{\contentsline {figure}{\numberline {6}{\ignorespaces With fixed relative error 0.1\%\relax }}{13}{figure.caption.6}}
\@writefile{toc}{\contentsline {section}{\numberline {7}Future Works}{13}{section.7}}
\@writefile{toc}{\contentsline {section}{Reference}{13}{section*.7}}
