%!PS-Adobe-3.0 EPSF-3.0
%%Creator: (MATLAB, The Mathworks, Inc. Version 9.7.0.1296695 \(R2019b\) Update 4. Operating System: Mac OS X)
%%Title: /Users/mfuentez/Documents/ADAPT-master/code/tensLib/Outputs/CPTTvsALS_16d/ASVDvsALSvsCPTT_dim16_beta8.1/difference.eps
%%CreationDate: 2020-08-31T18:02:54
%%Pages: (atend)
%%BoundingBox: 0 0 560 420
%%LanguageLevel: 3
%%EndComments
%%BeginProlog
%%BeginResource: procset (Apache XML Graphics Std ProcSet) 1.2 0
%%Version: 1.2 0
%%Copyright: (Copyright 2001-2003,2010 The Apache Software Foundation. License terms: http://www.apache.org/licenses/LICENSE-2.0)
/bd{bind def}bind def
/ld{load def}bd
/GR/grestore ld
/GS/gsave ld
/RM/rmoveto ld
/C/curveto ld
/t/show ld
/L/lineto ld
/ML/setmiterlimit ld
/CT/concat ld
/f/fill ld
/N/newpath ld
/S/stroke ld
/CC/setcmykcolor ld
/A/ashow ld
/cp/closepath ld
/RC/setrgbcolor ld
/LJ/setlinejoin ld
/GC/setgray ld
/LW/setlinewidth ld
/M/moveto ld
/re {4 2 roll M
1 index 0 rlineto
0 exch rlineto
neg 0 rlineto
cp } bd
/_ctm matrix def
/_tm matrix def
/BT { _ctm currentmatrix pop matrix _tm copy pop 0 0 moveto } bd
/ET { _ctm setmatrix } bd
/iTm { _ctm setmatrix _tm concat } bd
/Tm { _tm astore pop iTm 0 0 moveto } bd
/ux 0.0 def
/uy 0.0 def
/F {
  /Tp exch def
  /Tf exch def
  Tf findfont Tp scalefont setfont
  /cf Tf def  /cs Tp def
} bd
/ULS {currentpoint /uy exch def /ux exch def} bd
/ULE {
  /Tcx currentpoint pop def
  gsave
  newpath
  cf findfont cs scalefont dup
  /FontMatrix get 0 get /Ts exch def /FontInfo get dup
  /UnderlinePosition get Ts mul /To exch def
  /UnderlineThickness get Ts mul /Tt exch def
  ux uy To add moveto  Tcx uy To add lineto
  Tt setlinewidth stroke
  grestore
} bd
/OLE {
  /Tcx currentpoint pop def
  gsave
  newpath
  cf findfont cs scalefont dup
  /FontMatrix get 0 get /Ts exch def /FontInfo get dup
  /UnderlinePosition get Ts mul /To exch def
  /UnderlineThickness get Ts mul /Tt exch def
  ux uy To add cs add moveto Tcx uy To add cs add lineto
  Tt setlinewidth stroke
  grestore
} bd
/SOE {
  /Tcx currentpoint pop def
  gsave
  newpath
  cf findfont cs scalefont dup
  /FontMatrix get 0 get /Ts exch def /FontInfo get dup
  /UnderlinePosition get Ts mul /To exch def
  /UnderlineThickness get Ts mul /Tt exch def
  ux uy To add cs 10 mul 26 idiv add moveto Tcx uy To add cs 10 mul 26 idiv add lineto
  Tt setlinewidth stroke
  grestore
} bd
/QT {
/Y22 exch store
/X22 exch store
/Y21 exch store
/X21 exch store
currentpoint
/Y21 load 2 mul add 3 div exch
/X21 load 2 mul add 3 div exch
/X21 load 2 mul /X22 load add 3 div
/Y21 load 2 mul /Y22 load add 3 div
/X22 load /Y22 load curveto
} bd
/SSPD {
dup length /d exch dict def
{
/v exch def
/k exch def
currentpagedevice k known {
/cpdv currentpagedevice k get def
v cpdv ne {
/upd false def
/nullv v type /nulltype eq def
/nullcpdv cpdv type /nulltype eq def
nullv nullcpdv or
{
/upd true def
} {
/sametype v type cpdv type eq def
sametype {
v type /arraytype eq {
/vlen v length def
/cpdvlen cpdv length def
vlen cpdvlen eq {
0 1 vlen 1 sub {
/i exch def
/obj v i get def
/cpdobj cpdv i get def
obj cpdobj ne {
/upd true def
exit
} if
} for
} {
/upd true def
} ifelse
} {
v type /dicttype eq {
v {
/dv exch def
/dk exch def
/cpddv cpdv dk get def
dv cpddv ne {
/upd true def
exit
} if
} forall
} {
/upd true def
} ifelse
} ifelse
} if
} ifelse
upd true eq {
d k v put
} if
} if
} if
} forall
d length 0 gt {
d setpagedevice
} if
} bd
/RE { % /NewFontName [NewEncodingArray] /FontName RE -
  findfont dup length dict begin
  {
    1 index /FID ne
    {def} {pop pop} ifelse
  } forall
  /Encoding exch def
  /FontName 1 index def
  currentdict definefont pop
  end
} bind def
%%EndResource
%%BeginResource: procset (Apache XML Graphics EPS ProcSet) 1.0 0
%%Version: 1.0 0
%%Copyright: (Copyright 2002-2003 The Apache Software Foundation. License terms: http://www.apache.org/licenses/LICENSE-2.0)
/BeginEPSF { %def
/b4_Inc_state save def         % Save state for cleanup
/dict_count countdictstack def % Count objects on dict stack
/op_count count 1 sub def      % Count objects on operand stack
userdict begin                 % Push userdict on dict stack
/showpage { } def              % Redefine showpage, { } = null proc
0 setgray 0 setlinecap         % Prepare graphics state
1 setlinewidth 0 setlinejoin
10 setmiterlimit [ ] 0 setdash newpath
/languagelevel where           % If level not equal to 1 then
{pop languagelevel             % set strokeadjust and
1 ne                           % overprint to their defaults.
{false setstrokeadjust false setoverprint
} if
} if
} bd
/EndEPSF { %def
count op_count sub {pop} repeat            % Clean up stacks
countdictstack dict_count sub {end} repeat
b4_Inc_state restore
} bd
%%EndResource
%FOPBeginFontDict
%%IncludeResource: font Courier-Oblique
%%IncludeResource: font Courier-BoldOblique
%%IncludeResource: font Courier-Bold
%%IncludeResource: font ZapfDingbats
%%IncludeResource: font Symbol
%%IncludeResource: font Helvetica
%%IncludeResource: font Helvetica-Oblique
%%IncludeResource: font Helvetica-Bold
%%IncludeResource: font Helvetica-BoldOblique
%%IncludeResource: font Times-Roman
%%IncludeResource: font Times-Italic
%%IncludeResource: font Times-Bold
%%IncludeResource: font Times-BoldItalic
%%IncludeResource: font Courier
%FOPEndFontDict
%%BeginResource: encoding WinAnsiEncoding
/WinAnsiEncoding [
/.notdef /.notdef /.notdef /.notdef /.notdef
/.notdef /.notdef /.notdef /.notdef /.notdef
/.notdef /.notdef /.notdef /.notdef /.notdef
/.notdef /.notdef /.notdef /.notdef /.notdef
/.notdef /.notdef /.notdef /.notdef /.notdef
/.notdef /.notdef /.notdef /.notdef /.notdef
/.notdef /.notdef /space /exclam /quotedbl
/numbersign /dollar /percent /ampersand /quotesingle
/parenleft /parenright /asterisk /plus /comma
/hyphen /period /slash /zero /one
/two /three /four /five /six
/seven /eight /nine /colon /semicolon
/less /equal /greater /question /at
/A /B /C /D /E
/F /G /H /I /J
/K /L /M /N /O
/P /Q /R /S /T
/U /V /W /X /Y
/Z /bracketleft /backslash /bracketright /asciicircum
/underscore /quoteleft /a /b /c
/d /e /f /g /h
/i /j /k /l /m
/n /o /p /q /r
/s /t /u /v /w
/x /y /z /braceleft /bar
/braceright /asciitilde /bullet /Euro /bullet
/quotesinglbase /florin /quotedblbase /ellipsis /dagger
/daggerdbl /circumflex /perthousand /Scaron /guilsinglleft
/OE /bullet /Zcaron /bullet /bullet
/quoteleft /quoteright /quotedblleft /quotedblright /bullet
/endash /emdash /asciitilde /trademark /scaron
/guilsinglright /oe /bullet /zcaron /Ydieresis
/space /exclamdown /cent /sterling /currency
/yen /brokenbar /section /dieresis /copyright
/ordfeminine /guillemotleft /logicalnot /sfthyphen /registered
/macron /degree /plusminus /twosuperior /threesuperior
/acute /mu /paragraph /middot /cedilla
/onesuperior /ordmasculine /guillemotright /onequarter /onehalf
/threequarters /questiondown /Agrave /Aacute /Acircumflex
/Atilde /Adieresis /Aring /AE /Ccedilla
/Egrave /Eacute /Ecircumflex /Edieresis /Igrave
/Iacute /Icircumflex /Idieresis /Eth /Ntilde
/Ograve /Oacute /Ocircumflex /Otilde /Odieresis
/multiply /Oslash /Ugrave /Uacute /Ucircumflex
/Udieresis /Yacute /Thorn /germandbls /agrave
/aacute /acircumflex /atilde /adieresis /aring
/ae /ccedilla /egrave /eacute /ecircumflex
/edieresis /igrave /iacute /icircumflex /idieresis
/eth /ntilde /ograve /oacute /ocircumflex
/otilde /odieresis /divide /oslash /ugrave
/uacute /ucircumflex /udieresis /yacute /thorn
/ydieresis
] def
%%EndResource
%FOPBeginFontReencode
/Courier-Oblique findfont
dup length dict begin
  {1 index /FID ne {def} {pop pop} ifelse} forall
  /Encoding WinAnsiEncoding def
  currentdict
end
/Courier-Oblique exch definefont pop
/Courier-BoldOblique findfont
dup length dict begin
  {1 index /FID ne {def} {pop pop} ifelse} forall
  /Encoding WinAnsiEncoding def
  currentdict
end
/Courier-BoldOblique exch definefont pop
/Courier-Bold findfont
dup length dict begin
  {1 index /FID ne {def} {pop pop} ifelse} forall
  /Encoding WinAnsiEncoding def
  currentdict
end
/Courier-Bold exch definefont pop
/Helvetica findfont
dup length dict begin
  {1 index /FID ne {def} {pop pop} ifelse} forall
  /Encoding WinAnsiEncoding def
  currentdict
end
/Helvetica exch definefont pop
/Helvetica-Oblique findfont
dup length dict begin
  {1 index /FID ne {def} {pop pop} ifelse} forall
  /Encoding WinAnsiEncoding def
  currentdict
end
/Helvetica-Oblique exch definefont pop
/Helvetica-Bold findfont
dup length dict begin
  {1 index /FID ne {def} {pop pop} ifelse} forall
  /Encoding WinAnsiEncoding def
  currentdict
end
/Helvetica-Bold exch definefont pop
/Helvetica-BoldOblique findfont
dup length dict begin
  {1 index /FID ne {def} {pop pop} ifelse} forall
  /Encoding WinAnsiEncoding def
  currentdict
end
/Helvetica-BoldOblique exch definefont pop
/Times-Roman findfont
dup length dict begin
  {1 index /FID ne {def} {pop pop} ifelse} forall
  /Encoding WinAnsiEncoding def
  currentdict
end
/Times-Roman exch definefont pop
/Times-Italic findfont
dup length dict begin
  {1 index /FID ne {def} {pop pop} ifelse} forall
  /Encoding WinAnsiEncoding def
  currentdict
end
/Times-Italic exch definefont pop
/Times-Bold findfont
dup length dict begin
  {1 index /FID ne {def} {pop pop} ifelse} forall
  /Encoding WinAnsiEncoding def
  currentdict
end
/Times-Bold exch definefont pop
/Times-BoldItalic findfont
dup length dict begin
  {1 index /FID ne {def} {pop pop} ifelse} forall
  /Encoding WinAnsiEncoding def
  currentdict
end
/Times-BoldItalic exch definefont pop
/Courier findfont
dup length dict begin
  {1 index /FID ne {def} {pop pop} ifelse} forall
  /Encoding WinAnsiEncoding def
  currentdict
end
/Courier exch definefont pop
%FOPEndFontReencode
%%EndProlog
%%Page: 1 1
%%PageBoundingBox: 0 0 560 420
%%BeginPageSetup
[1 0 0 -1 0 420] CT
%%EndPageSetup
GS
1 GC
N
0 0 560 420 re
f
GR
GS
1 GC
N
0 0 560 420 re
f
GR
GS
1 GC
N
73 374 M
507 374 L
507 31.5 L
73 31.5 L
cp
f
GR
GS
0.149 GC
2 setlinecap
1 LJ
0.5 LW
N
73 374 M
507 374 L
S
GR
GS
0.149 GC
2 setlinecap
1 LJ
0.5 LW
N
73 31.5 M
507 31.5 L
S
GR
GS
0.149 GC
2 setlinecap
1 LJ
0.5 LW
N
73 374 M
73 369.66 L
S
GR
GS
0.149 GC
2 setlinecap
1 LJ
0.5 LW
N
116.4 374 M
116.4 369.66 L
S
GR
GS
0.149 GC
2 setlinecap
1 LJ
0.5 LW
N
159.8 374 M
159.8 369.66 L
S
GR
GS
0.149 GC
2 setlinecap
1 LJ
0.5 LW
N
203.2 374 M
203.2 369.66 L
S
GR
GS
0.149 GC
2 setlinecap
1 LJ
0.5 LW
N
246.6 374 M
246.6 369.66 L
S
GR
GS
0.149 GC
2 setlinecap
1 LJ
0.5 LW
N
290 374 M
290 369.66 L
S
GR
GS
0.149 GC
2 setlinecap
1 LJ
0.5 LW
N
333.4 374 M
333.4 369.66 L
S
GR
GS
0.149 GC
2 setlinecap
1 LJ
0.5 LW
N
376.8 374 M
376.8 369.66 L
S
GR
GS
0.149 GC
2 setlinecap
1 LJ
0.5 LW
N
420.2 374 M
420.2 369.66 L
S
GR
GS
0.149 GC
2 setlinecap
1 LJ
0.5 LW
N
463.6 374 M
463.6 369.66 L
S
GR
GS
0.149 GC
2 setlinecap
1 LJ
0.5 LW
N
507 374 M
507 369.66 L
S
GR
GS
0.149 GC
2 setlinecap
1 LJ
0.5 LW
N
73 31.5 M
73 35.84 L
S
GR
GS
0.149 GC
2 setlinecap
1 LJ
0.5 LW
N
116.4 31.5 M
116.4 35.84 L
S
GR
GS
0.149 GC
2 setlinecap
1 LJ
0.5 LW
N
159.8 31.5 M
159.8 35.84 L
S
GR
GS
0.149 GC
2 setlinecap
1 LJ
0.5 LW
N
203.2 31.5 M
203.2 35.84 L
S
GR
GS
0.149 GC
2 setlinecap
1 LJ
0.5 LW
N
246.6 31.5 M
246.6 35.84 L
S
GR
GS
0.149 GC
2 setlinecap
1 LJ
0.5 LW
N
290 31.5 M
290 35.84 L
S
GR
GS
0.149 GC
2 setlinecap
1 LJ
0.5 LW
N
333.4 31.5 M
333.4 35.84 L
S
GR
GS
0.149 GC
2 setlinecap
1 LJ
0.5 LW
N
376.8 31.5 M
376.8 35.84 L
S
GR
GS
0.149 GC
2 setlinecap
1 LJ
0.5 LW
N
420.2 31.5 M
420.2 35.84 L
S
GR
GS
0.149 GC
2 setlinecap
1 LJ
0.5 LW
N
463.6 31.5 M
463.6 35.84 L
S
GR
GS
0.149 GC
2 setlinecap
1 LJ
0.5 LW
N
507 31.5 M
507 35.84 L
S
GR
GS
[1 0 0 1 73 378] CT
0.149 GC
/Helvetica 10 F
GS
[1 0 0 1 0 0] CT
-3 10 moveto 
1 -1 scale
(0) t 
GR
GR
GS
[1 0 0 1 116.4 378] CT
0.149 GC
/Helvetica 10 F
GS
[1 0 0 1 0 0] CT
-6 10 moveto 
1 -1 scale
(10) t 
GR
GR
GS
[1 0 0 1 159.8 378] CT
0.149 GC
/Helvetica 10 F
GS
[1 0 0 1 0 0] CT
-6 10 moveto 
1 -1 scale
(20) t 
GR
GR
GS
[1 0 0 1 203.2 378] CT
0.149 GC
/Helvetica 10 F
GS
[1 0 0 1 0 0] CT
-6 10 moveto 
1 -1 scale
(30) t 
GR
GR
GS
[1 0 0 1 246.60001 378] CT
0.149 GC
/Helvetica 10 F
GS
[1 0 0 1 0 0] CT
-6 10 moveto 
1 -1 scale
(40) t 
GR
GR
GS
[1 0 0 1 290 378] CT
0.149 GC
/Helvetica 10 F
GS
[1 0 0 1 0 0] CT
-6 10 moveto 
1 -1 scale
(50) t 
GR
GR
GS
[1 0 0 1 333.39999 378] CT
0.149 GC
/Helvetica 10 F
GS
[1 0 0 1 0 0] CT
-6 10 moveto 
1 -1 scale
(60) t 
GR
GR
GS
[1 0 0 1 376.79999 378] CT
0.149 GC
/Helvetica 10 F
GS
[1 0 0 1 0 0] CT
-6 10 moveto 
1 -1 scale
(70) t 
GR
GR
GS
[1 0 0 1 420.20001 378] CT
0.149 GC
/Helvetica 10 F
GS
[1 0 0 1 0 0] CT
-6 10 moveto 
1 -1 scale
(80) t 
GR
GR
GS
[1 0 0 1 463.60001 378] CT
0.149 GC
/Helvetica 10 F
GS
[1 0 0 1 0 0] CT
-6 10 moveto 
1 -1 scale
(90) t 
GR
GR
GS
[1 0 0 1 507 378] CT
0.149 GC
/Helvetica 10 F
GS
[1 0 0 1 0 0] CT
-8.5 10 moveto 
1 -1 scale
(100) t 
GR
GR
GS
[1 0 0 1 290.00021 391.5] CT
0.149 GC
/Helvetica 11 F
GS
[1 0 0 1 0 0] CT
-42 11 moveto 
1 -1 scale
(Number of terms) t 
GR
GR
GS
0.149 GC
2 setlinecap
1 LJ
0.5 LW
N
73 374 M
73 31.5 L
S
GR
GS
0.149 GC
2 setlinecap
1 LJ
0.5 LW
N
507 374 M
507 31.5 L
S
GR
GS
0.149 GC
2 setlinecap
1 LJ
0.5 LW
N
73 374 M
77.34 374 L
S
GR
GS
0.149 GC
2 setlinecap
1 LJ
0.5 LW
N
73 316.917 M
77.34 316.917 L
S
GR
GS
0.149 GC
2 setlinecap
1 LJ
0.5 LW
N
73 259.833 M
77.34 259.833 L
S
GR
GS
0.149 GC
2 setlinecap
1 LJ
0.5 LW
N
73 202.75 M
77.34 202.75 L
S
GR
GS
0.149 GC
2 setlinecap
1 LJ
0.5 LW
N
73 145.667 M
77.34 145.667 L
S
GR
GS
0.149 GC
2 setlinecap
1 LJ
0.5 LW
N
73 88.583 M
77.34 88.583 L
S
GR
GS
0.149 GC
2 setlinecap
1 LJ
0.5 LW
N
73 31.5 M
77.34 31.5 L
S
GR
GS
0.149 GC
2 setlinecap
1 LJ
0.5 LW
N
507 374 M
502.66 374 L
S
GR
GS
0.149 GC
2 setlinecap
1 LJ
0.5 LW
N
507 316.917 M
502.66 316.917 L
S
GR
GS
0.149 GC
2 setlinecap
1 LJ
0.5 LW
N
507 259.833 M
502.66 259.833 L
S
GR
GS
0.149 GC
2 setlinecap
1 LJ
0.5 LW
N
507 202.75 M
502.66 202.75 L
S
GR
GS
0.149 GC
2 setlinecap
1 LJ
0.5 LW
N
507 145.667 M
502.66 145.667 L
S
GR
GS
0.149 GC
2 setlinecap
1 LJ
0.5 LW
N
507 88.583 M
502.66 88.583 L
S
GR
GS
0.149 GC
2 setlinecap
1 LJ
0.5 LW
N
507 31.5 M
502.66 31.5 L
S
GR
GS
[1 0 0 1 69 374] CT
0.149 GC
/Helvetica 10 F
GS
[1 0 0 1 0 0] CT
-18 3.5 moveto 
1 -1 scale
(-0.4) t 
GR
GR
GS
[1 0 0 1 69 316.91666] CT
0.149 GC
/Helvetica 10 F
GS
[1 0 0 1 0 0] CT
-18 3.5 moveto 
1 -1 scale
(-0.2) t 
GR
GR
GS
[1 0 0 1 69 259.83334] CT
0.149 GC
/Helvetica 10 F
GS
[1 0 0 1 0 0] CT
-6 3.5 moveto 
1 -1 scale
(0) t 
GR
GR
GS
[1 0 0 1 69 202.75] CT
0.149 GC
/Helvetica 10 F
GS
[1 0 0 1 0 0] CT
-14 3.5 moveto 
1 -1 scale
(0.2) t 
GR
GR
GS
[1 0 0 1 69 145.66667] CT
0.149 GC
/Helvetica 10 F
GS
[1 0 0 1 0 0] CT
-14 3.5 moveto 
1 -1 scale
(0.4) t 
GR
GR
GS
[1 0 0 1 69 88.58333] CT
0.149 GC
/Helvetica 10 F
GS
[1 0 0 1 0 0] CT
-14 3.5 moveto 
1 -1 scale
(0.6) t 
GR
GR
GS
[1 0 0 1 69 31.5] CT
0.149 GC
/Helvetica 10 F
GS
[1 0 0 1 0 0] CT
-14 3.5 moveto 
1 -1 scale
(0.8) t 
GR
GR
GS
[0 -1 1 0 48 202.74983] CT
0.149 GC
/Helvetica 11 F
GS
[1 0 0 1 0 0] CT
-65 -3 moveto 
1 -1 scale
(Difference between norms) t 
GR
GR
GS
[1 0 0 1 290.00027 30.12499] CT
/Helvetica-Bold 11 F
GS
[1 0 0 1 0 0] CT
-191 -3 moveto 
1 -1 scale
(Difference of the norm of the residual between ASVD and ALS with CPTT) t 
GR
GR
GS
1 0 0 RC
1 LJ
0.5 LW
N
77.34 259.833 M
81.68 195.539 L
86.02 131.319 L
90.36 166.355 L
94.7 160.491 L
99.04 156.366 L
103.38 152.079 L
107.72 147.618 L
112.06 230.019 L
116.4 226.422 L
120.74 228.569 L
125.08 229.182 L
129.42 225.952 L
133.76 221.853 L
138.1 233.092 L
142.44 232.223 L
146.78 233.856 L
S
GR
GS
1 0 0 RC
[1 3] 0 setdash
2 LJ
0.5 LW
N
146.78 233.856 M
151.12 233.031 L
155.46 231.204 L
159.8 228.808 L
164.14 227.434 L
168.48 225.556 L
172.82 224.124 L
177.16 222.548 L
181.5 221.223 L
185.84 219.401 L
190.18 217.54 L
194.52 217.741 L
198.86 216.305 L
203.2 218.457 L
207.54 220.631 L
211.88 227.984 L
216.22 228.046 L
220.56 227.142 L
224.9 227.053 L
229.24 225.61 L
233.58 224.988 L
237.92 226.861 L
242.26 227.139 L
246.6 225.62 L
250.94 224.297 L
255.28 223.174 L
259.62 222.999 L
263.96 223.369 L
268.3 222.383 L
272.64 221.164 L
276.98 220.095 L
281.32 218.77 L
285.66 218.17 L
290 218.963 L
294.34 217.874 L
298.68 217.077 L
303.02 216.156 L
307.36 215.816 L
311.7 215.467 L
316.04 214.637 L
320.38 213.441 L
324.72 218.733 L
329.06 218.791 L
333.4 218.074 L
337.74 218.395 L
342.08 220.953 L
346.42 220.323 L
350.76 220.446 L
355.1 220.962 L
359.44 220.265 L
363.78 219.598 L
368.12 218.811 L
372.46 218.384 L
376.8 226.141 L
381.14 234.396 L
385.48 233.964 L
389.82 233.102 L
394.16 233.602 L
398.5 233.28 L
402.84 233.151 L
407.18 232.476 L
411.52 232.806 L
415.86 233.597 L
420.2 235.088 L
424.54 235.001 L
428.88 236.002 L
433.22 235.913 L
437.56 235.31 L
441.9 234.827 L
446.24 234.323 L
450.58 234.002 L
454.92 233.519 L
459.26 233.917 L
463.6 233.496 L
467.94 233.677 L
472.28 233.438 L
476.62 236.726 L
480.96 251.782 L
485.3 255.578 L
489.64 256.878 L
493.98 256.929 L
498.32 256.719 L
502.66 256.661 L
507 257.255 L
S
GR
GS
1 0 0 RC
1 LJ
0.5 LW
N
77.34 259.833 M
81.68 208.832 L
86.02 232.3 L
90.36 206.673 L
94.7 198.229 L
99.04 216.129 L
103.38 214.444 L
107.72 209.604 L
112.06 201.687 L
116.4 203.012 L
120.74 203.584 L
125.08 199.478 L
129.42 205.796 L
133.76 203.863 L
138.1 200.37 L
142.44 228.853 L
146.78 225.878 L
151.12 232.045 L
155.46 228.863 L
159.8 226.571 L
164.14 224.788 L
168.48 222.017 L
172.82 223.266 L
177.16 220.259 L
181.5 218.368 L
185.84 214.941 L
190.18 216.194 L
194.52 213.771 L
198.86 215.391 L
203.2 213.699 L
207.54 211.961 L
211.88 212.592 L
216.22 211.301 L
220.56 209.386 L
224.9 207.95 L
229.24 208.976 L
233.58 208.168 L
237.92 206.735 L
242.26 205.723 L
246.6 204.817 L
250.94 202.735 L
255.28 204.216 L
259.62 203.394 L
263.96 202.861 L
268.3 203.877 L
272.64 202.551 L
276.98 213.49 L
281.32 212.506 L
285.66 217.473 L
290 217.109 L
294.34 220.052 L
298.68 223.078 L
303.02 225.627 L
307.36 225.966 L
311.7 225.269 L
316.04 224.451 L
320.38 223.118 L
324.72 229.04 L
329.06 227.965 L
333.4 227.245 L
337.74 226.671 L
342.08 226.732 L
346.42 225.499 L
350.76 224.812 L
355.1 224.77 L
359.44 224.105 L
363.78 223.558 L
368.12 222.267 L
372.46 221.368 L
376.8 220.905 L
381.14 220.824 L
385.48 221.519 L
389.82 221.958 L
394.16 224.976 L
398.5 229.083 L
402.84 228.426 L
407.18 227.516 L
411.52 226.847 L
415.86 227.073 L
420.2 228.638 L
424.54 228.246 L
428.88 235.518 L
433.22 235.481 L
437.56 234.932 L
441.9 234.198 L
446.24 237.074 L
450.58 238.442 L
454.92 238.178 L
459.26 237.805 L
463.6 237.497 L
467.94 237.125 L
472.28 236.933 L
476.62 236.441 L
480.96 236.41 L
485.3 241.992 L
489.64 241.991 L
493.98 242.142 L
498.32 242.1 L
502.66 244.361 L
507 244.442 L
S
GR
GS
1 0 0 RC
1 LJ
0.5 LW
N
77.34 259.833 M
81.68 242.16 L
86.02 256.856 L
90.36 246.46 L
94.7 231.825 L
99.04 233.215 L
103.38 237.591 L
107.72 228.814 L
112.06 218.743 L
116.4 216.868 L
120.74 212.035 L
125.08 216.591 L
129.42 211.725 L
133.76 207.835 L
138.1 202.189 L
142.44 199.197 L
146.78 195.702 L
151.12 190.86 L
155.46 187.744 L
159.8 187.744 L
164.14 184.963 L
168.48 181.459 L
172.82 178.526 L
177.16 178.504 L
181.5 187.285 L
185.84 188.722 L
190.18 185.987 L
194.52 187.116 L
198.86 186.372 L
203.2 183.972 L
S
GR
GS
1 0 0 RC
[1 3] 0 setdash
2 LJ
0.5 LW
N
203.2 183.972 M
207.54 182.221 L
211.88 186.153 L
216.22 186.439 L
220.56 186.041 L
224.9 184.307 L
229.24 182.14 L
233.58 181.666 L
237.92 186.361 L
242.26 184.948 L
246.6 182.384 L
250.94 180.69 L
255.28 182.174 L
259.62 183.887 L
263.96 182.344 L
268.3 181.447 L
272.64 179.427 L
276.98 178.691 L
281.32 177.544 L
285.66 177.355 L
290 176.391 L
294.34 175.15 L
298.68 174.243 L
303.02 175.14 L
307.36 194.962 L
311.7 194.388 L
316.04 193.638 L
320.38 194 L
324.72 193.062 L
329.06 192.294 L
333.4 191.682 L
337.74 195.191 L
342.08 195.264 L
346.42 195.761 L
350.76 195.765 L
355.1 195.768 L
359.44 196.055 L
363.78 196.57 L
368.12 196.883 L
372.46 197.174 L
376.8 198.119 L
381.14 199.858 L
385.48 199.858 L
389.82 199.858 L
394.16 199.882 L
398.5 199.889 L
402.84 200.938 L
407.18 200.945 L
411.52 201.368 L
415.86 201.59 L
420.2 256.29 L
424.54 257.043 L
428.88 257.681 L
433.22 258.506 L
437.56 262.974 L
441.9 263.112 L
446.24 263.299 L
450.58 263.937 L
454.92 265.023 L
459.26 265.517 L
463.6 265.52 L
467.94 265.713 L
472.28 265.956 L
476.62 270.822 L
480.96 273.118 L
485.3 273.413 L
489.64 280.784 L
493.98 281.236 L
498.32 281.254 L
502.66 281.435 L
507 282.301 L
S
GR
GS
1 0 0 RC
1 LJ
0.5 LW
N
77.34 259.833 M
81.68 220.415 L
86.02 204.291 L
90.36 212.99 L
94.7 205.272 L
99.04 199.001 L
103.38 196.366 L
107.72 194.011 L
112.06 190.51 L
116.4 189.562 L
120.74 182.619 L
125.08 234.591 L
129.42 231.948 L
133.76 227.702 L
138.1 225.81 L
142.44 223.676 L
146.78 223.516 L
151.12 221.204 L
155.46 219.462 L
159.8 219.311 L
164.14 217.298 L
168.48 220.958 L
172.82 218.657 L
177.16 215.59 L
181.5 211.848 L
185.84 209.748 L
190.18 209.064 L
194.52 208.495 L
198.86 206.717 L
203.2 208.461 L
207.54 222.788 L
211.88 220.54 L
216.22 219.632 L
220.56 220.475 L
224.9 218.7 L
229.24 217.609 L
233.58 217.272 L
237.92 215.424 L
242.26 213.58 L
S
GR
GS
1 0 0 RC
[1 3] 0 setdash
2 LJ
0.5 LW
N
242.26 213.58 M
246.6 211.758 L
250.94 210.243 L
255.28 208.611 L
259.62 206.619 L
263.96 208.512 L
268.3 206.42 L
272.64 204.683 L
276.98 208.104 L
281.32 206.871 L
285.66 205.226 L
290 203.638 L
294.34 201.765 L
298.68 201.362 L
303.02 201.418 L
307.36 199.626 L
311.7 197.839 L
316.04 196.431 L
320.38 196.008 L
324.72 201.245 L
329.06 199.803 L
333.4 198.739 L
337.74 199.933 L
342.08 198.725 L
346.42 202.114 L
350.76 207.8 L
355.1 206.165 L
359.44 205.762 L
363.78 206.38 L
368.12 205.477 L
372.46 204.432 L
376.8 203.255 L
381.14 203.354 L
385.48 202.436 L
389.82 207.388 L
394.16 206.771 L
398.5 205.716 L
402.84 213.304 L
407.18 212.296 L
411.52 211.736 L
415.86 211.3 L
420.2 221.966 L
424.54 221.158 L
428.88 220.335 L
433.22 219.803 L
437.56 223.495 L
441.9 228.33 L
446.24 228.365 L
450.58 228.367 L
454.92 229.116 L
459.26 229.707 L
463.6 231.058 L
467.94 231.861 L
472.28 231.891 L
476.62 231.891 L
480.96 232.332 L
485.3 232.36 L
489.64 248.834 L
493.98 248.834 L
498.32 248.86 L
502.66 249.602 L
507 257.618 L
S
GR
GS
1 0 0 RC
1 LJ
0.5 LW
N
77.34 259.833 M
81.68 229.819 L
86.02 221.886 L
90.36 212.594 L
94.7 201.783 L
99.04 194.444 L
103.38 186.253 L
107.72 180.548 L
112.06 175.126 L
116.4 169.766 L
120.74 163.389 L
125.08 157.544 L
129.42 151.638 L
133.76 154.339 L
138.1 152.236 L
142.44 153.072 L
146.78 148.536 L
151.12 178.926 L
155.46 175.027 L
159.8 176.854 L
164.14 175.852 L
168.48 172.085 L
172.82 170.321 L
177.16 167.771 L
181.5 176.474 L
185.84 176.903 L
190.18 186.417 L
194.52 188.768 L
198.86 189.615 L
203.2 188.639 L
207.54 185.746 L
211.88 183.524 L
216.22 181.358 L
220.56 191.126 L
224.9 192.963 L
229.24 191.492 L
233.58 190.895 L
237.92 189.252 L
242.26 186.162 L
246.6 189.565 L
250.94 187.41 L
255.28 186.04 L
259.62 183.395 L
263.96 181.852 L
268.3 179.685 L
272.64 181.508 L
276.98 179.894 L
281.32 177.757 L
285.66 185.855 L
290 183.441 L
294.34 183.588 L
298.68 185.026 L
303.02 184.158 L
307.36 199.213 L
311.7 196.848 L
316.04 206.307 L
320.38 205.095 L
324.72 205.834 L
329.06 204.589 L
333.4 205.564 L
337.74 204.146 L
342.08 217.339 L
346.42 220.737 L
350.76 219.25 L
355.1 218.51 L
359.44 219.292 L
363.78 218.874 L
368.12 217.739 L
372.46 216.211 L
376.8 215.459 L
381.14 217.804 L
385.48 219.577 L
389.82 219.214 L
394.16 219.173 L
398.5 218.155 L
402.84 217.331 L
407.18 216.412 L
411.52 215.455 L
415.86 214.868 L
420.2 213.855 L
424.54 213.94 L
428.88 213.12 L
433.22 212.246 L
437.56 222.858 L
441.9 226.062 L
446.24 224.948 L
450.58 227.374 L
454.92 228.067 L
459.26 228.799 L
463.6 228.566 L
S
GR
GS
1 0 0 RC
[1 3] 0 setdash
2 LJ
0.5 LW
N
463.6 228.566 M
467.94 227.817 L
472.28 229.507 L
476.62 230.65 L
480.96 230.323 L
485.3 230.848 L
489.64 230.288 L
493.98 245.223 L
498.32 248.297 L
502.66 249.258 L
507 255.041 L
S
GR
GS
1 0 0 RC
1 LJ
0.5 LW
N
77.34 259.833 M
81.68 259.833 L
86.02 225.847 L
90.36 198.488 L
94.7 193.504 L
99.04 250.656 L
103.38 250.316 L
107.72 244.569 L
112.06 238.831 L
116.4 238.948 L
120.74 234.217 L
125.08 229.94 L
129.42 225.334 L
133.76 224.204 L
138.1 229.741 L
142.44 226.953 L
146.78 225.691 L
151.12 225.896 L
155.46 224.126 L
159.8 221.636 L
164.14 227.613 L
168.48 227.397 L
172.82 227.147 L
177.16 225.402 L
181.5 224.076 L
185.84 222.571 L
190.18 221.322 L
194.52 220.519 L
198.86 219.542 L
203.2 219.436 L
207.54 217.873 L
211.88 217.366 L
216.22 215.87 L
220.56 215.209 L
224.9 215.708 L
229.24 214.817 L
233.58 213.717 L
237.92 212.224 L
242.26 218.841 L
246.6 217.88 L
250.94 217.196 L
255.28 221.667 L
259.62 221.083 L
263.96 221.03 L
268.3 220.361 L
272.64 219.745 L
276.98 219.166 L
281.32 219.611 L
285.66 218.535 L
290 217.654 L
294.34 216.836 L
298.68 219.76 L
303.02 219.154 L
307.36 218.439 L
311.7 217.231 L
316.04 217.778 L
320.38 217.207 L
324.72 216.431 L
329.06 217.895 L
333.4 217.838 L
337.74 216.882 L
342.08 220.66 L
346.42 222.645 L
350.76 222.559 L
355.1 221.679 L
359.44 220.827 L
363.78 220.164 L
368.12 219.536 L
372.46 230.223 L
376.8 230.259 L
381.14 229.46 L
385.48 228.646 L
389.82 230.657 L
394.16 230.142 L
398.5 229.401 L
402.84 228.913 L
407.18 228.263 L
411.52 227.809 L
415.86 227.548 L
420.2 228.022 L
424.54 227.437 L
428.88 227.119 L
433.22 242.906 L
437.56 242.591 L
441.9 242.297 L
446.24 242.748 L
450.58 243.428 L
454.92 243.262 L
459.26 245.141 L
463.6 245.59 L
467.94 247.035 L
472.28 247.134 L
476.62 246.863 L
480.96 247.472 L
485.3 248.552 L
489.64 248.33 L
493.98 249.101 L
498.32 252.014 L
502.66 258.185 L
507 258.243 L
S
GR
GS
1 0 0 RC
1 LJ
0.5 LW
N
77.34 259.833 M
81.68 231.997 L
86.02 193.569 L
90.36 164.155 L
94.7 164.927 L
99.04 153.009 L
103.38 157.04 L
107.72 150.439 L
112.06 144.82 L
116.4 138.075 L
120.74 135.199 L
125.08 132.146 L
129.42 132.723 L
133.76 132.031 L
138.1 224.421 L
142.44 223.669 L
146.78 220.486 L
151.12 218.684 L
155.46 215.518 L
159.8 213.534 L
164.14 211.065 L
168.48 210.056 L
172.82 208.759 L
177.16 206.342 L
181.5 204.444 L
185.84 203.678 L
190.18 201.79 L
194.52 217.035 L
198.86 217.512 L
203.2 216.195 L
207.54 214.674 L
211.88 213.548 L
216.22 212.194 L
220.56 214.567 L
224.9 213.599 L
229.24 213.061 L
233.58 212.793 L
237.92 213.621 L
242.26 212.992 L
246.6 212.383 L
250.94 212.451 L
255.28 211.763 L
259.62 211.364 L
263.96 213.807 L
268.3 213.371 L
272.64 213.252 L
276.98 212.691 L
281.32 211.856 L
285.66 211.261 L
290 210.831 L
294.34 210.408 L
298.68 213.688 L
303.02 236.218 L
307.36 236.043 L
311.7 235.426 L
316.04 235.807 L
320.38 237.479 L
324.72 237.456 L
329.06 236.918 L
333.4 236.853 L
337.74 236.327 L
342.08 236.019 L
346.42 235.702 L
350.76 235.554 L
355.1 235.042 L
359.44 234.954 L
363.78 234.614 L
368.12 234.196 L
372.46 234.133 L
376.8 233.702 L
381.14 233.696 L
385.48 233.27 L
S
GR
GS
1 0 0 RC
[1 3] 0 setdash
2 LJ
0.5 LW
N
385.48 233.27 M
389.82 232.732 L
394.16 232.205 L
398.5 231.883 L
402.84 231.493 L
407.18 230.835 L
411.52 230.59 L
415.86 242.259 L
420.2 241.71 L
424.54 242.637 L
428.88 242.931 L
433.22 242.952 L
437.56 243.183 L
441.9 243.339 L
446.24 247.927 L
450.58 248.188 L
454.92 248.196 L
459.26 248.218 L
463.6 248.235 L
467.94 248.426 L
472.28 248.637 L
476.62 248.642 L
480.96 248.642 L
485.3 249.268 L
489.64 250.451 L
493.98 253.985 L
498.32 253.995 L
502.66 259.562 L
507 259.562 L
S
GR
GS
1 0 0 RC
1 LJ
0.5 LW
N
77.34 259.833 M
81.68 248.51 L
86.02 239.85 L
90.36 258.433 L
94.7 246.382 L
99.04 236.983 L
103.38 231.357 L
107.72 223.937 L
112.06 226.08 L
116.4 220.988 L
120.74 215.49 L
125.08 213.18 L
129.42 208.728 L
133.76 205.124 L
138.1 200.39 L
142.44 196.746 L
146.78 191.917 L
151.12 188.433 L
155.46 185.306 L
159.8 179.995 L
164.14 181.108 L
168.48 176.877 L
172.82 177.289 L
177.16 173.998 L
181.5 171.953 L
185.84 179.333 L
190.18 176.648 L
194.52 173.912 L
198.86 171.903 L
203.2 177.984 L
207.54 177.131 L
211.88 175.875 L
216.22 173.34 L
220.56 169.945 L
224.9 173.073 L
229.24 177.172 L
233.58 183.326 L
237.92 181.452 L
242.26 179.199 L
246.6 182.401 L
250.94 181.217 L
255.28 190.875 L
259.62 187.987 L
263.96 186.276 L
268.3 183.872 L
272.64 182.335 L
276.98 185.66 L
281.32 189.515 L
285.66 189.884 L
290 188.934 L
294.34 187.722 L
298.68 186.105 L
303.02 185.605 L
307.36 184.872 L
311.7 216.767 L
316.04 215.978 L
320.38 214.939 L
324.72 218.129 L
329.06 216.602 L
333.4 215.706 L
337.74 215.957 L
342.08 215.093 L
346.42 219.814 L
350.76 222.6 L
355.1 226.387 L
359.44 225.376 L
363.78 224.418 L
368.12 224.663 L
372.46 223.915 L
376.8 222.521 L
381.14 228.513 L
385.48 228.12 L
389.82 227.458 L
394.16 226.366 L
398.5 225.397 L
402.84 228.125 L
407.18 228.689 L
411.52 227.916 L
415.86 227.279 L
420.2 227.909 L
424.54 230.752 L
428.88 230.439 L
433.22 230.851 L
437.56 230.557 L
441.9 232.56 L
446.24 233.997 L
450.58 235.061 L
454.92 234.685 L
459.26 235.59 L
463.6 235.115 L
467.94 234.699 L
472.28 235.251 L
476.62 237.457 L
480.96 240.9 L
485.3 240.706 L
489.64 242.558 L
493.98 258.567 L
498.32 258.428 L
502.66 258.674 L
507 258.47 L
S
GR
GS
1 0 0 RC
1 LJ
0.5 LW
N
77.34 259.833 M
81.68 128.219 L
86.02 107.012 L
90.36 99.782 L
94.7 95.389 L
99.04 91.079 L
103.38 86.344 L
107.72 80.571 L
112.06 75.891 L
116.4 70.98 L
120.74 67.775 L
125.08 65.482 L
129.42 60.95 L
133.76 58.435 L
138.1 55.893 L
142.44 220.777 L
146.78 219.114 L
151.12 216.513 L
155.46 214.422 L
159.8 213.531 L
164.14 213.033 L
168.48 212.107 L
172.82 212.583 L
177.16 211.65 L
181.5 210.835 L
185.84 215.464 L
190.18 214.347 L
194.52 213.398 L
198.86 212.726 L
203.2 211.535 L
207.54 212.68 L
211.88 211.661 L
216.22 221.814 L
220.56 221.59 L
224.9 220.879 L
229.24 225.549 L
233.58 229.892 L
237.92 229.597 L
242.26 228.851 L
246.6 228.805 L
250.94 228.114 L
255.28 227.514 L
259.62 226.823 L
263.96 227.077 L
268.3 227.499 L
272.64 227.232 L
276.98 226.6 L
281.32 226.982 L
285.66 229.144 L
290 228.438 L
294.34 227.906 L
298.68 227.399 L
303.02 230.081 L
307.36 229.658 L
311.7 229.185 L
316.04 228.553 L
320.38 228.683 L
324.72 228.294 L
329.06 230.194 L
333.4 230.926 L
337.74 230.522 L
342.08 230.352 L
346.42 229.884 L
350.76 229.335 L
355.1 228.907 L
359.44 228.146 L
363.78 234.601 L
368.12 234.327 L
372.46 234.04 L
376.8 233.903 L
381.14 248.57 L
385.48 248.014 L
389.82 247.68 L
394.16 247.8 L
398.5 247.173 L
402.84 246.885 L
407.18 246.739 L
411.52 247.501 L
415.86 247.169 L
420.2 247.912 L
424.54 247.698 L
428.88 247.749 L
433.22 249.925 L
437.56 249.66 L
441.9 250.635 L
446.24 251.061 L
450.58 250.843 L
454.92 250.592 L
459.26 251.687 L
463.6 251.89 L
467.94 253.382 L
472.28 253.143 L
476.62 253.529 L
480.96 254.113 L
485.3 254.115 L
489.64 253.968 L
493.98 254.101 L
498.32 253.922 L
502.66 258.101 L
S
GR
GS
1 0 0 RC
[1 3] 0 setdash
2 LJ
0.5 LW
N
502.66 258.101 M
507 258.393 L
S
GR
GS
1 0 0 RC
1 LJ
0.5 LW
N
77.34 259.833 M
81.68 241.231 L
86.02 240.068 L
90.36 238.46 L
94.7 235.467 L
99.04 229.376 L
103.38 221.806 L
107.72 221.722 L
112.06 216.907 L
116.4 213.7 L
120.74 203.986 L
125.08 197.846 L
129.42 201.048 L
133.76 196.982 L
138.1 193.504 L
142.44 191.268 L
146.78 192.848 L
151.12 187.487 L
155.46 183.262 L
159.8 183.311 L
164.14 183.861 L
168.48 182.202 L
172.82 191.734 L
177.16 188.729 L
181.5 183.841 L
185.84 179.929 L
190.18 176.954 L
194.52 175.532 L
198.86 173.7 L
203.2 171.523 L
207.54 170.665 L
211.88 167.683 L
216.22 166.163 L
220.56 198.863 L
224.9 204.88 L
229.24 208.113 L
233.58 210.997 L
237.92 207.94 L
242.26 209.161 L
246.6 207.646 L
250.94 206.286 L
255.28 204.797 L
259.62 203.722 L
263.96 202.9 L
268.3 200.898 L
272.64 202.159 L
S
GR
GS
1 0 0 RC
[1 3] 0 setdash
2 LJ
0.5 LW
N
272.64 202.159 M
276.98 202.1 L
281.32 201.404 L
285.66 200.536 L
290 206.277 L
294.34 206.526 L
298.68 205.155 L
303.02 204.666 L
307.36 203.259 L
311.7 203.887 L
316.04 203.746 L
320.38 203.457 L
324.72 204.795 L
329.06 206.97 L
333.4 205.735 L
337.74 204.822 L
342.08 205.05 L
346.42 205.446 L
350.76 207.453 L
355.1 207.479 L
359.44 213.702 L
363.78 214.023 L
368.12 215.706 L
372.46 217 L
376.8 217.006 L
381.14 217.043 L
385.48 218.65 L
389.82 218.952 L
394.16 219.049 L
398.5 219.881 L
402.84 220.088 L
407.18 234.651 L
411.52 234.674 L
415.86 234.981 L
420.2 235.912 L
424.54 235.963 L
428.88 236.67 L
433.22 237.21 L
437.56 237.211 L
441.9 266.423 L
446.24 268.241 L
450.58 268.283 L
454.92 269.621 L
459.26 270.073 L
463.6 270.073 L
467.94 273.412 L
472.28 273.582 L
476.62 275.671 L
480.96 276.098 L
485.3 276.388 L
489.64 276.697 L
493.98 282.217 L
498.32 282.218 L
502.66 284.6 L
507 286.725 L
S
GR
GS
1 0 0 RC
1 LJ
0.5 LW
N
77.34 259.833 M
81.68 219.551 L
86.02 205.967 L
90.36 201.615 L
94.7 188.957 L
99.04 185.274 L
103.38 171.877 L
107.72 162.063 L
112.06 151.811 L
116.4 188.959 L
S
GR
GS
1 0 0 RC
[1 3] 0 setdash
2 LJ
0.5 LW
N
116.4 188.959 M
120.74 183.728 L
125.08 182.574 L
129.42 179.054 L
133.76 180.057 L
138.1 178.156 L
142.44 175.536 L
146.78 180.554 L
151.12 177.528 L
155.46 174.557 L
159.8 173.152 L
164.14 170.354 L
168.48 182.32 L
172.82 182.616 L
177.16 180.946 L
181.5 179.858 L
185.84 177.299 L
190.18 175.65 L
194.52 194.658 L
198.86 217.059 L
203.2 214.988 L
207.54 215.347 L
211.88 215.119 L
216.22 213.01 L
220.56 211.365 L
224.9 210.468 L
229.24 215.961 L
233.58 213.794 L
237.92 215.886 L
242.26 214.668 L
246.6 213.152 L
250.94 216.048 L
255.28 215.432 L
259.62 214.024 L
263.96 213.633 L
268.3 213.871 L
272.64 216.439 L
276.98 217.733 L
281.32 216.308 L
285.66 215.888 L
290 215 L
294.34 214.028 L
298.68 215.272 L
303.02 214.305 L
307.36 214.66 L
311.7 213.096 L
316.04 211.876 L
320.38 210.716 L
324.72 211.456 L
329.06 209.686 L
333.4 209.142 L
337.74 233.44 L
342.08 233.499 L
346.42 233.72 L
350.76 234.565 L
355.1 234.117 L
359.44 233.591 L
363.78 233.007 L
368.12 232.407 L
372.46 232.554 L
376.8 232.144 L
381.14 237.054 L
385.48 240.221 L
389.82 239.962 L
394.16 239.424 L
398.5 243.454 L
402.84 247.93 L
407.18 248.099 L
411.52 248.489 L
415.86 248.918 L
420.2 249.034 L
424.54 249.612 L
428.88 249.831 L
433.22 252.282 L
437.56 259.471 L
441.9 259.494 L
446.24 260.155 L
450.58 261.006 L
454.92 261.896 L
459.26 262.287 L
463.6 262.36 L
467.94 262.366 L
472.28 266.743 L
476.62 266.752 L
480.96 266.849 L
485.3 267.373 L
489.64 267.826 L
493.98 268.044 L
498.32 271.368 L
502.66 271.377 L
507 274.481 L
S
GR
GS
1 0 0 RC
1 LJ
0.5 LW
N
77.34 259.833 M
81.68 246.363 L
86.02 239.361 L
90.36 233.598 L
94.7 245.076 L
99.04 222.984 L
103.38 221.872 L
107.72 221.394 L
112.06 213.579 L
116.4 211.475 L
120.74 214.566 L
125.08 208.5 L
129.42 208.167 L
133.76 202.353 L
138.1 214.226 L
142.44 206.211 L
146.78 201.489 L
151.12 199.899 L
155.46 204.604 L
159.8 202.726 L
164.14 199.051 L
168.48 198.842 L
172.82 196.479 L
177.16 194.072 L
181.5 192.486 L
185.84 190.014 L
190.18 193.295 L
194.52 190.388 L
198.86 189.123 L
203.2 187.973 L
207.54 220.955 L
211.88 219.278 L
216.22 217.159 L
220.56 214.686 L
224.9 213.641 L
229.24 214.064 L
233.58 212.151 L
237.92 211.242 L
242.26 212.739 L
246.6 211.69 L
250.94 221.317 L
255.28 220.226 L
259.62 219.856 L
263.96 220.569 L
268.3 219.107 L
272.64 219.078 L
276.98 222.311 L
281.32 220.487 L
285.66 220.26 L
290 219.207 L
294.34 219.479 L
298.68 220.646 L
303.02 222.276 L
307.36 220.987 L
311.7 219.389 L
316.04 218.623 L
320.38 217.447 L
324.72 229.986 L
329.06 228.47 L
333.4 229.578 L
337.74 234.97 L
342.08 235.11 L
346.42 234.527 L
350.76 233.163 L
355.1 235.256 L
359.44 235.665 L
363.78 235.45 L
368.12 234.342 L
372.46 233.929 L
376.8 233.109 L
381.14 232.282 L
385.48 232.202 L
389.82 241.332 L
394.16 242.991 L
398.5 245.855 L
402.84 245.236 L
407.18 245.153 L
411.52 244.282 L
415.86 243.397 L
420.2 242.592 L
424.54 241.933 L
428.88 242.166 L
433.22 244.947 L
437.56 246.224 L
441.9 245.777 L
446.24 245.316 L
450.58 245.514 L
454.92 246.995 L
459.26 246.508 L
463.6 246.218 L
467.94 246.872 L
472.28 250.459 L
476.62 250.465 L
480.96 256.052 L
485.3 258.351 L
489.64 258.805 L
493.98 259.523 L
498.32 263.386 L
S
GR
GS
1 0 0 RC
[1 3] 0 setdash
2 LJ
0.5 LW
N
498.32 263.386 M
502.66 265.107 L
507 265.189 L
S
GR
GS
1 0 0 RC
1 LJ
0.5 LW
N
77.34 259.833 M
81.68 257.312 L
86.02 242.89 L
90.36 241.958 L
94.7 227.293 L
99.04 219.36 L
103.38 209.473 L
107.72 201.876 L
112.06 194.137 L
116.4 190.209 L
120.74 184.893 L
125.08 183.344 L
129.42 181.625 L
133.76 179.894 L
138.1 184.775 L
142.44 180.933 L
146.78 178.58 L
151.12 174.968 L
155.46 172.807 L
159.8 168.81 L
164.14 165.912 L
168.48 164.455 L
172.82 168.264 L
177.16 164.873 L
S
GR
GS
1 0 0 RC
[1 3] 0 setdash
2 LJ
0.5 LW
N
177.16 164.873 M
181.5 162.594 L
185.84 158.804 L
190.18 175.467 L
194.52 175.619 L
198.86 174.349 L
203.2 173.026 L
207.54 171.37 L
211.88 170.356 L
216.22 166.675 L
220.56 164.576 L
224.9 165.48 L
229.24 179.942 L
233.58 178.652 L
237.92 177.686 L
242.26 178.147 L
246.6 176.619 L
250.94 175.107 L
255.28 175.809 L
259.62 174.45 L
263.96 173.611 L
268.3 173.06 L
272.64 197.765 L
276.98 197.506 L
281.32 200.636 L
285.66 215.344 L
290 213.748 L
294.34 212.523 L
298.68 211.607 L
303.02 211.018 L
307.36 209.488 L
311.7 207.926 L
316.04 206.031 L
320.38 206.023 L
324.72 206.03 L
329.06 204.407 L
333.4 203.567 L
337.74 202.959 L
342.08 201.746 L
346.42 199.793 L
350.76 207.123 L
355.1 207.989 L
359.44 208.131 L
363.78 209.256 L
368.12 210.038 L
372.46 212.019 L
376.8 212.255 L
381.14 220.463 L
385.48 221.938 L
389.82 222.276 L
394.16 222.479 L
398.5 222.514 L
402.84 225.149 L
407.18 226.238 L
411.52 234.529 L
415.86 235.119 L
420.2 235.241 L
424.54 241.297 L
428.88 241.314 L
433.22 241.471 L
437.56 242.623 L
441.9 246.493 L
446.24 247.461 L
450.58 247.899 L
454.92 248.526 L
459.26 260.3 L
463.6 260.693 L
467.94 261.002 L
472.28 272.665 L
476.62 272.701 L
480.96 272.724 L
485.3 275.69 L
489.64 275.942 L
493.98 278.67 L
498.32 282.632 L
502.66 282.634 L
507 283.407 L
S
GR
GS
1 0 0 RC
1 LJ
0.5 LW
N
77.34 259.833 M
81.68 220.683 L
86.02 204.192 L
90.36 207.36 L
94.7 197.657 L
99.04 189.552 L
103.38 183.839 L
107.72 188.528 L
112.06 229.381 L
116.4 226.412 L
120.74 220.446 L
125.08 219.351 L
129.42 219.891 L
133.76 218.029 L
138.1 214.944 L
142.44 209.843 L
146.78 207.662 L
151.12 205.249 L
155.46 205.46 L
159.8 201.705 L
S
GR
GS
1 0 0 RC
[1 3] 0 setdash
2 LJ
0.5 LW
N
159.8 201.705 M
164.14 200.055 L
168.48 198.591 L
172.82 201.935 L
177.16 201.183 L
181.5 204.649 L
185.84 200.97 L
190.18 201.386 L
194.52 198.652 L
198.86 195.444 L
203.2 204.683 L
207.54 201.166 L
211.88 197.236 L
216.22 211.321 L
220.56 209.15 L
224.9 207.419 L
229.24 209.452 L
233.58 208.999 L
237.92 208.011 L
242.26 206.289 L
246.6 206.484 L
250.94 205.006 L
255.28 203.76 L
259.62 202.966 L
263.96 201.28 L
268.3 210.24 L
272.64 208.654 L
276.98 207.521 L
281.32 206.806 L
285.66 205.391 L
290 213.924 L
294.34 218.774 L
298.68 217.161 L
303.02 216.881 L
307.36 216.216 L
311.7 220.031 L
316.04 219.449 L
320.38 219.764 L
324.72 218.112 L
329.06 217.39 L
333.4 220.801 L
337.74 220.26 L
342.08 219.769 L
346.42 223.146 L
350.76 223.525 L
355.1 222.55 L
359.44 221.506 L
363.78 220.162 L
368.12 218.588 L
372.46 222.947 L
376.8 222.155 L
381.14 223.662 L
385.48 223.366 L
389.82 222.445 L
394.16 221.783 L
398.5 221.492 L
402.84 231.626 L
407.18 231.149 L
411.52 231.181 L
415.86 236.797 L
420.2 239.634 L
424.54 239.984 L
428.88 239.637 L
433.22 239.101 L
437.56 238.706 L
441.9 238.92 L
446.24 238.429 L
450.58 238.031 L
454.92 238.141 L
459.26 239.568 L
463.6 239.143 L
467.94 240.769 L
472.28 240.352 L
476.62 239.799 L
480.96 241.297 L
485.3 242.698 L
489.64 243.336 L
493.98 246.522 L
498.32 246.801 L
502.66 247.947 L
507 258.851 L
S
GR
GS
1 0 0 RC
1 LJ
0.5 LW
N
77.34 259.833 M
81.68 245.592 L
86.02 226.501 L
90.36 211.207 L
94.7 193.345 L
99.04 180.799 L
103.38 183.135 L
107.72 174.859 L
112.06 188.145 L
116.4 180.441 L
120.74 174.6 L
125.08 170.531 L
129.42 177.263 L
133.76 175.147 L
138.1 169.289 L
142.44 165.414 L
146.78 161.17 L
151.12 157.083 L
155.46 151.885 L
159.8 171.408 L
164.14 169.31 L
168.48 167.128 L
172.82 164.349 L
177.16 161.193 L
181.5 158.709 L
185.84 158.373 L
190.18 159.363 L
194.52 163.526 L
198.86 192.683 L
203.2 190.926 L
207.54 192.069 L
211.88 189.767 L
216.22 194.638 L
220.56 193.276 L
224.9 192.005 L
229.24 191.147 L
233.58 194.106 L
237.92 192.63 L
242.26 192.117 L
246.6 190.732 L
250.94 189.965 L
255.28 188.675 L
259.62 187.924 L
263.96 188.675 L
268.3 190.429 L
272.64 189.923 L
276.98 188.798 L
281.32 187.4 L
285.66 186.436 L
290 185.359 L
294.34 185.258 L
298.68 184.559 L
303.02 184.923 L
307.36 185.026 L
311.7 185.603 L
316.04 184.225 L
320.38 183.62 L
324.72 182.86 L
S
GR
GS
1 0 0 RC
[1 3] 0 setdash
2 LJ
0.5 LW
N
324.72 182.86 M
329.06 181.624 L
333.4 210.132 L
337.74 209.059 L
342.08 208.457 L
346.42 208.931 L
350.76 208.242 L
355.1 207.254 L
359.44 216.131 L
363.78 217.467 L
368.12 217.642 L
372.46 227.165 L
376.8 227.292 L
381.14 228.007 L
385.48 232.265 L
389.82 232.95 L
394.16 233.304 L
398.5 233.304 L
402.84 233.647 L
407.18 234.548 L
411.52 235.415 L
415.86 236.446 L
420.2 236.489 L
424.54 257.92 L
428.88 258.502 L
433.22 259.171 L
437.56 259.991 L
441.9 260.797 L
446.24 263.032 L
450.58 263.058 L
454.92 263.666 L
459.26 265.109 L
463.6 265.187 L
467.94 272.25 L
472.28 272.278 L
476.62 273.701 L
480.96 274.2 L
485.3 274.553 L
489.64 274.702 L
493.98 281.568 L
498.32 282.113 L
502.66 282.115 L
507 282.137 L
S
GR
GS
1 0 0 RC
1 LJ
0.5 LW
N
77.34 259.833 M
81.68 247.661 L
86.02 230.476 L
90.36 216.372 L
94.7 208.014 L
99.04 200.205 L
103.38 197.248 L
107.72 194.562 L
112.06 186.226 L
116.4 199.386 L
120.74 214.109 L
125.08 227.698 L
129.42 223.64 L
133.76 219.538 L
138.1 214.105 L
142.44 209.274 L
146.78 207.729 L
151.12 205.744 L
155.46 200.167 L
159.8 199.607 L
164.14 206.379 L
168.48 206.909 L
172.82 204.271 L
177.16 199.404 L
181.5 198.054 L
185.84 196.706 L
190.18 197.037 L
194.52 204.269 L
198.86 201.482 L
203.2 198.982 L
207.54 196.897 L
211.88 196.05 L
216.22 193.883 L
220.56 191.709 L
224.9 189.914 L
229.24 188.504 L
233.58 199.572 L
237.92 197.82 L
242.26 196.86 L
246.6 194.449 L
250.94 201.414 L
255.28 200.448 L
259.62 198.719 L
263.96 197.588 L
268.3 198.15 L
272.64 197.326 L
276.98 196.139 L
281.32 196.401 L
285.66 197.415 L
290 197.234 L
294.34 196.302 L
298.68 195.38 L
303.02 194.767 L
307.36 193.387 L
311.7 194.481 L
316.04 194.235 L
320.38 193.579 L
324.72 192.179 L
329.06 198.624 L
333.4 197.531 L
337.74 202.653 L
342.08 201.966 L
346.42 201.06 L
350.76 202.097 L
355.1 201.749 L
359.44 215.377 L
363.78 215.516 L
368.12 214.931 L
372.46 214.678 L
376.8 214.095 L
381.14 215.088 L
385.48 214.501 L
389.82 213.762 L
394.16 213.065 L
398.5 212.377 L
402.84 211.951 L
407.18 211.544 L
411.52 212.065 L
415.86 211.226 L
420.2 210.193 L
424.54 209.377 L
428.88 208.754 L
433.22 208.156 L
437.56 209.238 L
441.9 208.846 L
446.24 229.375 L
450.58 231.135 L
454.92 231.464 L
459.26 231.123 L
463.6 231.089 L
467.94 230.601 L
472.28 229.81 L
476.62 242.585 L
480.96 242.171 L
485.3 242.025 L
489.64 242.676 L
493.98 242.322 L
498.32 258.951 L
502.66 258.951 L
507 258.904 L
S
GR
GS
1 0 0 RC
1 LJ
0.5 LW
N
77.34 259.833 M
81.68 238.699 L
86.02 219.292 L
90.36 201.309 L
94.7 193.081 L
99.04 185.882 L
103.38 176.415 L
107.72 190.229 L
112.06 199.838 L
116.4 197.228 L
120.74 192.662 L
125.08 195.227 L
129.42 194.498 L
133.76 189.242 L
138.1 181.625 L
142.44 184.978 L
146.78 181.426 L
151.12 176.85 L
155.46 173.354 L
159.8 169.909 L
164.14 166.999 L
168.48 169.336 L
172.82 167.883 L
177.16 169.267 L
181.5 169.029 L
185.84 168.539 L
190.18 165.972 L
194.52 167.148 L
198.86 164.863 L
203.2 162.654 L
207.54 161.813 L
211.88 160.686 L
216.22 158.699 L
220.56 157.111 L
224.9 155.233 L
229.24 158.239 L
233.58 156.694 L
237.92 155.242 L
242.26 155.062 L
246.6 155.294 L
250.94 159.243 L
255.28 158.053 L
259.62 167.917 L
263.96 166.533 L
268.3 165.711 L
272.64 164.424 L
276.98 162.415 L
281.32 161.626 L
285.66 160.742 L
290 159.53 L
294.34 158.458 L
298.68 158.013 L
303.02 157.316 L
307.36 157.112 L
311.7 156.178 L
316.04 155.168 L
320.38 154.751 L
324.72 153.523 L
329.06 160.337 L
333.4 159.247 L
337.74 157.727 L
342.08 156.881 L
346.42 155.917 L
350.76 154.929 L
355.1 153.826 L
359.44 152.728 L
363.78 151.333 L
368.12 150.643 L
372.46 150.013 L
376.8 148.469 L
381.14 147.439 L
385.48 146.926 L
389.82 146.342 L
394.16 147.873 L
398.5 151.569 L
402.84 150.327 L
407.18 149.382 L
411.52 148.463 L
415.86 147.39 L
420.2 209.884 L
424.54 210.287 L
428.88 211.131 L
433.22 212.188 L
437.56 211.285 L
441.9 210.431 L
446.24 210.345 L
450.58 209.544 L
454.92 240.762 L
459.26 241.15 L
463.6 255.35 L
467.94 254.592 L
472.28 254.361 L
476.62 255.518 L
480.96 255.11 L
485.3 256.775 L
489.64 258.388 L
493.98 258.162 L
498.32 258.246 L
502.66 259.409 L
507 259.286 L
S
GR
GS
1 0 0 RC
1 LJ
0.5 LW
N
77.34 259.833 M
81.68 163.415 L
86.02 157.208 L
90.36 149.866 L
94.7 141.16 L
99.04 134.414 L
103.38 131.332 L
107.72 123.933 L
112.06 125.534 L
116.4 121.441 L
120.74 117.268 L
125.08 117.745 L
129.42 111.389 L
133.76 112.083 L
138.1 108.904 L
142.44 106.597 L
146.78 104.296 L
151.12 101.882 L
155.46 99.346 L
159.8 96.052 L
164.14 93.565 L
168.48 96.604 L
172.82 95.394 L
177.16 90.885 L
181.5 88.132 L
185.84 85.111 L
190.18 82.872 L
194.52 80.769 L
198.86 77.886 L
203.2 76.122 L
207.54 74.013 L
211.88 72.134 L
216.22 72.568 L
220.56 70.902 L
224.9 69.124 L
229.24 68.349 L
233.58 67.041 L
237.92 65.326 L
242.26 215.575 L
246.6 218.489 L
250.94 218.853 L
255.28 218.38 L
259.62 218.584 L
263.96 220.601 L
268.3 219.784 L
272.64 219.333 L
276.98 218.714 L
281.32 217.597 L
285.66 218.19 L
290 217.469 L
294.34 221.135 L
298.68 220.331 L
303.02 219.743 L
307.36 220.347 L
311.7 226.966 L
316.04 226.376 L
320.38 225.572 L
324.72 226.02 L
329.06 225.654 L
333.4 224.873 L
337.74 224.359 L
342.08 224.14 L
346.42 230.211 L
350.76 229.469 L
355.1 228.753 L
359.44 228.695 L
363.78 228.798 L
368.12 228.249 L
372.46 227.906 L
376.8 227.292 L
381.14 226.704 L
385.48 226.648 L
389.82 227.022 L
394.16 226.86 L
398.5 227.127 L
402.84 226.889 L
407.18 226.737 L
411.52 237.307 L
415.86 238.439 L
420.2 237.952 L
424.54 247.12 L
428.88 247.29 L
433.22 247.001 L
437.56 246.77 L
441.9 248.087 L
446.24 250.235 L
450.58 250.481 L
454.92 250.241 L
459.26 250.296 L
463.6 250.277 L
467.94 250.306 L
472.28 251.424 L
476.62 251.579 L
480.96 251.467 L
485.3 251.408 L
489.64 254.011 L
493.98 253.958 L
498.32 253.84 L
502.66 253.759 L
507 259.66 L
S
GR
GS
1 0 0 RC
1 LJ
0.5 LW
N
77.34 259.833 M
81.68 249.221 L
86.02 224.376 L
90.36 233.354 L
94.7 222.699 L
99.04 207.382 L
103.38 193.407 L
107.72 194.931 L
112.06 218.271 L
116.4 211.835 L
120.74 212.16 L
125.08 206.438 L
129.42 215.18 L
133.76 211.188 L
138.1 213.829 L
142.44 212.953 L
146.78 209.309 L
151.12 204.743 L
155.46 200.936 L
159.8 199.511 L
164.14 207.958 L
168.48 202.196 L
172.82 197.939 L
177.16 195.077 L
181.5 195.381 L
185.84 192.794 L
190.18 207.492 L
194.52 205.134 L
198.86 202.69 L
203.2 200.617 L
207.54 199.137 L
211.88 196.695 L
216.22 196.44 L
220.56 193.53 L
224.9 195.01 L
229.24 193.428 L
233.58 191.104 L
237.92 188.817 L
242.26 187.195 L
246.6 185.153 L
250.94 187.415 L
255.28 193.841 L
259.62 197.639 L
263.96 196.838 L
268.3 195.247 L
272.64 193.644 L
276.98 192.148 L
281.32 190.835 L
285.66 190.783 L
290 193.61 L
294.34 192.194 L
298.68 194.92 L
303.02 194.059 L
307.36 193.011 L
311.7 191.781 L
316.04 191.154 L
320.38 190.95 L
324.72 189.881 L
329.06 190.691 L
333.4 200.219 L
337.74 199.625 L
342.08 203.607 L
346.42 202.749 L
350.76 209.474 L
355.1 209.342 L
359.44 208.742 L
363.78 214.603 L
368.12 220.364 L
372.46 219.687 L
376.8 227.136 L
381.14 227.375 L
385.48 234.48 L
389.82 233.935 L
394.16 234.502 L
398.5 236.837 L
402.84 243.459 L
407.18 244.21 L
411.52 243.481 L
415.86 243.817 L
420.2 243.363 L
424.54 243.321 L
428.88 242.663 L
433.22 242.413 L
437.56 243.152 L
441.9 245.334 L
446.24 246.22 L
450.58 245.935 L
454.92 245.591 L
459.26 246.227 L
463.6 252.901 L
467.94 252.525 L
472.28 252.286 L
476.62 251.958 L
480.96 251.569 L
485.3 251.617 L
489.64 253.479 L
493.98 254.32 L
498.32 254.405 L
502.66 254.325 L
507 254.231 L
S
GR
GS
1 0 0 RC
1 LJ
0.5 LW
N
77.34 259.833 M
81.68 227.24 L
86.02 197.833 L
90.36 176.871 L
94.7 157.642 L
99.04 136.935 L
103.38 131.941 L
107.72 120.449 L
112.06 149.011 L
116.4 145.109 L
120.74 140.01 L
125.08 136.223 L
129.42 132.17 L
133.76 129.91 L
138.1 125.319 L
142.44 138.494 L
146.78 134.538 L
151.12 131.433 L
155.46 128.582 L
159.8 127.531 L
164.14 125.088 L
168.48 120.342 L
172.82 118.748 L
177.16 119.96 L
181.5 118.054 L
185.84 117.634 L
190.18 114.683 L
194.52 112.455 L
198.86 110.804 L
203.2 109.753 L
207.54 107.639 L
211.88 106.894 L
216.22 105.378 L
220.56 105.812 L
224.9 105.414 L
229.24 109.394 L
233.58 108.206 L
237.92 107.615 L
242.26 106.837 L
246.6 129.872 L
250.94 129.329 L
255.28 128.48 L
259.62 133.244 L
263.96 132.317 L
268.3 131.487 L
272.64 130.262 L
276.98 130.112 L
281.32 129.461 L
285.66 177.383 L
290 176.951 L
294.34 175.675 L
298.68 174.721 L
303.02 175.046 L
307.36 174.196 L
311.7 173.936 L
316.04 173.025 L
320.38 172.259 L
324.72 172.167 L
329.06 170.901 L
333.4 170.099 L
337.74 169.485 L
342.08 170.081 L
S
GR
GS
1 0 0 RC
[1 3] 0 setdash
2 LJ
0.5 LW
N
342.08 170.081 M
346.42 185.707 L
350.76 187.141 L
355.1 187.522 L
359.44 244.947 L
363.78 245.015 L
368.12 245.015 L
372.46 245.24 L
376.8 245.425 L
381.14 246.642 L
385.48 251.094 L
389.82 252.51 L
394.16 253.085 L
398.5 253.296 L
402.84 254.104 L
407.18 254.149 L
411.52 254.157 L
415.86 254.39 L
420.2 257.149 L
424.54 257.785 L
428.88 259.078 L
433.22 259.087 L
437.56 259.909 L
441.9 260.848 L
446.24 261.586 L
450.58 261.608 L
454.92 261.648 L
459.26 266.197 L
463.6 269.246 L
467.94 269.387 L
472.28 269.447 L
476.62 270.058 L
480.96 270.473 L
485.3 270.512 L
489.64 270.513 L
493.98 271.022 L
498.32 275.901 L
502.66 275.911 L
507 276.729 L
S
GR
GS
1 0 0 RC
1 LJ
0.5 LW
N
77.34 259.833 M
81.68 259.833 L
86.02 252.81 L
90.36 239.686 L
94.7 230.716 L
99.04 223.645 L
103.38 216.043 L
107.72 210.138 L
112.06 201.581 L
116.4 200.763 L
120.74 198.227 L
125.08 191.533 L
129.42 181.285 L
133.76 191.84 L
138.1 188.335 L
142.44 182.069 L
146.78 175.425 L
151.12 182.623 L
155.46 179.607 L
159.8 176.816 L
164.14 171.3 L
168.48 179.257 L
172.82 177.983 L
177.16 184.656 L
181.5 183.454 L
185.84 180.28 L
190.18 178.224 L
194.52 178.146 L
198.86 175.474 L
203.2 178.717 L
207.54 201.38 L
211.88 200.463 L
216.22 199.032 L
220.56 196.879 L
224.9 193.405 L
229.24 204.946 L
233.58 203.455 L
237.92 200.243 L
242.26 200.146 L
246.6 197.372 L
250.94 197.205 L
255.28 209.989 L
259.62 210.643 L
263.96 209.09 L
268.3 208.308 L
272.64 206.35 L
276.98 204.917 L
281.32 204.162 L
285.66 202.716 L
290 201.26 L
294.34 200.16 L
298.68 198.449 L
303.02 196.68 L
307.36 195.268 L
311.7 194.847 L
316.04 195.028 L
320.38 193.757 L
324.72 194.337 L
329.06 194.837 L
333.4 194.476 L
337.74 192.882 L
342.08 213.164 L
346.42 216.484 L
350.76 216.266 L
355.1 215.522 L
359.44 214.019 L
363.78 216.437 L
368.12 215.85 L
372.46 214.818 L
376.8 221.477 L
381.14 220.817 L
385.48 223.493 L
389.82 222.664 L
394.16 222.708 L
398.5 223.273 L
402.84 222.77 L
407.18 221.998 L
411.52 221.763 L
415.86 221.094 L
420.2 225.016 L
424.54 224.907 L
428.88 226.638 L
433.22 234.562 L
437.56 233.999 L
441.9 233.335 L
446.24 232.85 L
450.58 232.276 L
454.92 239.575 L
459.26 239.904 L
463.6 239.133 L
467.94 238.686 L
472.28 242.453 L
476.62 246.063 L
480.96 245.444 L
485.3 245.091 L
489.64 249.072 L
493.98 249.316 L
498.32 251.71 L
502.66 254.729 L
507 257.691 L
S
GR
GS
1 0 0 RC
1 LJ
0.5 LW
N
77.34 259.833 M
81.68 227.043 L
86.02 220.404 L
90.36 202.825 L
94.7 185.926 L
99.04 184.868 L
103.38 214.39 L
107.72 205.156 L
112.06 217.717 L
116.4 212.019 L
120.74 208.447 L
125.08 208.239 L
129.42 206.628 L
133.76 207.977 L
138.1 205.202 L
142.44 225.3 L
146.78 223.806 L
151.12 223.077 L
155.46 221.35 L
159.8 229.576 L
164.14 229.394 L
168.48 239.099 L
172.82 237.79 L
177.16 237.377 L
181.5 237.155 L
185.84 236.414 L
190.18 235.154 L
194.52 233.501 L
198.86 232.08 L
203.2 230.825 L
207.54 228.736 L
211.88 227.941 L
216.22 229.336 L
220.56 233.025 L
224.9 231.002 L
229.24 231.715 L
233.58 230.685 L
237.92 228.968 L
242.26 230.269 L
246.6 229.199 L
250.94 227.753 L
255.28 227.698 L
259.62 227.468 L
263.96 225.491 L
268.3 224.396 L
272.64 222.994 L
276.98 220.813 L
281.32 219.591 L
285.66 217.955 L
290 216.73 L
294.34 216.623 L
298.68 217.877 L
303.02 216.187 L
307.36 215.292 L
311.7 213.72 L
316.04 212.791 L
320.38 215.429 L
324.72 215.655 L
329.06 214.653 L
333.4 221.822 L
337.74 221.092 L
342.08 223.076 L
346.42 225.939 L
350.76 225.181 L
355.1 223.164 L
359.44 224.244 L
363.78 223.258 L
368.12 221.679 L
372.46 221.698 L
376.8 220.706 L
381.14 220.39 L
385.48 225.885 L
389.82 226.008 L
394.16 225.443 L
398.5 224.705 L
402.84 223.462 L
407.18 224.133 L
411.52 225.332 L
415.86 224.723 L
420.2 223.847 L
424.54 227.552 L
428.88 235.135 L
433.22 235.388 L
437.56 235.81 L
441.9 235.015 L
S
GR
GS
1 0 0 RC
[1 3] 0 setdash
2 LJ
0.5 LW
N
441.9 235.015 M
446.24 237.664 L
450.58 246.269 L
454.92 246.324 L
459.26 247.064 L
463.6 247.517 L
467.94 247.748 L
472.28 250.076 L
476.62 251.06 L
480.96 251.292 L
485.3 251.409 L
489.64 257.428 L
493.98 258.175 L
498.32 258.176 L
502.66 258.252 L
507 266.305 L
S
GR
GS
1 0 0 RC
1 LJ
0.5 LW
N
77.34 259.833 M
81.68 208.885 L
86.02 189.809 L
90.36 173.116 L
94.7 241.823 L
99.04 242.686 L
103.38 233.751 L
107.72 229.133 L
112.06 224.525 L
116.4 218.297 L
120.74 216.105 L
125.08 211.553 L
129.42 211.41 L
133.76 212.469 L
138.1 231.943 L
142.44 229.856 L
146.78 227.491 L
151.12 225.429 L
155.46 222.532 L
159.8 221.603 L
164.14 219.293 L
168.48 217.459 L
172.82 214.943 L
177.16 212.878 L
181.5 216.098 L
185.84 221.486 L
190.18 219.955 L
194.52 218.455 L
198.86 220.036 L
203.2 218.529 L
207.54 217.983 L
211.88 219.942 L
216.22 220.284 L
220.56 233.123 L
224.9 231.725 L
229.24 230.088 L
233.58 229.567 L
237.92 228.016 L
242.26 227.203 L
246.6 226.882 L
250.94 226.658 L
255.28 225.946 L
259.62 227.206 L
263.96 226.463 L
268.3 225.348 L
272.64 224.364 L
276.98 226.341 L
281.32 225.534 L
285.66 225.697 L
290 225.793 L
294.34 225.773 L
298.68 225.798 L
303.02 225.069 L
307.36 224.313 L
311.7 227.143 L
316.04 234.181 L
320.38 233.539 L
324.72 234.36 L
329.06 237.697 L
333.4 237.501 L
337.74 236.772 L
342.08 236.546 L
346.42 235.305 L
350.76 239.494 L
355.1 239.411 L
359.44 238.623 L
363.78 237.857 L
368.12 237.091 L
372.46 236.348 L
376.8 235.261 L
381.14 234.422 L
385.48 233.406 L
389.82 232.869 L
394.16 239.806 L
398.5 239.452 L
402.84 239.512 L
407.18 239.888 L
411.52 240.273 L
415.86 240.951 L
420.2 244.125 L
424.54 243.439 L
428.88 242.732 L
433.22 242.679 L
437.56 244.221 L
441.9 243.693 L
446.24 243.76 L
450.58 245.46 L
454.92 245.858 L
459.26 246.796 L
463.6 249.357 L
467.94 248.807 L
472.28 250.063 L
476.62 251.712 L
480.96 252.834 L
485.3 252.345 L
489.64 251.901 L
493.98 253.757 L
498.32 253.742 L
502.66 253.448 L
507 253.437 L
S
GR
GS
1 0 0 RC
1 LJ
0.5 LW
N
77.34 259.833 M
81.68 241.795 L
86.02 240.527 L
90.36 231.625 L
94.7 223.846 L
99.04 234.867 L
103.38 230.115 L
107.72 237.69 L
112.06 233.059 L
116.4 229.595 L
120.74 225.694 L
125.08 222.355 L
129.42 218.994 L
133.76 216.987 L
138.1 212.563 L
142.44 211.801 L
146.78 212.358 L
151.12 208.837 L
155.46 208.168 L
159.8 203.475 L
164.14 200.308 L
168.48 198.726 L
172.82 194.751 L
177.16 191.373 L
181.5 193.475 L
185.84 189.43 L
190.18 187.362 L
194.52 199.585 L
198.86 197.297 L
203.2 194.631 L
207.54 192.935 L
211.88 196.285 L
216.22 194.244 L
220.56 195.538 L
224.9 192.025 L
229.24 191.174 L
233.58 188.948 L
237.92 186.183 L
242.26 189.246 L
246.6 187.083 L
250.94 185.974 L
255.28 188.303 L
259.62 188.581 L
263.96 189.457 L
268.3 191.866 L
272.64 190.255 L
276.98 188.658 L
281.32 186.466 L
285.66 185.768 L
290 184.451 L
294.34 183.874 L
298.68 186.238 L
303.02 184.546 L
307.36 184.384 L
311.7 185.051 L
316.04 182.884 L
320.38 181.585 L
324.72 182.563 L
S
GR
GS
1 0 0 RC
[1 3] 0 setdash
2 LJ
0.5 LW
N
324.72 182.563 M
329.06 185.128 L
333.4 186.083 L
337.74 186.794 L
342.08 187.654 L
346.42 187.801 L
350.76 190.039 L
355.1 190.918 L
359.44 193.058 L
363.78 194.158 L
368.12 197.893 L
372.46 204.834 L
376.8 209.952 L
381.14 210.209 L
385.48 210.589 L
389.82 210.909 L
394.16 211.017 L
398.5 211.101 L
402.84 212.38 L
407.18 214.583 L
411.52 214.832 L
415.86 215.095 L
420.2 215.105 L
424.54 226.992 L
428.88 227.116 L
433.22 228.746 L
437.56 228.928 L
441.9 228.975 L
446.24 229.186 L
450.58 229.213 L
454.92 229.957 L
459.26 230.127 L
463.6 230.177 L
467.94 230.278 L
472.28 231.816 L
476.62 295.076 L
480.96 295.279 L
485.3 295.848 L
489.64 295.851 L
493.98 295.853 L
498.32 297.822 L
502.66 298.573 L
507 302.386 L
S
GR
GS
1 0 0 RC
1 LJ
0.5 LW
N
77.34 259.833 M
81.68 152.736 L
86.02 126.793 L
90.36 133.394 L
94.7 127.321 L
99.04 121.118 L
103.38 114.633 L
107.72 108.442 L
112.06 103.835 L
116.4 220.676 L
120.74 220.182 L
125.08 225.838 L
129.42 226.101 L
133.76 223.779 L
138.1 222.856 L
142.44 221.177 L
146.78 218.461 L
151.12 218.127 L
155.46 216.093 L
159.8 220.385 L
164.14 223.226 L
168.48 221.866 L
172.82 220.316 L
177.16 220.1 L
181.5 219.05 L
185.84 218.489 L
190.18 216.389 L
194.52 223.141 L
198.86 220.83 L
203.2 219.273 L
207.54 217.543 L
211.88 216.134 L
216.22 216.341 L
220.56 214.903 L
224.9 214.746 L
229.24 213.245 L
233.58 214.137 L
237.92 221.198 L
242.26 220.425 L
246.6 218.621 L
250.94 217.794 L
255.28 226.821 L
259.62 226.644 L
263.96 225.865 L
268.3 226.292 L
272.64 226.136 L
276.98 227.053 L
281.32 227.764 L
285.66 229.215 L
290 228.305 L
294.34 228.987 L
298.68 228 L
303.02 229.62 L
307.36 229.167 L
311.7 228.462 L
316.04 228.115 L
320.38 227.201 L
324.72 226.927 L
329.06 226.592 L
333.4 225.532 L
337.74 224.768 L
342.08 223.902 L
346.42 225.607 L
350.76 225.622 L
355.1 225.328 L
359.44 224.864 L
363.78 225.07 L
S
GR
GS
1 0 0 RC
[1 3] 0 setdash
2 LJ
0.5 LW
N
363.78 225.07 M
368.12 224.386 L
372.46 227.533 L
376.8 229.374 L
381.14 232.183 L
385.48 233.422 L
389.82 239.139 L
394.16 239.227 L
398.5 239.245 L
402.84 239.265 L
407.18 239.837 L
411.52 250.881 L
415.86 253.993 L
420.2 254.652 L
424.54 255.623 L
428.88 257.614 L
433.22 258.393 L
437.56 259.337 L
441.9 259.691 L
446.24 259.784 L
450.58 259.848 L
454.92 260.608 L
459.26 260.698 L
463.6 266.003 L
467.94 267.696 L
472.28 267.697 L
476.62 267.753 L
480.96 271.152 L
485.3 272.495 L
489.64 272.596 L
493.98 273.951 L
498.32 277.478 L
502.66 277.886 L
507 278.23 L
S
GR
GS
1 0 0 RC
1 LJ
0.5 LW
N
77.34 259.833 M
81.68 221.985 L
86.02 175.898 L
90.36 129.388 L
94.7 112.475 L
99.04 134.219 L
103.38 142.829 L
107.72 135.342 L
112.06 129.308 L
116.4 122.154 L
120.74 117.516 L
125.08 112.63 L
129.42 109.013 L
133.76 106.331 L
138.1 104.138 L
142.44 100.911 L
146.78 98.713 L
151.12 97.527 L
155.46 152.289 L
159.8 151.246 L
164.14 149.74 L
168.48 150.4 L
172.82 150.817 L
177.16 149.17 L
181.5 148.625 L
185.84 146.973 L
190.18 145.909 L
194.52 147.17 L
198.86 146.451 L
203.2 145.842 L
207.54 146.324 L
211.88 145.517 L
216.22 147.056 L
220.56 146.046 L
224.9 145.604 L
229.24 145.033 L
233.58 144.688 L
237.92 144.075 L
242.26 143.487 L
246.6 142.805 L
250.94 142.477 L
255.28 141.935 L
259.62 141.341 L
263.96 140.851 L
268.3 145.435 L
272.64 144.776 L
276.98 148.364 L
281.32 147.967 L
285.66 147.567 L
290 151.429 L
294.34 151.025 L
298.68 150.44 L
303.02 150.003 L
307.36 149.392 L
311.7 148.889 L
316.04 148.776 L
320.38 148.461 L
324.72 147.979 L
329.06 147.445 L
333.4 146.827 L
337.74 146.305 L
342.08 145.841 L
346.42 145.44 L
350.76 144.928 L
355.1 144.428 L
359.44 144.213 L
363.78 143.966 L
368.12 143.527 L
372.46 143.033 L
S
GR
GS
1 0 0 RC
[1 3] 0 setdash
2 LJ
0.5 LW
N
372.46 143.033 M
376.8 142.591 L
381.14 142.682 L
385.48 142.746 L
389.82 142.763 L
394.16 142.792 L
398.5 142.804 L
402.84 142.831 L
407.18 142.975 L
411.52 142.985 L
415.86 143.061 L
420.2 143.108 L
424.54 143.114 L
428.88 143.193 L
433.22 143.242 L
437.56 143.29 L
441.9 143.381 L
446.24 143.388 L
450.58 143.437 L
454.92 143.553 L
459.26 143.673 L
463.6 143.977 L
467.94 143.985 L
472.28 144.208 L
476.62 144.255 L
480.96 144.256 L
485.3 144.292 L
489.64 144.297 L
493.98 144.297 L
498.32 145.328 L
502.66 145.328 L
507 271.948 L
S
GR
GS
1 0 0 RC
1 LJ
0.5 LW
N
77.34 259.833 M
81.68 233.237 L
86.02 219.78 L
90.36 206.174 L
94.7 198.115 L
99.04 195.214 L
103.38 188.566 L
107.72 182.892 L
112.06 175.93 L
116.4 175.753 L
120.74 169.276 L
125.08 178.89 L
129.42 217.009 L
133.76 213.032 L
138.1 212.586 L
142.44 207.917 L
146.78 209.097 L
151.12 229.478 L
155.46 228.459 L
159.8 226.04 L
164.14 223.085 L
168.48 222.117 L
172.82 221.193 L
177.16 221.158 L
181.5 221.258 L
185.84 217.953 L
190.18 215.414 L
194.52 213.345 L
198.86 211.066 L
203.2 208.701 L
207.54 205.4 L
211.88 205.144 L
216.22 213.581 L
220.56 211.518 L
224.9 211.604 L
229.24 208.842 L
233.58 207.775 L
237.92 206.941 L
242.26 205.298 L
246.6 203.592 L
250.94 201.965 L
255.28 200.503 L
259.62 199.088 L
263.96 197.331 L
268.3 210.301 L
272.64 209.335 L
276.98 209.408 L
281.32 209.434 L
285.66 211.072 L
290 211.077 L
294.34 209.676 L
298.68 208.528 L
303.02 207.062 L
307.36 204.823 L
311.7 204.004 L
316.04 204.566 L
320.38 204.609 L
324.72 203.6 L
329.06 204.863 L
333.4 204.376 L
337.74 203.149 L
342.08 205.422 L
346.42 204.752 L
350.76 207.01 L
355.1 207.268 L
359.44 207.87 L
363.78 206.815 L
368.12 205.645 L
372.46 207.427 L
376.8 207.103 L
381.14 206.423 L
385.48 205.741 L
389.82 207.689 L
394.16 225.65 L
398.5 225.125 L
402.84 225.05 L
407.18 224.551 L
411.52 223.897 L
415.86 230.44 L
420.2 231.228 L
424.54 230.623 L
428.88 229.931 L
433.22 232.589 L
437.56 234.876 L
441.9 234.579 L
446.24 234.536 L
450.58 235.595 L
454.92 235.314 L
459.26 235.327 L
463.6 235.195 L
467.94 242.999 L
472.28 242.648 L
476.62 242.652 L
480.96 242.648 L
485.3 242.265 L
489.64 242.633 L
493.98 246.033 L
498.32 247.852 L
502.66 259.35 L
507 259.833 L
S
GR
GS
1 0 0 RC
1 LJ
0.5 LW
N
77.34 259.833 M
81.68 209.795 L
86.02 184.614 L
90.36 181.622 L
94.7 176.507 L
99.04 194.289 L
103.38 181.319 L
107.72 175.974 L
112.06 171.166 L
116.4 166.95 L
120.74 170.391 L
125.08 232.429 L
129.42 231.681 L
133.76 229.209 L
138.1 224.917 L
142.44 227.08 L
146.78 224.428 L
151.12 222.157 L
155.46 218.186 L
159.8 216.043 L
164.14 212.778 L
168.48 211.499 L
172.82 210.236 L
177.16 208.547 L
181.5 205.252 L
185.84 213.472 L
190.18 212.028 L
194.52 211.665 L
198.86 213.632 L
203.2 214.766 L
207.54 217.834 L
211.88 215.884 L
216.22 213.477 L
220.56 212.673 L
224.9 209.994 L
229.24 221.384 L
233.58 221.169 L
237.92 221.811 L
242.26 220.499 L
246.6 219.52 L
250.94 217.611 L
255.28 216.875 L
259.62 215.382 L
263.96 213.88 L
268.3 213.278 L
272.64 211.815 L
276.98 210.711 L
281.32 209.8 L
285.66 209.02 L
290 209.962 L
294.34 209.81 L
298.68 209.198 L
303.02 209.828 L
307.36 209.062 L
311.7 208.342 L
316.04 207.351 L
320.38 206.507 L
324.72 206.372 L
329.06 205.55 L
333.4 206.356 L
337.74 205.97 L
342.08 204.817 L
346.42 204.27 L
350.76 203.525 L
355.1 202.634 L
359.44 212.115 L
363.78 211.153 L
368.12 210.58 L
372.46 209.919 L
376.8 209.166 L
381.14 210.863 L
385.48 210.073 L
389.82 209.634 L
394.16 209.178 L
398.5 209.075 L
402.84 211.258 L
407.18 210.598 L
411.52 209.952 L
415.86 209.159 L
420.2 208.238 L
424.54 207.398 L
428.88 206.592 L
433.22 206.268 L
437.56 212.147 L
441.9 211.728 L
446.24 215.549 L
450.58 215.563 L
454.92 216.917 L
459.26 216.078 L
463.6 215.512 L
467.94 230.101 L
472.28 231.802 L
476.62 232.083 L
480.96 231.686 L
485.3 232.506 L
489.64 232.315 L
493.98 232.129 L
498.32 233.134 L
502.66 233.288 L
507 258.321 L
S
GR
GS
1 0 0 RC
1 LJ
0.5 LW
N
77.34 259.833 M
81.68 240.264 L
86.02 228.815 L
90.36 221.475 L
94.7 212.849 L
99.04 202.085 L
103.38 195.452 L
107.72 189.473 L
112.06 185.028 L
116.4 178.047 L
120.74 173.044 L
125.08 174.149 L
129.42 172.533 L
133.76 173.525 L
138.1 172.491 L
142.44 167.729 L
146.78 160.745 L
151.12 156.129 L
155.46 180.661 L
159.8 178.373 L
164.14 190.884 L
168.48 190.61 L
172.82 204.489 L
177.16 203.67 L
181.5 200.819 L
185.84 198.647 L
190.18 208.721 L
194.52 206.503 L
198.86 205.444 L
203.2 202.318 L
207.54 200.588 L
211.88 200.621 L
216.22 201.956 L
220.56 202.053 L
224.9 199.051 L
229.24 197.281 L
233.58 211.813 L
237.92 209.328 L
242.26 208.308 L
246.6 206.341 L
250.94 205.707 L
255.28 203.978 L
259.62 202.576 L
263.96 200.642 L
268.3 198.485 L
272.64 199.728 L
276.98 197.252 L
281.32 195.203 L
285.66 195.74 L
290 194.925 L
294.34 193.945 L
298.68 192.548 L
303.02 193.914 L
307.36 192.178 L
311.7 193.06 L
316.04 191.667 L
320.38 190.22 L
324.72 188.749 L
329.06 201.63 L
333.4 200.442 L
337.74 200.329 L
342.08 198.905 L
346.42 198.299 L
350.76 197.118 L
355.1 196.452 L
359.44 195.049 L
363.78 212.129 L
368.12 212.471 L
372.46 211.071 L
376.8 210.367 L
381.14 212.292 L
385.48 216.313 L
389.82 216.525 L
394.16 216.014 L
398.5 214.986 L
402.84 214.151 L
407.18 217.329 L
411.52 216.83 L
415.86 215.872 L
420.2 214.834 L
424.54 218.672 L
428.88 223.962 L
433.22 223.988 L
437.56 223.965 L
441.9 224.308 L
446.24 224.401 L
450.58 224.308 L
454.92 225.569 L
459.26 225.989 L
463.6 225.457 L
467.94 233.475 L
472.28 233.01 L
476.62 234.302 L
480.96 236.725 L
485.3 238.537 L
489.64 238.271 L
493.98 249.99 L
498.32 249.915 L
502.66 258.091 L
507 257.957 L
S
GR
GS
1 0 0 RC
1 LJ
0.5 LW
N
77.34 259.833 M
81.68 243.395 L
86.02 239.908 L
90.36 224.615 L
94.7 219.739 L
99.04 211.629 L
103.38 202.495 L
107.72 203.376 L
112.06 225.013 L
116.4 217.012 L
120.74 215.928 L
125.08 211.497 L
129.42 219.742 L
133.76 214.988 L
138.1 209.649 L
142.44 205.786 L
146.78 202.875 L
151.12 220.157 L
155.46 218.593 L
159.8 219.436 L
164.14 216.608 L
168.48 212.492 L
172.82 209.67 L
177.16 205.655 L
181.5 200.288 L
185.84 197.053 L
190.18 196.019 L
194.52 191.934 L
198.86 192.874 L
203.2 191.536 L
207.54 188.61 L
211.88 185.751 L
216.22 183.243 L
220.56 181.757 L
224.9 179.815 L
229.24 187.099 L
233.58 185.692 L
237.92 183.138 L
242.26 182.821 L
246.6 181.267 L
250.94 179.257 L
255.28 184.043 L
259.62 180.791 L
263.96 178.514 L
268.3 177.645 L
272.64 181.244 L
276.98 179.47 L
281.32 177.778 L
285.66 175.829 L
290 175.524 L
294.34 174.946 L
298.68 174.104 L
303.02 174.109 L
307.36 184.041 L
311.7 183.676 L
316.04 182.768 L
320.38 199.641 L
324.72 205.892 L
329.06 205.113 L
333.4 204.271 L
337.74 205.065 L
342.08 204.548 L
346.42 215.905 L
350.76 215.742 L
355.1 215.138 L
359.44 214.196 L
363.78 213.591 L
368.12 213.295 L
372.46 213.163 L
376.8 212.617 L
381.14 211.862 L
385.48 221.703 L
389.82 221.139 L
394.16 220.382 L
398.5 223.761 L
402.84 223.298 L
S
GR
GS
1 0 0 RC
[1 3] 0 setdash
2 LJ
0.5 LW
N
402.84 223.298 M
407.18 222.738 L
411.52 222.927 L
415.86 223.197 L
420.2 223.418 L
424.54 223.777 L
428.88 223.778 L
433.22 223.971 L
437.56 244.981 L
441.9 245.097 L
446.24 248.321 L
450.58 251.987 L
454.92 251.992 L
459.26 255.004 L
463.6 256.242 L
467.94 259.382 L
472.28 259.559 L
476.62 259.746 L
480.96 260.179 L
485.3 261.519 L
489.64 261.559 L
493.98 266.819 L
498.32 266.93 L
502.66 269.026 L
507 269.078 L
S
GR
GS
1 0 0 RC
1 LJ
0.5 LW
N
77.34 259.833 M
81.68 259.833 L
86.02 221.774 L
90.36 201.398 L
94.7 227.715 L
99.04 215.139 L
103.38 205.79 L
107.72 199.839 L
112.06 201.889 L
116.4 195.994 L
120.74 191.876 L
125.08 187.959 L
129.42 196.072 L
133.76 193.223 L
138.1 190.997 L
142.44 192.985 L
146.78 190.574 L
151.12 214.97 L
155.46 212.596 L
159.8 210.344 L
164.14 208.487 L
168.48 226.702 L
172.82 232.802 L
177.16 230.473 L
181.5 228.114 L
185.84 227.166 L
190.18 224.793 L
194.52 222.847 L
198.86 222.489 L
203.2 220.955 L
207.54 223.617 L
211.88 221.962 L
216.22 221.875 L
220.56 220.8 L
224.9 223.981 L
229.24 222.942 L
233.58 222.184 L
237.92 221.042 L
242.26 220.365 L
246.6 220.029 L
250.94 219.403 L
255.28 218.579 L
259.62 217.589 L
263.96 217.056 L
268.3 224.116 L
272.64 222.805 L
276.98 221.546 L
281.32 222.218 L
285.66 221.461 L
290 220.674 L
294.34 221.564 L
298.68 224.298 L
303.02 224.766 L
307.36 226.798 L
311.7 226.02 L
316.04 225.38 L
320.38 229.366 L
324.72 229.005 L
329.06 231.928 L
333.4 231.121 L
337.74 236.579 L
342.08 235.891 L
346.42 240.094 L
350.76 239.656 L
355.1 239.504 L
359.44 239.45 L
363.78 239.105 L
368.12 238.642 L
372.46 238.012 L
376.8 237.634 L
381.14 238.365 L
S
GR
GS
1 0 0 RC
[1 3] 0 setdash
2 LJ
0.5 LW
N
381.14 238.365 M
385.48 238.519 L
389.82 239.053 L
394.16 239.128 L
398.5 239.185 L
402.84 239.192 L
407.18 239.309 L
411.52 239.436 L
415.86 239.596 L
420.2 243.052 L
424.54 243.058 L
428.88 244.755 L
433.22 245.341 L
437.56 245.348 L
441.9 247.718 L
446.24 250.419 L
450.58 251.024 L
454.92 259.032 L
459.26 259.066 L
463.6 259.157 L
467.94 259.974 L
472.28 260.388 L
476.62 263.611 L
480.96 263.633 L
485.3 266.98 L
489.64 267.061 L
493.98 268.985 L
498.32 268.986 L
502.66 269.017 L
507 272.681 L
S
GR
GS
1 0 0 RC
1 LJ
0.5 LW
N
77.34 259.833 M
81.68 240.965 L
86.02 237.561 L
90.36 224.074 L
94.7 216.926 L
99.04 210.147 L
103.38 208.555 L
107.72 205.298 L
112.06 205.637 L
116.4 198.622 L
120.74 196.436 L
125.08 194.574 L
129.42 188.042 L
133.76 198.606 L
138.1 195.925 L
142.44 192.988 L
146.78 199.556 L
151.12 193.268 L
155.46 196.095 L
159.8 219.094 L
164.14 221.649 L
168.48 228.916 L
172.82 225.296 L
177.16 220.078 L
181.5 219.485 L
185.84 214.708 L
190.18 213.007 L
194.52 210.813 L
198.86 207.544 L
203.2 207.317 L
207.54 203.397 L
211.88 200.411 L
216.22 197.719 L
220.56 196.681 L
224.9 195.043 L
229.24 193.328 L
233.58 191.416 L
237.92 189.163 L
242.26 187.375 L
246.6 193.845 L
250.94 195.976 L
255.28 194.778 L
259.62 191.967 L
263.96 189.762 L
268.3 192.933 L
272.64 192.537 L
276.98 191.701 L
281.32 190.449 L
285.66 189.896 L
290 188.721 L
294.34 206.545 L
298.68 204.515 L
303.02 202.966 L
307.36 201.783 L
311.7 200.104 L
316.04 207.398 L
320.38 207.699 L
324.72 207.021 L
329.06 210.541 L
333.4 214.911 L
337.74 213.866 L
342.08 212.005 L
346.42 212.942 L
350.76 217.301 L
355.1 216.753 L
359.44 216.389 L
363.78 215.695 L
368.12 215.805 L
372.46 217.262 L
376.8 220.53 L
381.14 219.774 L
385.48 219.239 L
389.82 218.637 L
394.16 218.588 L
398.5 219.495 L
402.84 218.782 L
407.18 218.233 L
411.52 221.884 L
415.86 221.142 L
420.2 222.178 L
424.54 221.125 L
428.88 220.353 L
433.22 220.466 L
437.56 219.745 L
441.9 224.378 L
446.24 223.839 L
450.58 223.416 L
454.92 222.666 L
459.26 222.649 L
S
GR
GS
1 0 0 RC
[1 3] 0 setdash
2 LJ
0.5 LW
N
459.26 222.649 M
463.6 221.739 L
467.94 221.742 L
472.28 221.885 L
476.62 222.102 L
480.96 235.631 L
485.3 250.786 L
489.64 251.509 L
493.98 252.458 L
498.32 252.546 L
502.66 254.174 L
507 267.209 L
S
GR
GS
1 LJ
0.5 LW
N
77.34 259.833 M
81.68 195.248 L
86.02 131.245 L
90.36 166.266 L
94.7 160.402 L
99.04 156.366 L
103.38 149.755 L
107.72 145.498 L
112.06 145.325 L
116.4 141.69 L
120.74 138.226 L
125.08 135.03 L
129.42 133.883 L
133.76 129.857 L
138.1 128.173 L
142.44 127.764 L
146.78 124.808 L
S
GR
GS
[1 3] 0 setdash
2 LJ
0.5 LW
N
146.78 124.808 M
151.12 122.294 L
155.46 120.329 L
159.8 117.38 L
164.14 115.302 L
168.48 112.838 L
172.82 110.718 L
177.16 108.732 L
181.5 107.061 L
185.84 104.967 L
190.18 102.827 L
194.52 101.677 L
198.86 100.237 L
203.2 98.299 L
207.54 96.458 L
211.88 94.728 L
216.22 93.533 L
220.56 91.877 L
224.9 90.392 L
229.24 88.556 L
233.58 87.326 L
237.92 86.006 L
242.26 84.823 L
246.6 83.181 L
250.94 81.694 L
255.28 80.242 L
259.62 79.208 L
263.96 77.741 L
268.3 76.464 L
272.64 75.224 L
276.98 73.992 L
281.32 72.661 L
285.66 71.786 L
290 70.392 L
294.34 69.173 L
298.68 68.265 L
303.02 67.187 L
307.36 66.431 L
311.7 65.411 L
316.04 64.335 L
320.38 62.963 L
324.72 62.106 L
329.06 61.547 L
333.4 60.676 L
337.74 59.573 L
342.08 58.653 L
346.42 57.964 L
350.76 57.128 L
355.1 56.072 L
359.44 55.371 L
363.78 54.671 L
368.12 53.817 L
372.46 53.143 L
376.8 52.368 L
381.14 51.576 L
385.48 50.916 L
389.82 49.975 L
394.16 49.255 L
398.5 48.34 L
402.84 47.646 L
407.18 46.943 L
411.52 45.961 L
415.86 44.983 L
420.2 44.068 L
424.54 43.564 L
428.88 43.063 L
433.22 42.59 L
437.56 41.987 L
441.9 41.464 L
446.24 40.959 L
450.58 40.55 L
454.92 40.066 L
459.26 39.735 L
463.6 39.281 L
467.94 38.938 L
472.28 38.595 L
476.62 38.081 L
480.96 37.699 L
485.3 37.396 L
489.64 37.061 L
493.98 36.777 L
498.32 36.364 L
502.66 36.227 L
507 36.142 L
S
GR
GS
1 LJ
0.5 LW
N
77.34 259.833 M
81.68 259.833 L
86.02 238.087 L
90.36 213.098 L
94.7 209.619 L
99.04 229.196 L
103.38 222.295 L
107.72 214.892 L
112.06 207.04 L
116.4 203.369 L
120.74 199.487 L
125.08 195.318 L
129.42 201.411 L
133.76 227.436 L
138.1 223.529 L
142.44 220.399 L
146.78 218.35 L
151.12 216.974 L
155.46 219.628 L
159.8 225.665 L
164.14 225.64 L
168.48 222.906 L
172.82 220.434 L
177.16 217.219 L
181.5 215.703 L
185.84 211.868 L
190.18 212.401 L
194.52 209.856 L
198.86 211.017 L
203.2 211.288 L
207.54 209.528 L
211.88 210.115 L
216.22 208.709 L
220.56 206.875 L
224.9 205.207 L
229.24 213.351 L
233.58 212.056 L
237.92 210.521 L
242.26 209.063 L
246.6 208.035 L
250.94 207.296 L
255.28 209.518 L
259.62 213.563 L
263.96 216.95 L
268.3 217.949 L
272.64 217.04 L
276.98 216.53 L
281.32 217.956 L
285.66 217.66 L
290 216.451 L
294.34 215.669 L
298.68 215.076 L
303.02 213.915 L
307.36 219.569 L
311.7 218.653 L
316.04 217.573 L
320.38 220.308 L
324.72 219.154 L
329.06 218.595 L
333.4 218.374 L
337.74 218.994 L
342.08 218.374 L
346.42 218.59 L
350.76 217.988 L
355.1 217.267 L
359.44 217.149 L
363.78 223.736 L
368.12 224.065 L
372.46 223.244 L
376.8 222.586 L
381.14 221.92 L
385.48 221.182 L
389.82 220.826 L
394.16 219.942 L
398.5 219.436 L
402.84 219.325 L
407.18 219.369 L
411.52 218.663 L
415.86 219.644 L
420.2 219.288 L
424.54 218.772 L
428.88 218.473 L
433.22 219.979 L
437.56 219.738 L
441.9 219.355 L
446.24 218.783 L
450.58 224.723 L
454.92 225.612 L
459.26 230.778 L
463.6 230.405 L
467.94 230.152 L
472.28 234.152 L
476.62 233.94 L
480.96 233.511 L
485.3 233.198 L
489.64 234.276 L
493.98 233.959 L
498.32 233.644 L
502.66 243.993 L
507 255.94 L
S
GR
GS
1 LJ
0.5 LW
N
77.34 259.833 M
81.68 233.602 L
86.02 260.501 L
90.36 248.064 L
94.7 252.111 L
99.04 319.794 L
103.38 308.627 L
107.72 297.644 L
112.06 286.758 L
116.4 285.252 L
120.74 279.306 L
125.08 275.272 L
129.42 270.421 L
133.76 265.894 L
138.1 260.439 L
142.44 255.925 L
146.78 252.042 L
151.12 246.917 L
155.46 244.814 L
159.8 241.367 L
164.14 238.644 L
168.48 240.688 L
172.82 237.488 L
177.16 240.264 L
181.5 245.461 L
185.84 241.689 L
190.18 238.929 L
194.52 235.82 L
198.86 233.373 L
203.2 231.737 L
S
GR
GS
[1 3] 0 setdash
2 LJ
0.5 LW
N
203.2 231.737 M
207.54 229.895 L
211.88 227.336 L
216.22 225.029 L
220.56 223.357 L
224.9 221.488 L
229.24 219.197 L
233.58 217.66 L
237.92 215.839 L
242.26 214.307 L
246.6 211.571 L
250.94 209.782 L
255.28 207.942 L
259.62 206.419 L
263.96 204.747 L
268.3 203.112 L
272.64 200.839 L
276.98 199.713 L
281.32 198.523 L
285.66 197.737 L
290 196.763 L
294.34 195.459 L
298.68 194.18 L
303.02 193.166 L
307.36 192.369 L
311.7 191.486 L
316.04 190.434 L
320.38 189.679 L
324.72 188.677 L
329.06 187.817 L
333.4 187.005 L
337.74 187.005 L
342.08 187.005 L
346.42 187.005 L
350.76 187.005 L
355.1 187.005 L
359.44 187.005 L
363.78 187.005 L
368.12 187.005 L
372.46 187.005 L
376.8 187.005 L
381.14 187.005 L
385.48 187.005 L
389.82 187.005 L
394.16 187.005 L
398.5 187.005 L
402.84 187.005 L
407.18 187.005 L
411.52 187.005 L
415.86 187.005 L
420.2 187.005 L
424.54 187.005 L
428.88 187.005 L
433.22 187.005 L
437.56 187.005 L
441.9 187.005 L
446.24 187.005 L
450.58 187.005 L
454.92 187.005 L
459.26 187.005 L
463.6 187.005 L
467.94 187.005 L
472.28 187.005 L
476.62 187.005 L
480.96 187.005 L
485.3 187.005 L
489.64 187.005 L
493.98 187.005 L
498.32 187.005 L
502.66 187.005 L
507 187.005 L
S
GR
GS
1 LJ
0.5 LW
N
77.34 259.833 M
81.68 218.623 L
86.02 221.407 L
90.36 225.86 L
94.7 221.437 L
99.04 218.502 L
103.38 215.844 L
107.72 208.115 L
112.06 213.467 L
116.4 214.163 L
120.74 208.423 L
125.08 208.058 L
129.42 210.616 L
133.76 207.347 L
138.1 206.044 L
142.44 202.443 L
146.78 199.978 L
151.12 200.269 L
155.46 199.359 L
159.8 196.875 L
164.14 194.123 L
168.48 190.739 L
172.82 187.777 L
177.16 195.649 L
181.5 192.106 L
185.84 189.445 L
190.18 188.008 L
194.52 185.653 L
198.86 182.66 L
203.2 183.94 L
207.54 182.035 L
211.88 181.594 L
216.22 179.478 L
220.56 180.451 L
224.9 178.414 L
229.24 175.952 L
233.58 172.611 L
237.92 172.236 L
242.26 170.363 L
S
GR
GS
[1 3] 0 setdash
2 LJ
0.5 LW
N
242.26 170.363 M
246.6 167.56 L
250.94 165.22 L
255.28 163.533 L
259.62 161.539 L
263.96 158.467 L
268.3 155.678 L
272.64 153.757 L
276.98 152.131 L
281.32 150.673 L
285.66 148.656 L
290 146.988 L
294.34 143.449 L
298.68 142.267 L
303.02 140.188 L
307.36 138.38 L
311.7 136.57 L
316.04 134.6 L
320.38 133.359 L
324.72 131.868 L
329.06 129.996 L
333.4 128.374 L
337.74 126.873 L
342.08 125.629 L
346.42 123.807 L
350.76 122.635 L
355.1 120.781 L
359.44 119.495 L
363.78 118.371 L
368.12 117.462 L
372.46 115.748 L
376.8 114.505 L
381.14 113.343 L
385.48 112.266 L
389.82 110.702 L
394.16 109.685 L
398.5 108.397 L
402.84 107.472 L
407.18 106.342 L
411.52 105.425 L
415.86 104.838 L
420.2 103.466 L
424.54 102.597 L
428.88 101.731 L
433.22 101.15 L
437.56 101.15 L
441.9 101.15 L
446.24 101.15 L
450.58 101.15 L
454.92 101.15 L
459.26 101.15 L
463.6 101.15 L
467.94 101.15 L
472.28 101.15 L
476.62 101.15 L
480.96 101.15 L
485.3 101.15 L
489.64 101.15 L
493.98 101.15 L
498.32 101.15 L
502.66 101.15 L
507 101.15 L
S
GR
GS
1 LJ
0.5 LW
N
77.34 259.833 M
81.68 229.861 L
86.02 221.734 L
90.36 212.436 L
94.7 211.221 L
99.04 202.246 L
103.38 193.673 L
107.72 187.216 L
112.06 179.979 L
116.4 173.551 L
120.74 167.274 L
125.08 160.839 L
129.42 158.73 L
133.76 154.831 L
138.1 150.901 L
142.44 147.318 L
146.78 141.65 L
151.12 139.082 L
155.46 136.521 L
159.8 132.935 L
164.14 130.467 L
168.48 128.479 L
172.82 124.496 L
177.16 121.424 L
181.5 117.856 L
185.84 116.154 L
190.18 113.636 L
194.52 285.346 L
198.86 282.804 L
203.2 280.974 L
207.54 280.531 L
211.88 278.308 L
216.22 275.576 L
220.56 285.109 L
224.9 283.082 L
229.24 281.013 L
233.58 280.056 L
237.92 278.254 L
242.26 274.318 L
246.6 272.776 L
250.94 271.056 L
255.28 270.101 L
259.62 270.131 L
263.96 274.503 L
268.3 272.272 L
272.64 269.64 L
276.98 267.923 L
281.32 271.452 L
285.66 271.69 L
290 269.202 L
294.34 268.775 L
298.68 267.674 L
303.02 266.414 L
307.36 265.368 L
311.7 263.054 L
316.04 261.9 L
320.38 260.899 L
324.72 263.121 L
329.06 261.801 L
333.4 260.328 L
337.74 259.065 L
342.08 257.302 L
346.42 255.852 L
350.76 254.847 L
355.1 253.336 L
359.44 252.983 L
363.78 251.933 L
368.12 251.171 L
372.46 249.319 L
376.8 247.941 L
381.14 246.419 L
385.48 244.943 L
389.82 256.668 L
394.16 256.577 L
398.5 254.955 L
402.84 253.92 L
407.18 253.401 L
411.52 260.301 L
415.86 259.882 L
420.2 258.885 L
424.54 258.356 L
428.88 257.746 L
433.22 256.945 L
437.56 256.587 L
441.9 255.368 L
446.24 255.463 L
450.58 254.391 L
454.92 253.825 L
459.26 252.966 L
463.6 252.241 L
S
GR
GS
[1 3] 0 setdash
2 LJ
0.5 LW
N
463.6 252.241 M
467.94 251.484 L
472.28 250.969 L
476.62 250.249 L
480.96 249.491 L
485.3 248.906 L
489.64 248.345 L
493.98 248.058 L
498.32 247.765 L
502.66 247.644 L
507 247.644 L
S
GR
GS
1 LJ
0.5 LW
N
77.34 259.833 M
81.68 204.751 L
86.02 151.341 L
90.36 132.778 L
94.7 126.31 L
99.04 121.216 L
103.38 117.775 L
107.72 112.147 L
112.06 106.295 L
116.4 146.378 L
120.74 161.848 L
125.08 164.047 L
129.42 161.739 L
133.76 159.176 L
138.1 156.175 L
142.44 162.687 L
146.78 159.668 L
151.12 158.883 L
155.46 158.67 L
159.8 158.499 L
164.14 163.818 L
168.48 165.404 L
172.82 163.785 L
177.16 161.599 L
181.5 160.311 L
185.84 164.305 L
190.18 162.519 L
194.52 163.347 L
198.86 167.974 L
203.2 167.292 L
207.54 168.216 L
211.88 174.202 L
216.22 172.763 L
220.56 172.827 L
224.9 189.343 L
229.24 188.337 L
233.58 187.241 L
237.92 186.221 L
242.26 185.665 L
246.6 186.264 L
250.94 195.75 L
255.28 198.562 L
259.62 197.537 L
263.96 197.161 L
268.3 196.787 L
272.64 199.559 L
276.98 199.497 L
281.32 204.44 L
285.66 203.963 L
290 203.758 L
294.34 203.375 L
298.68 206.456 L
303.02 206.758 L
307.36 211.186 L
311.7 210.014 L
316.04 210.414 L
320.38 210.049 L
324.72 210.432 L
329.06 210.014 L
333.4 209.185 L
337.74 208.579 L
342.08 216.281 L
346.42 216.878 L
350.76 216.29 L
355.1 220.342 L
359.44 219.526 L
363.78 218.871 L
368.12 218.325 L
372.46 217.689 L
376.8 217.204 L
381.14 217.024 L
385.48 216.343 L
389.82 216.729 L
394.16 216.454 L
398.5 215.826 L
402.84 217.265 L
407.18 216.696 L
411.52 220.865 L
415.86 222.67 L
420.2 224.216 L
424.54 223.637 L
428.88 237.523 L
433.22 237.887 L
437.56 237.775 L
441.9 237.404 L
446.24 238.221 L
450.58 237.922 L
454.92 239.196 L
459.26 238.965 L
463.6 238.696 L
467.94 241.63 L
472.28 243.859 L
476.62 244.65 L
480.96 247.187 L
485.3 247.986 L
489.64 248.016 L
493.98 249.411 L
498.32 249.825 L
502.66 249.831 L
507 259.044 L
S
GR
GS
1 LJ
0.5 LW
N
77.34 259.833 M
81.68 207.478 L
86.02 170.651 L
90.36 141.13 L
94.7 137.671 L
99.04 126.295 L
103.38 115.932 L
107.72 113.738 L
112.06 128.028 L
116.4 130.039 L
120.74 130.262 L
125.08 133.726 L
129.42 135.401 L
133.76 131.658 L
138.1 148.975 L
142.44 154.998 L
146.78 151.883 L
151.12 151.093 L
155.46 147.744 L
159.8 145.308 L
164.14 142.831 L
168.48 145.35 L
172.82 143.186 L
177.16 144.182 L
181.5 142.365 L
185.84 142.041 L
190.18 140.516 L
194.52 139.129 L
198.86 137.904 L
203.2 138.459 L
207.54 137.829 L
211.88 138.013 L
216.22 140.216 L
220.56 141.979 L
224.9 142.854 L
229.24 142.192 L
233.58 147.088 L
237.92 154.547 L
242.26 162.842 L
246.6 162.265 L
250.94 162.002 L
255.28 161.853 L
259.62 162.715 L
263.96 165.185 L
268.3 165.844 L
272.64 166.042 L
276.98 167.745 L
281.32 166.811 L
285.66 167.183 L
290 173.472 L
294.34 173.243 L
298.68 191.261 L
303.02 191.077 L
307.36 191.341 L
311.7 191.176 L
316.04 192.163 L
320.38 191.892 L
324.72 191.892 L
329.06 192.108 L
333.4 191.968 L
337.74 191.61 L
342.08 191.31 L
346.42 192.965 L
350.76 196.063 L
355.1 195.936 L
359.44 195.412 L
363.78 196.918 L
368.12 196.538 L
372.46 197.035 L
376.8 196.853 L
381.14 196.503 L
385.48 199.676 L
S
GR
GS
[1 3] 0 setdash
2 LJ
0.5 LW
N
385.48 199.676 M
389.82 199.107 L
394.16 198.578 L
398.5 198.125 L
402.84 197.613 L
407.18 196.927 L
411.52 196.375 L
415.86 195.696 L
420.2 195.138 L
424.54 195.138 L
428.88 195.138 L
433.22 195.138 L
437.56 195.138 L
441.9 195.138 L
446.24 195.138 L
450.58 195.138 L
454.92 195.138 L
459.26 195.138 L
463.6 195.138 L
467.94 195.138 L
472.28 195.138 L
476.62 195.138 L
480.96 195.138 L
485.3 195.138 L
489.64 195.138 L
493.98 195.138 L
498.32 195.138 L
502.66 195.138 L
507 195.138 L
S
GR
GS
1 LJ
0.5 LW
N
77.34 259.833 M
81.68 234.638 L
86.02 223.131 L
90.36 229.736 L
94.7 216.346 L
99.04 207.77 L
103.38 221.281 L
107.72 213.221 L
112.06 210.986 L
116.4 206.907 L
120.74 201.647 L
125.08 197.471 L
129.42 196.095 L
133.76 198.635 L
138.1 195.266 L
142.44 190.159 L
146.78 185.568 L
151.12 182.789 L
155.46 180.822 L
159.8 179.302 L
164.14 174.108 L
168.48 176.432 L
172.82 173.592 L
177.16 170.234 L
181.5 169.548 L
185.84 166.784 L
190.18 164.52 L
194.52 164.107 L
198.86 161.319 L
203.2 163.399 L
207.54 161.265 L
211.88 158.2 L
216.22 166.68 L
220.56 163.317 L
224.9 161.044 L
229.24 160.233 L
233.58 157.576 L
237.92 158.07 L
242.26 155.752 L
246.6 154.324 L
250.94 153.128 L
255.28 151.445 L
259.62 148.695 L
263.96 147.184 L
268.3 145.033 L
272.64 143.133 L
276.98 146.681 L
281.32 145.735 L
285.66 144.395 L
290 142.893 L
294.34 141.635 L
298.68 151.994 L
303.02 151.146 L
307.36 149.232 L
311.7 148.819 L
316.04 148.302 L
320.38 147.81 L
324.72 146.265 L
329.06 151.67 L
333.4 150.328 L
337.74 149.06 L
342.08 148.301 L
346.42 146.957 L
350.76 145.711 L
355.1 145.155 L
359.44 148.338 L
363.78 205.142 L
368.12 204.071 L
372.46 203.263 L
376.8 202.346 L
381.14 203.898 L
385.48 203.423 L
389.82 202.476 L
394.16 201.349 L
398.5 200.823 L
402.84 200.22 L
407.18 221.656 L
411.52 226.07 L
415.86 225.672 L
420.2 226.046 L
424.54 225.5 L
428.88 226.191 L
433.22 227.363 L
437.56 228.908 L
441.9 230.714 L
446.24 240.382 L
450.58 244.992 L
454.92 244.803 L
459.26 245.065 L
463.6 244.579 L
467.94 244.176 L
472.28 243.898 L
476.62 245.237 L
480.96 245.653 L
485.3 245.49 L
489.64 245.42 L
493.98 257.281 L
498.32 259.736 L
502.66 259.63 L
507 259.383 L
S
GR
GS
1 LJ
0.5 LW
N
77.34 259.833 M
81.68 119.851 L
86.02 109.75 L
90.36 101.639 L
94.7 96.379 L
99.04 91.615 L
103.38 87.895 L
107.72 86.666 L
112.06 86.375 L
116.4 87.163 L
120.74 83.026 L
125.08 80.738 L
129.42 76.181 L
133.76 73.53 L
138.1 69.946 L
142.44 69.24 L
146.78 67.248 L
151.12 69.044 L
155.46 68.224 L
159.8 67.808 L
164.14 72.792 L
168.48 72.754 L
172.82 71.358 L
177.16 70.174 L
181.5 70.606 L
185.84 69.294 L
190.18 68.002 L
194.52 67.029 L
198.86 210.169 L
203.2 209.175 L
207.54 208.205 L
211.88 209.656 L
216.22 213.333 L
220.56 216.545 L
224.9 219.294 L
229.24 225.342 L
233.58 226.103 L
237.92 225.375 L
242.26 224.84 L
246.6 224.375 L
250.94 226.565 L
255.28 227.315 L
259.62 228.289 L
263.96 227.902 L
268.3 228.604 L
272.64 227.952 L
276.98 227.95 L
281.32 228.552 L
285.66 227.783 L
290 227.079 L
294.34 226.528 L
298.68 233.27 L
303.02 233.193 L
307.36 232.703 L
311.7 232.456 L
316.04 235.148 L
320.38 234.694 L
324.72 234.414 L
329.06 234.128 L
333.4 234.281 L
337.74 233.633 L
342.08 238.3 L
346.42 237.956 L
350.76 237.511 L
355.1 236.963 L
359.44 238.313 L
363.78 238.116 L
368.12 237.573 L
372.46 237.196 L
376.8 236.886 L
381.14 236.445 L
385.48 235.906 L
389.82 237.307 L
394.16 237.123 L
398.5 236.505 L
402.84 236.317 L
407.18 236.221 L
411.52 235.801 L
415.86 236.071 L
420.2 235.831 L
424.54 244.191 L
428.88 244.431 L
433.22 244.044 L
437.56 244.776 L
441.9 244.517 L
446.24 244.318 L
450.58 244.239 L
454.92 243.963 L
459.26 246.576 L
463.6 247.928 L
467.94 249.209 L
472.28 249.519 L
476.62 249.443 L
480.96 249.146 L
485.3 250.116 L
489.64 253.709 L
493.98 253.647 L
498.32 253.508 L
502.66 259.618 L
S
GR
GS
[1 3] 0 setdash
2 LJ
0.5 LW
N
502.66 259.618 M
507 259.586 L
S
GR
GS
1 LJ
0.5 LW
N
77.34 259.833 M
81.68 241.284 L
86.02 245.193 L
90.36 233.011 L
94.7 232.545 L
99.04 223.304 L
103.38 214.683 L
107.72 221.1 L
112.06 245.405 L
116.4 239.911 L
120.74 229.964 L
125.08 225.549 L
129.42 223.542 L
133.76 217.838 L
138.1 231.131 L
142.44 226.019 L
146.78 219.126 L
151.12 229.586 L
155.46 229.216 L
159.8 224.056 L
164.14 223.934 L
168.48 221.524 L
172.82 221.781 L
177.16 226.7 L
181.5 225.597 L
185.84 222.301 L
190.18 219.215 L
194.52 216.056 L
198.86 213.671 L
203.2 212.315 L
207.54 209.871 L
211.88 206.793 L
216.22 204.113 L
220.56 202.32 L
224.9 207.77 L
229.24 206.136 L
233.58 204.464 L
237.92 201.55 L
242.26 202.487 L
246.6 202.993 L
250.94 201.145 L
255.28 199.788 L
259.62 198.857 L
263.96 201.928 L
268.3 202.947 L
272.64 202.048 L
S
GR
GS
[1 3] 0 setdash
2 LJ
0.5 LW
N
272.64 202.048 M
276.98 200.769 L
281.32 199.704 L
285.66 198.836 L
290 197.455 L
294.34 196.478 L
298.68 195.055 L
303.02 194.136 L
307.36 192.693 L
311.7 191.217 L
316.04 190.196 L
320.38 189.088 L
324.72 187.481 L
329.06 186.432 L
333.4 185.134 L
337.74 183.868 L
342.08 183.868 L
346.42 183.868 L
350.76 183.868 L
355.1 183.868 L
359.44 183.868 L
363.78 183.868 L
368.12 183.868 L
372.46 183.868 L
376.8 183.868 L
381.14 183.868 L
385.48 183.868 L
389.82 183.868 L
394.16 183.868 L
398.5 183.868 L
402.84 183.868 L
407.18 183.868 L
411.52 183.868 L
415.86 183.868 L
420.2 183.868 L
424.54 183.868 L
428.88 183.868 L
433.22 183.868 L
437.56 183.868 L
441.9 183.868 L
446.24 183.868 L
450.58 183.868 L
454.92 183.868 L
459.26 183.868 L
463.6 183.868 L
467.94 183.868 L
472.28 183.868 L
476.62 183.868 L
480.96 183.868 L
485.3 183.868 L
489.64 183.868 L
493.98 183.868 L
498.32 183.868 L
502.66 183.868 L
507 183.868 L
S
GR
GS
1 LJ
0.5 LW
N
77.34 259.833 M
81.68 226.764 L
86.02 219.714 L
90.36 205.651 L
94.7 192.628 L
99.04 200.217 L
103.38 184.936 L
107.72 176.893 L
112.06 170.187 L
116.4 163.111 L
S
GR
GS
[1 3] 0 setdash
2 LJ
0.5 LW
N
116.4 163.111 M
120.74 156.393 L
125.08 149.483 L
129.42 145.483 L
133.76 141.966 L
138.1 139.352 L
142.44 131.991 L
146.78 127.268 L
151.12 123.985 L
155.46 120.64 L
159.8 118.697 L
164.14 115.062 L
168.48 111.353 L
172.82 109.572 L
177.16 107.394 L
181.5 105.284 L
185.84 102.536 L
190.18 100.845 L
194.52 98.928 L
198.86 97.247 L
203.2 95.044 L
207.54 92.475 L
211.88 91.103 L
216.22 88.945 L
220.56 87.086 L
224.9 84.917 L
229.24 82.704 L
233.58 80.357 L
237.92 78.286 L
242.26 75.986 L
246.6 74.267 L
250.94 71.906 L
255.28 69.772 L
259.62 67.789 L
263.96 66.029 L
268.3 64.268 L
272.64 62.851 L
276.98 61.875 L
281.32 60.224 L
285.66 59.051 L
290 57.61 L
294.34 56.482 L
298.68 55.354 L
303.02 54.381 L
307.36 53.532 L
311.7 51.93 L
316.04 50.506 L
320.38 48.671 L
324.72 47.616 L
329.06 45.707 L
333.4 45.098 L
337.74 44.308 L
342.08 43.54 L
346.42 42.638 L
350.76 41.821 L
355.1 40.915 L
359.44 40.194 L
363.78 39.443 L
368.12 38.207 L
372.46 37.598 L
376.8 36.739 L
381.14 36.22 L
385.48 35.38 L
389.82 34.679 L
394.16 34.002 L
398.5 33.139 L
402.84 33.139 L
407.18 33.139 L
411.52 33.139 L
415.86 33.139 L
420.2 33.139 L
424.54 33.139 L
428.88 33.139 L
433.22 33.139 L
437.56 33.139 L
441.9 33.139 L
446.24 33.139 L
450.58 33.139 L
454.92 33.139 L
459.26 33.139 L
463.6 33.139 L
467.94 33.139 L
472.28 33.139 L
476.62 33.139 L
480.96 33.139 L
485.3 33.139 L
489.64 33.139 L
493.98 33.139 L
498.32 33.139 L
502.66 33.139 L
507 33.139 L
S
GR
GS
1 LJ
0.5 LW
N
77.34 259.833 M
81.68 260.918 L
86.02 248.559 L
90.36 246.86 L
94.7 244.068 L
99.04 222.298 L
103.38 216.977 L
107.72 206.601 L
112.06 199.01 L
116.4 192.665 L
120.74 188.403 L
125.08 182.227 L
129.42 176.98 L
133.76 253.519 L
138.1 254.782 L
142.44 254.489 L
146.78 249.351 L
151.12 243.846 L
155.46 241.613 L
159.8 239.523 L
164.14 235.777 L
168.48 232.619 L
172.82 229.659 L
177.16 231.26 L
181.5 230.371 L
185.84 227.027 L
190.18 226.054 L
194.52 223.374 L
198.86 221.848 L
203.2 219.866 L
207.54 218.095 L
211.88 223.043 L
216.22 220.991 L
220.56 218.358 L
224.9 215.888 L
229.24 214.738 L
233.58 214.361 L
237.92 212 L
242.26 211.727 L
246.6 211.014 L
250.94 211.891 L
255.28 210.842 L
259.62 209.205 L
263.96 207.202 L
268.3 205.702 L
272.64 203.889 L
276.98 204.195 L
281.32 202.855 L
285.66 202.919 L
290 201.857 L
294.34 199.914 L
298.68 237.754 L
303.02 235.989 L
307.36 234.703 L
311.7 233.294 L
316.04 233.434 L
320.38 232.135 L
324.72 231.65 L
329.06 230.444 L
333.4 230.342 L
337.74 231.052 L
342.08 230.88 L
346.42 230.641 L
350.76 229.285 L
355.1 230.283 L
359.44 228.436 L
363.78 227.405 L
368.12 226.638 L
372.46 226.837 L
376.8 226.68 L
381.14 229.553 L
385.48 228.837 L
389.82 228.139 L
394.16 234.075 L
398.5 232.945 L
402.84 232.509 L
407.18 231.52 L
411.52 230.569 L
415.86 229.594 L
420.2 229.952 L
424.54 229.448 L
428.88 229.657 L
433.22 229.503 L
437.56 229.8 L
441.9 245.202 L
446.24 244.974 L
450.58 246.381 L
454.92 246.168 L
459.26 246.574 L
463.6 248.86 L
467.94 248.909 L
472.28 250.097 L
476.62 252.472 L
480.96 253.966 L
485.3 254.095 L
489.64 255.948 L
493.98 256.104 L
498.32 259.33 L
S
GR
GS
[1 3] 0 setdash
2 LJ
0.5 LW
N
498.32 259.33 M
502.66 259.33 L
507 259.33 L
S
GR
GS
1 LJ
0.5 LW
N
77.34 259.833 M
81.68 252.924 L
86.02 244.08 L
90.36 237.37 L
94.7 222.937 L
99.04 211.99 L
103.38 215.599 L
107.72 211.267 L
112.06 206.564 L
116.4 203.621 L
120.74 196.325 L
125.08 210.304 L
129.42 208.987 L
133.76 205.413 L
138.1 249.433 L
142.44 245.044 L
146.78 241.477 L
151.12 241.223 L
155.46 241.809 L
159.8 240.756 L
164.14 240.697 L
168.48 236.387 L
172.82 233.246 L
177.16 232.114 L
S
GR
GS
[1 3] 0 setdash
2 LJ
0.5 LW
N
177.16 232.114 M
181.5 229.173 L
185.84 224.985 L
190.18 221.314 L
194.52 218.67 L
198.86 216.64 L
203.2 213.74 L
207.54 212 L
211.88 210.054 L
216.22 206.362 L
220.56 203.758 L
224.9 201.013 L
229.24 198.284 L
233.58 196.615 L
237.92 194.185 L
242.26 192.083 L
246.6 190.425 L
250.94 188.355 L
255.28 186.427 L
259.62 184.907 L
263.96 182.709 L
268.3 181.42 L
272.64 179.369 L
276.98 177.888 L
281.32 176.358 L
285.66 174.529 L
290 172.67 L
294.34 171.108 L
298.68 169.595 L
303.02 167.922 L
307.36 165.41 L
311.7 163.778 L
316.04 161.752 L
320.38 160.384 L
324.72 159.043 L
329.06 157.355 L
333.4 155.851 L
337.74 154.255 L
342.08 152.719 L
346.42 150.756 L
350.76 149.253 L
355.1 149.253 L
359.44 149.253 L
363.78 149.253 L
368.12 149.253 L
372.46 149.253 L
376.8 149.253 L
381.14 149.253 L
385.48 149.253 L
389.82 149.253 L
394.16 149.253 L
398.5 149.253 L
402.84 149.253 L
407.18 149.253 L
411.52 149.253 L
415.86 149.253 L
420.2 149.253 L
424.54 149.253 L
428.88 149.253 L
433.22 149.253 L
437.56 149.253 L
441.9 149.253 L
446.24 149.253 L
450.58 149.253 L
454.92 149.253 L
459.26 149.253 L
463.6 149.253 L
467.94 149.253 L
472.28 149.253 L
476.62 149.253 L
480.96 149.253 L
485.3 149.253 L
489.64 149.253 L
493.98 149.253 L
498.32 149.253 L
502.66 149.253 L
507 149.253 L
S
GR
GS
1 LJ
0.5 LW
N
77.34 259.833 M
81.68 222.773 L
86.02 206.468 L
90.36 202.915 L
94.7 194.583 L
99.04 193.16 L
103.38 242.469 L
107.72 238.116 L
112.06 230.319 L
116.4 227.418 L
120.74 223.142 L
125.08 217.287 L
129.42 211.144 L
133.76 207.826 L
138.1 206.47 L
142.44 201.867 L
146.78 205.138 L
151.12 201.152 L
155.46 200.258 L
159.8 235.981 L
S
GR
GS
[1 3] 0 setdash
2 LJ
0.5 LW
N
159.8 235.981 M
164.14 232.604 L
168.48 229.077 L
172.82 224.299 L
177.16 220.066 L
181.5 217.279 L
185.84 213.399 L
190.18 210.308 L
194.52 206.956 L
198.86 203.307 L
203.2 199.546 L
207.54 195.125 L
211.88 191.182 L
216.22 188.061 L
220.56 185.476 L
224.9 183.664 L
229.24 181.983 L
233.58 180.699 L
237.92 179.033 L
242.26 177.285 L
246.6 175.868 L
250.94 173.42 L
255.28 172.054 L
259.62 170.747 L
263.96 169.019 L
268.3 167.589 L
272.64 165.704 L
276.98 164.063 L
281.32 162.669 L
285.66 161.242 L
290 159.677 L
294.34 158.433 L
298.68 156.82 L
303.02 155.567 L
307.36 154.806 L
311.7 153.511 L
316.04 152.182 L
320.38 151.091 L
324.72 149.437 L
329.06 147.708 L
333.4 146.607 L
337.74 144.849 L
342.08 143.326 L
346.42 142.175 L
350.76 141.174 L
355.1 139.778 L
359.44 138.696 L
363.78 137.327 L
368.12 135.701 L
372.46 134.764 L
376.8 133.708 L
381.14 132.562 L
385.48 131.767 L
389.82 130.797 L
394.16 129.839 L
398.5 128.787 L
402.84 128.025 L
407.18 127.396 L
411.52 126.569 L
415.86 125.894 L
420.2 125.179 L
424.54 124.474 L
428.88 123.779 L
433.22 122.983 L
437.56 122.358 L
441.9 121.834 L
446.24 121.337 L
450.58 120.845 L
454.92 120.421 L
459.26 119.906 L
463.6 119.334 L
467.94 118.696 L
472.28 118.169 L
476.62 117.616 L
480.96 117.064 L
485.3 116.664 L
489.64 116.188 L
493.98 115.927 L
498.32 115.712 L
502.66 115.398 L
507 115.239 L
S
GR
GS
1 LJ
0.5 LW
N
77.34 259.833 M
81.68 245.699 L
86.02 231.481 L
90.36 214.716 L
94.7 197.674 L
99.04 184.344 L
103.38 183.957 L
107.72 178.287 L
112.06 172.579 L
116.4 174.777 L
120.74 168.63 L
125.08 164.995 L
129.42 189.069 L
133.76 185.556 L
138.1 180.004 L
142.44 175.946 L
146.78 170.263 L
151.12 176.804 L
155.46 174.271 L
159.8 177.282 L
164.14 177.804 L
168.48 175.122 L
172.82 172.778 L
177.16 168.273 L
181.5 169.769 L
185.84 167.391 L
190.18 166.045 L
194.52 163.182 L
198.86 164.326 L
203.2 164.141 L
207.54 161.968 L
211.88 161.392 L
216.22 160.9 L
220.56 159.407 L
224.9 159.121 L
229.24 158.211 L
233.58 171.407 L
237.92 169.877 L
242.26 171.292 L
246.6 192.383 L
250.94 191.175 L
255.28 190.161 L
259.62 189.414 L
263.96 188.378 L
268.3 189.149 L
272.64 188.178 L
276.98 188.814 L
281.32 187.199 L
285.66 185.969 L
290 185.201 L
294.34 184.872 L
298.68 183.874 L
303.02 183.293 L
307.36 181.976 L
311.7 193.782 L
316.04 196.164 L
320.38 195.903 L
324.72 195.175 L
S
GR
GS
[1 3] 0 setdash
2 LJ
0.5 LW
N
324.72 195.175 M
329.06 193.807 L
333.4 192.557 L
337.74 191.43 L
342.08 190.65 L
346.42 190.009 L
350.76 189.037 L
355.1 187.883 L
359.44 187.883 L
363.78 187.883 L
368.12 187.883 L
372.46 187.883 L
376.8 187.883 L
381.14 187.883 L
385.48 187.883 L
389.82 187.883 L
394.16 187.883 L
398.5 187.883 L
402.84 187.883 L
407.18 187.883 L
411.52 187.883 L
415.86 187.883 L
420.2 187.883 L
424.54 187.883 L
428.88 187.883 L
433.22 187.883 L
437.56 187.883 L
441.9 187.883 L
446.24 187.883 L
450.58 187.883 L
454.92 187.883 L
459.26 187.883 L
463.6 187.883 L
467.94 187.883 L
472.28 187.883 L
476.62 187.883 L
480.96 187.883 L
485.3 187.883 L
489.64 187.883 L
493.98 187.883 L
498.32 187.883 L
502.66 187.883 L
507 187.883 L
S
GR
GS
1 GC
N
499 89 M
499 39.5 L
324.5 39.5 L
324.5 89 L
cp
f
GR
GS
[1 0 0 1 361.5 47] CT
/Helvetica 9 F
GS
[1 0 0 1 0 0] CT
0 3.5 moveto 
1 -1 scale
(ALS and CPTT) t 
GR
GR
GS
1 0 0 RC
1 LJ
0.5 LW
N
328.5 47 M
358.5 47 L
S
GR
GS
[1 0 0 1 361.5 58.5] CT
/Helvetica 9 F
GS
[1 0 0 1 0 0] CT
0 3.5 moveto 
1 -1 scale
(ALS and non convergent CPTT) t 
GR
GR
GS
1 0 0 RC
[1 3] 0 setdash
2 LJ
0.5 LW
N
328.5 58.5 M
358.5 58.5 L
S
GR
GS
[1 0 0 1 361.5 70] CT
/Helvetica 9 F
GS
[1 0 0 1 0 0] CT
0 3.5 moveto 
1 -1 scale
(ASVD and CPTT) t 
GR
GR
GS
1 LJ
0.5 LW
N
328.5 70 M
358.5 70 L
S
GR
GS
[1 0 0 1 361.5 81.5] CT
/Helvetica 9 F
GS
[1 0 0 1 0 0] CT
0 3.5 moveto 
1 -1 scale
(Non convergent ASVD and CPTT) t 
GR
GR
GS
[1 3] 0 setdash
2 LJ
0.5 LW
N
328.5 81.5 M
358.5 81.5 L
S
GR
GS
0.149 GC
10.0 ML
0.5 LW
N
324.5 89 M
324.5 39.5 L
499 39.5 L
499 89 L
cp
S
GR
%%Trailer
%%Pages: 1
%%EOF
