0 0.000148477
1 0.0010557
2 0.000471595
3 1.85597e-05
4 0.0010557
5 0.00152597
6 3.71193e-05
7 0.0010557
8 0.000471595
9 1.85597e-05
10 0.0010557
11 0.00164778
12 7.42387e-05
13 0.0010557
14 0.000471595
15 1.85597e-05
16 0.0010557
17 0.00152597
18 3.71193e-05
19 0.0010557
20 0.000471595
21 1.85597e-05
22 0.0010557
23 0.0010557
24 1.85597e-05
25 0.000471595
26 0.0010557
27 3.71193e-05
28 0.00152597
29 0.0010557
30 1.85597e-05
31 0.000471595
32 0.0010557
33 7.42387e-05
34 0.00164778
35 0.0010557
36 1.85597e-05
37 0.000471595
38 0.0010557
39 3.71193e-05
40 0.00152597
41 0.0010557
42 1.85597e-05
43 0.000471595
44 0.0010557
45 0.000148477
46 0.00180912
47 0.00667604
48 0.0010557
49 0.000471595
50 1.85597e-05
51 0.0010557
52 0.00152597
53 3.71193e-05
54 0.0010557
55 0.000471595
56 1.85597e-05
57 0.0010557
58 0.00164778
59 7.42387e-05
60 0.0010557
61 0.000471595
62 1.85597e-05
63 0.0010557
64 0.00152597
65 3.71193e-05
66 0.0010557
67 0.000471595
68 1.85597e-05
69 0.0010557
70 0.00304974
71 0.00304974
72 0.0010557
73 1.85597e-05
74 0.000471595
75 0.0010557
76 3.71193e-05
77 0.00152597
78 0.0010557
79 1.85597e-05
80 0.000471595
81 0.0010557
82 7.42387e-05
83 0.00164778
84 0.0010557
85 1.85597e-05
86 0.000471595
87 0.0010557
88 3.71193e-05
89 0.00152597
90 0.0010557
91 1.85597e-05
92 0.000471595
93 0.0010557
94 0.00931479
95 0.00304974
96 0.000148477
97 0.0010557
98 0.000471595
99 1.85597e-05
100 0.0010557
101 0.00152597
102 3.71193e-05
103 0.0010557
104 0.000471595
105 1.85597e-05
106 0.0010557
107 0.00164778
108 7.42387e-05
109 0.0010557
110 0.000471595
111 1.85597e-05
112 0.0010557
113 0.00152597
114 3.71193e-05
115 0.0010557
116 0.000471595
117 1.85597e-05
118 0.0010557
119 0.0010557
120 1.85597e-05
121 0.000471595
122 0.0010557
123 3.71193e-05
124 0.00152597
125 0.0010557
126 1.85597e-05
127 0.000471595
128 0.0010557
129 7.42387e-05
130 0.00164778
131 0.0010557
132 1.85597e-05
133 0.000471595
134 0.0010557
135 3.71193e-05
136 0.00152597
137 0.0010557
138 1.85597e-05
139 0.000471595
140 0.0010557
141 0.000148477
142 0.0101275
143 0.000482083
144 0.00304974
145 0.00931479
146 0.0010557
147 0.000471595
148 1.85597e-05
149 0.0010557
150 0.00152597
151 3.71193e-05
152 0.0010557
153 0.000471595
154 1.85597e-05
155 0.0010557
156 0.00164778
157 7.42387e-05
158 0.0010557
159 0.000471595
160 1.85597e-05
161 0.0010557
162 0.00152597
163 3.71193e-05
164 0.0010557
165 0.000471595
166 1.85597e-05
167 0.0010557
168 0.00304974
169 0.0101275
170 0.0101275
171 0.00304974
172 0.0010557
173 1.85597e-05
174 0.000471595
175 0.0010557
176 3.71193e-05
177 0.00152597
178 0.0010557
179 1.85597e-05
180 0.000471595
181 0.0010557
182 7.42387e-05
183 0.00164778
184 0.0010557
185 1.85597e-05
186 0.000471595
187 0.0010557
188 3.71193e-05
189 0.00152597
190 0.0010557
191 1.85597e-05
192 0.000471595
193 0.0010557
194 0.00931479
195 0.00304974
196 0.000482083
197 0.0101275
198 0.000148477
199 0.0010557
200 0.000471595
201 1.85597e-05
202 0.0010557
203 0.00152597
204 3.71193e-05
205 0.0010557
206 0.000471595
207 1.85597e-05
208 0.0010557
209 0.00164778
210 7.42387e-05
211 0.0010557
212 0.000471595
213 1.85597e-05
214 0.0010557
215 0.00152597
216 3.71193e-05
217 0.0010557
218 0.000471595
219 1.85597e-05
220 0.0010557
221 0.0010557
222 1.85597e-05
223 0.000471595
224 0.0010557
225 3.71193e-05
226 0.00152597
227 0.0010557
228 1.85597e-05
229 0.000471595
230 0.0010557
231 7.42387e-05
232 0.00164778
233 0.0010557
234 1.85597e-05
235 0.000471595
236 0.0010557
237 3.71193e-05
238 0.00152597
239 0.0010557
240 1.85597e-05
241 0.000471595
242 0.0010557
243 0.000148477
244 0.00304974
245 0.00931479
246 0.0010557
247 0.000471595
248 1.85597e-05
249 0.0010557
250 0.00152597
251 3.71193e-05
252 0.0010557
253 0.000471595
254 1.85597e-05
255 0.0010557
256 0.00164778
257 7.42387e-05
258 0.0010557
259 0.000471595
260 1.85597e-05
261 0.0010557
262 0.00152597
263 3.71193e-05
264 0.0010557
265 0.000471595
266 1.85597e-05
267 0.0010557
268 0.00304974
269 0.00304974
270 0.0010557
271 1.85597e-05
272 0.000471595
273 0.0010557
274 3.71193e-05
275 0.00152597
276 0.0010557
277 1.85597e-05
278 0.000471595
279 0.0010557
280 7.42387e-05
281 0.00164778
282 0.0010557
283 1.85597e-05
284 0.000471595
285 0.0010557
286 3.71193e-05
287 0.00152597
288 0.0010557
289 1.85597e-05
290 0.000471595
291 0.0010557
292 0.00931479
293 0.00304974
294 0.000148477
295 0.0010557
296 0.000471595
297 1.85597e-05
298 0.0010557
299 0.00152597
300 3.71193e-05
301 0.0010557
302 0.000471595
303 1.85597e-05
304 0.0010557
305 0.00164778
306 7.42387e-05
307 0.0010557
308 0.000471595
309 1.85597e-05
310 0.0010557
311 0.00152597
312 3.71193e-05
313 0.0010557
314 0.000471595
315 1.85597e-05
316 0.0010557
317 0.0010557
318 1.85597e-05
319 0.000471595
320 0.0010557
321 3.71193e-05
322 0.00152597
323 0.0010557
324 1.85597e-05
325 0.000471595
326 0.0010557
327 7.42387e-05
328 0.00164778
329 0.0010557
330 1.85597e-05
331 0.000471595
332 0.0010557
333 3.71193e-05
334 0.00152597
335 0.0010557
336 1.85597e-05
337 0.000471595
338 0.0010557
339 0.000148477
340 0.000705637
341 0.000593917
342 0.0101275
343 0.000482083
344 0.00304974
345 0.00931479
346 0.0010557
347 0.000471595
348 1.85597e-05
349 0.0010557
350 0.00152597
351 3.71193e-05
352 0.0010557
353 0.000471595
354 1.85597e-05
355 0.0010557
356 0.00164778
357 7.42387e-05
358 0.0010557
359 0.000471595
360 1.85597e-05
361 0.0010557
362 0.00152597
363 3.71193e-05
364 0.0010557
365 0.000471595
366 1.85597e-05
367 0.0010557
368 0.00304974
369 0.0101275
370 0.000705637
371 0.000705637
372 0.0101275
373 0.00304974
374 0.0010557
375 1.85597e-05
376 0.000471595
377 0.0010557
378 3.71193e-05
379 0.00152597
380 0.0010557
381 1.85597e-05
382 0.000471595
383 0.0010557
384 7.42387e-05
385 0.00164778
386 0.0010557
387 1.85597e-05
388 0.000471595
389 0.0010557
390 3.71193e-05
391 0.00152597
392 0.0010557
393 1.85597e-05
394 0.000471595
395 0.0010557
396 0.00931479
397 0.00304974
398 0.000482083
399 0.0101275
400 0.000593917
401 0.000705637
402 0.000148477
403 0.0010557
404 0.000471595
405 1.85597e-05
406 0.0010557
407 0.00152597
408 3.71193e-05
409 0.0010557
410 0.000471595
411 1.85597e-05
412 0.0010557
413 0.00164778
414 7.42387e-05
415 0.0010557
416 0.000471595
417 1.85597e-05
418 0.0010557
419 0.00152597
420 3.71193e-05
421 0.0010557
422 0.000471595
423 1.85597e-05
424 0.0010557
425 0.0010557
426 1.85597e-05
427 0.000471595
428 0.0010557
429 3.71193e-05
430 0.00152597
431 0.0010557
432 1.85597e-05
433 0.000471595
434 0.0010557
435 7.42387e-05
436 0.00164778
437 0.0010557
438 1.85597e-05
439 0.000471595
440 0.0010557
441 3.71193e-05
442 0.00152597
443 0.0010557
444 1.85597e-05
445 0.000471595
446 0.0010557
447 0.000148477
448 0.00304974
449 0.00931479
450 0.0010557
451 0.000471595
452 1.85597e-05
453 0.0010557
454 0.00152597
455 3.71193e-05
456 0.0010557
457 0.000471595
458 1.85597e-05
459 0.0010557
460 0.00164778
461 7.42387e-05
462 0.0010557
463 0.000471595
464 1.85597e-05
465 0.0010557
466 0.00152597
467 3.71193e-05
468 0.0010557
469 0.000471595
470 1.85597e-05
471 0.0010557
472 0.00304974
473 0.00304974
474 0.0010557
475 1.85597e-05
476 0.000471595
477 0.0010557
478 3.71193e-05
479 0.00152597
480 0.0010557
481 1.85597e-05
482 0.000471595
483 0.0010557
484 7.42387e-05
485 0.00164778
486 0.0010557
487 1.85597e-05
488 0.000471595
489 0.0010557
490 3.71193e-05
491 0.00152597
492 0.0010557
493 1.85597e-05
494 0.000471595
495 0.0010557
496 0.00931479
497 0.00304974
498 0.000148477
499 0.0010557
500 0.000471595
501 1.85597e-05
502 0.0010557
503 0.00152597
504 3.71193e-05
505 0.0010557
506 0.000471595
507 1.85597e-05
508 0.0010557
509 0.00164778
510 7.42387e-05
511 0.0010557
512 0.000471595
513 1.85597e-05
514 0.0010557
515 0.00152597
516 3.71193e-05
517 0.0010557
518 0.000471595
519 1.85597e-05
520 0.0010557
521 0.0010557
522 1.85597e-05
523 0.000471595
524 0.0010557
525 3.71193e-05
526 0.00152597
527 0.0010557
528 1.85597e-05
529 0.000471595
530 0.0010557
531 7.42387e-05
532 0.00164778
533 0.0010557
534 1.85597e-05
535 0.000471595
536 0.0010557
537 3.71193e-05
538 0.00152597
539 0.0010557
540 1.85597e-05
541 0.000471595
542 0.0010557
543 0.000148477
544 0.0101275
545 0.000482083
546 0.00304974
547 0.00931479
548 0.0010557
549 0.000471595
550 1.85597e-05
551 0.0010557
552 0.00152597
553 3.71193e-05
554 0.0010557
555 0.000471595
556 1.85597e-05
557 0.0010557
558 0.00164778
559 7.42387e-05
560 0.0010557
561 0.000471595
562 1.85597e-05
563 0.0010557
564 0.00152597
565 3.71193e-05
566 0.0010557
567 0.000471595
568 1.85597e-05
569 0.0010557
570 0.00304974
571 0.0101275
572 0.0101275
573 0.00304974
574 0.0010557
575 1.85597e-05
576 0.000471595
577 0.0010557
578 3.71193e-05
579 0.00152597
580 0.0010557
581 1.85597e-05
582 0.000471595
583 0.0010557
584 7.42387e-05
585 0.00164778
586 0.0010557
587 1.85597e-05
588 0.000471595
589 0.0010557
590 3.71193e-05
591 0.00152597
592 0.0010557
593 1.85597e-05
594 0.000471595
595 0.0010557
596 0.00931479
597 0.00304974
598 0.000482083
599 0.0101275
600 0.000148477
601 0.0010557
602 0.000471595
603 1.85597e-05
604 0.0010557
605 0.00152597
606 3.71193e-05
607 0.0010557
608 0.000471595
609 1.85597e-05
610 0.0010557
611 0.00164778
612 7.42387e-05
613 0.0010557
614 0.000471595
615 1.85597e-05
616 0.0010557
617 0.00152597
618 3.71193e-05
619 0.0010557
620 0.000471595
621 1.85597e-05
622 0.0010557
623 0.0010557
624 1.85597e-05
625 0.000471595
626 0.0010557
627 3.71193e-05
628 0.00152597
629 0.0010557
630 1.85597e-05
631 0.000471595
632 0.0010557
633 7.42387e-05
634 0.00164778
635 0.0010557
636 1.85597e-05
637 0.000471595
638 0.0010557
639 3.71193e-05
640 0.00152597
641 0.0010557
642 1.85597e-05
643 0.000471595
644 0.0010557
645 0.000148477
646 0.00304974
647 0.00931479
648 0.0010557
649 0.000471595
650 1.85597e-05
651 0.0010557
652 0.00152597
653 3.71193e-05
654 0.0010557
655 0.000471595
656 1.85597e-05
657 0.0010557
658 0.00164778
659 7.42387e-05
660 0.0010557
661 0.000471595
662 1.85597e-05
663 0.0010557
664 0.00152597
665 3.71193e-05
666 0.0010557
667 0.000471595
668 1.85597e-05
669 0.0010557
670 0.00304974
671 0.00304974
672 0.0010557
673 1.85597e-05
674 0.000471595
675 0.0010557
676 3.71193e-05
677 0.00152597
678 0.0010557
679 1.85597e-05
680 0.000471595
681 0.0010557
682 7.42387e-05
683 0.00164778
684 0.0010557
685 1.85597e-05
686 0.000471595
687 0.0010557
688 3.71193e-05
689 0.00152597
690 0.0010557
691 1.85597e-05
692 0.000471595
693 0.0010557
694 0.00931479
695 0.00304974
696 0.000148477
697 0.0010557
698 0.000471595
699 1.85597e-05
700 0.0010557
701 0.00152597
702 3.71193e-05
703 0.0010557
704 0.000471595
705 1.85597e-05
706 0.0010557
707 0.00164778
708 7.42387e-05
709 0.0010557
710 0.000471595
711 1.85597e-05
712 0.0010557
713 0.00152597
714 3.71193e-05
715 0.0010557
716 0.000471595
717 1.85597e-05
718 0.0010557
719 0.0010557
720 1.85597e-05
721 0.000471595
722 0.0010557
723 3.71193e-05
724 0.00152597
725 0.0010557
726 1.85597e-05
727 0.000471595
728 0.0010557
729 7.42387e-05
730 0.00164778
731 0.0010557
732 1.85597e-05
733 0.000471595
734 0.0010557
735 3.71193e-05
736 0.00152597
737 0.0010557
738 1.85597e-05
739 0.000471595
740 0.0010557
741 0.000148477
