0 1 1 
1 2 2 
2 5 5 
3 1 1 
4 2 2 
5 5 5 
6 1 1 
7 2 2 
8 5 5 
9 1 1 
10 2 2 
11 5 5 
12 1 1 
13 2 2 
14 5 5 
15 1 1 
16 2 2 
17 5 5 
18 1 1 
19 2 2 
20 5 5 
21 1 1 
22 2 2 
23 2 2 
24 1 1 
25 5 5 
26 2 2 
27 1 1 
28 5 5 
29 2 2 
30 1 1 
31 5 5 
32 2 2 
33 1 1 
34 5 5 
35 2 2 
36 1 1 
37 5 5 
38 2 2 
39 1 1 
40 5 5 
41 2 2 
42 1 1 
43 5 5 
44 2 2 
45 1 1 
46 5 5 
47 2 2 
48 2 2 
49 5 5 
50 1 1 
51 2 2 
52 5 5 
53 1 1 
54 2 2 
55 5 5 
56 1 1 
57 2 2 
58 5 5 
59 1 1 
60 2 2 
61 5 5 
62 1 1 
63 2 2 
64 5 5 
65 1 1 
66 2 2 
67 5 5 
68 1 1 
69 2 2 
70 5 5 
71 1 1 
72 2 2 
73 1 1 
74 5 5 
75 2 2 
76 1 1 
77 5 5 
78 2 2 
79 1 1 
80 5 5 
81 2 2 
82 1 1 
83 5 5 
84 2 2 
85 1 1 
86 5 5 
87 2 2 
88 1 1 
89 5 5 
90 2 2 
91 1 1 
92 5 5 
93 2 2 
94 1 1 
95 5 5 
96 2 2 
97 2 2 
98 5 5 
99 1 1 
100 2 2 
101 5 5 
102 1 1 
103 2 2 
104 5 5 
105 1 1 
106 2 2 
107 5 5 
108 1 1 
109 2 2 
110 5 5 
111 1 1 
112 2 2 
113 5 5 
114 1 1 
115 2 2 
116 5 5 
117 1 1 
118 2 2 
119 2 2 
120 1 1 
121 5 5 
122 2 2 
123 1 1 
124 5 5 
125 2 2 
126 1 1 
127 5 5 
128 2 2 
129 1 1 
130 5 5 
131 2 2 
132 1 1 
133 5 5 
134 2 2 
135 1 1 
136 5 5 
137 2 2 
138 1 1 
139 5 5 
140 2 2 
141 1 1 
142 5 5 
143 2 2 
144 1 1 
145 5 5 
146 2 2 
147 5 5 
148 1 1 
149 2 2 
150 5 5 
151 1 1 
152 2 2 
153 5 5 
154 1 1 
155 2 2 
156 5 5 
157 1 1 
158 2 2 
159 5 5 
160 1 1 
161 2 2 
162 5 5 
163 1 1 
164 2 2 
165 5 5 
166 1 1 
167 2 2 
168 5 5 
169 1 1 
170 2 2 
171 5 5 
172 2 2 
173 1 1 
174 5 5 
175 2 2 
176 1 1 
177 5 5 
178 2 2 
179 1 1 
180 5 5 
181 2 2 
182 1 1 
183 5 5 
184 2 2 
185 1 1 
186 5 5 
187 2 2 
188 1 1 
189 5 5 
190 2 2 
191 1 1 
192 5 5 
193 2 2 
194 1 1 
195 5 5 
196 2 2 
197 1 1 
198 5 5 
199 2 2 
200 5 5 
201 1 1 
202 2 2 
203 5 5 
204 1 1 
205 2 2 
206 5 5 
207 1 1 
208 2 2 
209 5 5 
210 1 1 
211 2 2 
212 5 5 
213 1 1 
214 2 2 
215 5 5 
216 1 1 
217 2 2 
218 5 5 
219 1 1 
220 2 2 
221 2 2 
222 1 1 
223 5 5 
224 2 2 
225 1 1 
226 5 5 
227 2 2 
228 1 1 
229 5 5 
230 2 2 
231 1 1 
232 5 5 
233 2 2 
234 1 1 
235 5 5 
236 2 2 
237 1 1 
238 5 5 
239 2 2 
240 1 1 
241 5 5 
242 2 2 
243 1 1 
244 5 5 
245 2 2 
246 2 2 
247 5 5 
248 1 1 
249 2 2 
250 5 5 
251 1 1 
252 2 2 
253 5 5 
254 1 1 
255 2 2 
256 5 5 
257 1 1 
258 2 2 
259 5 5 
260 1 1 
261 2 2 
262 5 5 
263 1 1 
264 2 2 
265 5 5 
266 1 1 
267 2 2 
268 5 5 
269 1 1 
270 2 2 
271 1 1 
272 5 5 
273 2 2 
274 1 1 
275 5 5 
276 2 2 
277 1 1 
278 5 5 
279 2 2 
280 1 1 
281 5 5 
282 2 2 
283 1 1 
284 5 5 
285 2 2 
286 1 1 
287 5 5 
288 2 2 
289 1 1 
290 5 5 
291 2 2 
292 1 1 
293 5 5 
294 2 2 
295 2 2 
296 5 5 
297 1 1 
298 2 2 
299 5 5 
300 1 1 
301 2 2 
302 5 5 
303 1 1 
304 2 2 
305 5 5 
306 1 1 
307 2 2 
308 5 5 
309 1 1 
310 2 2 
311 5 5 
312 1 1 
313 2 2 
314 5 5 
315 1 1 
316 2 2 
317 2 2 
318 1 1 
319 5 5 
320 2 2 
321 1 1 
322 5 5 
323 2 2 
324 1 1 
325 5 5 
326 2 2 
327 1 1 
328 5 5 
329 2 2 
330 1 1 
331 5 5 
332 2 2 
333 1 1 
334 5 5 
335 2 2 
336 1 1 
337 5 5 
338 2 2 
339 1 1 
340 5 5 
341 2 2 
342 1 1 
343 5 5 
344 2 2 
345 1 1 
346 2 2 
347 5 5 
348 1 1 
349 2 2 
350 5 5 
351 1 1 
352 2 2 
353 5 5 
354 1 1 
355 2 2 
356 5 5 
357 1 1 
358 2 2 
359 5 5 
360 1 1 
361 2 2 
362 5 5 
363 1 1 
364 2 2 
365 5 5 
366 1 1 
367 2 2 
368 5 5 
369 1 1 
370 2 2 
371 5 5 
372 1 1 
373 2 2 
374 2 2 
375 1 1 
376 5 5 
377 2 2 
378 1 1 
379 5 5 
380 2 2 
381 1 1 
382 5 5 
383 2 2 
384 1 1 
385 5 5 
386 2 2 
387 1 1 
388 5 5 
389 2 2 
390 1 1 
391 5 5 
392 2 2 
393 1 1 
394 5 5 
395 2 2 
396 1 1 
397 5 5 
398 2 2 
399 1 1 
400 5 5 
401 2 2 
402 1 1 
403 2 2 
404 5 5 
405 1 1 
406 2 2 
407 5 5 
408 1 1 
409 2 2 
410 5 5 
411 1 1 
412 2 2 
413 5 5 
414 1 1 
415 2 2 
416 5 5 
417 1 1 
418 2 2 
419 5 5 
420 1 1 
421 2 2 
422 5 5 
423 1 1 
424 2 2 
425 2 2 
426 1 1 
427 5 5 
428 2 2 
429 1 1 
430 5 5 
431 2 2 
432 1 1 
433 5 5 
434 2 2 
435 1 1 
436 5 5 
437 2 2 
438 1 1 
439 5 5 
440 2 2 
441 1 1 
442 5 5 
443 2 2 
444 1 1 
445 5 5 
446 2 2 
447 1 1 
448 5 5 
449 2 2 
450 2 2 
451 5 5 
452 1 1 
453 2 2 
454 5 5 
455 1 1 
456 2 2 
457 5 5 
458 1 1 
459 2 2 
460 5 5 
461 1 1 
462 2 2 
463 5 5 
464 1 1 
465 2 2 
466 5 5 
467 1 1 
468 2 2 
469 5 5 
470 1 1 
471 2 2 
472 5 5 
473 1 1 
474 2 2 
475 1 1 
476 5 5 
477 2 2 
478 1 1 
479 5 5 
480 2 2 
481 1 1 
482 5 5 
483 2 2 
484 1 1 
485 5 5 
486 2 2 
487 1 1 
488 5 5 
489 2 2 
490 1 1 
491 5 5 
492 2 2 
493 1 1 
494 5 5 
495 2 2 
496 1 1 
497 5 5 
498 2 2 
499 2 2 
500 5 5 
501 1 1 
502 2 2 
503 5 5 
504 1 1 
505 2 2 
506 5 5 
507 1 1 
508 2 2 
509 5 5 
510 1 1 
511 2 2 
512 5 5 
513 1 1 
514 2 2 
515 5 5 
516 1 1 
517 2 2 
518 5 5 
519 1 1 
520 2 2 
521 2 2 
522 1 1 
523 5 5 
524 2 2 
525 1 1 
526 5 5 
527 2 2 
528 1 1 
529 5 5 
530 2 2 
531 1 1 
532 5 5 
533 2 2 
534 1 1 
535 5 5 
536 2 2 
537 1 1 
538 5 5 
539 2 2 
540 1 1 
541 5 5 
542 2 2 
543 1 1 
544 5 5 
545 2 2 
546 1 1 
547 5 5 
548 2 2 
549 5 5 
550 1 1 
551 2 2 
552 5 5 
553 1 1 
554 2 2 
555 5 5 
556 1 1 
557 2 2 
558 5 5 
559 1 1 
560 2 2 
561 5 5 
562 1 1 
563 2 2 
564 5 5 
565 1 1 
566 2 2 
567 5 5 
568 1 1 
569 2 2 
570 5 5 
571 1 1 
572 2 2 
573 5 5 
574 2 2 
575 1 1 
576 5 5 
577 2 2 
578 1 1 
579 5 5 
580 2 2 
581 1 1 
582 5 5 
583 2 2 
584 1 1 
585 5 5 
586 2 2 
587 1 1 
588 5 5 
589 2 2 
590 1 1 
591 5 5 
592 2 2 
593 1 1 
594 5 5 
595 2 2 
596 1 1 
597 5 5 
598 2 2 
599 1 1 
600 5 5 
601 2 2 
602 5 5 
603 1 1 
604 2 2 
605 5 5 
606 1 1 
607 2 2 
608 5 5 
609 1 1 
610 2 2 
611 5 5 
612 1 1 
613 2 2 
614 5 5 
615 1 1 
616 2 2 
617 5 5 
618 1 1 
619 2 2 
620 5 5 
621 1 1 
622 2 2 
623 2 2 
624 1 1 
625 5 5 
626 2 2 
627 1 1 
628 5 5 
629 2 2 
630 1 1 
631 5 5 
632 2 2 
633 1 1 
634 5 5 
635 2 2 
636 1 1 
637 5 5 
638 2 2 
639 1 1 
640 5 5 
641 2 2 
642 1 1 
643 5 5 
644 2 2 
645 1 1 
646 5 5 
647 2 2 
648 2 2 
649 5 5 
650 1 1 
651 2 2 
652 5 5 
653 1 1 
654 2 2 
655 5 5 
656 1 1 
657 2 2 
658 5 5 
659 1 1 
660 2 2 
661 5 5 
662 1 1 
663 2 2 
664 5 5 
665 1 1 
666 2 2 
667 5 5 
668 1 1 
669 2 2 
670 5 5 
671 1 1 
672 2 2 
673 1 1 
674 5 5 
675 2 2 
676 1 1 
677 5 5 
678 2 2 
679 1 1 
680 5 5 
681 2 2 
682 1 1 
683 5 5 
684 2 2 
685 1 1 
686 5 5 
687 2 2 
688 1 1 
689 5 5 
690 2 2 
691 1 1 
692 5 5 
693 2 2 
694 1 1 
695 5 5 
696 2 2 
697 2 2 
698 5 5 
699 1 1 
700 2 2 
701 5 5 
702 1 1 
703 2 2 
704 5 5 
705 1 1 
706 2 2 
707 5 5 
708 1 1 
709 2 2 
710 5 5 
711 1 1 
712 2 2 
713 5 5 
714 1 1 
715 2 2 
716 5 5 
717 1 1 
718 2 2 
719 2 2 
720 1 1 
721 5 5 
722 2 2 
723 1 1 
724 5 5 
725 2 2 
726 1 1 
727 5 5 
728 2 2 
729 1 1 
730 5 5 
731 2 2 
732 1 1 
733 5 5 
734 2 2 
735 1 1 
736 5 5 
737 2 2 
738 1 1 
739 5 5 
740 2 2 
741 1 1 
