\relax 
\providecommand \oddpage@label [2]{}
\@writefile{toc}{\contentsline {section}{\numberline {1}Hierarchical SVD of tensors (Lars Grasedyck)}{1}\protected@file@percent }
\@writefile{loa}{\contentsline {algocf}{\numberline {1}{\ignorespaces Root-to-leaves truncation of arbitrary tensors to H-Tucker format}}{3}\protected@file@percent }
\newlabel{Alg1}{{1}{3}}
\@writefile{loa}{\contentsline {algocf}{\numberline {2}{\ignorespaces Leaves-to-root truncation of arbitrary tensors to H-Tucker format}}{4}\protected@file@percent }
\newlabel{Alg2}{{2}{4}}
\@writefile{loa}{\contentsline {algocf}{\numberline {3}{\ignorespaces Orthogonalization of H-Tucker tensors}}{6}\protected@file@percent }
\newlabel{Alg3}{{3}{6}}
\@writefile{toc}{\contentsline {subsection}{\numberline {1.1}Comparison with other formats}{6}\protected@file@percent }
\@writefile{toc}{\contentsline {subsection}{\numberline {1.2}Numerical experiments}{7}\protected@file@percent }
\@writefile{toc}{\contentsline {section}{\numberline {2}Geometry of tree-based tensor formats in tensor Banach spaces (Antonio Falco, Wolfgang Hackbusch, Anthony Nouy)}{9}\protected@file@percent }
\@writefile{toc}{\contentsline {section}{\numberline {3}Tree based tensor formats (Antonio Falco, Wolfgang Hackbusch, Anthony Nouy)}{11}\protected@file@percent }
