\relax 
\providecommand\hyper@newdestlabel[2]{}
\providecommand\HyperFirstAtBeginDocument{\AtBeginDocument}
\HyperFirstAtBeginDocument{\ifx\hyper@anchor\@undefined
\global\let\oldcontentsline\contentsline
\gdef\contentsline#1#2#3#4{\oldcontentsline{#1}{#2}{#3}}
\global\let\oldnewlabel\newlabel
\gdef\newlabel#1#2{\newlabelxx{#1}#2}
\gdef\newlabelxx#1#2#3#4#5#6{\oldnewlabel{#1}{{#2}{#3}}}
\AtEndDocument{\ifx\hyper@anchor\@undefined
\let\contentsline\oldcontentsline
\let\newlabel\oldnewlabel
\fi}
\fi}
\global\let\hyper@last\relax 
\gdef\HyperFirstAtBeginDocument#1{#1}
\providecommand\HyField@AuxAddToFields[1]{}
\providecommand\HyField@AuxAddToCoFields[2]{}
\newlabel{sec:intro}{{1}{1}{Introduction}{section.1}{}}
\newlabel{sec:intro@cref}{{[section][1][]1}{[1][1][]1}}
\@writefile{toc}{\contentsline {section}{\numberline {1}Introduction}{1}{section.1}\protected@file@percent }
\newlabel{sec:method}{{2}{1}{The method}{section.6}{}}
\newlabel{sec:method@cref}{{[section][2][]2}{[1][1][]1}}
\@writefile{toc}{\contentsline {section}{\numberline {2}The method}{1}{section.6}\protected@file@percent }
\newlabel{subsec:Notation}{{2.1}{1}{Notation}{subsection.7}{}}
\newlabel{subsec:Notation@cref}{{[subsection][1][2]2.1}{[1][1][]1}}
\@writefile{toc}{\contentsline {subsection}{\numberline {2.1}Notation}{1}{subsection.7}\protected@file@percent }
\newlabel{eq:tensor}{{2.1}{1}{Notation}{equation.8}{}}
\newlabel{eq:tensor@cref}{{[equation][1][2]2.1}{[1][1][]1}}
\newlabel{eq:tensor}{{2.2}{2}{Notation}{equation.9}{}}
\newlabel{eq:tensor@cref}{{[equation][2][2]2.2}{[1][1][]2}}
\newlabel{eq:CP}{{2.3}{2}{Notation}{equation.10}{}}
\newlabel{eq:CP@cref}{{[equation][3][2]2.3}{[1][2][]2}}
\newlabel{subsec:ALS}{{2.2}{2}{Alternating least square (ALS)}{subsection.14}{}}
\newlabel{subsec:ALS@cref}{{[subsection][2][2]2.2}{[1][2][]2}}
\@writefile{toc}{\contentsline {subsection}{\numberline {2.2}Alternating least square (ALS)}{2}{subsection.14}\protected@file@percent }
\newlabel{subsec:ASVD}{{2.3}{3}{Alternating Singular Value Decomposition (ASVD)}{subsection.15}{}}
\newlabel{subsec:ASVD@cref}{{[subsection][3][2]2.3}{[1][3][]3}}
\@writefile{toc}{\contentsline {subsection}{\numberline {2.3}Alternating Singular Value Decomposition (ASVD)}{3}{subsection.15}\protected@file@percent }
\newlabel{subsec:CP-TT}{{2.4}{3}{CP-TT}{subsection.16}{}}
\newlabel{subsec:CP-TT@cref}{{[subsection][4][2]2.4}{[1][3][]3}}
\@writefile{toc}{\contentsline {subsection}{\numberline {2.4}CP-TT}{3}{subsection.16}\protected@file@percent }
\@writefile{lof}{\contentsline {figure}{\numberline {1}{\ignorespaces Schematic representation of the CP-TT iteration for a $3$rd order tensor $F$.}}{3}{figure.17}\protected@file@percent }
\newlabel{cpttscheme}{{1}{3}{Schematic representation of the CP-TT iteration for a $3$rd order tensor $F$}{figure.17}{}}
\newlabel{cpttscheme@cref}{{[figure][1][]1}{[1][3][]3}}
\@writefile{toc}{\contentsline {subsection}{\numberline {2.5}Optimisation of the CP coefficients}{5}{subsection.25}\protected@file@percent }
\newlabel{IR}{{2.1}{6}{Optimisation of the CP coefficients}{algorithm.26}{}}
\newlabel{IR@cref}{{[algorithm][1][2]2.1}{[1][6][]6}}
\newlabel{alg:mainAlg}{{2.5}{6}{Optimisation of the CP coefficients}{subsection.25}{}}
\newlabel{alg:mainAlg@cref}{{[subsection][5][2]2.5}{[1][6][]6}}
\@writefile{loa}{\contentsline {algorithm}{\numberline {2.1}{\ignorespaces Main algorithm of the method with optimization of the coefficients}}{6}{algorithm.26}\protected@file@percent }
\newlabel{IR}{{2.2}{6}{Optimisation of the CP coefficients}{algorithm.45}{}}
\newlabel{IR@cref}{{[algorithm][2][2]2.2}{[1][6][]6}}
\newlabel{alg:CPTTerm}{{2.5}{6}{Optimisation of the CP coefficients}{ALC@unique.44}{}}
\newlabel{alg:CPTTerm@cref}{{[subsection][5][2]2.5}{[1][6][]6}}
\@writefile{loa}{\contentsline {algorithm}{\numberline {2.2}{\ignorespaces Scheme of the computation algorithm of the CP-TT term}}{6}{algorithm.45}\protected@file@percent }
\newlabel{sec:math}{{3}{6}{Properties of the method}{section.56}{}}
\newlabel{sec:math@cref}{{[section][3][]3}{[1][6][]6}}
\@writefile{toc}{\contentsline {section}{\numberline {3}Properties of the method}{6}{section.56}\protected@file@percent }
\@writefile{toc}{\contentsline {subsection}{\numberline {3.1}Orthogonality properties}{7}{subsection.57}\protected@file@percent }
\@writefile{toc}{\contentsline {paragraph}{Example:Properties in the $4$-th dimensional case}{8}{section*.62}\protected@file@percent }
\@writefile{toc}{\contentsline {subsection}{\numberline {3.2}CP-TT is optimal for $d=2$, and it retrieves exactly a rank$-1$ tensor}{9}{subsection.63}\protected@file@percent }
\@writefile{toc}{\contentsline {subsection}{\numberline {3.3}Computing $k$ terms: stability}{10}{subsection.65}\protected@file@percent }
\newlabel{eq:modified_opt}{{3.5}{10}{Computing $k$ terms: stability}{equation.66}{}}
\newlabel{eq:modified_opt@cref}{{[equation][5][3]3.5}{[1][10][]10}}
\@writefile{toc}{\contentsline {subsection}{\numberline {3.4}Discretisation and computational costs}{10}{subsection.69}\protected@file@percent }
\@writefile{toc}{\contentsline {subsubsection}{\numberline {3.4.1}Computing the POD of an unfolding without storing it}{10}{subsubsection.70}\protected@file@percent }
\newlabel{eq:PODfibers}{{3.12}{11}{Computing the POD of an unfolding without storing it}{equation.75}{}}
\newlabel{eq:PODfibers@cref}{{[equation][12][3]3.12}{[1][11][]11}}
\newlabel{eq:matrixA}{{3.14}{11}{Computing the POD of an unfolding without storing it}{equation.77}{}}
\newlabel{eq:matrixA@cref}{{[equation][14][3]3.14}{[1][11][]11}}
\@writefile{toc}{\contentsline {subsubsection}{\numberline {3.4.2}Computational cost}{11}{subsubsection.87}\protected@file@percent }
\newlabel{alg:UnU}{{3.4.1}{12}{Computing the POD of an unfolding without storing it}{equation.78}{}}
\newlabel{alg:UnU@cref}{{[subsubsection][1][3,4]3.4.1}{[1][11][]12}}
\@writefile{loa}{\contentsline {algorithm}{\numberline {3.1}{\ignorespaces POD decomposition of the unfolding}}{12}{algorithm.79}\protected@file@percent }
\newlabel{sec:numExp}{{4}{12}{Numerical Experiments}{section.88}{}}
\newlabel{sec:numExp@cref}{{[section][4][]4}{[1][12][]12}}
\@writefile{toc}{\contentsline {section}{\numberline {4}Numerical Experiments}{12}{section.88}\protected@file@percent }
\newlabel{refF}{{4.1}{12}{Numerical Experiments}{equation.89}{}}
\newlabel{refF@cref}{{[equation][1][4]4.1}{[1][12][]12}}
\@writefile{lof}{\contentsline {figure}{\numberline {2}{\ignorespaces On the left, the decreasing of the residual norm in the 4-dimensional tensor of the 32 $L^2$ functions using ALS in red, ASVD in blue and the CP-TT method in black. On the right, the difference between both norms of the residual $\|R\|_{ALS}-\|R\|_{CP-TT}$ in red and $\|R\|_{ASVD}-\|R\|_{CP-TT}$ in black.}}{13}{figure.92}\protected@file@percent }
\newlabel{refI2}{{2}{13}{On the left, the decreasing of the residual norm in the 4-dimensional tensor of the 32 $L^2$ functions using ALS in red, ASVD in blue and the CP-TT method in black. On the right, the difference between both norms of the residual $\|R\|_{ALS}-\|R\|_{CP-TT}$ in red and $\|R\|_{ASVD}-\|R\|_{CP-TT}$ in black}{figure.92}{}}
\newlabel{refI2@cref}{{[figure][2][]2}{[1][13][]13}}
\@writefile{toc}{\contentsline {subsection}{\numberline {4.1}Results for functions in $L^2(\Omega )$}{13}{figure.96}\protected@file@percent }
\@writefile{lof}{\contentsline {figure}{\numberline {3}{\ignorespaces On the left, the decreasing of the residual norm in the 12-dimensional tensor of the 32 $L^2$ functions using ALS in red, ASVD in blue and the CP-TT method in black. The dotted line shows as a constant the last point that converged on the ASVD method. On the right, the difference between both norms of the residual $\|R\|_{ALS}-\|R\|_{CP-TT}$ in red and $\|R\|_{ASVD}-\|R\|_{CP-TT}$ in black.}}{14}{figure.94}\protected@file@percent }
\newlabel{refI3}{{3}{14}{On the left, the decreasing of the residual norm in the 12-dimensional tensor of the 32 $L^2$ functions using ALS in red, ASVD in blue and the CP-TT method in black. The dotted line shows as a constant the last point that converged on the ASVD method. On the right, the difference between both norms of the residual $\|R\|_{ALS}-\|R\|_{CP-TT}$ in red and $\|R\|_{ASVD}-\|R\|_{CP-TT}$ in black}{figure.94}{}}
\newlabel{refI3@cref}{{[figure][3][]3}{[1][13][]14}}
\@writefile{lof}{\contentsline {figure}{\numberline {4}{\ignorespaces On the left, the decreasing of the residual norm in the 16-dimensional tensor of the 32 $L^2$ functions using ALS in red, ASVD in blue and the CP-TT method in black. The dotted line shows as a constant the last point that converged on the ASVD and CPTT methods. On the right, the difference between both norms of the residual $\|R\|_{ALS}-\|R\|_{CP-TT}$ in red and $\|R\|_{ASVD}-\|R\|_{CP-TT}$ in black.}}{14}{figure.96}\protected@file@percent }
\newlabel{refI5}{{4}{14}{On the left, the decreasing of the residual norm in the 16-dimensional tensor of the 32 $L^2$ functions using ALS in red, ASVD in blue and the CP-TT method in black. The dotted line shows as a constant the last point that converged on the ASVD and CPTT methods. On the right, the difference between both norms of the residual $\|R\|_{ALS}-\|R\|_{CP-TT}$ in red and $\|R\|_{ASVD}-\|R\|_{CP-TT}$ in black}{figure.96}{}}
\newlabel{refI5@cref}{{[figure][4][]4}{[1][13][]14}}
\@writefile{toc}{\contentsline {subsection}{\numberline {4.2}Results for functions in $H^1(\Omega )$}{14}{subsection.102}\protected@file@percent }
\@writefile{lof}{\contentsline {figure}{\numberline {5}{\ignorespaces On the left, the decreasing of the residual norm in the 12-dimensional tensor of the 32 $L^2$ functions using ALS in red, ALS without the relaxed fixed point in green, the ASVD in blue and the CP-TT method in black. The dotted line shows as a constant the last point that converged on the ALS method. On the right, the difference between both norms of the residual $\|R\|_{ALS}-\|R\|_{CP-TT}$ in red and $\|R\|_{ASVD}-\|R\|_{CP-TT}$ in black.}}{15}{figure.98}\protected@file@percent }
\newlabel{refI4}{{5}{15}{On the left, the decreasing of the residual norm in the 12-dimensional tensor of the 32 $L^2$ functions using ALS in red, ALS without the relaxed fixed point in green, the ASVD in blue and the CP-TT method in black. The dotted line shows as a constant the last point that converged on the ALS method. On the right, the difference between both norms of the residual $\|R\|_{ALS}-\|R\|_{CP-TT}$ in red and $\|R\|_{ASVD}-\|R\|_{CP-TT}$ in black}{figure.98}{}}
\newlabel{refI4@cref}{{[figure][5][]5}{[1][13][]15}}
\@writefile{lof}{\contentsline {figure}{\numberline {6}{\ignorespaces On the left, the decreasing of the residual norm in the 4-dimensional tensor of the 32 $H^1$ functions using ALS in red, the ASVD method in blue and the CP-TT method in black. On the right, the difference between both norms of the residual $\|R\|_{ALS}-\|R\|_{CP-TT}$ in red and $\|R\|_{ASVD}-\|R\|_{CP-TT}$ in black.}}{15}{figure.103}\protected@file@percent }
\newlabel{refI7}{{6}{15}{On the left, the decreasing of the residual norm in the 4-dimensional tensor of the 32 $H^1$ functions using ALS in red, the ASVD method in blue and the CP-TT method in black. On the right, the difference between both norms of the residual $\|R\|_{ALS}-\|R\|_{CP-TT}$ in red and $\|R\|_{ASVD}-\|R\|_{CP-TT}$ in black}{figure.103}{}}
\newlabel{refI7@cref}{{[figure][6][]6}{[1][15][]15}}
\@writefile{lot}{\contentsline {table}{\numberline {1}{\ignorespaces Mean and standard deviation of the decreasing of the norm of the residual for the 32 random $L^2(\Omega )$ functions. The results shown are for different number of terms on each of the dimensions tested. }}{16}{table.100}\protected@file@percent }
\newlabel{tab:tableL2}{{1}{16}{Mean and standard deviation of the decreasing of the norm of the residual for the 32 random $L^2(\Omega )$ functions. The results shown are for different number of terms on each of the dimensions tested}{table.100}{}}
\newlabel{tab:tableL2@cref}{{[table][1][]1}{[1][14][]16}}
\@writefile{lof}{\contentsline {figure}{\numberline {7}{\ignorespaces On the left, the decreasing of the residual norm in the 12-dimensional tensor of the 32 $H^1$ functions using ALS in red, the ASVD method in blue and the CP-TT method in black. On the right, the difference between both norms of the residual $\|R\|_{ALS}-\|R\|_{CP-TT}$ in red and $\|R\|_{ASVD}-\|R\|_{CP-TT}$ in black. }}{16}{figure.105}\protected@file@percent }
\newlabel{refI8}{{7}{16}{On the left, the decreasing of the residual norm in the 12-dimensional tensor of the 32 $H^1$ functions using ALS in red, the ASVD method in blue and the CP-TT method in black. On the right, the difference between both norms of the residual $\|R\|_{ALS}-\|R\|_{CP-TT}$ in red and $\|R\|_{ASVD}-\|R\|_{CP-TT}$ in black}{figure.105}{}}
\newlabel{refI8@cref}{{[figure][7][]7}{[1][15][]16}}
\@writefile{toc}{\contentsline {subsection}{\numberline {4.3}Some comments and results}{16}{subsection.111}\protected@file@percent }
\bibstyle{plain}
\bibdata{biblioCPTT}
\@writefile{lof}{\contentsline {figure}{\numberline {8}{\ignorespaces On the left, the decreasing of the residual norm in the 16-dimensional tensor of the 32 $H^1$ functions using ALS in red, the ASVD method in blue and the CP-TT method in black. On the right, the difference between both norms of the residual $\|R\|_{ALS}-\|R\|_{CP-TT}$ in red and $\|R\|_{ASVD}-\|R\|_{CP-TT}$ in black. Both tests are made for 100 terms.}}{17}{figure.107}\protected@file@percent }
\newlabel{refI9}{{8}{17}{On the left, the decreasing of the residual norm in the 16-dimensional tensor of the 32 $H^1$ functions using ALS in red, the ASVD method in blue and the CP-TT method in black. On the right, the difference between both norms of the residual $\|R\|_{ALS}-\|R\|_{CP-TT}$ in red and $\|R\|_{ASVD}-\|R\|_{CP-TT}$ in black. Both tests are made for 100 terms}{figure.107}{}}
\newlabel{refI9@cref}{{[figure][8][]8}{[1][15][]17}}
\@writefile{toc}{\contentsline {section}{\numberline {5}Conclusions and perspectives}{17}{section.114}\protected@file@percent }
\@writefile{lot}{\contentsline {table}{\numberline {2}{\ignorespaces Mean and standard deviation of the decreasing of the norm of the residual for the 32 random $H^1(\Omega )$ functions. The results shown are for different number of terms on each of the dimensions tested. }}{18}{table.109}\protected@file@percent }
\newlabel{tab:tableH2}{{2}{18}{Mean and standard deviation of the decreasing of the norm of the residual for the 32 random $H^1(\Omega )$ functions. The results shown are for different number of terms on each of the dimensions tested}{table.109}{}}
\newlabel{tab:tableH2@cref}{{[table][2][]2}{[1][15][]18}}
\@writefile{lof}{\contentsline {figure}{\numberline {9}{\ignorespaces On the left, the decreasing of the norm of the residual against the accumulated time of computation in 4, 12 and 16 dimensions for $L^2(\Omega )$ functions. On the right, for functions in $H^1(\Omega )$. All the tests have been done for 100 terms and 32 $L^2$ random functions. }}{19}{figure.112}\protected@file@percent }
\newlabel{refI6}{{9}{19}{On the left, the decreasing of the norm of the residual against the accumulated time of computation in 4, 12 and 16 dimensions for $L^2(\Omega )$ functions. On the right, for functions in $H^1(\Omega )$. All the tests have been done for 100 terms and 32 $L^2$ random functions}{figure.112}{}}
\newlabel{refI6@cref}{{[figure][9][]9}{[1][17][]19}}
