\relax 
\providecommand\hyper@newdestlabel[2]{}
\providecommand\HyperFirstAtBeginDocument{\AtBeginDocument}
\HyperFirstAtBeginDocument{\ifx\hyper@anchor\@undefined
\global\let\oldcontentsline\contentsline
\gdef\contentsline#1#2#3#4{\oldcontentsline{#1}{#2}{#3}}
\global\let\oldnewlabel\newlabel
\gdef\newlabel#1#2{\newlabelxx{#1}#2}
\gdef\newlabelxx#1#2#3#4#5#6{\oldnewlabel{#1}{{#2}{#3}}}
\AtEndDocument{\ifx\hyper@anchor\@undefined
\let\contentsline\oldcontentsline
\let\newlabel\oldnewlabel
\fi}
\fi}
\global\let\hyper@last\relax 
\gdef\HyperFirstAtBeginDocument#1{#1}
\providecommand\HyField@AuxAddToFields[1]{}
\providecommand\HyField@AuxAddToCoFields[2]{}
\citation{hackbusch2007tensor}
\citation{khoromskij2012tensors}
\citation{kolda2009}
\citation{hackbusch2012}
\citation{grasedyck2013literature}
\citation{bachmayr2016tensor}
\citation{ballani2015hierarchical}
\citation{schwab2011sparse}
\citation{kressner2011low}
\citation{EhrlacherLombardi}
\citation{EhrlacherLombardi}
\citation{bebendorf2008hierarchical}
\citation{hackbusch2015hierarchical}
\citation{khoromskij2007structured}
\citation{gorodetsky2019}
\newlabel{sec:intro}{{1}{1}{Introduction}{section.1}{}}
\newlabel{sec:intro@cref}{{[section][1][]1}{1}}
\@writefile{toc}{\contentsline {section}{\numberline {1}Introduction}{1}{section.1}}
\citation{de2000multi}
\newlabel{sec:notation}{{2}{2}{Partitioning for tensors: elements of theoretical analysis}{section.2}{}}
\newlabel{sec:notation@cref}{{[section][2][]2}{2}}
\@writefile{toc}{\contentsline {section}{\numberline {2}Partitioning for tensors: elements of theoretical analysis}{2}{section.2}}
\@writefile{thm}{\contentsline {mydef}{{Definition}{2.1}{}}{3}{theorem.3}}
\@writefile{thm}{\contentsline {myprop}{{Proposition}{2.2}{}}{3}{theorem.4}}
\newlabel{prop:Damiano}{{2.2}{3}{Partitioning for tensors: elements of theoretical analysis}{theorem.4}{}}
\newlabel{prop:Damiano@cref}{{[myprop][2][2]2.2}{3}}
\citation{edmunds1990approximation}
\citation{edmunds2018spectral}
\citation{edmunds1990approximation}
\newlabel{eq:esteps}{{2.1}{4}{Partitioning for tensors: elements of theoretical analysis}{equation.5}{}}
\newlabel{eq:esteps@cref}{{[equation][1][2]2.1}{4}}
\@writefile{thm}{\contentsline {remark}{{Remark}{2.3}{}}{4}{theorem.6}}
\@writefile{thm}{\contentsline {proof}{{Proof}{1}{}}{4}{proof.7}}
\citation{khoromskij2007structured}
\citation{bebendorf2008hierarchical}
\newlabel{sec:GHOSVD}{{3}{5}{Greedy-HOSVD for Tucker Partitioned Format (TPF)}{section.14}{}}
\newlabel{sec:GHOSVD@cref}{{[section][3][]3}{5}}
\@writefile{toc}{\contentsline {section}{\numberline {3}Greedy-HOSVD for Tucker Partitioned Format (TPF)}{5}{section.14}}
\@writefile{toc}{\contentsline {subsection}{\numberline {3.1}Notation and definitions}{5}{subsection.15}}
\citation{hackbusch2012}
\citation{grasedyck2013literature}
\citation{khoromskij2012tensors}
\citation{oseledets2011tensor}
\citation{khoromskij2007structured}
\newlabel{eq:TF}{{3.1}{6}{Notation and definitions}{equation.16}{}}
\newlabel{eq:TF@cref}{{[equation][1][3]3.1}{6}}
\newlabel{eq:mem}{{3.2}{6}{Notation and definitions}{equation.17}{}}
\newlabel{eq:mem@cref}{{[equation][2][3]3.2}{6}}
\@writefile{thm}{\contentsline {mydef}{{Definition}{3.1}{}}{7}{theorem.18}}
\@writefile{toc}{\contentsline {subsection}{\numberline {3.2}Greedy-HOSVD for Tucker format}{7}{subsection.19}}
\citation{hackbusch2012}
\citation{hackbusch2012}
\newlabel{eq:generrTT}{{3.3}{8}{Greedy-HOSVD for Tucker format}{equation.20}{}}
\newlabel{eq:generrTT@cref}{{[equation][3][3]3.3}{8}}
\newlabel{eq:TTerror}{{3.4}{8}{Greedy-HOSVD for Tucker format}{equation.21}{}}
\newlabel{eq:TTerror@cref}{{[equation][4][3]3.4}{8}}
\@writefile{loa}{\contentsline {algorithm}{\numberline {3.1}{\ignorespaces Greedy-HOSVD}}{9}{algorithm.22}}
\newlabel{algo:1}{{3.1}{9}{Greedy-HOSVD for Tucker format}{algorithm.22}{}}
\newlabel{algo:1@cref}{{[algorithm][1][3]3.1}{9}}
\newlabel{sec:ptf-greedy}{{3.3}{9}{\corr {TPF}-Greedy-HOSVD for \corr {Tucker Partitioned} format}{subsection.23}{}}
\newlabel{sec:ptf-greedy@cref}{{[subsection][3][3]3.3}{9}}
\@writefile{toc}{\contentsline {subsection}{\numberline {3.3}\leavevmode {\color  {blue}TPF}-Greedy-HOSVD for \leavevmode {\color  {blue}Tucker Partitioned} format}{9}{subsection.23}}
\citation{bebendorf2008hierarchical}
\@writefile{loa}{\contentsline {algorithm}{\numberline {3.2}{\ignorespaces \leavevmode {\color  {blue}TPF}-Greedy-HOSVD}}{10}{algorithm.24}}
\newlabel{algo:2}{{3.2}{10}{\corr {TPF}-Greedy-HOSVD for \corr {Tucker Partitioned} format}{algorithm.24}{}}
\newlabel{algo:2@cref}{{[algorithm][2][3]3.2}{10}}
\newlabel{sec:HMerge}{{4}{10}{Hierarchical low rank tensor approximation}{section.25}{}}
\newlabel{sec:HMerge@cref}{{[section][4][]4}{10}}
\@writefile{toc}{\contentsline {section}{\numberline {4}Hierarchical low rank tensor approximation}{10}{section.25}}
\@writefile{toc}{\contentsline {subsection}{\numberline {4.1}Partition tree}{11}{subsection.26}}
\@writefile{thm}{\contentsline {mydef}{{Definition}{4.1}{}}{11}{theorem.27}}
\@writefile{thm}{\contentsline {mydef}{{Definition}{4.2}{}}{11}{theorem.28}}
\@writefile{thm}{\contentsline {mylemma}{{Lemma}{4.3}{}}{12}{theorem.29}}
\newlabel{lem:aux}{{4.3}{12}{Partition tree}{theorem.29}{}}
\newlabel{lem:aux@cref}{{[mylemma][3][4]4.3}{12}}
\@writefile{toc}{\contentsline {subsubsection}{\numberline {4.1.1}Example: dyadic partition tree}{12}{subsubsection.30}}
\@writefile{toc}{\contentsline {subsection}{\numberline {4.2}PF-MERGE procedure}{12}{subsection.31}}
\@writefile{loa}{\contentsline {algorithm}{\numberline {4.1}{\ignorespaces PF-MERGE}}{13}{algorithm.32}}
\newlabel{algo:4}{{4.1}{13}{PF-MERGE procedure}{algorithm.32}{}}
\newlabel{algo:4@cref}{{[algorithm][1][4]4.1}{13}}
\newlabel{fig:coulomb3D}{{1}{14}{PF-MERGE procedure}{figure.33}{}}
\newlabel{fig:coulomb3D@cref}{{[figure][1][]1}{14}}
\@writefile{lof}{\contentsline {figure}{\numberline {1}{\ignorespaces Coulomb 3D test case: a) and b) shows the error distribution after the greedy step (512 subtensors). In c) and d) the error after the merging step is shown.}}{14}{figure.33}}
\@writefile{loa}{\contentsline {algorithm}{\numberline {4.2}{\ignorespaces MERGE}}{16}{algorithm.35}}
\newlabel{algo:3}{{4.2}{16}{PF-MERGE procedure}{algorithm.35}{}}
\newlabel{algo:3@cref}{{[algorithm][2][4]4.2}{16}}
\newlabel{sec:num}{{5}{16}{Numerical experiments}{section.38}{}}
\newlabel{sec:num@cref}{{[section][5][]5}{16}}
\@writefile{toc}{\contentsline {section}{\numberline {5}Numerical experiments}{16}{section.38}}
\citation{cotar2018smoothing}
\citation{lewin2018semi}
\newlabel{fig:concept}{{2}{17}{PF-MERGE procedure}{figure.36}{}}
\newlabel{fig:concept@cref}{{[figure][2][]2}{17}}
\@writefile{lof}{\contentsline {figure}{\numberline {2}{\ignorespaces Conceptual scheme of HPF working principle, shown on a two order tensor. After having distributed the approximation error on the finest level by means of the greedy method detailed in Section \ref  {sec:GHOSVD}, the hierarchical tree is optimised. This amounts to check whether the approximation of a larger portion of the tensor performs better, in terms of memory.}}{17}{figure.36}}
\newlabel{sec:Coulomb}{{5.1}{17}{Coulomb cost}{subsection.40}{}}
\newlabel{sec:Coulomb@cref}{{[subsection][1][5]5.1}{17}}
\newlabel{subsec:coulomb}{{5.1}{17}{Coulomb cost}{subsection.40}{}}
\newlabel{subsec:coulomb@cref}{{[subsection][1][5]5.1}{17}}
\@writefile{toc}{\contentsline {subsection}{\numberline {5.1}Coulomb cost}{17}{subsection.40}}
\newlabel{eq:cost}{{5.3}{17}{Coulomb cost}{equation.41}{}}
\newlabel{eq:cost@cref}{{[equation][3][5]5.3}{17}}
\@writefile{toc}{\contentsline {subsubsection}{\numberline {5.1.1}2D cases}{17}{subsubsection.42}}
\newlabel{fig:coulombErrors2D}{{3}{18}{2D cases}{figure.43}{}}
\newlabel{fig:coulombErrors2D@cref}{{[figure][3][]3}{18}}
\@writefile{lof}{\contentsline {figure}{\numberline {3}{\ignorespaces Coulomb cost case $d=2$, section \ref  {subsec:gibbs}: a) error distribution per subtensor after the greedy step (16384 subtensors); b) error per subdomain after the optimisation; c) error normalised with the subtensor size.}}{18}{figure.43}}
\@writefile{lot}{\contentsline {table}{\numberline {1}{\ignorespaces 2D Coulomb testcase, Section \ref  {subsec:coulomb}: the table presents the memory storages of the full tensor, the one achieved by classical HOSVD, by the first step of the proposed method (Greedy) and by the optimised hierarchical construction.}}{18}{table.45}}
\newlabel{tab:2DCoulomb}{{1}{18}{2D Coulomb testcase, Section \ref {subsec:coulomb}: the table presents the memory storages of the full tensor, the one achieved by classical HOSVD, by the first step of the proposed method (Greedy) and by the optimised hierarchical construction}{table.45}{}}
\newlabel{tab:2DCoulomb@cref}{{[table][1][]1}{18}}
\newlabel{fig:3DCoulombsizes}{{4}{19}{3D cases}{figure.48}{}}
\newlabel{fig:3DCoulombsizes@cref}{{[figure][4][]4}{19}}
\@writefile{lof}{\contentsline {figure}{\numberline {4}{\ignorespaces Coulomb potential, section \ref  {subsec:coulomb}: (a) the tensor entries, in red the largest entries; (b) the small size subtensors, (c) and (d) the mid size and the larger size subtensors. The largest subtensors are in the complement of the cube. }}{19}{figure.48}}
\newlabel{fig:coulombErrors}{{5}{19}{3D cases}{figure.50}{}}
\newlabel{fig:coulombErrors@cref}{{[figure][5][]5}{19}}
\@writefile{lof}{\contentsline {figure}{\numberline {5}{\ignorespaces Coulomb 3D case, section \ref  {subsec:coulomb}: error distribution a) after the greedy step b) final distribution and c) final distribution normalised with the subtensor size.}}{19}{figure.50}}
\@writefile{toc}{\contentsline {subsubsection}{\numberline {5.1.2}3D cases}{19}{subsubsection.47}}
\newlabel{sec:Gibbs}{{5.2}{20}{Gibbs \corr {measure}}{subsection.52}{}}
\newlabel{sec:Gibbs@cref}{{[subsection][2][5]5.2}{20}}
\newlabel{subsec:gibbs}{{5.2}{20}{Gibbs \corr {measure}}{subsection.52}{}}
\newlabel{subsec:gibbs@cref}{{[subsection][2][5]5.2}{20}}
\@writefile{toc}{\contentsline {subsection}{\numberline {5.2}Gibbs \leavevmode {\color  {blue}measure}}{20}{subsection.52}}
\@writefile{toc}{\contentsline {subsubsection}{\numberline {5.2.1}2D cases}{20}{subsubsection.54}}
\newlabel{fig:gibbsErrors2D}{{6}{21}{2D cases}{figure.55}{}}
\newlabel{fig:gibbsErrors2D@cref}{{[figure][6][]6}{21}}
\@writefile{lof}{\contentsline {figure}{\numberline {6}{\ignorespaces Gibbs 2D case, section \ref  {subsec:gibbs}: error distribution a) after the greedy step b) final distribution and c) final distribution normalised with the subtensor size.}}{21}{figure.55}}
\newlabel{tab:2DGibbs}{{2}{21}{2D cases}{table.57}{}}
\newlabel{tab:2DGibbs@cref}{{[table][2][]2}{21}}
\@writefile{lot}{\contentsline {table}{\numberline {2}{\ignorespaces 2D Gibbs testcase, Section \ref  {subsec:gibbs}: the table presents the memory storages of the full tensor, the one achieved by classical HOSVD, by the first step of the proposed method (Greedy) and by the optimised hierarchical construction.}}{21}{table.57}}
\newlabel{fig:3DGibbssizes}{{7}{21}{3D cases}{figure.60}{}}
\newlabel{fig:3DGibbssizes@cref}{{[figure][7][]7}{21}}
\@writefile{lof}{\contentsline {figure}{\numberline {7}{\ignorespaces Gibbs \leavevmode {\color  {blue}measure}, section \ref  {subsec:gibbs}: (a) the tensor entries, in red the largest entries; (b) the small size subtensors, (c) and (d) the mid size and the larger size subtensors. The largest subtensors are in the complement of the cube. }}{21}{figure.60}}
\newlabel{fig:gibbsErrors}{{8}{22}{3D cases}{figure.62}{}}
\newlabel{fig:gibbsErrors@cref}{{[figure][8][]8}{22}}
\@writefile{lof}{\contentsline {figure}{\numberline {8}{\ignorespaces Gibbs 3D case, section \ref  {subsec:gibbs}: error distribution a) after the greedy step b) final distribution and c) final distribution normalised with the subtensor size.}}{22}{figure.62}}
\@writefile{toc}{\contentsline {subsubsection}{\numberline {5.2.2}3D cases}{22}{figure.62}}
\newlabel{eq:CP}{{5.3}{22}{\corr {Regularized Coulomb potential}}{subsection.64}{}}
\newlabel{eq:CP@cref}{{[subsection][3][5]5.3}{22}}
\@writefile{toc}{\contentsline {subsection}{\numberline {5.3}\leavevmode {\color  {blue}Regularized Coulomb potential}}{22}{subsection.64}}
\newlabel{sec:VP}{{5.4}{22}{Vlasov-Poisson solution}{subsection.65}{}}
\newlabel{sec:VP@cref}{{[subsection][4][5]5.4}{22}}
\newlabel{subsec:vlasov}{{5.4}{22}{Vlasov-Poisson solution}{subsection.65}{}}
\newlabel{subsec:vlasov@cref}{{[subsection][4][5]5.4}{22}}
\@writefile{toc}{\contentsline {subsection}{\numberline {5.4}Vlasov-Poisson solution}{22}{subsection.65}}
\newlabel{fig:Vlasovssizes}{{9}{23}{Vlasov-Poisson solution}{figure.67}{}}
\newlabel{fig:Vlasovssizes@cref}{{[figure][9][]9}{23}}
\@writefile{lof}{\contentsline {figure}{\numberline {9}{\ignorespaces Vlasov-Poisson solution, section \ref  {subsec:vlasov}: (a) the tensor entries, in red the largest entries; (b) the small size subtensors, (c) and (d) the mid size and the larger size subtensors. The largest subtensors are in the complement of the cube. }}{23}{figure.67}}
\newlabel{eq:VlasovPoisson}{{5.7}{23}{Vlasov-Poisson solution}{equation.66}{}}
\newlabel{eq:VlasovPoisson@cref}{{[subsection][4][5]5.4}{23}}
\@writefile{toc}{\contentsline {subsection}{\numberline {5.5}Influence of the number of degrees of freedom}{23}{subsection.71}}
\newlabel{fig:vlasovErrors}{{10}{24}{Vlasov-Poisson solution}{figure.69}{}}
\newlabel{fig:vlasovErrors@cref}{{[figure][10][]10}{24}}
\@writefile{lof}{\contentsline {figure}{\numberline {10}{\ignorespaces Vlasov-Poisson case, section \ref  {subsec:vlasov}: error distribution a) after the greedy step b) final distribution and c) final distribution normalised with the subtensor size.}}{24}{figure.69}}
\newlabel{fig:memoryratio}{{11}{24}{Influence of the number of degrees of freedom}{figure.72}{}}
\newlabel{fig:memoryratio@cref}{{[figure][11][]11}{24}}
\@writefile{lof}{\contentsline {figure}{\numberline {11}{\ignorespaces Memory ratio as a function of $n$. (a) 2D Gibbs \leavevmode {\color  {blue}measure}. (b)3D Coulom cost.}}{24}{figure.72}}
\@writefile{toc}{\contentsline {section}{\numberline {6}Conclusions and perspectives}{24}{section.74}}
\bibstyle{siamplain}
\bibdata{biblioADAPT.bib}
\bibcite{bachmayr2016tensor}{1}
\bibcite{ballani2015hierarchical}{2}
\bibcite{bebendorf2008hierarchical}{3}
\bibcite{cotar2018smoothing}{4}
\bibcite{de2000multi}{5}
\bibcite{edmunds2018spectral}{6}
\bibcite{edmunds1990approximation}{7}
\bibcite{EhrlacherLombardi}{8}
\bibcite{gorodetsky2019}{9}
\bibcite{grasedyck2013literature}{10}
\bibcite{hackbusch2012}{11}
\bibcite{hackbusch2015hierarchical}{12}
\bibcite{hackbusch2007tensor}{13}
\bibcite{khoromskij2007structured}{14}
\bibcite{khoromskij2012tensors}{15}
\bibcite{kolda2009}{16}
\bibcite{kressner2011low}{17}
\bibcite{lewin2018semi}{18}
\bibcite{oseledets2011tensor}{19}
\@writefile{toc}{\contentsline {section}{References}{25}{section*.75}}
\bibcite{schwab2011sparse}{20}
