0 0 7 0 7 0 7 
1 8 15 0 7 0 7 
2 0 7 8 15 0 7 
3 8 15 8 15 0 7 
4 0 7 0 7 8 15 
5 8 15 0 7 8 15 
6 0 7 8 15 8 15 
7 8 15 8 15 8 15 
8 16 31 0 15 0 15 
9 0 15 16 31 0 15 
10 16 31 16 31 0 15 
11 0 15 0 15 16 31 
12 16 31 0 15 16 31 
13 0 15 16 31 16 31 
14 16 23 16 23 16 23 
15 24 31 16 23 16 23 
16 16 23 24 31 16 23 
17 24 31 24 31 16 23 
18 16 23 16 23 24 31 
19 24 31 16 23 24 31 
20 16 23 24 31 24 31 
21 24 31 24 31 24 31 
22 32 47 0 15 0 15 
23 48 63 0 15 0 15 
24 32 47 16 31 0 15 
25 48 63 16 31 0 15 
26 32 47 0 15 16 31 
27 48 63 0 15 16 31 
28 32 47 16 31 16 31 
29 48 63 16 31 16 31 
30 0 15 32 47 0 15 
31 16 31 32 47 0 15 
32 0 15 48 63 0 15 
33 16 31 48 63 0 15 
34 0 15 32 47 16 31 
35 16 31 32 47 16 31 
36 0 15 48 63 16 31 
37 16 31 48 63 16 31 
38 32 47 32 47 0 15 
39 48 63 32 47 0 15 
40 32 47 48 63 0 15 
41 48 63 48 63 0 15 
42 32 47 32 47 16 31 
43 48 63 32 47 16 31 
44 32 47 48 63 16 31 
45 48 63 48 63 16 31 
46 0 15 0 15 32 47 
47 16 31 0 15 32 47 
48 0 15 16 31 32 47 
49 16 31 16 31 32 47 
50 0 15 0 15 48 63 
51 16 31 0 15 48 63 
52 0 15 16 31 48 63 
53 16 31 16 31 48 63 
54 32 47 0 15 32 47 
55 48 63 0 15 32 47 
56 32 47 16 31 32 47 
57 48 63 16 31 32 47 
58 32 47 0 15 48 63 
59 48 63 0 15 48 63 
60 32 47 16 31 48 63 
61 48 63 16 31 48 63 
62 0 15 32 47 32 47 
63 16 31 32 47 32 47 
64 0 15 48 63 32 47 
65 16 31 48 63 32 47 
66 0 15 32 47 48 63 
67 16 31 32 47 48 63 
68 0 15 48 63 48 63 
69 16 31 48 63 48 63 
70 32 39 32 39 32 39 
71 40 47 32 39 32 39 
72 32 39 40 47 32 39 
73 40 47 40 47 32 39 
74 32 39 32 39 40 47 
75 40 47 32 39 40 47 
76 32 39 40 47 40 47 
77 40 47 40 47 40 47 
78 48 63 32 47 32 47 
79 32 47 48 63 32 47 
80 48 63 48 63 32 47 
81 32 47 32 47 48 63 
82 48 63 32 47 48 63 
83 32 47 48 63 48 63 
84 48 55 48 55 48 55 
85 56 63 48 55 48 55 
86 48 55 56 63 48 55 
87 56 63 56 63 48 55 
88 48 55 48 55 56 63 
89 56 63 48 55 56 63 
90 48 55 56 63 56 63 
91 56 63 56 63 56 63 
92 64 95 0 31 0 31 
93 96 127 0 31 0 31 
94 64 95 32 63 0 31 
95 96 127 32 63 0 31 
96 64 95 0 31 32 63 
97 96 127 0 31 32 63 
98 64 79 32 47 32 47 
99 80 95 32 47 32 47 
100 64 79 48 63 32 47 
101 80 95 48 63 32 47 
102 64 79 32 47 48 63 
103 80 95 32 47 48 63 
104 64 79 48 63 48 63 
105 80 95 48 63 48 63 
106 96 127 32 63 32 63 
107 0 31 64 95 0 31 
108 32 63 64 95 0 31 
109 0 31 96 127 0 31 
110 32 63 96 127 0 31 
111 0 31 64 95 32 63 
112 32 47 64 79 32 47 
113 48 63 64 79 32 47 
114 32 47 80 95 32 47 
115 48 63 80 95 32 47 
116 32 47 64 79 48 63 
117 48 63 64 79 48 63 
118 32 47 80 95 48 63 
119 48 63 80 95 48 63 
120 0 31 96 127 32 63 
121 32 63 96 127 32 63 
122 64 95 64 95 0 31 
123 96 127 64 95 0 31 
124 64 95 96 127 0 31 
125 96 127 96 127 0 31 
126 64 79 64 79 32 47 
127 80 95 64 79 32 47 
128 64 79 80 95 32 47 
129 80 95 80 95 32 47 
130 64 79 64 79 48 63 
131 80 95 64 79 48 63 
132 64 79 80 95 48 63 
133 80 95 80 95 48 63 
134 96 127 64 95 32 63 
135 64 95 96 127 32 63 
136 96 127 96 127 32 63 
137 0 31 0 31 64 95 
138 32 63 0 31 64 95 
139 0 31 32 63 64 95 
140 32 47 32 47 64 79 
141 48 63 32 47 64 79 
142 32 47 48 63 64 79 
143 48 63 48 63 64 79 
144 32 47 32 47 80 95 
145 48 63 32 47 80 95 
146 32 47 48 63 80 95 
147 48 63 48 63 80 95 
148 0 31 0 31 96 127 
149 32 63 0 31 96 127 
150 0 31 32 63 96 127 
151 32 63 32 63 96 127 
152 64 95 0 31 64 95 
153 96 127 0 31 64 95 
154 64 79 32 47 64 79 
155 80 95 32 47 64 79 
156 64 79 48 63 64 79 
157 80 95 48 63 64 79 
158 64 79 32 47 80 95 
159 80 95 32 47 80 95 
160 64 79 48 63 80 95 
161 80 95 48 63 80 95 
162 96 127 32 63 64 95 
163 64 95 0 31 96 127 
164 96 127 0 31 96 127 
165 64 95 32 63 96 127 
166 96 127 32 63 96 127 
167 0 31 64 95 64 95 
168 32 47 64 79 64 79 
169 48 63 64 79 64 79 
170 32 47 80 95 64 79 
171 48 63 80 95 64 79 
172 32 47 64 79 80 95 
173 48 63 64 79 80 95 
174 32 47 80 95 80 95 
175 48 63 80 95 80 95 
176 0 31 96 127 64 95 
177 32 63 96 127 64 95 
178 0 31 64 95 96 127 
179 32 63 64 95 96 127 
180 0 31 96 127 96 127 
181 32 63 96 127 96 127 
182 64 71 64 71 64 71 
183 72 79 64 71 64 71 
184 64 71 72 79 64 71 
185 72 79 72 79 64 71 
186 64 71 64 71 72 79 
187 72 79 64 71 72 79 
188 64 71 72 79 72 79 
189 72 79 72 79 72 79 
190 80 95 64 79 64 79 
191 64 79 80 95 64 79 
192 80 95 80 95 64 79 
193 64 79 64 79 80 95 
194 80 95 64 79 80 95 
195 64 79 80 95 80 95 
196 80 87 80 87 80 87 
197 88 95 80 87 80 87 
198 80 87 88 95 80 87 
199 88 95 88 95 80 87 
200 80 87 80 87 88 95 
201 88 95 80 87 88 95 
202 80 87 88 95 88 95 
203 88 95 88 95 88 95 
204 96 111 64 79 64 79 
205 112 127 64 79 64 79 
206 96 111 80 95 64 79 
207 112 127 80 95 64 79 
208 96 111 64 79 80 95 
209 112 127 64 79 80 95 
210 96 111 80 95 80 95 
211 112 127 80 95 80 95 
212 64 79 96 111 64 79 
213 80 95 96 111 64 79 
214 64 79 112 127 64 79 
215 80 95 112 127 64 79 
216 64 79 96 111 80 95 
217 80 95 96 111 80 95 
218 64 79 112 127 80 95 
219 80 95 112 127 80 95 
220 96 111 96 111 64 79 
221 112 127 96 111 64 79 
222 96 111 112 127 64 79 
223 112 127 112 127 64 79 
224 96 111 96 111 80 95 
225 112 127 96 111 80 95 
226 96 111 112 127 80 95 
227 112 127 112 127 80 95 
228 64 79 64 79 96 111 
229 80 95 64 79 96 111 
230 64 79 80 95 96 111 
231 80 95 80 95 96 111 
232 64 79 64 79 112 127 
233 80 95 64 79 112 127 
234 64 79 80 95 112 127 
235 80 95 80 95 112 127 
236 96 111 64 79 96 111 
237 112 127 64 79 96 111 
238 96 111 80 95 96 111 
239 112 127 80 95 96 111 
240 96 111 64 79 112 127 
241 112 127 64 79 112 127 
242 96 111 80 95 112 127 
243 112 127 80 95 112 127 
244 64 79 96 111 96 111 
245 80 95 96 111 96 111 
246 64 79 112 127 96 111 
247 80 95 112 127 96 111 
248 64 79 96 111 112 127 
249 80 95 96 111 112 127 
250 64 79 112 127 112 127 
251 80 95 112 127 112 127 
252 96 103 96 103 96 103 
253 104 111 96 103 96 103 
254 96 103 104 111 96 103 
255 104 111 104 111 96 103 
256 96 103 96 103 104 111 
257 104 111 96 103 104 111 
258 96 103 104 111 104 111 
259 104 111 104 111 104 111 
260 112 127 96 111 96 111 
261 96 111 112 127 96 111 
262 112 127 112 127 96 111 
263 96 111 96 111 112 127 
264 112 127 96 111 112 127 
265 96 111 112 127 112 127 
266 112 119 112 119 112 119 
267 120 127 112 119 112 119 
268 112 119 120 127 112 119 
269 120 127 120 127 112 119 
270 112 119 112 119 120 127 
271 120 127 112 119 120 127 
272 112 119 120 127 120 127 
273 120 127 120 127 120 127 
274 128 191 0 63 0 63 
275 192 223 0 31 0 31 
276 224 255 0 31 0 31 
277 192 223 32 63 0 31 
278 224 255 32 63 0 31 
279 192 223 0 31 32 63 
280 224 255 0 31 32 63 
281 192 223 32 63 32 63 
282 224 255 32 63 32 63 
283 128 191 64 127 0 63 
284 192 255 64 127 0 63 
285 128 191 0 63 64 127 
286 192 255 0 63 64 127 
287 128 159 64 95 64 95 
288 160 191 64 95 64 95 
289 128 159 96 127 64 95 
290 160 191 96 127 64 95 
291 128 159 64 95 96 127 
292 160 191 64 95 96 127 
293 128 143 96 111 96 111 
294 144 159 96 111 96 111 
295 128 143 112 127 96 111 
296 144 159 112 127 96 111 
297 128 143 96 111 112 127 
298 144 159 96 111 112 127 
299 128 143 112 127 112 127 
300 144 159 112 127 112 127 
301 160 191 96 127 96 127 
302 192 255 64 127 64 127 
303 0 63 128 191 0 63 
304 64 127 128 191 0 63 
305 0 31 192 223 0 31 
306 32 63 192 223 0 31 
307 0 31 224 255 0 31 
308 32 63 224 255 0 31 
309 0 31 192 223 32 63 
310 32 63 192 223 32 63 
311 0 31 224 255 32 63 
312 32 63 224 255 32 63 
313 64 127 192 255 0 63 
314 0 63 128 191 64 127 
315 64 95 128 159 64 95 
316 96 127 128 159 64 95 
317 64 95 160 191 64 95 
318 96 127 160 191 64 95 
319 64 95 128 159 96 127 
320 96 111 128 143 96 111 
321 112 127 128 143 96 111 
322 96 111 144 159 96 111 
323 112 127 144 159 96 111 
324 96 111 128 143 112 127 
325 112 127 128 143 112 127 
326 96 111 144 159 112 127 
327 112 127 144 159 112 127 
328 64 95 160 191 96 127 
329 96 127 160 191 96 127 
330 0 63 192 255 64 127 
331 64 127 192 255 64 127 
332 128 191 128 191 0 63 
333 192 255 128 191 0 63 
334 128 191 192 255 0 63 
335 192 223 192 223 0 31 
336 224 255 192 223 0 31 
337 192 223 224 255 0 31 
338 224 255 224 255 0 31 
339 192 223 192 223 32 63 
340 224 255 192 223 32 63 
341 192 223 224 255 32 63 
342 224 255 224 255 32 63 
343 128 159 128 159 64 95 
344 160 191 128 159 64 95 
345 128 159 160 191 64 95 
346 160 191 160 191 64 95 
347 128 143 128 143 96 111 
348 144 159 128 143 96 111 
349 128 143 144 159 96 111 
350 144 159 144 159 96 111 
351 128 143 128 143 112 127 
352 144 159 128 143 112 127 
353 128 143 144 159 112 127 
354 144 159 144 159 112 127 
355 160 191 128 159 96 127 
356 128 159 160 191 96 127 
357 160 191 160 191 96 127 
358 192 255 128 191 64 127 
359 128 191 192 255 64 127 
360 192 255 192 255 64 127 
361 0 63 0 63 128 191 
362 64 127 0 63 128 191 
363 0 63 64 127 128 191 
364 64 95 64 95 128 159 
365 96 127 64 95 128 159 
366 64 95 96 127 128 159 
367 96 111 96 111 128 143 
368 112 127 96 111 128 143 
369 96 111 112 127 128 143 
370 112 127 112 127 128 143 
371 96 111 96 111 144 159 
372 112 127 96 111 144 159 
373 96 111 112 127 144 159 
374 112 127 112 127 144 159 
375 64 95 64 95 160 191 
376 96 127 64 95 160 191 
377 64 95 96 127 160 191 
378 96 127 96 127 160 191 
379 0 31 0 31 192 223 
380 32 63 0 31 192 223 
381 0 31 32 63 192 223 
382 32 63 32 63 192 223 
383 0 31 0 31 224 255 
384 32 63 0 31 224 255 
385 0 31 32 63 224 255 
386 32 63 32 63 224 255 
387 64 127 0 63 192 255 
388 0 63 64 127 192 255 
389 64 127 64 127 192 255 
390 128 191 0 63 128 191 
391 192 255 0 63 128 191 
392 128 159 64 95 128 159 
393 160 191 64 95 128 159 
394 128 143 96 111 128 143 
395 144 159 96 111 128 143 
396 128 143 112 127 128 143 
397 144 159 112 127 128 143 
398 128 143 96 111 144 159 
399 144 159 96 111 144 159 
400 128 143 112 127 144 159 
401 144 159 112 127 144 159 
402 160 191 96 127 128 159 
403 128 159 64 95 160 191 
404 160 191 64 95 160 191 
405 128 159 96 127 160 191 
406 160 191 96 127 160 191 
407 192 255 64 127 128 191 
408 128 191 0 63 192 255 
409 192 223 0 31 192 223 
410 224 255 0 31 192 223 
411 192 223 32 63 192 223 
412 224 255 32 63 192 223 
413 192 223 0 31 224 255 
414 224 255 0 31 224 255 
415 192 223 32 63 224 255 
416 224 255 32 63 224 255 
417 128 191 64 127 192 255 
418 192 255 64 127 192 255 
419 0 63 128 191 128 191 
420 64 95 128 159 128 159 
421 96 111 128 143 128 143 
422 112 127 128 143 128 143 
423 96 111 144 159 128 143 
424 112 127 144 159 128 143 
425 96 111 128 143 144 159 
426 112 127 128 143 144 159 
427 96 111 144 159 144 159 
428 112 127 144 159 144 159 
429 64 95 160 191 128 159 
430 96 127 160 191 128 159 
431 64 95 128 159 160 191 
432 96 127 128 159 160 191 
433 64 95 160 191 160 191 
434 96 127 160 191 160 191 
435 0 63 192 255 128 191 
436 64 127 192 255 128 191 
437 0 63 128 191 192 255 
438 64 127 128 191 192 255 
439 0 31 192 223 192 223 
440 32 63 192 223 192 223 
441 0 31 224 255 192 223 
442 32 63 224 255 192 223 
443 0 31 192 223 224 255 
444 32 63 192 223 224 255 
445 0 31 224 255 224 255 
446 32 63 224 255 224 255 
447 64 127 192 255 192 255 
448 128 135 128 135 128 135 
449 136 143 128 135 128 135 
450 128 135 136 143 128 135 
451 136 143 136 143 128 135 
452 128 135 128 135 136 143 
453 136 143 128 135 136 143 
454 128 135 136 143 136 143 
455 136 143 136 143 136 143 
456 144 159 128 143 128 143 
457 128 143 144 159 128 143 
458 144 159 144 159 128 143 
459 128 143 128 143 144 159 
460 144 159 128 143 144 159 
461 128 143 144 159 144 159 
462 144 151 144 151 144 151 
463 152 159 144 151 144 151 
464 144 151 152 159 144 151 
465 152 159 152 159 144 151 
466 144 151 144 151 152 159 
467 152 159 144 151 152 159 
468 144 151 152 159 152 159 
469 152 159 152 159 152 159 
470 160 175 128 143 128 143 
471 176 191 128 143 128 143 
472 160 175 144 159 128 143 
473 176 191 144 159 128 143 
474 160 175 128 143 144 159 
475 176 191 128 143 144 159 
476 160 175 144 159 144 159 
477 176 191 144 159 144 159 
478 128 143 160 175 128 143 
479 144 159 160 175 128 143 
480 128 143 176 191 128 143 
481 144 159 176 191 128 143 
482 128 143 160 175 144 159 
483 144 159 160 175 144 159 
484 128 143 176 191 144 159 
485 144 159 176 191 144 159 
486 160 175 160 175 128 143 
487 176 191 160 175 128 143 
488 160 175 176 191 128 143 
489 176 191 176 191 128 143 
490 160 175 160 175 144 159 
491 176 191 160 175 144 159 
492 160 175 176 191 144 159 
493 176 191 176 191 144 159 
494 128 143 128 143 160 175 
495 144 159 128 143 160 175 
496 128 143 144 159 160 175 
497 144 159 144 159 160 175 
498 128 143 128 143 176 191 
499 144 159 128 143 176 191 
500 128 143 144 159 176 191 
501 144 159 144 159 176 191 
502 160 175 128 143 160 175 
503 176 191 128 143 160 175 
504 160 175 144 159 160 175 
505 176 191 144 159 160 175 
506 160 175 128 143 176 191 
507 176 191 128 143 176 191 
508 160 175 144 159 176 191 
509 176 191 144 159 176 191 
510 128 143 160 175 160 175 
511 144 159 160 175 160 175 
512 128 143 176 191 160 175 
513 144 159 176 191 160 175 
514 128 143 160 175 176 191 
515 144 159 160 175 176 191 
516 128 143 176 191 176 191 
517 144 159 176 191 176 191 
518 160 167 160 167 160 167 
519 168 175 160 167 160 167 
520 160 167 168 175 160 167 
521 168 175 168 175 160 167 
522 160 167 160 167 168 175 
523 168 175 160 167 168 175 
524 160 167 168 175 168 175 
525 168 175 168 175 168 175 
526 176 191 160 175 160 175 
527 160 175 176 191 160 175 
528 176 191 176 191 160 175 
529 160 175 160 175 176 191 
530 176 191 160 175 176 191 
531 160 175 176 191 176 191 
532 176 183 176 183 176 183 
533 184 191 176 183 176 183 
534 176 183 184 191 176 183 
535 184 191 184 191 176 183 
536 176 183 176 183 184 191 
537 184 191 176 183 184 191 
538 176 183 184 191 184 191 
539 184 191 184 191 184 191 
540 192 223 128 159 128 159 
541 224 255 128 159 128 159 
542 192 223 160 191 128 159 
543 224 255 160 191 128 159 
544 192 223 128 159 160 191 
545 224 255 128 159 160 191 
546 192 207 160 175 160 175 
547 208 223 160 175 160 175 
548 192 207 176 191 160 175 
549 208 223 176 191 160 175 
550 192 207 160 175 176 191 
551 208 223 160 175 176 191 
552 192 207 176 191 176 191 
553 208 223 176 191 176 191 
554 224 255 160 191 160 191 
555 128 159 192 223 128 159 
556 160 191 192 223 128 159 
557 128 159 224 255 128 159 
558 160 191 224 255 128 159 
559 128 159 192 223 160 191 
560 160 175 192 207 160 175 
561 176 191 192 207 160 175 
562 160 175 208 223 160 175 
563 176 191 208 223 160 175 
564 160 175 192 207 176 191 
565 176 191 192 207 176 191 
566 160 175 208 223 176 191 
567 176 191 208 223 176 191 
568 128 159 224 255 160 191 
569 160 191 224 255 160 191 
570 192 223 192 223 128 159 
571 224 255 192 223 128 159 
572 192 223 224 255 128 159 
573 224 255 224 255 128 159 
574 192 207 192 207 160 175 
575 208 223 192 207 160 175 
576 192 207 208 223 160 175 
577 208 223 208 223 160 175 
578 192 207 192 207 176 191 
579 208 223 192 207 176 191 
580 192 207 208 223 176 191 
581 208 223 208 223 176 191 
582 224 255 192 223 160 191 
583 192 223 224 255 160 191 
584 224 255 224 255 160 191 
585 128 159 128 159 192 223 
586 160 191 128 159 192 223 
587 128 159 160 191 192 223 
588 160 175 160 175 192 207 
589 176 191 160 175 192 207 
590 160 175 176 191 192 207 
591 176 191 176 191 192 207 
592 160 175 160 175 208 223 
593 176 191 160 175 208 223 
594 160 175 176 191 208 223 
595 176 191 176 191 208 223 
596 128 159 128 159 224 255 
597 160 191 128 159 224 255 
598 128 159 160 191 224 255 
599 160 191 160 191 224 255 
600 192 223 128 159 192 223 
601 224 255 128 159 192 223 
602 192 207 160 175 192 207 
603 208 223 160 175 192 207 
604 192 207 176 191 192 207 
605 208 223 176 191 192 207 
606 192 207 160 175 208 223 
607 208 223 160 175 208 223 
608 192 207 176 191 208 223 
609 208 223 176 191 208 223 
610 224 255 160 191 192 223 
611 192 223 128 159 224 255 
612 224 255 128 159 224 255 
613 192 223 160 191 224 255 
614 224 255 160 191 224 255 
615 128 159 192 223 192 223 
616 160 175 192 207 192 207 
617 176 191 192 207 192 207 
618 160 175 208 223 192 207 
619 176 191 208 223 192 207 
620 160 175 192 207 208 223 
621 176 191 192 207 208 223 
622 160 175 208 223 208 223 
623 176 191 208 223 208 223 
624 128 159 224 255 192 223 
625 160 191 224 255 192 223 
626 128 159 192 223 224 255 
627 160 191 192 223 224 255 
628 128 159 224 255 224 255 
629 160 191 224 255 224 255 
630 192 199 192 199 192 199 
631 200 207 192 199 192 199 
632 192 199 200 207 192 199 
633 200 207 200 207 192 199 
634 192 199 192 199 200 207 
635 200 207 192 199 200 207 
636 192 199 200 207 200 207 
637 200 207 200 207 200 207 
638 208 223 192 207 192 207 
639 192 207 208 223 192 207 
640 208 223 208 223 192 207 
641 192 207 192 207 208 223 
642 208 223 192 207 208 223 
643 192 207 208 223 208 223 
644 208 215 208 215 208 215 
645 216 223 208 215 208 215 
646 208 215 216 223 208 215 
647 216 223 216 223 208 215 
648 208 215 208 215 216 223 
649 216 223 208 215 216 223 
650 208 215 216 223 216 223 
651 216 223 216 223 216 223 
652 224 239 192 207 192 207 
653 240 255 192 207 192 207 
654 224 239 208 223 192 207 
655 240 255 208 223 192 207 
656 224 239 192 207 208 223 
657 240 255 192 207 208 223 
658 224 239 208 223 208 223 
659 240 255 208 223 208 223 
660 192 207 224 239 192 207 
661 208 223 224 239 192 207 
662 192 207 240 255 192 207 
663 208 223 240 255 192 207 
664 192 207 224 239 208 223 
665 208 223 224 239 208 223 
666 192 207 240 255 208 223 
667 208 223 240 255 208 223 
668 224 239 224 239 192 207 
669 240 255 224 239 192 207 
670 224 239 240 255 192 207 
671 240 255 240 255 192 207 
672 224 239 224 239 208 223 
673 240 255 224 239 208 223 
674 224 239 240 255 208 223 
675 240 255 240 255 208 223 
676 192 207 192 207 224 239 
677 208 223 192 207 224 239 
678 192 207 208 223 224 239 
679 208 223 208 223 224 239 
680 192 207 192 207 240 255 
681 208 223 192 207 240 255 
682 192 207 208 223 240 255 
683 208 223 208 223 240 255 
684 224 239 192 207 224 239 
685 240 255 192 207 224 239 
686 224 239 208 223 224 239 
687 240 255 208 223 224 239 
688 224 239 192 207 240 255 
689 240 255 192 207 240 255 
690 224 239 208 223 240 255 
691 240 255 208 223 240 255 
692 192 207 224 239 224 239 
693 208 223 224 239 224 239 
694 192 207 240 255 224 239 
695 208 223 240 255 224 239 
696 192 207 224 239 240 255 
697 208 223 224 239 240 255 
698 192 207 240 255 240 255 
699 208 223 240 255 240 255 
700 224 231 224 231 224 231 
701 232 239 224 231 224 231 
702 224 231 232 239 224 231 
703 232 239 232 239 224 231 
704 224 231 224 231 232 239 
705 232 239 224 231 232 239 
706 224 231 232 239 232 239 
707 232 239 232 239 232 239 
708 240 255 224 239 224 239 
709 224 239 240 255 224 239 
710 240 255 240 255 224 239 
711 224 239 224 239 240 255 
712 240 255 224 239 240 255 
713 224 239 240 255 240 255 
714 240 247 240 247 240 247 
715 248 255 240 247 240 247 
716 240 247 248 255 240 247 
717 248 255 248 255 240 247 
718 240 247 240 247 248 255 
719 248 255 240 247 248 255 
720 240 247 248 255 248 255 
721 248 255 248 255 248 255 
