0 3.34738e-06
1 0.000229188
2 0.000229188
3 0.000229188
4 0.000229188
5 0.000229188
6 0.000229188
7 3.34738e-06
8 0.000173666
9 1.37526e-05
10 0.000386944
11 0.000472257
12 0.000386944
13 0.000472257
14 0.000229188
15 0.000173666
16 0.000173666
17 0.000386944
18 1.37526e-05
19 0.000472257
20 0.000386944
21 0.000229188
22 0.000472257
23 0.000173666
24 0.000173666
25 0.000472257
26 0.000472257
27 1.37526e-05
28 0.000229188
29 0.000386944
30 0.000386944
31 0.000173666
32 0.000173666
33 0.000386944
34 0.000386944
35 0.000229188
36 1.37526e-05
37 0.000472257
38 0.000472257
39 0.000173666
40 0.000173666
41 0.000472257
42 0.000229188
43 0.000386944
44 0.000472257
45 1.37526e-05
46 0.000386944
47 0.000173666
48 0.000173666
49 0.000229188
50 0.000472257
51 0.000386944
52 0.000472257
53 0.000386944
54 1.37526e-05
55 0.000173666
56 3.34738e-06
57 0.000229188
58 0.000229188
59 0.000229188
60 0.000229188
61 0.000229188
62 0.000229188
63 3.34738e-06
64 4.06094e-06
65 0.000238634
66 0.000284521
67 0.00023702
68 0.000284521
69 0.00023702
70 1.37526e-05
71 4.06094e-06
72 0.000115228
73 6.23692e-05
74 0.0002712
75 0.00019082
76 0.0002712
77 0.00019082
78 0.000238634
79 0.000115228
80 0.00016365
81 0.000338671
82 0.000284521
83 0.000338671
84 0.000472257
85 0.000284521
86 0.000472257
87 0.00016365
88 0.000344166
89 0.000231123
90 0.000357214
91 0.000299377
92 0.00023702
93 0.0002712
94 0.000338671
95 0.000344166
96 0.00016365
97 0.000338671
98 0.000472257
99 0.000284521
100 0.000284521
101 0.000338671
102 0.000472257
103 0.00016365
104 0.000344166
105 0.000231123
106 0.00023702
107 0.0002712
108 0.000357214
109 0.000299377
110 0.000338671
111 0.000344166
112 0.000173666
113 1.37526e-05
114 0.000386944
115 0.000472257
116 0.000386944
117 0.000472257
118 0.000229188
119 0.000173666
120 4.06094e-06
121 0.000238634
122 0.000284521
123 0.00023702
124 0.000284521
125 0.00023702
126 1.37526e-05
127 4.06094e-06
128 4.06094e-06
129 0.000284521
130 0.000238634
131 0.00023702
132 0.000284521
133 1.37526e-05
134 0.00023702
135 4.06094e-06
136 0.00016365
137 0.000284521
138 0.000338671
139 0.000338671
140 0.000472257
141 0.000472257
142 0.000284521
143 0.00016365
144 0.000115228
145 0.0002712
146 6.23692e-05
147 0.00019082
148 0.0002712
149 0.000238634
150 0.00019082
151 0.000115228
152 0.000344166
153 0.000357214
154 0.000231123
155 0.000299377
156 0.00023702
157 0.000338671
158 0.0002712
159 0.000344166
160 0.00016365
161 0.000472257
162 0.000338671
163 0.000284521
164 0.000284521
165 0.000472257
166 0.000338671
167 0.00016365
168 0.000173666
169 0.000386944
170 1.37526e-05
171 0.000472257
172 0.000386944
173 0.000229188
174 0.000472257
175 0.000173666
176 0.000344166
177 0.00023702
178 0.000231123
179 0.0002712
180 0.000357214
181 0.000338671
182 0.000299377
183 0.000344166
184 4.06094e-06
185 0.000284521
186 0.000238634
187 0.00023702
188 0.000284521
189 1.37526e-05
190 0.00023702
191 4.06094e-06
192 4.06094e-06
193 0.00023702
194 0.00023702
195 0.000238634
196 1.37526e-05
197 0.000284521
198 0.000284521
199 4.06094e-06
200 0.000344166
201 0.000299377
202 0.0002712
203 0.000231123
204 0.000338671
205 0.000357214
206 0.00023702
207 0.000344166
208 0.000344166
209 0.0002712
210 0.000299377
211 0.000231123
212 0.000338671
213 0.00023702
214 0.000357214
215 0.000344166
216 0.000115228
217 0.00019082
218 0.00019082
219 6.23692e-05
220 0.000238634
221 0.0002712
222 0.0002712
223 0.000115228
224 0.000173666
225 0.000472257
226 0.000472257
227 1.37526e-05
228 0.000229188
229 0.000386944
230 0.000386944
231 0.000173666
232 0.00016365
233 0.000338671
234 0.000284521
235 0.000338671
236 0.000472257
237 0.000284521
238 0.000472257
239 0.00016365
240 0.00016365
241 0.000284521
242 0.000338671
243 0.000338671
244 0.000472257
245 0.000472257
246 0.000284521
247 0.00016365
248 4.06094e-06
249 0.00023702
250 0.00023702
251 0.000238634
252 1.37526e-05
253 0.000284521
254 0.000284521
255 4.06094e-06
256 4.06094e-06
257 0.000284521
258 0.000284521
259 1.37526e-05
260 0.000238634
261 0.00023702
262 0.00023702
263 4.06094e-06
264 0.00016365
265 0.000284521
266 0.000472257
267 0.000472257
268 0.000338671
269 0.000338671
270 0.000284521
271 0.00016365
272 0.00016365
273 0.000472257
274 0.000284521
275 0.000472257
276 0.000338671
277 0.000284521
278 0.000338671
279 0.00016365
280 0.000173666
281 0.000386944
282 0.000386944
283 0.000229188
284 1.37526e-05
285 0.000472257
286 0.000472257
287 0.000173666
288 0.000115228
289 0.0002712
290 0.0002712
291 0.000238634
292 6.23692e-05
293 0.00019082
294 0.00019082
295 0.000115228
296 0.000344166
297 0.000357214
298 0.00023702
299 0.000338671
300 0.000231123
301 0.000299377
302 0.0002712
303 0.000344166
304 0.000344166
305 0.00023702
306 0.000357214
307 0.000338671
308 0.000231123
309 0.0002712
310 0.000299377
311 0.000344166
312 4.06094e-06
313 0.000284521
314 0.000284521
315 1.37526e-05
316 0.000238634
317 0.00023702
318 0.00023702
319 4.06094e-06
320 4.06094e-06
321 0.00023702
322 1.37526e-05
323 0.000284521
324 0.00023702
325 0.000238634
326 0.000284521
327 4.06094e-06
328 0.000344166
329 0.000299377
330 0.000338671
331 0.000357214
332 0.0002712
333 0.000231123
334 0.00023702
335 0.000344166
336 0.000173666
337 0.000472257
338 0.000229188
339 0.000386944
340 0.000472257
341 1.37526e-05
342 0.000386944
343 0.000173666
344 0.00016365
345 0.000338671
346 0.000472257
347 0.000284521
348 0.000284521
349 0.000338671
350 0.000472257
351 0.00016365
352 0.000344166
353 0.0002712
354 0.000338671
355 0.00023702
356 0.000299377
357 0.000231123
358 0.000357214
359 0.000344166
360 0.000115228
361 0.00019082
362 0.000238634
363 0.0002712
364 0.00019082
365 6.23692e-05
366 0.0002712
367 0.000115228
368 0.00016365
369 0.000284521
370 0.000472257
371 0.000472257
372 0.000338671
373 0.000338671
374 0.000284521
375 0.00016365
376 4.06094e-06
377 0.00023702
378 1.37526e-05
379 0.000284521
380 0.00023702
381 0.000238634
382 0.000284521
383 4.06094e-06
384 4.06094e-06
385 1.37526e-05
386 0.00023702
387 0.000284521
388 0.00023702
389 0.000284521
390 0.000238634
391 4.06094e-06
392 0.000173666
393 0.000229188
394 0.000472257
395 0.000386944
396 0.000472257
397 0.000386944
398 1.37526e-05
399 0.000173666
400 0.000344166
401 0.000338671
402 0.000299377
403 0.000357214
404 0.0002712
405 0.00023702
406 0.000231123
407 0.000344166
408 0.00016365
409 0.000472257
410 0.000338671
411 0.000284521
412 0.000284521
413 0.000472257
414 0.000338671
415 0.00016365
416 0.000344166
417 0.000338671
418 0.0002712
419 0.00023702
420 0.000299377
421 0.000357214
422 0.000231123
423 0.000344166
424 0.00016365
425 0.000472257
426 0.000284521
427 0.000472257
428 0.000338671
429 0.000284521
430 0.000338671
431 0.00016365
432 0.000115228
433 0.000238634
434 0.00019082
435 0.0002712
436 0.00019082
437 0.0002712
438 6.23692e-05
439 0.000115228
440 4.06094e-06
441 1.37526e-05
442 0.00023702
443 0.000284521
444 0.00023702
445 0.000284521
446 0.000238634
447 4.06094e-06
448 3.34738e-06
449 0.000229188
450 0.000229188
451 0.000229188
452 0.000229188
453 0.000229188
454 0.000229188
455 3.34738e-06
456 0.000173666
457 1.37526e-05
458 0.000386944
459 0.000472257
460 0.000386944
461 0.000472257
462 0.000229188
463 0.000173666
464 0.000173666
465 0.000386944
466 1.37526e-05
467 0.000472257
468 0.000386944
469 0.000229188
470 0.000472257
471 0.000173666
472 0.000173666
473 0.000472257
474 0.000472257
475 1.37526e-05
476 0.000229188
477 0.000386944
478 0.000386944
479 0.000173666
480 0.000173666
481 0.000386944
482 0.000386944
483 0.000229188
484 1.37526e-05
485 0.000472257
486 0.000472257
487 0.000173666
488 0.000173666
489 0.000472257
490 0.000229188
491 0.000386944
492 0.000472257
493 1.37526e-05
494 0.000386944
495 0.000173666
496 0.000173666
497 0.000229188
498 0.000472257
499 0.000386944
500 0.000472257
501 0.000386944
502 1.37526e-05
503 0.000173666
504 3.34738e-06
505 0.000229188
506 0.000229188
507 0.000229188
508 0.000229188
509 0.000229188
510 0.000229188
511 3.34738e-06
512 3.67289e-05
513 2.31193e-05
514 0.000149415
515 0.000123536
516 0.000149415
517 0.000123536
518 6.23692e-05
519 3.67289e-05
520 1.5402e-05
521 1.08149e-05
522 0.000106139
523 9.40716e-05
524 0.000106139
525 9.40716e-05
526 2.31193e-05
527 1.5402e-05
528 0.00017076
529 0.000130845
530 0.000233878
531 0.00020375
532 0.00019082
533 0.000149415
534 0.000231123
535 0.00017076
536 0.000102981
537 8.33131e-05
538 0.000186815
539 0.000426605
540 0.000123536
541 0.000106139
542 0.000130845
543 0.000102981
544 0.00017076
545 0.000130845
546 0.00019082
547 0.000149415
548 0.000233878
549 0.00020375
550 0.000231123
551 0.00017076
552 0.000102981
553 8.33131e-05
554 0.000123536
555 0.000106139
556 0.000186815
557 0.000426605
558 0.000130845
559 0.000102981
560 0.000115228
561 6.23692e-05
562 0.0002712
563 0.00019082
564 0.0002712
565 0.00019082
566 0.000238634
567 0.000115228
568 3.67289e-05
569 2.31193e-05
570 0.000149415
571 0.000123536
572 0.000149415
573 0.000123536
574 6.23692e-05
575 3.67289e-05
576 8.00446e-06
577 6.25617e-06
578 8.55219e-05
579 7.93489e-05
580 8.55219e-05
581 7.93489e-05
582 1.08149e-05
583 8.00446e-06
584 5.16523e-06
585 4.48702e-06
586 7.48097e-05
587 7.14124e-05
588 7.48097e-05
589 7.14124e-05
590 6.25617e-06
591 5.16523e-06
592 6.92959e-05
593 5.91663e-05
594 0.000352921
595 0.000306562
596 9.40716e-05
597 8.55219e-05
598 8.33131e-05
599 6.92959e-05
600 5.17274e-05
601 4.6174e-05
602 0.000276161
603 0.000255454
604 7.93489e-05
605 7.48097e-05
606 5.91663e-05
607 5.17274e-05
608 6.92959e-05
609 5.91663e-05
610 9.40716e-05
611 8.55219e-05
612 0.000352921
613 0.000306562
614 8.33131e-05
615 6.92959e-05
616 5.17274e-05
617 4.6174e-05
618 7.93489e-05
619 7.48097e-05
620 0.000276161
621 0.000255454
622 5.91663e-05
623 5.17274e-05
624 1.5402e-05
625 1.08149e-05
626 0.000106139
627 9.40716e-05
628 0.000106139
629 9.40716e-05
630 2.31193e-05
631 1.5402e-05
632 8.00446e-06
633 6.25617e-06
634 8.55219e-05
635 7.93489e-05
636 8.55219e-05
637 7.93489e-05
638 1.08149e-05
639 8.00446e-06
640 0.000136572
641 8.95009e-05
642 0.000233878
643 8.95009e-05
644 0.000299377
645 0.000233878
646 0.000299377
647 0.000136572
648 6.91622e-05
649 0.000324323
650 5.1841e-05
651 0.000327193
652 0.00020375
653 0.000186815
654 8.95009e-05
655 6.91622e-05
656 0.00017076
657 0.00020375
658 0.000149415
659 0.000130845
660 0.000231123
661 0.000233878
662 0.00019082
663 0.00017076
664 6.91622e-05
665 0.000327193
666 0.000186815
667 0.000324323
668 8.95009e-05
669 5.1841e-05
670 0.00020375
671 6.91622e-05
672 0.000344166
673 0.000231123
674 0.000357214
675 0.000299377
676 0.00023702
677 0.0002712
678 0.000338671
679 0.000344166
680 0.00017076
681 0.000130845
682 0.000233878
683 0.00020375
684 0.00019082
685 0.000149415
686 0.000231123
687 0.00017076
688 0.000344166
689 0.000299377
690 0.0002712
691 0.000231123
692 0.000338671
693 0.000357214
694 0.00023702
695 0.000344166
696 0.000136572
697 8.95009e-05
698 0.000233878
699 8.95009e-05
700 0.000299377
701 0.000233878
702 0.000299377
703 0.000136572
704 0.000235381
705 0.000179552
706 0.000227939
707 0.000164556
708 0.000426605
709 0.000352921
710 0.000324323
711 0.000235381
712 0.000142996
713 0.000118181
714 0.000123202
715 9.54288e-05
716 0.000306562
717 0.000276161
718 0.000179552
719 0.000142996
720 0.00023275
721 0.00016796
722 0.000227939
723 0.00016796
724 0.000327193
725 0.000227939
726 0.000327193
727 0.00023275
728 0.000123484
729 9.29355e-05
730 0.000125669
731 9.49748e-05
732 0.000164556
733 0.000123202
734 0.00016796
735 0.000123484
736 0.000102981
737 8.33131e-05
738 0.000186815
739 0.000426605
740 0.000123536
741 0.000106139
742 0.000130845
743 0.000102981
744 6.92959e-05
745 5.91663e-05
746 0.000352921
747 0.000306562
748 9.40716e-05
749 8.55219e-05
750 8.33131e-05
751 6.92959e-05
752 6.91622e-05
753 0.000324323
754 5.1841e-05
755 0.000327193
756 0.00020375
757 0.000186815
758 8.95009e-05
759 6.91622e-05
760 0.000235381
761 0.000179552
762 0.000227939
763 0.000164556
764 0.000426605
765 0.000352921
766 0.000324323
767 0.000235381
768 0.000136572
769 8.95009e-05
770 0.000299377
771 0.000233878
772 0.000233878
773 8.95009e-05
774 0.000299377
775 0.000136572
776 6.91622e-05
777 0.000324323
778 0.00020375
779 0.000186815
780 5.1841e-05
781 0.000327193
782 8.95009e-05
783 6.91622e-05
784 0.000344166
785 0.000231123
786 0.00023702
787 0.0002712
788 0.000357214
789 0.000299377
790 0.000338671
791 0.000344166
792 0.00017076
793 0.000130845
794 0.00019082
795 0.000149415
796 0.000233878
797 0.00020375
798 0.000231123
799 0.00017076
800 0.00017076
801 0.00020375
802 0.000231123
803 0.000233878
804 0.000149415
805 0.000130845
806 0.00019082
807 0.00017076
808 6.91622e-05
809 0.000327193
810 8.95009e-05
811 5.1841e-05
812 0.000186815
813 0.000324323
814 0.00020375
815 6.91622e-05
816 0.000344166
817 0.000299377
818 0.000338671
819 0.000357214
820 0.0002712
821 0.000231123
822 0.00023702
823 0.000344166
824 0.000136572
825 8.95009e-05
826 0.000299377
827 0.000233878
828 0.000233878
829 8.95009e-05
830 0.000299377
831 0.000136572
832 0.000235381
833 0.000179552
834 0.000426605
835 0.000352921
836 0.000227939
837 0.000164556
838 0.000324323
839 0.000235381
840 0.000142996
841 0.000118181
842 0.000306562
843 0.000276161
844 0.000123202
845 9.54288e-05
846 0.000179552
847 0.000142996
848 0.000102981
849 8.33131e-05
850 0.000123536
851 0.000106139
852 0.000186815
853 0.000426605
854 0.000130845
855 0.000102981
856 6.92959e-05
857 5.91663e-05
858 9.40716e-05
859 8.55219e-05
860 0.000352921
861 0.000306562
862 8.33131e-05
863 6.92959e-05
864 0.00023275
865 0.00016796
866 0.000327193
867 0.000227939
868 0.000227939
869 0.00016796
870 0.000327193
871 0.00023275
872 0.000123484
873 9.29355e-05
874 0.000164556
875 0.000123202
876 0.000125669
877 9.49748e-05
878 0.00016796
879 0.000123484
880 6.91622e-05
881 0.000324323
882 0.00020375
883 0.000186815
884 5.1841e-05
885 0.000327193
886 8.95009e-05
887 6.91622e-05
888 0.000235381
889 0.000179552
890 0.000426605
891 0.000352921
892 0.000227939
893 0.000164556
894 0.000324323
895 0.000235381
896 4.06094e-06
897 0.000238634
898 0.000284521
899 0.00023702
900 0.000284521
901 0.00023702
902 1.37526e-05
903 4.06094e-06
904 0.000115228
905 6.23692e-05
906 0.0002712
907 0.00019082
908 0.0002712
909 0.00019082
910 0.000238634
911 0.000115228
912 0.00016365
913 0.000338671
914 0.000284521
915 0.000338671
916 0.000472257
917 0.000284521
918 0.000472257
919 0.00016365
920 0.000344166
921 0.000231123
922 0.000357214
923 0.000299377
924 0.00023702
925 0.0002712
926 0.000338671
927 0.000344166
928 0.00016365
929 0.000338671
930 0.000472257
931 0.000284521
932 0.000284521
933 0.000338671
934 0.000472257
935 0.00016365
936 0.000344166
937 0.000231123
938 0.00023702
939 0.0002712
940 0.000357214
941 0.000299377
942 0.000338671
943 0.000344166
944 0.000173666
945 1.37526e-05
946 0.000386944
947 0.000472257
948 0.000386944
949 0.000472257
950 0.000229188
951 0.000173666
952 4.06094e-06
953 0.000238634
954 0.000284521
955 0.00023702
956 0.000284521
957 0.00023702
958 1.37526e-05
959 4.06094e-06
960 3.67289e-05
961 2.31193e-05
962 0.000149415
963 0.000123536
964 0.000149415
965 0.000123536
966 6.23692e-05
967 3.67289e-05
968 1.5402e-05
969 1.08149e-05
970 0.000106139
971 9.40716e-05
972 0.000106139
973 9.40716e-05
974 2.31193e-05
975 1.5402e-05
976 0.00017076
977 0.000130845
978 0.000233878
979 0.00020375
980 0.00019082
981 0.000149415
982 0.000231123
983 0.00017076
984 0.000102981
985 8.33131e-05
986 0.000186815
987 0.000426605
988 0.000123536
989 0.000106139
990 0.000130845
991 0.000102981
992 0.00017076
993 0.000130845
994 0.00019082
995 0.000149415
996 0.000233878
997 0.00020375
998 0.000231123
999 0.00017076
1000 0.000102981
1001 8.33131e-05
1002 0.000123536
1003 0.000106139
1004 0.000186815
1005 0.000426605
1006 0.000130845
1007 0.000102981
1008 0.000115228
1009 6.23692e-05
1010 0.0002712
1011 0.00019082
1012 0.0002712
1013 0.00019082
1014 0.000238634
1015 0.000115228
1016 3.67289e-05
1017 2.31193e-05
1018 0.000149415
1019 0.000123536
1020 0.000149415
1021 0.000123536
1022 6.23692e-05
1023 3.67289e-05
1024 3.67289e-05
1025 0.000149415
1026 2.31193e-05
1027 0.000123536
1028 0.000149415
1029 6.23692e-05
1030 0.000123536
1031 3.67289e-05
1032 0.00017076
1033 0.000233878
1034 0.000130845
1035 0.00020375
1036 0.00019082
1037 0.000231123
1038 0.000149415
1039 0.00017076
1040 1.5402e-05
1041 0.000106139
1042 1.08149e-05
1043 9.40716e-05
1044 0.000106139
1045 2.31193e-05
1046 9.40716e-05
1047 1.5402e-05
1048 0.000102981
1049 0.000186815
1050 8.33131e-05
1051 0.000426605
1052 0.000123536
1053 0.000130845
1054 0.000106139
1055 0.000102981
1056 0.00017076
1057 0.00019082
1058 0.000130845
1059 0.000149415
1060 0.000233878
1061 0.000231123
1062 0.00020375
1063 0.00017076
1064 0.000115228
1065 0.0002712
1066 6.23692e-05
1067 0.00019082
1068 0.0002712
1069 0.000238634
1070 0.00019082
1071 0.000115228
1072 0.000102981
1073 0.000123536
1074 8.33131e-05
1075 0.000106139
1076 0.000186815
1077 0.000130845
1078 0.000426605
1079 0.000102981
1080 3.67289e-05
1081 0.000149415
1082 2.31193e-05
1083 0.000123536
1084 0.000149415
1085 6.23692e-05
1086 0.000123536
1087 3.67289e-05
1088 0.000136572
1089 0.000233878
1090 8.95009e-05
1091 8.95009e-05
1092 0.000299377
1093 0.000299377
1094 0.000233878
1095 0.000136572
1096 0.00017076
1097 0.000149415
1098 0.00020375
1099 0.000130845
1100 0.000231123
1101 0.00019082
1102 0.000233878
1103 0.00017076
1104 6.91622e-05
1105 5.1841e-05
1106 0.000324323
1107 0.000327193
1108 0.00020375
1109 8.95009e-05
1110 0.000186815
1111 6.91622e-05
1112 0.000472738
1113 0.000186815
1114 0.000327193
1115 0.000324323
1116 8.95009e-05
1117 0.00020375
1118 5.1841e-05
1119 0.000472738
1120 0.000344166
1121 0.000357214
1122 0.000231123
1123 0.000299377
1124 0.00023702
1125 0.000338671
1126 0.0002712
1127 0.000344166
1128 0.000344166
1129 0.0002712
1130 0.000299377
1131 0.000231123
1132 0.000338671
1133 0.00023702
1134 0.000357214
1135 0.000344166
1136 0.00017076
1137 0.000233878
1138 0.000130845
1139 0.00020375
1140 0.00019082
1141 0.000231123
1142 0.000149415
1143 0.00017076
1144 0.000136572
1145 0.000233878
1146 8.95009e-05
1147 8.95009e-05
1148 0.000299377
1149 0.000299377
1150 0.000233878
1151 0.000136572
1152 8.00446e-06
1153 8.55219e-05
1154 6.25617e-06
1155 7.93489e-05
1156 8.55219e-05
1157 1.08149e-05
1158 7.93489e-05
1159 8.00446e-06
1160 6.92959e-05
1161 0.000352921
1162 5.91663e-05
1163 0.000306562
1164 9.40716e-05
1165 8.33131e-05
1166 8.55219e-05
1167 6.92959e-05
1168 5.16523e-06
1169 7.48097e-05
1170 4.48702e-06
1171 7.14124e-05
1172 7.48097e-05
1173 6.25617e-06
1174 7.14124e-05
1175 5.16523e-06
1176 5.17274e-05
1177 0.000276161
1178 4.6174e-05
1179 0.000255454
1180 7.93489e-05
1181 5.91663e-05
1182 7.48097e-05
1183 5.17274e-05
1184 6.92959e-05
1185 9.40716e-05
1186 5.91663e-05
1187 8.55219e-05
1188 0.000352921
1189 8.33131e-05
1190 0.000306562
1191 6.92959e-05
1192 1.5402e-05
1193 0.000106139
1194 1.08149e-05
1195 9.40716e-05
1196 0.000106139
1197 2.31193e-05
1198 9.40716e-05
1199 1.5402e-05
1200 5.17274e-05
1201 7.93489e-05
1202 4.6174e-05
1203 7.48097e-05
1204 0.000276161
1205 5.91663e-05
1206 0.000255454
1207 5.17274e-05
1208 8.00446e-06
1209 8.55219e-05
1210 6.25617e-06
1211 7.93489e-05
1212 8.55219e-05
1213 1.08149e-05
1214 7.93489e-05
1215 8.00446e-06
1216 0.000235381
1217 0.000227939
1218 0.000179552
1219 0.000164556
1220 0.000426605
1221 0.000324323
1222 0.000352921
1223 0.000235381
1224 0.00023275
1225 0.000227939
1226 0.00016796
1227 0.00016796
1228 0.000327193
1229 0.000327193
1230 0.000227939
1231 0.00023275
1232 0.000142996
1233 0.000123202
1234 0.000118181
1235 9.54288e-05
1236 0.000306562
1237 0.000179552
1238 0.000276161
1239 0.000142996
1240 0.000123484
1241 0.000125669
1242 9.29355e-05
1243 9.49748e-05
1244 0.000164556
1245 0.00016796
1246 0.000123202
1247 0.000123484
1248 0.000102981
1249 0.000186815
1250 8.33131e-05
1251 0.000426605
1252 0.000123536
1253 0.000130845
1254 0.000106139
1255 0.000102981
1256 6.91622e-05
1257 5.1841e-05
1258 0.000324323
1259 0.000327193
1260 0.00020375
1261 8.95009e-05
1262 0.000186815
1263 6.91622e-05
1264 6.92959e-05
1265 0.000352921
1266 5.91663e-05
1267 0.000306562
1268 9.40716e-05
1269 8.33131e-05
1270 8.55219e-05
1271 6.92959e-05
1272 0.000235381
1273 0.000227939
1274 0.000179552
1275 0.000164556
1276 0.000426605
1277 0.000324323
1278 0.000352921
1279 0.000235381
1280 0.000136572
1281 0.000299377
1282 8.95009e-05
1283 0.000233878
1284 0.000233878
1285 0.000299377
1286 8.95009e-05
1287 0.000136572
1288 0.000344166
1289 0.00023702
1290 0.000231123
1291 0.0002712
1292 0.000357214
1293 0.000338671
1294 0.000299377
1295 0.000344166
1296 6.91622e-05
1297 0.00020375
1298 0.000324323
1299 0.000186815
1300 5.1841e-05
1301 8.95009e-05
1302 0.000327193
1303 6.91622e-05
1304 0.00017076
1305 0.00019082
1306 0.000130845
1307 0.000149415
1308 0.000233878
1309 0.000231123
1310 0.00020375
1311 0.00017076
1312 0.00017076
1313 0.000231123
1314 0.00020375
1315 0.000233878
1316 0.000149415
1317 0.00019082
1318 0.000130845
1319 0.00017076
1320 0.000344166
1321 0.000338671
1322 0.000299377
1323 0.000357214
1324 0.0002712
1325 0.00023702
1326 0.000231123
1327 0.000344166
1328 6.91622e-05
1329 8.95009e-05
1330 0.000327193
1331 5.1841e-05
1332 0.000186815
1333 0.00020375
1334 0.000324323
1335 6.91622e-05
1336 0.000136572
1337 0.000299377
1338 8.95009e-05
1339 0.000233878
1340 0.000233878
1341 0.000299377
1342 8.95009e-05
1343 0.000136572
1344 4.06094e-06
1345 0.000284521
1346 0.000238634
1347 0.00023702
1348 0.000284521
1349 1.37526e-05
1350 0.00023702
1351 4.06094e-06
1352 0.00016365
1353 0.000284521
1354 0.000338671
1355 0.000338671
1356 0.000472257
1357 0.000472257
1358 0.000284521
1359 0.00016365
1360 0.000115228
1361 0.0002712
1362 6.23692e-05
1363 0.00019082
1364 0.0002712
1365 0.000238634
1366 0.00019082
1367 0.000115228
1368 0.000344166
1369 0.000357214
1370 0.000231123
1371 0.000299377
1372 0.00023702
1373 0.000338671
1374 0.0002712
1375 0.000344166
1376 0.00016365
1377 0.000472257
1378 0.000338671
1379 0.000284521
1380 0.000284521
1381 0.000472257
1382 0.000338671
1383 0.00016365
1384 0.000173666
1385 0.000386944
1386 1.37526e-05
1387 0.000472257
1388 0.000386944
1389 0.000229188
1390 0.000472257
1391 0.000173666
1392 0.000344166
1393 0.00023702
1394 0.000231123
1395 0.0002712
1396 0.000357214
1397 0.000338671
1398 0.000299377
1399 0.000344166
1400 4.06094e-06
1401 0.000284521
1402 0.000238634
1403 0.00023702
1404 0.000284521
1405 1.37526e-05
1406 0.00023702
1407 4.06094e-06
1408 0.000235381
1409 0.000426605
1410 0.000179552
1411 0.000352921
1412 0.000227939
1413 0.000324323
1414 0.000164556
1415 0.000235381
1416 0.000102981
1417 0.000123536
1418 8.33131e-05
1419 0.000106139
1420 0.000186815
1421 0.000130845
1422 0.000426605
1423 0.000102981
1424 0.000142996
1425 0.000306562
1426 0.000118181
1427 0.000276161
1428 0.000123202
1429 0.000179552
1430 9.54288e-05
1431 0.000142996
1432 6.92959e-05
1433 9.40716e-05
1434 5.91663e-05
1435 8.55219e-05
1436 0.000352921
1437 8.33131e-05
1438 0.000306562
1439 6.92959e-05
1440 0.00023275
1441 0.000327193
1442 0.00016796
1443 0.000227939
1444 0.000227939
1445 0.000327193
1446 0.00016796
1447 0.00023275
1448 6.91622e-05
1449 0.00020375
1450 0.000324323
1451 0.000186815
1452 5.1841e-05
1453 8.95009e-05
1454 0.000327193
1455 6.91622e-05
1456 0.000123484
1457 0.000164556
1458 9.29355e-05
1459 0.000123202
1460 0.000125669
1461 0.00016796
1462 9.49748e-05
1463 0.000123484
1464 0.000235381
1465 0.000426605
1466 0.000179552
1467 0.000352921
1468 0.000227939
1469 0.000324323
1470 0.000164556
1471 0.000235381
1472 3.67289e-05
1473 0.000149415
1474 2.31193e-05
1475 0.000123536
1476 0.000149415
1477 6.23692e-05
1478 0.000123536
1479 3.67289e-05
1480 0.00017076
1481 0.000233878
1482 0.000130845
1483 0.00020375
1484 0.00019082
1485 0.000231123
1486 0.000149415
1487 0.00017076
1488 1.5402e-05
1489 0.000106139
1490 1.08149e-05
1491 9.40716e-05
1492 0.000106139
1493 2.31193e-05
1494 9.40716e-05
1495 1.5402e-05
1496 0.000102981
1497 0.000186815
1498 8.33131e-05
1499 0.000426605
1500 0.000123536
1501 0.000130845
1502 0.000106139
1503 0.000102981
1504 0.00017076
1505 0.00019082
1506 0.000130845
1507 0.000149415
1508 0.000233878
1509 0.000231123
1510 0.00020375
1511 0.00017076
1512 0.000115228
1513 0.0002712
1514 6.23692e-05
1515 0.00019082
1516 0.0002712
1517 0.000238634
1518 0.00019082
1519 0.000115228
1520 0.000102981
1521 0.000123536
1522 8.33131e-05
1523 0.000106139
1524 0.000186815
1525 0.000130845
1526 0.000426605
1527 0.000102981
1528 3.67289e-05
1529 0.000149415
1530 2.31193e-05
1531 0.000123536
1532 0.000149415
1533 6.23692e-05
1534 0.000123536
1535 3.67289e-05
1536 3.67289e-05
1537 0.000123536
1538 0.000123536
1539 2.31193e-05
1540 6.23692e-05
1541 0.000149415
1542 0.000149415
1543 3.67289e-05
1544 0.000102981
1545 0.000426605
1546 0.000106139
1547 8.33131e-05
1548 0.000130845
1549 0.000186815
1550 0.000123536
1551 0.000102981
1552 0.000102981
1553 0.000106139
1554 0.000426605
1555 8.33131e-05
1556 0.000130845
1557 0.000123536
1558 0.000186815
1559 0.000102981
1560 1.5402e-05
1561 9.40717e-05
1562 9.40717e-05
1563 1.08149e-05
1564 2.31193e-05
1565 0.000106139
1566 0.000106139
1567 1.5402e-05
1568 0.000115228
1569 0.00019082
1570 0.00019082
1571 6.23692e-05
1572 0.000238634
1573 0.0002712
1574 0.0002712
1575 0.000115228
1576 0.00017076
1577 0.00020375
1578 0.000149415
1579 0.000130845
1580 0.000231123
1581 0.000233878
1582 0.00019082
1583 0.00017076
1584 0.00017076
1585 0.000149415
1586 0.00020375
1587 0.000130845
1588 0.000231123
1589 0.00019082
1590 0.000233878
1591 0.00017076
1592 3.67289e-05
1593 0.000123536
1594 0.000123536
1595 2.31193e-05
1596 6.23692e-05
1597 0.000149415
1598 0.000149415
1599 3.67289e-05
1600 0.000235381
1601 0.000164556
1602 0.000352921
1603 0.000179552
1604 0.000324323
1605 0.000227939
1606 0.000426605
1607 0.000235381
1608 0.000123484
1609 9.49748e-05
1610 0.000123202
1611 9.29355e-05
1612 0.00016796
1613 0.000125669
1614 0.000164556
1615 0.000123484
1616 6.92959e-05
1617 0.000306562
1618 8.5522e-05
1619 5.91663e-05
1620 8.33131e-05
1621 0.000352921
1622 9.40717e-05
1623 6.92959e-05
1624 0.000142996
1625 9.54288e-05
1626 0.000276161
1627 0.000118181
1628 0.000179552
1629 0.000123202
1630 0.000306562
1631 0.000142996
1632 6.91622e-05
1633 0.000327193
1634 0.000186815
1635 0.000324323
1636 8.95009e-05
1637 5.1841e-05
1638 0.00020375
1639 6.91622e-05
1640 0.00023275
1641 0.00016796
1642 0.000227939
1643 0.00016796
1644 0.000327193
1645 0.000227939
1646 0.000327193
1647 0.00023275
1648 0.000102981
1649 0.000426605
1650 0.000106139
1651 8.33131e-05
1652 0.000130845
1653 0.000186815
1654 0.000123536
1655 0.000102981
1656 0.000235381
1657 0.000164556
1658 0.000352921
1659 0.000179552
1660 0.000324323
1661 0.000227939
1662 0.000426605
1663 0.000235381
1664 0.000235381
1665 0.000352921
1666 0.000164556
1667 0.000179552
1668 0.000324323
1669 0.000426605
1670 0.000227939
1671 0.000235381
1672 6.92959e-05
1673 8.5522e-05
1674 0.000306562
1675 5.91663e-05
1676 8.33131e-05
1677 9.40717e-05
1678 0.000352921
1679 6.92959e-05
1680 0.000123484
1681 0.000123202
1682 9.49748e-05
1683 9.29355e-05
1684 0.00016796
1685 0.000164556
1686 0.000125669
1687 0.000123484
1688 0.000142996
1689 0.000276161
1690 9.54288e-05
1691 0.000118181
1692 0.000179552
1693 0.000306562
1694 0.000123202
1695 0.000142996
1696 0.000472738
1697 0.000186815
1698 0.000327193
1699 0.000324323
1700 8.95009e-05
1701 0.00020375
1702 5.1841e-05
1703 0.000472738
1704 0.000102981
1705 0.000106139
1706 0.000426605
1707 8.33131e-05
1708 0.000130845
1709 0.000123536
1710 0.000186815
1711 0.000102981
1712 0.00023275
1713 0.000227939
1714 0.00016796
1715 0.00016796
1716 0.000327193
1717 0.000327193
1718 0.000227939
1719 0.00023275
1720 0.000235381
1721 0.000352921
1722 0.000164556
1723 0.000179552
1724 0.000324323
1725 0.000426605
1726 0.000227939
1727 0.000235381
1728 8.00446e-06
1729 7.93489e-05
1730 7.93489e-05
1731 6.25617e-06
1732 1.08149e-05
1733 8.5522e-05
1734 8.5522e-05
1735 8.00446e-06
1736 5.17274e-05
1737 0.000255454
1738 7.48098e-05
1739 4.6174e-05
1740 5.91663e-05
1741 0.000276161
1742 7.93489e-05
1743 5.17274e-05
1744 5.17274e-05
1745 7.48098e-05
1746 0.000255454
1747 4.6174e-05
1748 5.91663e-05
1749 7.93489e-05
1750 0.000276161
1751 5.17274e-05
1752 5.16523e-06
1753 7.14125e-05
1754 7.14125e-05
1755 4.48702e-06
1756 6.25617e-06
1757 7.48098e-05
1758 7.48098e-05
1759 5.16523e-06
1760 1.5402e-05
1761 9.40717e-05
1762 9.40717e-05
1763 1.08149e-05
1764 2.31193e-05
1765 0.000106139
1766 0.000106139
1767 1.5402e-05
1768 6.92959e-05
1769 0.000306562
1770 8.5522e-05
1771 5.91663e-05
1772 8.33131e-05
1773 0.000352921
1774 9.40717e-05
1775 6.92959e-05
1776 6.92959e-05
1777 8.5522e-05
1778 0.000306562
1779 5.91663e-05
1780 8.33131e-05
1781 9.40717e-05
1782 0.000352921
1783 6.92959e-05
1784 8.00446e-06
1785 7.93489e-05
1786 7.93489e-05
1787 6.25617e-06
1788 1.08149e-05
1789 8.5522e-05
1790 8.5522e-05
1791 8.00446e-06
1792 4.06094e-06
1793 0.00023702
1794 0.00023702
1795 0.000238634
1796 1.37526e-05
1797 0.000284521
1798 0.000284521
1799 4.06094e-06
1800 0.000344166
1801 0.000299377
1802 0.0002712
1803 0.000231123
1804 0.000338671
1805 0.000357214
1806 0.00023702
1807 0.000344166
1808 0.000344166
1809 0.0002712
1810 0.000299377
1811 0.000231123
1812 0.000338671
1813 0.00023702
1814 0.000357214
1815 0.000344166
1816 0.000115228
1817 0.00019082
1818 0.00019082
1819 6.23692e-05
1820 0.000238634
1821 0.0002712
1822 0.0002712
1823 0.000115228
1824 0.000173666
1825 0.000472257
1826 0.000472257
1827 1.37526e-05
1828 0.000229188
1829 0.000386944
1830 0.000386944
1831 0.000173666
1832 0.00016365
1833 0.000338671
1834 0.000284521
1835 0.000338671
1836 0.000472257
1837 0.000284521
1838 0.000472257
1839 0.00016365
1840 0.00016365
1841 0.000284521
1842 0.000338671
1843 0.000338671
1844 0.000472257
1845 0.000472257
1846 0.000284521
1847 0.00016365
1848 4.06094e-06
1849 0.00023702
1850 0.00023702
1851 0.000238634
1852 1.37526e-05
1853 0.000284521
1854 0.000284521
1855 4.06094e-06
1856 0.000136572
1857 8.95009e-05
1858 0.000233878
1859 8.95009e-05
1860 0.000299377
1861 0.000233878
1862 0.000299377
1863 0.000136572
1864 6.91622e-05
1865 0.000324323
1866 5.1841e-05
1867 0.000327193
1868 0.00020375
1869 0.000186815
1870 8.95009e-05
1871 6.91622e-05
1872 0.00017076
1873 0.00020375
1874 0.000149415
1875 0.000130845
1876 0.000231123
1877 0.000233878
1878 0.00019082
1879 0.00017076
1880 6.91622e-05
1881 0.000327193
1882 0.000186815
1883 0.000324323
1884 8.95009e-05
1885 5.1841e-05
1886 0.00020375
1887 6.91622e-05
1888 0.000344166
1889 0.000231123
1890 0.000357214
1891 0.000299377
1892 0.00023702
1893 0.0002712
1894 0.000338671
1895 0.000344166
1896 0.00017076
1897 0.000130845
1898 0.000233878
1899 0.00020375
1900 0.00019082
1901 0.000149415
1902 0.000231123
1903 0.00017076
1904 0.000344166
1905 0.000299377
1906 0.0002712
1907 0.000231123
1908 0.000338671
1909 0.000357214
1910 0.00023702
1911 0.000344166
1912 0.000136572
1913 8.95009e-05
1914 0.000233878
1915 8.95009e-05
1916 0.000299377
1917 0.000233878
1918 0.000299377
1919 0.000136572
1920 0.000136572
1921 0.000233878
1922 8.95009e-05
1923 8.95009e-05
1924 0.000299377
1925 0.000299377
1926 0.000233878
1927 0.000136572
1928 0.00017076
1929 0.000149415
1930 0.00020375
1931 0.000130845
1932 0.000231123
1933 0.00019082
1934 0.000233878
1935 0.00017076
1936 6.91622e-05
1937 5.1841e-05
1938 0.000324323
1939 0.000327193
1940 0.00020375
1941 8.95009e-05
1942 0.000186815
1943 6.91622e-05
1944 0.000472738
1945 0.000186815
1946 0.000327193
1947 0.000324323
1948 8.95009e-05
1949 0.00020375
1950 5.1841e-05
1951 0.000472738
1952 0.000344166
1953 0.000357214
1954 0.000231123
1955 0.000299377
1956 0.00023702
1957 0.000338671
1958 0.0002712
1959 0.000344166
1960 0.000344166
1961 0.0002712
1962 0.000299377
1963 0.000231123
1964 0.000338671
1965 0.00023702
1966 0.000357214
1967 0.000344166
1968 0.00017076
1969 0.000233878
1970 0.000130845
1971 0.00020375
1972 0.00019082
1973 0.000231123
1974 0.000149415
1975 0.00017076
1976 0.000136572
1977 0.000233878
1978 8.95009e-05
1979 8.95009e-05
1980 0.000299377
1981 0.000299377
1982 0.000233878
1983 0.000136572
1984 3.67289e-05
1985 0.000123536
1986 0.000123536
1987 2.31193e-05
1988 6.23692e-05
1989 0.000149415
1990 0.000149415
1991 3.67289e-05
1992 0.000102981
1993 0.000426605
1994 0.000106139
1995 8.33131e-05
1996 0.000130845
1997 0.000186815
1998 0.000123536
1999 0.000102981
2000 0.000102981
2001 0.000106139
2002 0.000426605
2003 8.33131e-05
2004 0.000130845
2005 0.000123536
2006 0.000186815
2007 0.000102981
2008 1.5402e-05
2009 9.40717e-05
2010 9.40717e-05
2011 1.08149e-05
2012 2.31193e-05
2013 0.000106139
2014 0.000106139
2015 1.5402e-05
2016 0.000115228
2017 0.00019082
2018 0.00019082
2019 6.23692e-05
2020 0.000238634
2021 0.0002712
2022 0.0002712
2023 0.000115228
2024 0.00017076
2025 0.00020375
2026 0.000149415
2027 0.000130845
2028 0.000231123
2029 0.000233878
2030 0.00019082
2031 0.00017076
2032 0.00017076
2033 0.000149415
2034 0.00020375
2035 0.000130845
2036 0.000231123
2037 0.00019082
2038 0.000233878
2039 0.00017076
2040 3.67289e-05
2041 0.000123536
2042 0.000123536
2043 2.31193e-05
2044 6.23692e-05
2045 0.000149415
2046 0.000149415
2047 3.67289e-05
2048 3.67289e-05
2049 0.000149415
2050 0.000149415
2051 6.23692e-05
2052 2.31193e-05
2053 0.000123536
2054 0.000123536
2055 3.67289e-05
2056 0.00017076
2057 0.000233878
2058 0.00019082
2059 0.000231123
2060 0.000130845
2061 0.00020375
2062 0.000149415
2063 0.00017076
2064 0.00017076
2065 0.00019082
2066 0.000233878
2067 0.000231123
2068 0.000130845
2069 0.000149415
2070 0.00020375
2071 0.00017076
2072 0.000115228
2073 0.0002712
2074 0.0002712
2075 0.000238634
2076 6.23692e-05
2077 0.00019082
2078 0.00019082
2079 0.000115228
2080 1.5402e-05
2081 0.000106139
2082 0.000106139
2083 2.31193e-05
2084 1.08149e-05
2085 9.40716e-05
2086 9.40716e-05
2087 1.5402e-05
2088 0.000102981
2089 0.000186815
2090 0.000123536
2091 0.000130845
2092 8.33131e-05
2093 0.000426605
2094 0.000106139
2095 0.000102981
2096 0.000102981
2097 0.000123536
2098 0.000186815
2099 0.000130845
2100 8.33131e-05
2101 0.000106139
2102 0.000426605
2103 0.000102981
2104 3.67289e-05
2105 0.000149415
2106 0.000149415
2107 6.23692e-05
2108 2.31193e-05
2109 0.000123536
2110 0.000123536
2111 3.67289e-05
2112 0.000136572
2113 0.000233878
2114 0.000299377
2115 0.000299377
2116 8.95009e-05
2117 8.95009e-05
2118 0.000233878
2119 0.000136572
2120 0.00017076
2121 0.000149415
2122 0.000231123
2123 0.00019082
2124 0.00020375
2125 0.000130845
2126 0.000233878
2127 0.00017076
2128 0.000344166
2129 0.000357214
2130 0.00023702
2131 0.000338671
2132 0.000231123
2133 0.000299377
2134 0.0002712
2135 0.000344166
2136 0.000344166
2137 0.0002712
2138 0.000338671
2139 0.00023702
2140 0.000299377
2141 0.000231123
2142 0.000357214
2143 0.000344166
2144 6.91622e-05
2145 5.1841e-05
2146 0.00020375
2147 8.95009e-05
2148 0.000324323
2149 0.000327193
2150 0.000186815
2151 6.91622e-05
2152 6.91622e-05
2153 0.000186815
2154 8.95009e-05
2155 0.00020375
2156 0.000327193
2157 0.000324323
2158 5.1841e-05
2159 6.91622e-05
2160 0.00017076
2161 0.000233878
2162 0.00019082
2163 0.000231123
2164 0.000130845
2165 0.00020375
2166 0.000149415
2167 0.00017076
2168 0.000136572
2169 0.000233878
2170 0.000299377
2171 0.000299377
2172 8.95009e-05
2173 8.95009e-05
2174 0.000233878
2175 0.000136572
2176 0.000136572
2177 0.000299377
2178 0.000233878
2179 0.000299377
2180 8.95009e-05
2181 0.000233878
2182 8.95009e-05
2183 0.000136572
2184 0.000344166
2185 0.00023702
2186 0.000357214
2187 0.000338671
2188 0.000231123
2189 0.0002712
2190 0.000299377
2191 0.000344166
2192 0.00017076
2193 0.000231123
2194 0.000149415
2195 0.00019082
2196 0.00020375
2197 0.000233878
2198 0.000130845
2199 0.00017076
2200 0.000344166
2201 0.000338671
2202 0.0002712
2203 0.00023702
2204 0.000299377
2205 0.000357214
2206 0.000231123
2207 0.000344166
2208 6.91622e-05
2209 0.00020375
2210 5.1841e-05
2211 8.95009e-05
2212 0.000324323
2213 0.000186815
2214 0.000327193
2215 6.91622e-05
2216 0.00017076
2217 0.00019082
2218 0.000233878
2219 0.000231123
2220 0.000130845
2221 0.000149415
2222 0.00020375
2223 0.00017076
2224 6.91622e-05
2225 8.95009e-05
2226 0.000186815
2227 0.00020375
2228 0.000327193
2229 5.1841e-05
2230 0.000324323
2231 6.91622e-05
2232 0.000136572
2233 0.000299377
2234 0.000233878
2235 0.000299377
2236 8.95009e-05
2237 0.000233878
2238 8.95009e-05
2239 0.000136572
2240 4.06094e-06
2241 0.000284521
2242 0.000284521
2243 1.37526e-05
2244 0.000238634
2245 0.00023702
2246 0.00023702
2247 4.06094e-06
2248 0.00016365
2249 0.000284521
2250 0.000472257
2251 0.000472257
2252 0.000338671
2253 0.000338671
2254 0.000284521
2255 0.00016365
2256 0.00016365
2257 0.000472257
2258 0.000284521
2259 0.000472257
2260 0.000338671
2261 0.000284521
2262 0.000338671
2263 0.00016365
2264 0.000173666
2265 0.000386944
2266 0.000386944
2267 0.000229188
2268 1.37526e-05
2269 0.000472257
2270 0.000472257
2271 0.000173666
2272 0.000115228
2273 0.0002712
2274 0.0002712
2275 0.000238634
2276 6.23692e-05
2277 0.00019082
2278 0.00019082
2279 0.000115228
2280 0.000344166
2281 0.000357214
2282 0.00023702
2283 0.000338671
2284 0.000231123
2285 0.000299377
2286 0.0002712
2287 0.000344166
2288 0.000344166
2289 0.00023702
2290 0.000357214
2291 0.000338671
2292 0.000231123
2293 0.0002712
2294 0.000299377
2295 0.000344166
2296 4.06094e-06
2297 0.000284521
2298 0.000284521
2299 1.37526e-05
2300 0.000238634
2301 0.00023702
2302 0.00023702
2303 4.06094e-06
2304 8.00446e-06
2305 8.55219e-05
2306 8.55219e-05
2307 1.08149e-05
2308 6.25617e-06
2309 7.93489e-05
2310 7.93489e-05
2311 8.00446e-06
2312 6.92959e-05
2313 0.000352921
2314 9.40716e-05
2315 8.33131e-05
2316 5.91663e-05
2317 0.000306562
2318 8.55219e-05
2319 6.92959e-05
2320 6.92959e-05
2321 9.40716e-05
2322 0.000352921
2323 8.33131e-05
2324 5.91663e-05
2325 8.55219e-05
2326 0.000306562
2327 6.92959e-05
2328 1.5402e-05
2329 0.000106139
2330 0.000106139
2331 2.31193e-05
2332 1.08149e-05
2333 9.40716e-05
2334 9.40716e-05
2335 1.5402e-05
2336 5.16523e-06
2337 7.48097e-05
2338 7.48097e-05
2339 6.25617e-06
2340 4.48702e-06
2341 7.14124e-05
2342 7.14124e-05
2343 5.16523e-06
2344 5.17274e-05
2345 0.000276161
2346 7.93489e-05
2347 5.91663e-05
2348 4.6174e-05
2349 0.000255454
2350 7.48097e-05
2351 5.17274e-05
2352 5.17274e-05
2353 7.93489e-05
2354 0.000276161
2355 5.91663e-05
2356 4.6174e-05
2357 7.48097e-05
2358 0.000255454
2359 5.17274e-05
2360 8.00446e-06
2361 8.55219e-05
2362 8.55219e-05
2363 1.08149e-05
2364 6.25617e-06
2365 7.93489e-05
2366 7.93489e-05
2367 8.00446e-06
2368 0.000235381
2369 0.000227939
2370 0.000426605
2371 0.000324323
2372 0.000179552
2373 0.000164556
2374 0.000352921
2375 0.000235381
2376 0.00023275
2377 0.000227939
2378 0.000327193
2379 0.000327193
2380 0.00016796
2381 0.00016796
2382 0.000227939
2383 0.00023275
2384 0.000102981
2385 0.000186815
2386 0.000123536
2387 0.000130845
2388 8.33131e-05
2389 0.000426605
2390 0.000106139
2391 0.000102981
2392 6.91622e-05
2393 5.1841e-05
2394 0.00020375
2395 8.95009e-05
2396 0.000324323
2397 0.000327193
2398 0.000186815
2399 6.91622e-05
2400 0.000142996
2401 0.000123202
2402 0.000306562
2403 0.000179552
2404 0.000118181
2405 9.54288e-05
2406 0.000276161
2407 0.000142996
2408 0.000123484
2409 0.000125669
2410 0.000164556
2411 0.00016796
2412 9.29355e-05
2413 9.49748e-05
2414 0.000123202
2415 0.000123484
2416 6.92959e-05
2417 0.000352921
2418 9.40716e-05
2419 8.33131e-05
2420 5.91663e-05
2421 0.000306562
2422 8.55219e-05
2423 6.92959e-05
2424 0.000235381
2425 0.000227939
2426 0.000426605
2427 0.000324323
2428 0.000179552
2429 0.000164556
2430 0.000352921
2431 0.000235381
2432 0.000235381
2433 0.000426605
2434 0.000227939
2435 0.000324323
2436 0.000179552
2437 0.000352921
2438 0.000164556
2439 0.000235381
2440 0.000102981
2441 0.000123536
2442 0.000186815
2443 0.000130845
2444 8.33131e-05
2445 0.000106139
2446 0.000426605
2447 0.000102981
2448 0.00023275
2449 0.000327193
2450 0.000227939
2451 0.000327193
2452 0.00016796
2453 0.000227939
2454 0.00016796
2455 0.00023275
2456 6.91622e-05
2457 0.00020375
2458 5.1841e-05
2459 8.95009e-05
2460 0.000324323
2461 0.000186815
2462 0.000327193
2463 6.91622e-05
2464 0.000142996
2465 0.000306562
2466 0.000123202
2467 0.000179552
2468 0.000118181
2469 0.000276161
2470 9.54288e-05
2471 0.000142996
2472 6.92959e-05
2473 9.40716e-05
2474 0.000352921
2475 8.33131e-05
2476 5.91663e-05
2477 8.55219e-05
2478 0.000306562
2479 6.92959e-05
2480 0.000123484
2481 0.000164556
2482 0.000125669
2483 0.00016796
2484 9.29355e-05
2485 0.000123202
2486 9.49748e-05
2487 0.000123484
2488 0.000235381
2489 0.000426605
2490 0.000227939
2491 0.000324323
2492 0.000179552
2493 0.000352921
2494 0.000164556
2495 0.000235381
2496 3.67289e-05
2497 0.000149415
2498 0.000149415
2499 6.23692e-05
2500 2.31193e-05
2501 0.000123536
2502 0.000123536
2503 3.67289e-05
2504 0.00017076
2505 0.000233878
2506 0.00019082
2507 0.000231123
2508 0.000130845
2509 0.00020375
2510 0.000149415
2511 0.00017076
2512 0.00017076
2513 0.00019082
2514 0.000233878
2515 0.000231123
2516 0.000130845
2517 0.000149415
2518 0.00020375
2519 0.00017076
2520 0.000115228
2521 0.0002712
2522 0.0002712
2523 0.000238634
2524 6.23692e-05
2525 0.00019082
2526 0.00019082
2527 0.000115228
2528 1.5402e-05
2529 0.000106139
2530 0.000106139
2531 2.31193e-05
2532 1.08149e-05
2533 9.40716e-05
2534 9.40716e-05
2535 1.5402e-05
2536 0.000102981
2537 0.000186815
2538 0.000123536
2539 0.000130845
2540 8.33131e-05
2541 0.000426605
2542 0.000106139
2543 0.000102981
2544 0.000102981
2545 0.000123536
2546 0.000186815
2547 0.000130845
2548 8.33131e-05
2549 0.000106139
2550 0.000426605
2551 0.000102981
2552 3.67289e-05
2553 0.000149415
2554 0.000149415
2555 6.23692e-05
2556 2.31193e-05
2557 0.000123536
2558 0.000123536
2559 3.67289e-05
2560 3.67289e-05
2561 0.000123536
2562 6.23692e-05
2563 0.000149415
2564 0.000123536
2565 2.31193e-05
2566 0.000149415
2567 3.67289e-05
2568 0.000102981
2569 0.000426605
2570 0.000130845
2571 0.000186815
2572 0.000106139
2573 8.33131e-05
2574 0.000123536
2575 0.000102981
2576 0.000115228
2577 0.00019082
2578 0.000238634
2579 0.0002712
2580 0.00019082
2581 6.23692e-05
2582 0.0002712
2583 0.000115228
2584 0.00017076
2585 0.00020375
2586 0.000231123
2587 0.000233878
2588 0.000149415
2589 0.000130845
2590 0.00019082
2591 0.00017076
2592 0.000102981
2593 0.000106139
2594 0.000130845
2595 0.000123536
2596 0.000426605
2597 8.33131e-05
2598 0.000186815
2599 0.000102981
2600 1.5402e-05
2601 9.40717e-05
2602 2.31193e-05
2603 0.000106139
2604 9.40717e-05
2605 1.08149e-05
2606 0.000106139
2607 1.5402e-05
2608 0.00017076
2609 0.000149415
2610 0.000231123
2611 0.00019082
2612 0.00020375
2613 0.000130845
2614 0.000233878
2615 0.00017076
2616 3.67289e-05
2617 0.000123536
2618 6.23692e-05
2619 0.000149415
2620 0.000123536
2621 2.31193e-05
2622 0.000149415
2623 3.67289e-05
2624 0.000235381
2625 0.000164556
2626 0.000324323
2627 0.000227939
2628 0.000352921
2629 0.000179552
2630 0.000426605
2631 0.000235381
2632 0.000123484
2633 9.49748e-05
2634 0.00016796
2635 0.000125669
2636 0.000123202
2637 9.29355e-05
2638 0.000164556
2639 0.000123484
2640 6.91622e-05
2641 0.000327193
2642 8.95009e-05
2643 5.1841e-05
2644 0.000186815
2645 0.000324323
2646 0.00020375
2647 6.91622e-05
2648 0.00023275
2649 0.00016796
2650 0.000327193
2651 0.000227939
2652 0.000227939
2653 0.00016796
2654 0.000327193
2655 0.00023275
2656 6.92959e-05
2657 0.000306562
2658 8.33131e-05
2659 0.000352921
2660 8.5522e-05
2661 5.91663e-05
2662 9.40717e-05
2663 6.92959e-05
2664 0.000142996
2665 9.54288e-05
2666 0.000179552
2667 0.000123202
2668 0.000276161
2669 0.000118181
2670 0.000306562
2671 0.000142996
2672 0.000102981
2673 0.000426605
2674 0.000130845
2675 0.000186815
2676 0.000106139
2677 8.33131e-05
2678 0.000123536
2679 0.000102981
2680 0.000235381
2681 0.000164556
2682 0.000324323
2683 0.000227939
2684 0.000352921
2685 0.000179552
2686 0.000426605
2687 0.000235381
2688 4.06094e-06
2689 0.00023702
2690 1.37526e-05
2691 0.000284521
2692 0.00023702
2693 0.000238634
2694 0.000284521
2695 4.06094e-06
2696 0.000344166
2697 0.000299377
2698 0.000338671
2699 0.000357214
2700 0.0002712
2701 0.000231123
2702 0.00023702
2703 0.000344166
2704 0.000173666
2705 0.000472257
2706 0.000229188
2707 0.000386944
2708 0.000472257
2709 1.37526e-05
2710 0.000386944
2711 0.000173666
2712 0.00016365
2713 0.000338671
2714 0.000472257
2715 0.000284521
2716 0.000284521
2717 0.000338671
2718 0.000472257
2719 0.00016365
2720 0.000344166
2721 0.0002712
2722 0.000338671
2723 0.00023702
2724 0.000299377
2725 0.000231123
2726 0.000357214
2727 0.000344166
2728 0.000115228
2729 0.00019082
2730 0.000238634
2731 0.0002712
2732 0.00019082
2733 6.23692e-05
2734 0.0002712
2735 0.000115228
2736 0.00016365
2737 0.000284521
2738 0.000472257
2739 0.000472257
2740 0.000338671
2741 0.000338671
2742 0.000284521
2743 0.00016365
2744 4.06094e-06
2745 0.00023702
2746 1.37526e-05
2747 0.000284521
2748 0.00023702
2749 0.000238634
2750 0.000284521
2751 4.06094e-06
2752 0.000136572
2753 8.95009e-05
2754 0.000299377
2755 0.000233878
2756 0.000233878
2757 8.95009e-05
2758 0.000299377
2759 0.000136572
2760 6.91622e-05
2761 0.000324323
2762 0.00020375
2763 0.000186815
2764 5.1841e-05
2765 0.000327193
2766 8.95009e-05
2767 6.91622e-05
2768 0.000344166
2769 0.000231123
2770 0.00023702
2771 0.0002712
2772 0.000357214
2773 0.000299377
2774 0.000338671
2775 0.000344166
2776 0.00017076
2777 0.000130845
2778 0.00019082
2779 0.000149415
2780 0.000233878
2781 0.00020375
2782 0.000231123
2783 0.00017076
2784 0.00017076
2785 0.00020375
2786 0.000231123
2787 0.000233878
2788 0.000149415
2789 0.000130845
2790 0.00019082
2791 0.00017076
2792 6.91622e-05
2793 0.000327193
2794 8.95009e-05
2795 5.1841e-05
2796 0.000186815
2797 0.000324323
2798 0.00020375
2799 6.91622e-05
2800 0.000344166
2801 0.000299377
2802 0.000338671
2803 0.000357214
2804 0.0002712
2805 0.000231123
2806 0.00023702
2807 0.000344166
2808 0.000136572
2809 8.95009e-05
2810 0.000299377
2811 0.000233878
2812 0.000233878
2813 8.95009e-05
2814 0.000299377
2815 0.000136572
2816 0.000235381
2817 0.000352921
2818 0.000324323
2819 0.000426605
2820 0.000164556
2821 0.000179552
2822 0.000227939
2823 0.000235381
2824 6.92959e-05
2825 8.5522e-05
2826 8.33131e-05
2827 9.40717e-05
2828 0.000306562
2829 5.91663e-05
2830 0.000352921
2831 6.92959e-05
2832 6.91622e-05
2833 0.000186815
2834 8.95009e-05
2835 0.00020375
2836 0.000327193
2837 0.000324323
2838 5.1841e-05
2839 6.91622e-05
2840 0.000102981
2841 0.000106139
2842 0.000130845
2843 0.000123536
2844 0.000426605
2845 8.33131e-05
2846 0.000186815
2847 0.000102981
2848 0.000123484
2849 0.000123202
2850 0.00016796
2851 0.000164556
2852 9.49748e-05
2853 9.29355e-05
2854 0.000125669
2855 0.000123484
2856 0.000142996
2857 0.000276161
2858 0.000179552
2859 0.000306562
2860 9.54288e-05
2861 0.000118181
2862 0.000123202
2863 0.000142996
2864 0.00023275
2865 0.000227939
2866 0.000327193
2867 0.000327193
2868 0.00016796
2869 0.00016796
2870 0.000227939
2871 0.00023275
2872 0.000235381
2873 0.000352921
2874 0.000324323
2875 0.000426605
2876 0.000164556
2877 0.000179552
2878 0.000227939
2879 0.000235381
2880 8.00446e-06
2881 7.93489e-05
2882 1.08149e-05
2883 8.5522e-05
2884 7.93489e-05
2885 6.25617e-06
2886 8.5522e-05
2887 8.00446e-06
2888 5.17274e-05
2889 0.000255454
2890 5.91663e-05
2891 0.000276161
2892 7.48098e-05
2893 4.6174e-05
2894 7.93489e-05
2895 5.17274e-05
2896 1.5402e-05
2897 9.40717e-05
2898 2.31193e-05
2899 0.000106139
2900 9.40717e-05
2901 1.08149e-05
2902 0.000106139
2903 1.5402e-05
2904 6.92959e-05
2905 0.000306562
2906 8.33131e-05
2907 0.000352921
2908 8.5522e-05
2909 5.91663e-05
2910 9.40717e-05
2911 6.92959e-05
2912 5.17274e-05
2913 7.48098e-05
2914 5.91663e-05
2915 7.93489e-05
2916 0.000255454
2917 4.6174e-05
2918 0.000276161
2919 5.17274e-05
2920 5.16523e-06
2921 7.14125e-05
2922 6.25617e-06
2923 7.48098e-05
2924 7.14125e-05
2925 4.48702e-06
2926 7.48098e-05
2927 5.16523e-06
2928 6.92959e-05
2929 8.5522e-05
2930 8.33131e-05
2931 9.40717e-05
2932 0.000306562
2933 5.91663e-05
2934 0.000352921
2935 6.92959e-05
2936 8.00446e-06
2937 7.93489e-05
2938 1.08149e-05
2939 8.5522e-05
2940 7.93489e-05
2941 6.25617e-06
2942 8.5522e-05
2943 8.00446e-06
2944 0.000136572
2945 0.000233878
2946 0.000299377
2947 0.000299377
2948 8.95009e-05
2949 8.95009e-05
2950 0.000233878
2951 0.000136572
2952 0.00017076
2953 0.000149415
2954 0.000231123
2955 0.00019082
2956 0.00020375
2957 0.000130845
2958 0.000233878
2959 0.00017076
2960 0.000344166
2961 0.000357214
2962 0.00023702
2963 0.000338671
2964 0.000231123
2965 0.000299377
2966 0.0002712
2967 0.000344166
2968 0.000344166
2969 0.0002712
2970 0.000338671
2971 0.00023702
2972 0.000299377
2973 0.000231123
2974 0.000357214
2975 0.000344166
2976 6.91622e-05
2977 5.1841e-05
2978 0.00020375
2979 8.95009e-05
2980 0.000324323
2981 0.000327193
2982 0.000186815
2983 6.91622e-05
2984 0.000472738
2985 0.000186815
2986 8.95009e-05
2987 0.00020375
2988 0.000327193
2989 0.000324323
2990 5.1841e-05
2991 0.000472738
2992 0.00017076
2993 0.000233878
2994 0.00019082
2995 0.000231123
2996 0.000130845
2997 0.00020375
2998 0.000149415
2999 0.00017076
3000 0.000136572
3001 0.000233878
3002 0.000299377
3003 0.000299377
3004 8.95009e-05
3005 8.95009e-05
3006 0.000233878
3007 0.000136572
3008 3.67289e-05
3009 0.000123536
3010 6.23692e-05
3011 0.000149415
3012 0.000123536
3013 2.31193e-05
3014 0.000149415
3015 3.67289e-05
3016 0.000102981
3017 0.000426605
3018 0.000130845
3019 0.000186815
3020 0.000106139
3021 8.33131e-05
3022 0.000123536
3023 0.000102981
3024 0.000115228
3025 0.00019082
3026 0.000238634
3027 0.0002712
3028 0.00019082
3029 6.23692e-05
3030 0.0002712
3031 0.000115228
3032 0.00017076
3033 0.00020375
3034 0.000231123
3035 0.000233878
3036 0.000149415
3037 0.000130845
3038 0.00019082
3039 0.00017076
3040 0.000102981
3041 0.000106139
3042 0.000130845
3043 0.000123536
3044 0.000426605
3045 8.33131e-05
3046 0.000186815
3047 0.000102981
3048 1.5402e-05
3049 9.40717e-05
3050 2.31193e-05
3051 0.000106139
3052 9.40717e-05
3053 1.08149e-05
3054 0.000106139
3055 1.5402e-05
3056 0.00017076
3057 0.000149415
3058 0.000231123
3059 0.00019082
3060 0.00020375
3061 0.000130845
3062 0.000233878
3063 0.00017076
3064 3.67289e-05
3065 0.000123536
3066 6.23692e-05
3067 0.000149415
3068 0.000123536
3069 2.31193e-05
3070 0.000149415
3071 3.67289e-05
3072 3.67289e-05
3073 6.23692e-05
3074 0.000123536
3075 0.000149415
3076 0.000123536
3077 0.000149415
3078 2.31193e-05
3079 3.67289e-05
3080 0.000115228
3081 0.000238634
3082 0.00019082
3083 0.0002712
3084 0.00019082
3085 0.0002712
3086 6.23692e-05
3087 0.000115228
3088 0.000102981
3089 0.000130845
3090 0.000426605
3091 0.000186815
3092 0.000106139
3093 0.000123536
3094 8.33131e-05
3095 0.000102981
3096 0.00017076
3097 0.000231123
3098 0.00020375
3099 0.000233878
3100 0.000149415
3101 0.00019082
3102 0.000130845
3103 0.00017076
3104 0.000102981
3105 0.000130845
3106 0.000106139
3107 0.000123536
3108 0.000426605
3109 0.000186815
3110 8.33131e-05
3111 0.000102981
3112 0.00017076
3113 0.000231123
3114 0.000149415
3115 0.00019082
3116 0.00020375
3117 0.000233878
3118 0.000130845
3119 0.00017076
3120 1.5402e-05
3121 2.31193e-05
3122 9.40717e-05
3123 0.000106139
3124 9.40717e-05
3125 0.000106139
3126 1.08149e-05
3127 1.5402e-05
3128 3.67289e-05
3129 6.23692e-05
3130 0.000123536
3131 0.000149415
3132 0.000123536
3133 0.000149415
3134 2.31193e-05
3135 3.67289e-05
3136 4.06094e-06
3137 1.37526e-05
3138 0.00023702
3139 0.000284521
3140 0.00023702
3141 0.000284521
3142 0.000238634
3143 4.06094e-06
3144 0.000173666
3145 0.000229188
3146 0.000472257
3147 0.000386944
3148 0.000472257
3149 0.000386944
3150 1.37526e-05
3151 0.000173666
3152 0.000344166
3153 0.000338671
3154 0.000299377
3155 0.000357214
3156 0.0002712
3157 0.00023702
3158 0.000231123
3159 0.000344166
3160 0.00016365
3161 0.000472257
3162 0.000338671
3163 0.000284521
3164 0.000284521
3165 0.000472257
3166 0.000338671
3167 0.00016365
3168 0.000344166
3169 0.000338671
3170 0.0002712
3171 0.00023702
3172 0.000299377
3173 0.000357214
3174 0.000231123
3175 0.000344166
3176 0.00016365
3177 0.000472257
3178 0.000284521
3179 0.000472257
3180 0.000338671
3181 0.000284521
3182 0.000338671
3183 0.00016365
3184 0.000115228
3185 0.000238634
3186 0.00019082
3187 0.0002712
3188 0.00019082
3189 0.0002712
3190 6.23692e-05
3191 0.000115228
3192 4.06094e-06
3193 1.37526e-05
3194 0.00023702
3195 0.000284521
3196 0.00023702
3197 0.000284521
3198 0.000238634
3199 4.06094e-06
3200 0.000235381
3201 0.000324323
3202 0.000164556
3203 0.000227939
3204 0.000352921
3205 0.000426605
3206 0.000179552
3207 0.000235381
3208 6.91622e-05
3209 8.95009e-05
3210 0.000327193
3211 5.1841e-05
3212 0.000186815
3213 0.00020375
3214 0.000324323
3215 6.91622e-05
3216 0.000123484
3217 0.00016796
3218 9.49748e-05
3219 0.000125669
3220 0.000123202
3221 0.000164556
3222 9.29355e-05
3223 0.000123484
3224 0.00023275
3225 0.000327193
3226 0.00016796
3227 0.000227939
3228 0.000227939
3229 0.000327193
3230 0.00016796
3231 0.00023275
3232 6.92959e-05
3233 8.33131e-05
3234 0.000306562
3235 0.000352921
3236 8.5522e-05
3237 9.40717e-05
3238 5.91663e-05
3239 6.92959e-05
3240 0.000102981
3241 0.000130845
3242 0.000426605
3243 0.000186815
3244 0.000106139
3245 0.000123536
3246 8.33131e-05
3247 0.000102981
3248 0.000142996
3249 0.000179552
3250 9.54288e-05
3251 0.000123202
3252 0.000276161
3253 0.000306562
3254 0.000118181
3255 0.000142996
3256 0.000235381
3257 0.000324323
3258 0.000164556
3259 0.000227939
3260 0.000352921
3261 0.000426605
3262 0.000179552
3263 0.000235381
3264 0.000136572
3265 0.000299377
3266 8.95009e-05
3267 0.000233878
3268 0.000233878
3269 0.000299377
3270 8.95009e-05
3271 0.000136572
3272 0.000344166
3273 0.00023702
3274 0.000231123
3275 0.0002712
3276 0.000357214
3277 0.000338671
3278 0.000299377
3279 0.000344166
3280 6.91622e-05
3281 0.00020375
3282 0.000324323
3283 0.000186815
3284 5.1841e-05
3285 8.95009e-05
3286 0.000327193
3287 6.91622e-05
3288 0.00017076
3289 0.00019082
3290 0.000130845
3291 0.000149415
3292 0.000233878
3293 0.000231123
3294 0.00020375
3295 0.00017076
3296 0.00017076
3297 0.000231123
3298 0.00020375
3299 0.000233878
3300 0.000149415
3301 0.00019082
3302 0.000130845
3303 0.00017076
3304 0.000344166
3305 0.000338671
3306 0.000299377
3307 0.000357214
3308 0.0002712
3309 0.00023702
3310 0.000231123
3311 0.000344166
3312 6.91622e-05
3313 8.95009e-05
3314 0.000327193
3315 5.1841e-05
3316 0.000186815
3317 0.00020375
3318 0.000324323
3319 6.91622e-05
3320 0.000136572
3321 0.000299377
3322 8.95009e-05
3323 0.000233878
3324 0.000233878
3325 0.000299377
3326 8.95009e-05
3327 0.000136572
3328 0.000235381
3329 0.000324323
3330 0.000352921
3331 0.000426605
3332 0.000164556
3333 0.000227939
3334 0.000179552
3335 0.000235381
3336 6.91622e-05
3337 8.95009e-05
3338 0.000186815
3339 0.00020375
3340 0.000327193
3341 5.1841e-05
3342 0.000324323
3343 6.91622e-05
3344 6.92959e-05
3345 8.33131e-05
3346 8.5522e-05
3347 9.40717e-05
3348 0.000306562
3349 0.000352921
3350 5.91663e-05
3351 6.92959e-05
3352 0.000102981
3353 0.000130845
3354 0.000106139
3355 0.000123536
3356 0.000426605
3357 0.000186815
3358 8.33131e-05
3359 0.000102981
3360 0.000123484
3361 0.00016796
3362 0.000123202
3363 0.000164556
3364 9.49748e-05
3365 0.000125669
3366 9.29355e-05
3367 0.000123484
3368 0.00023275
3369 0.000327193
3370 0.000227939
3371 0.000327193
3372 0.00016796
3373 0.000227939
3374 0.00016796
3375 0.00023275
3376 0.000142996
3377 0.000179552
3378 0.000276161
3379 0.000306562
3380 9.54288e-05
3381 0.000123202
3382 0.000118181
3383 0.000142996
3384 0.000235381
3385 0.000324323
3386 0.000352921
3387 0.000426605
3388 0.000164556
3389 0.000227939
3390 0.000179552
3391 0.000235381
3392 0.000136572
3393 0.000299377
3394 0.000233878
3395 0.000299377
3396 8.95009e-05
3397 0.000233878
3398 8.95009e-05
3399 0.000136572
3400 0.000344166
3401 0.00023702
3402 0.000357214
3403 0.000338671
3404 0.000231123
3405 0.0002712
3406 0.000299377
3407 0.000344166
3408 0.00017076
3409 0.000231123
3410 0.000149415
3411 0.00019082
3412 0.00020375
3413 0.000233878
3414 0.000130845
3415 0.00017076
3416 0.000344166
3417 0.000338671
3418 0.0002712
3419 0.00023702
3420 0.000299377
3421 0.000357214
3422 0.000231123
3423 0.000344166
3424 6.91622e-05
3425 0.00020375
3426 5.1841e-05
3427 8.95009e-05
3428 0.000324323
3429 0.000186815
3430 0.000327193
3431 6.91622e-05
3432 0.00017076
3433 0.00019082
3434 0.000233878
3435 0.000231123
3436 0.000130845
3437 0.000149415
3438 0.00020375
3439 0.00017076
3440 6.91622e-05
3441 8.95009e-05
3442 0.000186815
3443 0.00020375
3444 0.000327193
3445 5.1841e-05
3446 0.000324323
3447 6.91622e-05
3448 0.000136572
3449 0.000299377
3450 0.000233878
3451 0.000299377
3452 8.95009e-05
3453 0.000233878
3454 8.95009e-05
3455 0.000136572
3456 8.00446e-06
3457 1.08149e-05
3458 7.93489e-05
3459 8.5522e-05
3460 7.93489e-05
3461 8.5522e-05
3462 6.25617e-06
3463 8.00446e-06
3464 1.5402e-05
3465 2.31193e-05
3466 9.40717e-05
3467 0.000106139
3468 9.40717e-05
3469 0.000106139
3470 1.08149e-05
3471 1.5402e-05
3472 5.17274e-05
3473 5.91663e-05
3474 0.000255454
3475 0.000276161
3476 7.48098e-05
3477 7.93489e-05
3478 4.6174e-05
3479 5.17274e-05
3480 6.92959e-05
3481 8.33131e-05
3482 0.000306562
3483 0.000352921
3484 8.5522e-05
3485 9.40717e-05
3486 5.91663e-05
3487 6.92959e-05
3488 5.17274e-05
3489 5.91663e-05
3490 7.48098e-05
3491 7.93489e-05
3492 0.000255454
3493 0.000276161
3494 4.6174e-05
3495 5.17274e-05
3496 6.92959e-05
3497 8.33131e-05
3498 8.5522e-05
3499 9.40717e-05
3500 0.000306562
3501 0.000352921
3502 5.91663e-05
3503 6.92959e-05
3504 5.16523e-06
3505 6.25617e-06
3506 7.14125e-05
3507 7.48098e-05
3508 7.14125e-05
3509 7.48098e-05
3510 4.48702e-06
3511 5.16523e-06
3512 8.00446e-06
3513 1.08149e-05
3514 7.93489e-05
3515 8.5522e-05
3516 7.93489e-05
3517 8.5522e-05
3518 6.25617e-06
3519 8.00446e-06
3520 3.67289e-05
3521 6.23692e-05
3522 0.000123536
3523 0.000149415
3524 0.000123536
3525 0.000149415
3526 2.31193e-05
3527 3.67289e-05
3528 0.000115228
3529 0.000238634
3530 0.00019082
3531 0.0002712
3532 0.00019082
3533 0.0002712
3534 6.23692e-05
3535 0.000115228
3536 0.000102981
3537 0.000130845
3538 0.000426605
3539 0.000186815
3540 0.000106139
3541 0.000123536
3542 8.33131e-05
3543 0.000102981
3544 0.00017076
3545 0.000231123
3546 0.00020375
3547 0.000233878
3548 0.000149415
3549 0.00019082
3550 0.000130845
3551 0.00017076
3552 0.000102981
3553 0.000130845
3554 0.000106139
3555 0.000123536
3556 0.000426605
3557 0.000186815
3558 8.33131e-05
3559 0.000102981
3560 0.00017076
3561 0.000231123
3562 0.000149415
3563 0.00019082
3564 0.00020375
3565 0.000233878
3566 0.000130845
3567 0.00017076
3568 1.5402e-05
3569 2.31193e-05
3570 9.40717e-05
3571 0.000106139
3572 9.40717e-05
3573 0.000106139
3574 1.08149e-05
3575 1.5402e-05
3576 3.67289e-05
3577 6.23692e-05
3578 0.000123536
3579 0.000149415
3580 0.000123536
3581 0.000149415
3582 2.31193e-05
3583 3.67289e-05
3584 3.34738e-06
3585 0.000229188
3586 0.000229188
3587 0.000229188
3588 0.000229188
3589 0.000229188
3590 0.000229188
3591 3.34738e-06
3592 0.000173666
3593 1.37526e-05
3594 0.000386944
3595 0.000472257
3596 0.000386944
3597 0.000472257
3598 0.000229188
3599 0.000173666
3600 0.000173666
3601 0.000386944
3602 1.37526e-05
3603 0.000472257
3604 0.000386944
3605 0.000229188
3606 0.000472257
3607 0.000173666
3608 0.000173666
3609 0.000472257
3610 0.000472257
3611 1.37526e-05
3612 0.000229188
3613 0.000386944
3614 0.000386944
3615 0.000173666
3616 0.000173666
3617 0.000386944
3618 0.000386944
3619 0.000229188
3620 1.37526e-05
3621 0.000472257
3622 0.000472257
3623 0.000173666
3624 0.000173666
3625 0.000472257
3626 0.000229188
3627 0.000386944
3628 0.000472257
3629 1.37526e-05
3630 0.000386944
3631 0.000173666
3632 0.000173666
3633 0.000229188
3634 0.000472257
3635 0.000386944
3636 0.000472257
3637 0.000386944
3638 1.37526e-05
3639 0.000173666
3640 3.34738e-06
3641 0.000229188
3642 0.000229188
3643 0.000229188
3644 0.000229188
3645 0.000229188
3646 0.000229188
3647 3.34738e-06
3648 4.06094e-06
3649 0.000238634
3650 0.000284521
3651 0.00023702
3652 0.000284521
3653 0.00023702
3654 1.37526e-05
3655 4.06094e-06
3656 0.000115228
3657 6.23692e-05
3658 0.0002712
3659 0.00019082
3660 0.0002712
3661 0.00019082
3662 0.000238634
3663 0.000115228
3664 0.00016365
3665 0.000338671
3666 0.000284521
3667 0.000338671
3668 0.000472257
3669 0.000284521
3670 0.000472257
3671 0.00016365
3672 0.000344166
3673 0.000231123
3674 0.000357214
3675 0.000299377
3676 0.00023702
3677 0.0002712
3678 0.000338671
3679 0.000344166
3680 0.00016365
3681 0.000338671
3682 0.000472257
3683 0.000284521
3684 0.000284521
3685 0.000338671
3686 0.000472257
3687 0.00016365
3688 0.000344166
3689 0.000231123
3690 0.00023702
3691 0.0002712
3692 0.000357214
3693 0.000299377
3694 0.000338671
3695 0.000344166
3696 0.000173666
3697 1.37526e-05
3698 0.000386944
3699 0.000472257
3700 0.000386944
3701 0.000472257
3702 0.000229188
3703 0.000173666
3704 4.06094e-06
3705 0.000238634
3706 0.000284521
3707 0.00023702
3708 0.000284521
3709 0.00023702
3710 1.37526e-05
3711 4.06094e-06
3712 4.06094e-06
3713 0.000284521
3714 0.000238634
3715 0.00023702
3716 0.000284521
3717 1.37526e-05
3718 0.00023702
3719 4.06094e-06
3720 0.00016365
3721 0.000284521
3722 0.000338671
3723 0.000338671
3724 0.000472257
3725 0.000472257
3726 0.000284521
3727 0.00016365
3728 0.000115228
3729 0.0002712
3730 6.23692e-05
3731 0.00019082
3732 0.0002712
3733 0.000238634
3734 0.00019082
3735 0.000115228
3736 0.000344166
3737 0.000357214
3738 0.000231123
3739 0.000299377
3740 0.00023702
3741 0.000338671
3742 0.0002712
3743 0.000344166
3744 0.00016365
3745 0.000472257
3746 0.000338671
3747 0.000284521
3748 0.000284521
3749 0.000472257
3750 0.000338671
3751 0.00016365
3752 0.000173666
3753 0.000386944
3754 1.37526e-05
3755 0.000472257
3756 0.000386944
3757 0.000229188
3758 0.000472257
3759 0.000173666
3760 0.000344166
3761 0.00023702
3762 0.000231123
3763 0.0002712
3764 0.000357214
3765 0.000338671
3766 0.000299377
3767 0.000344166
3768 4.06094e-06
3769 0.000284521
3770 0.000238634
3771 0.00023702
3772 0.000284521
3773 1.37526e-05
3774 0.00023702
3775 4.06094e-06
3776 4.06094e-06
3777 0.00023702
3778 0.00023702
3779 0.000238634
3780 1.37526e-05
3781 0.000284521
3782 0.000284521
3783 4.06094e-06
3784 0.000344166
3785 0.000299377
3786 0.0002712
3787 0.000231123
3788 0.000338671
3789 0.000357214
3790 0.00023702
3791 0.000344166
3792 0.000344166
3793 0.0002712
3794 0.000299377
3795 0.000231123
3796 0.000338671
3797 0.00023702
3798 0.000357214
3799 0.000344166
3800 0.000115228
3801 0.00019082
3802 0.00019082
3803 6.23692e-05
3804 0.000238634
3805 0.0002712
3806 0.0002712
3807 0.000115228
3808 0.000173666
3809 0.000472257
3810 0.000472257
3811 1.37526e-05
3812 0.000229188
3813 0.000386944
3814 0.000386944
3815 0.000173666
3816 0.00016365
3817 0.000338671
3818 0.000284521
3819 0.000338671
3820 0.000472257
3821 0.000284521
3822 0.000472257
3823 0.00016365
3824 0.00016365
3825 0.000284521
3826 0.000338671
3827 0.000338671
3828 0.000472257
3829 0.000472257
3830 0.000284521
3831 0.00016365
3832 4.06094e-06
3833 0.00023702
3834 0.00023702
3835 0.000238634
3836 1.37526e-05
3837 0.000284521
3838 0.000284521
3839 4.06094e-06
3840 4.06094e-06
3841 0.000284521
3842 0.000284521
3843 1.37526e-05
3844 0.000238634
3845 0.00023702
3846 0.00023702
3847 4.06094e-06
3848 0.00016365
3849 0.000284521
3850 0.000472257
3851 0.000472257
3852 0.000338671
3853 0.000338671
3854 0.000284521
3855 0.00016365
3856 0.00016365
3857 0.000472257
3858 0.000284521
3859 0.000472257
3860 0.000338671
3861 0.000284521
3862 0.000338671
3863 0.00016365
3864 0.000173666
3865 0.000386944
3866 0.000386944
3867 0.000229188
3868 1.37526e-05
3869 0.000472257
3870 0.000472257
3871 0.000173666
3872 0.000115228
3873 0.0002712
3874 0.0002712
3875 0.000238634
3876 6.23692e-05
3877 0.00019082
3878 0.00019082
3879 0.000115228
3880 0.000344166
3881 0.000357214
3882 0.00023702
3883 0.000338671
3884 0.000231123
3885 0.000299377
3886 0.0002712
3887 0.000344166
3888 0.000344166
3889 0.00023702
3890 0.000357214
3891 0.000338671
3892 0.000231123
3893 0.0002712
3894 0.000299377
3895 0.000344166
3896 4.06094e-06
3897 0.000284521
3898 0.000284521
3899 1.37526e-05
3900 0.000238634
3901 0.00023702
3902 0.00023702
3903 4.06094e-06
3904 4.06094e-06
3905 0.00023702
3906 1.37526e-05
3907 0.000284521
3908 0.00023702
3909 0.000238634
3910 0.000284521
3911 4.06094e-06
3912 0.000344166
3913 0.000299377
3914 0.000338671
3915 0.000357214
3916 0.0002712
3917 0.000231123
3918 0.00023702
3919 0.000344166
3920 0.000173666
3921 0.000472257
3922 0.000229188
3923 0.000386944
3924 0.000472257
3925 1.37526e-05
3926 0.000386944
3927 0.000173666
3928 0.00016365
3929 0.000338671
3930 0.000472257
3931 0.000284521
3932 0.000284521
3933 0.000338671
3934 0.000472257
3935 0.00016365
3936 0.000344166
3937 0.0002712
3938 0.000338671
3939 0.00023702
3940 0.000299377
3941 0.000231123
3942 0.000357214
3943 0.000344166
3944 0.000115228
3945 0.00019082
3946 0.000238634
3947 0.0002712
3948 0.00019082
3949 6.23692e-05
3950 0.0002712
3951 0.000115228
3952 0.00016365
3953 0.000284521
3954 0.000472257
3955 0.000472257
3956 0.000338671
3957 0.000338671
3958 0.000284521
3959 0.00016365
3960 4.06094e-06
3961 0.00023702
3962 1.37526e-05
3963 0.000284521
3964 0.00023702
3965 0.000238634
3966 0.000284521
3967 4.06094e-06
3968 4.06094e-06
3969 1.37526e-05
3970 0.00023702
3971 0.000284521
3972 0.00023702
3973 0.000284521
3974 0.000238634
3975 4.06094e-06
3976 0.000173666
3977 0.000229188
3978 0.000472257
3979 0.000386944
3980 0.000472257
3981 0.000386944
3982 1.37526e-05
3983 0.000173666
3984 0.000344166
3985 0.000338671
3986 0.000299377
3987 0.000357214
3988 0.0002712
3989 0.00023702
3990 0.000231123
3991 0.000344166
3992 0.00016365
3993 0.000472257
3994 0.000338671
3995 0.000284521
3996 0.000284521
3997 0.000472257
3998 0.000338671
3999 0.00016365
4000 0.000344166
4001 0.000338671
4002 0.0002712
4003 0.00023702
4004 0.000299377
4005 0.000357214
4006 0.000231123
4007 0.000344166
4008 0.00016365
4009 0.000472257
4010 0.000284521
4011 0.000472257
4012 0.000338671
4013 0.000284521
4014 0.000338671
4015 0.00016365
4016 0.000115228
4017 0.000238634
4018 0.00019082
4019 0.0002712
4020 0.00019082
4021 0.0002712
4022 6.23692e-05
4023 0.000115228
4024 4.06094e-06
4025 1.37526e-05
4026 0.00023702
4027 0.000284521
4028 0.00023702
4029 0.000284521
4030 0.000238634
4031 4.06094e-06
4032 3.34738e-06
4033 0.000229188
4034 0.000229188
4035 0.000229188
4036 0.000229188
4037 0.000229188
4038 0.000229188
4039 3.34738e-06
4040 0.000173666
4041 1.37526e-05
4042 0.000386944
4043 0.000472257
4044 0.000386944
4045 0.000472257
4046 0.000229188
4047 0.000173666
4048 0.000173666
4049 0.000386944
4050 1.37526e-05
4051 0.000472257
4052 0.000386944
4053 0.000229188
4054 0.000472257
4055 0.000173666
4056 0.000173666
4057 0.000472257
4058 0.000472257
4059 1.37526e-05
4060 0.000229188
4061 0.000386944
4062 0.000386944
4063 0.000173666
4064 0.000173666
4065 0.000386944
4066 0.000386944
4067 0.000229188
4068 1.37526e-05
4069 0.000472257
4070 0.000472257
4071 0.000173666
4072 0.000173666
4073 0.000472257
4074 0.000229188
4075 0.000386944
4076 0.000472257
4077 1.37526e-05
4078 0.000386944
4079 0.000173666
4080 0.000173666
4081 0.000229188
4082 0.000472257
4083 0.000386944
4084 0.000472257
4085 0.000386944
4086 1.37526e-05
4087 0.000173666
4088 3.34738e-06
4089 0.000229188
4090 0.000229188
4091 0.000229188
4092 0.000229188
4093 0.000229188
4094 0.000229188
4095 3.34738e-06
