0 0 15 0 15 0 15 
1 16 31 0 15 0 15 
2 0 15 16 31 0 15 
3 16 31 16 31 0 15 
4 0 15 0 15 16 31 
5 16 31 0 15 16 31 
6 0 15 16 31 16 31 
7 16 31 16 31 16 31 
8 32 47 0 15 0 15 
9 48 63 0 15 0 15 
10 32 47 16 31 0 15 
11 48 63 16 31 0 15 
12 32 47 0 15 16 31 
13 48 63 0 15 16 31 
14 32 47 16 31 16 31 
15 48 63 16 31 16 31 
16 0 15 32 47 0 15 
17 16 31 32 47 0 15 
18 0 15 48 63 0 15 
19 16 31 48 63 0 15 
20 0 15 32 47 16 31 
21 16 31 32 47 16 31 
22 0 15 48 63 16 31 
23 16 31 48 63 16 31 
24 32 47 32 47 0 15 
25 48 63 32 47 0 15 
26 32 47 48 63 0 15 
27 48 63 48 63 0 15 
28 32 47 32 47 16 31 
29 48 63 32 47 16 31 
30 32 47 48 63 16 31 
31 48 63 48 63 16 31 
32 0 15 0 15 32 47 
33 16 31 0 15 32 47 
34 0 15 16 31 32 47 
35 16 31 16 31 32 47 
36 0 15 0 15 48 63 
37 16 31 0 15 48 63 
38 0 15 16 31 48 63 
39 16 31 16 31 48 63 
40 32 47 0 15 32 47 
41 48 63 0 15 32 47 
42 32 47 16 31 32 47 
43 48 63 16 31 32 47 
44 32 47 0 15 48 63 
45 48 63 0 15 48 63 
46 32 47 16 31 48 63 
47 48 63 16 31 48 63 
48 0 15 32 47 32 47 
49 16 31 32 47 32 47 
50 0 15 48 63 32 47 
51 16 31 48 63 32 47 
52 0 15 32 47 48 63 
53 16 31 32 47 48 63 
54 0 15 48 63 48 63 
55 16 31 48 63 48 63 
56 32 47 32 47 32 47 
57 48 63 32 47 32 47 
58 32 47 48 63 32 47 
59 48 63 48 63 32 47 
60 32 47 32 47 48 63 
61 48 63 32 47 48 63 
62 32 47 48 63 48 63 
63 48 63 48 63 48 63 
64 64 79 0 15 0 15 
65 80 95 0 15 0 15 
66 64 79 16 31 0 15 
67 80 95 16 31 0 15 
68 64 79 0 15 16 31 
69 80 95 0 15 16 31 
70 64 79 16 31 16 31 
71 80 95 16 31 16 31 
72 96 111 0 15 0 15 
73 112 127 0 15 0 15 
74 96 111 16 31 0 15 
75 112 127 16 31 0 15 
76 96 111 0 15 16 31 
77 112 127 0 15 16 31 
78 96 111 16 31 16 31 
79 112 127 16 31 16 31 
80 64 79 32 47 0 15 
81 80 95 32 47 0 15 
82 64 79 48 63 0 15 
83 80 95 48 63 0 15 
84 64 79 32 47 16 31 
85 80 95 32 47 16 31 
86 64 79 48 63 16 31 
87 80 95 48 63 16 31 
88 96 111 32 47 0 15 
89 112 127 32 47 0 15 
90 96 111 48 63 0 15 
91 112 127 48 63 0 15 
92 96 111 32 47 16 31 
93 112 127 32 47 16 31 
94 96 111 48 63 16 31 
95 112 127 48 63 16 31 
96 64 79 0 15 32 47 
97 80 95 0 15 32 47 
98 64 79 16 31 32 47 
99 80 95 16 31 32 47 
100 64 79 0 15 48 63 
101 80 95 0 15 48 63 
102 64 79 16 31 48 63 
103 80 95 16 31 48 63 
104 96 111 0 15 32 47 
105 112 127 0 15 32 47 
106 96 111 16 31 32 47 
107 112 127 16 31 32 47 
108 96 111 0 15 48 63 
109 112 127 0 15 48 63 
110 96 111 16 31 48 63 
111 112 127 16 31 48 63 
112 64 79 32 47 32 47 
113 80 95 32 47 32 47 
114 64 79 48 63 32 47 
115 80 95 48 63 32 47 
116 64 79 32 47 48 63 
117 80 95 32 47 48 63 
118 64 79 48 63 48 63 
119 80 95 48 63 48 63 
120 96 111 32 47 32 47 
121 112 127 32 47 32 47 
122 96 111 48 63 32 47 
123 112 127 48 63 32 47 
124 96 111 32 47 48 63 
125 112 127 32 47 48 63 
126 96 111 48 63 48 63 
127 112 127 48 63 48 63 
128 0 15 64 79 0 15 
129 16 31 64 79 0 15 
130 0 15 80 95 0 15 
131 16 31 80 95 0 15 
132 0 15 64 79 16 31 
133 16 31 64 79 16 31 
134 0 15 80 95 16 31 
135 16 31 80 95 16 31 
136 32 47 64 79 0 15 
137 48 63 64 79 0 15 
138 32 47 80 95 0 15 
139 48 63 80 95 0 15 
140 32 47 64 79 16 31 
141 48 63 64 79 16 31 
142 32 47 80 95 16 31 
143 48 63 80 95 16 31 
144 0 15 96 111 0 15 
145 16 31 96 111 0 15 
146 0 15 112 127 0 15 
147 16 31 112 127 0 15 
148 0 15 96 111 16 31 
149 16 31 96 111 16 31 
150 0 15 112 127 16 31 
151 16 31 112 127 16 31 
152 32 47 96 111 0 15 
153 48 63 96 111 0 15 
154 32 47 112 127 0 15 
155 48 63 112 127 0 15 
156 32 47 96 111 16 31 
157 48 63 96 111 16 31 
158 32 47 112 127 16 31 
159 48 63 112 127 16 31 
160 0 15 64 79 32 47 
161 16 31 64 79 32 47 
162 0 15 80 95 32 47 
163 16 31 80 95 32 47 
164 0 15 64 79 48 63 
165 16 31 64 79 48 63 
166 0 15 80 95 48 63 
167 16 31 80 95 48 63 
168 32 47 64 79 32 47 
169 48 63 64 79 32 47 
170 32 47 80 95 32 47 
171 48 63 80 95 32 47 
172 32 47 64 79 48 63 
173 48 63 64 79 48 63 
174 32 47 80 95 48 63 
175 48 63 80 95 48 63 
176 0 15 96 111 32 47 
177 16 31 96 111 32 47 
178 0 15 112 127 32 47 
179 16 31 112 127 32 47 
180 0 15 96 111 48 63 
181 16 31 96 111 48 63 
182 0 15 112 127 48 63 
183 16 31 112 127 48 63 
184 32 47 96 111 32 47 
185 48 63 96 111 32 47 
186 32 47 112 127 32 47 
187 48 63 112 127 32 47 
188 32 47 96 111 48 63 
189 48 63 96 111 48 63 
190 32 47 112 127 48 63 
191 48 63 112 127 48 63 
192 64 79 64 79 0 15 
193 80 95 64 79 0 15 
194 64 79 80 95 0 15 
195 80 95 80 95 0 15 
196 64 79 64 79 16 31 
197 80 95 64 79 16 31 
198 64 79 80 95 16 31 
199 80 95 80 95 16 31 
200 96 111 64 79 0 15 
201 112 127 64 79 0 15 
202 96 111 80 95 0 15 
203 112 127 80 95 0 15 
204 96 111 64 79 16 31 
205 112 127 64 79 16 31 
206 96 111 80 95 16 31 
207 112 127 80 95 16 31 
208 64 79 96 111 0 15 
209 80 95 96 111 0 15 
210 64 79 112 127 0 15 
211 80 95 112 127 0 15 
212 64 79 96 111 16 31 
213 80 95 96 111 16 31 
214 64 79 112 127 16 31 
215 80 95 112 127 16 31 
216 96 111 96 111 0 15 
217 112 127 96 111 0 15 
218 96 111 112 127 0 15 
219 112 127 112 127 0 15 
220 96 111 96 111 16 31 
221 112 127 96 111 16 31 
222 96 111 112 127 16 31 
223 112 127 112 127 16 31 
224 64 79 64 79 32 47 
225 80 95 64 79 32 47 
226 64 79 80 95 32 47 
227 80 95 80 95 32 47 
228 64 79 64 79 48 63 
229 80 95 64 79 48 63 
230 64 79 80 95 48 63 
231 80 95 80 95 48 63 
232 96 111 64 79 32 47 
233 112 127 64 79 32 47 
234 96 111 80 95 32 47 
235 112 127 80 95 32 47 
236 96 111 64 79 48 63 
237 112 127 64 79 48 63 
238 96 111 80 95 48 63 
239 112 127 80 95 48 63 
240 64 79 96 111 32 47 
241 80 95 96 111 32 47 
242 64 79 112 127 32 47 
243 80 95 112 127 32 47 
244 64 79 96 111 48 63 
245 80 95 96 111 48 63 
246 64 79 112 127 48 63 
247 80 95 112 127 48 63 
248 96 111 96 111 32 47 
249 112 127 96 111 32 47 
250 96 111 112 127 32 47 
251 112 127 112 127 32 47 
252 96 111 96 111 48 63 
253 112 127 96 111 48 63 
254 96 111 112 127 48 63 
255 112 127 112 127 48 63 
256 0 15 0 15 64 79 
257 16 31 0 15 64 79 
258 0 15 16 31 64 79 
259 16 31 16 31 64 79 
260 0 15 0 15 80 95 
261 16 31 0 15 80 95 
262 0 15 16 31 80 95 
263 16 31 16 31 80 95 
264 32 47 0 15 64 79 
265 48 63 0 15 64 79 
266 32 47 16 31 64 79 
267 48 63 16 31 64 79 
268 32 47 0 15 80 95 
269 48 63 0 15 80 95 
270 32 47 16 31 80 95 
271 48 63 16 31 80 95 
272 0 15 32 47 64 79 
273 16 31 32 47 64 79 
274 0 15 48 63 64 79 
275 16 31 48 63 64 79 
276 0 15 32 47 80 95 
277 16 31 32 47 80 95 
278 0 15 48 63 80 95 
279 16 31 48 63 80 95 
280 32 47 32 47 64 79 
281 48 63 32 47 64 79 
282 32 47 48 63 64 79 
283 48 63 48 63 64 79 
284 32 47 32 47 80 95 
285 48 63 32 47 80 95 
286 32 47 48 63 80 95 
287 48 63 48 63 80 95 
288 0 15 0 15 96 111 
289 16 31 0 15 96 111 
290 0 15 16 31 96 111 
291 16 31 16 31 96 111 
292 0 15 0 15 112 127 
293 16 31 0 15 112 127 
294 0 15 16 31 112 127 
295 16 31 16 31 112 127 
296 32 47 0 15 96 111 
297 48 63 0 15 96 111 
298 32 47 16 31 96 111 
299 48 63 16 31 96 111 
300 32 47 0 15 112 127 
301 48 63 0 15 112 127 
302 32 47 16 31 112 127 
303 48 63 16 31 112 127 
304 0 15 32 47 96 111 
305 16 31 32 47 96 111 
306 0 15 48 63 96 111 
307 16 31 48 63 96 111 
308 0 15 32 47 112 127 
309 16 31 32 47 112 127 
310 0 15 48 63 112 127 
311 16 31 48 63 112 127 
312 32 47 32 47 96 111 
313 48 63 32 47 96 111 
314 32 47 48 63 96 111 
315 48 63 48 63 96 111 
316 32 47 32 47 112 127 
317 48 63 32 47 112 127 
318 32 47 48 63 112 127 
319 48 63 48 63 112 127 
320 64 79 0 15 64 79 
321 80 95 0 15 64 79 
322 64 79 16 31 64 79 
323 80 95 16 31 64 79 
324 64 79 0 15 80 95 
325 80 95 0 15 80 95 
326 64 79 16 31 80 95 
327 80 95 16 31 80 95 
328 96 111 0 15 64 79 
329 112 127 0 15 64 79 
330 96 111 16 31 64 79 
331 112 127 16 31 64 79 
332 96 111 0 15 80 95 
333 112 127 0 15 80 95 
334 96 111 16 31 80 95 
335 112 127 16 31 80 95 
336 64 79 32 47 64 79 
337 80 95 32 47 64 79 
338 64 79 48 63 64 79 
339 80 95 48 63 64 79 
340 64 79 32 47 80 95 
341 80 95 32 47 80 95 
342 64 79 48 63 80 95 
343 80 95 48 63 80 95 
344 96 111 32 47 64 79 
345 112 127 32 47 64 79 
346 96 111 48 63 64 79 
347 112 127 48 63 64 79 
348 96 111 32 47 80 95 
349 112 127 32 47 80 95 
350 96 111 48 63 80 95 
351 112 127 48 63 80 95 
352 64 79 0 15 96 111 
353 80 95 0 15 96 111 
354 64 79 16 31 96 111 
355 80 95 16 31 96 111 
356 64 79 0 15 112 127 
357 80 95 0 15 112 127 
358 64 79 16 31 112 127 
359 80 95 16 31 112 127 
360 96 111 0 15 96 111 
361 112 127 0 15 96 111 
362 96 111 16 31 96 111 
363 112 127 16 31 96 111 
364 96 111 0 15 112 127 
365 112 127 0 15 112 127 
366 96 111 16 31 112 127 
367 112 127 16 31 112 127 
368 64 79 32 47 96 111 
369 80 95 32 47 96 111 
370 64 79 48 63 96 111 
371 80 95 48 63 96 111 
372 64 79 32 47 112 127 
373 80 95 32 47 112 127 
374 64 79 48 63 112 127 
375 80 95 48 63 112 127 
376 96 111 32 47 96 111 
377 112 127 32 47 96 111 
378 96 111 48 63 96 111 
379 112 127 48 63 96 111 
380 96 111 32 47 112 127 
381 112 127 32 47 112 127 
382 96 111 48 63 112 127 
383 112 127 48 63 112 127 
384 0 15 64 79 64 79 
385 16 31 64 79 64 79 
386 0 15 80 95 64 79 
387 16 31 80 95 64 79 
388 0 15 64 79 80 95 
389 16 31 64 79 80 95 
390 0 15 80 95 80 95 
391 16 31 80 95 80 95 
392 32 47 64 79 64 79 
393 48 63 64 79 64 79 
394 32 47 80 95 64 79 
395 48 63 80 95 64 79 
396 32 47 64 79 80 95 
397 48 63 64 79 80 95 
398 32 47 80 95 80 95 
399 48 63 80 95 80 95 
400 0 15 96 111 64 79 
401 16 31 96 111 64 79 
402 0 15 112 127 64 79 
403 16 31 112 127 64 79 
404 0 15 96 111 80 95 
405 16 31 96 111 80 95 
406 0 15 112 127 80 95 
407 16 31 112 127 80 95 
408 32 47 96 111 64 79 
409 48 63 96 111 64 79 
410 32 47 112 127 64 79 
411 48 63 112 127 64 79 
412 32 47 96 111 80 95 
413 48 63 96 111 80 95 
414 32 47 112 127 80 95 
415 48 63 112 127 80 95 
416 0 15 64 79 96 111 
417 16 31 64 79 96 111 
418 0 15 80 95 96 111 
419 16 31 80 95 96 111 
420 0 15 64 79 112 127 
421 16 31 64 79 112 127 
422 0 15 80 95 112 127 
423 16 31 80 95 112 127 
424 32 47 64 79 96 111 
425 48 63 64 79 96 111 
426 32 47 80 95 96 111 
427 48 63 80 95 96 111 
428 32 47 64 79 112 127 
429 48 63 64 79 112 127 
430 32 47 80 95 112 127 
431 48 63 80 95 112 127 
432 0 15 96 111 96 111 
433 16 31 96 111 96 111 
434 0 15 112 127 96 111 
435 16 31 112 127 96 111 
436 0 15 96 111 112 127 
437 16 31 96 111 112 127 
438 0 15 112 127 112 127 
439 16 31 112 127 112 127 
440 32 47 96 111 96 111 
441 48 63 96 111 96 111 
442 32 47 112 127 96 111 
443 48 63 112 127 96 111 
444 32 47 96 111 112 127 
445 48 63 96 111 112 127 
446 32 47 112 127 112 127 
447 48 63 112 127 112 127 
448 64 79 64 79 64 79 
449 80 95 64 79 64 79 
450 64 79 80 95 64 79 
451 80 95 80 95 64 79 
452 64 79 64 79 80 95 
453 80 95 64 79 80 95 
454 64 79 80 95 80 95 
455 80 95 80 95 80 95 
456 96 111 64 79 64 79 
457 112 127 64 79 64 79 
458 96 111 80 95 64 79 
459 112 127 80 95 64 79 
460 96 111 64 79 80 95 
461 112 127 64 79 80 95 
462 96 111 80 95 80 95 
463 112 127 80 95 80 95 
464 64 79 96 111 64 79 
465 80 95 96 111 64 79 
466 64 79 112 127 64 79 
467 80 95 112 127 64 79 
468 64 79 96 111 80 95 
469 80 95 96 111 80 95 
470 64 79 112 127 80 95 
471 80 95 112 127 80 95 
472 96 111 96 111 64 79 
473 112 127 96 111 64 79 
474 96 111 112 127 64 79 
475 112 127 112 127 64 79 
476 96 111 96 111 80 95 
477 112 127 96 111 80 95 
478 96 111 112 127 80 95 
479 112 127 112 127 80 95 
480 64 79 64 79 96 111 
481 80 95 64 79 96 111 
482 64 79 80 95 96 111 
483 80 95 80 95 96 111 
484 64 79 64 79 112 127 
485 80 95 64 79 112 127 
486 64 79 80 95 112 127 
487 80 95 80 95 112 127 
488 96 111 64 79 96 111 
489 112 127 64 79 96 111 
490 96 111 80 95 96 111 
491 112 127 80 95 96 111 
492 96 111 64 79 112 127 
493 112 127 64 79 112 127 
494 96 111 80 95 112 127 
495 112 127 80 95 112 127 
496 64 79 96 111 96 111 
497 80 95 96 111 96 111 
498 64 79 112 127 96 111 
499 80 95 112 127 96 111 
500 64 79 96 111 112 127 
501 80 95 96 111 112 127 
502 64 79 112 127 112 127 
503 80 95 112 127 112 127 
504 96 111 96 111 96 111 
505 112 127 96 111 96 111 
506 96 111 112 127 96 111 
507 112 127 112 127 96 111 
508 96 111 96 111 112 127 
509 112 127 96 111 112 127 
510 96 111 112 127 112 127 
511 112 127 112 127 112 127 
