0 16 16 16 
1 5 16 16 
2 16 5 16 
3 16 16 5 
4 16 16 5 
5 16 5 16 
6 5 16 16 
7 16 16 16 
8 3 16 16 
9 3 16 16 
10 5 7 5 
11 3 6 5 
12 5 5 7 
13 3 5 6 
14 5 16 16 
15 3 16 16 
16 16 3 16 
17 7 5 5 
18 16 3 16 
19 6 3 5 
20 5 5 7 
21 16 5 16 
22 5 3 6 
23 16 3 16 
24 16 16 3 
25 5 6 3 
26 6 5 3 
27 16 16 3 
28 16 16 5 
29 5 7 5 
30 7 5 5 
31 16 16 3 
32 16 16 3 
33 7 5 5 
34 5 7 5 
35 16 16 5 
36 16 16 3 
37 6 5 3 
38 5 6 3 
39 16 16 3 
40 16 3 16 
41 5 3 6 
42 16 5 16 
43 5 5 7 
44 6 3 5 
45 16 3 16 
46 7 5 5 
47 16 3 16 
48 3 16 16 
49 5 16 16 
50 3 5 6 
51 5 5 7 
52 3 6 5 
53 5 7 5 
54 3 16 16 
55 3 16 16 
56 16 16 16 
57 5 16 16 
58 16 5 16 
59 16 16 5 
60 16 16 5 
61 16 5 16 
62 5 16 16 
63 16 16 16 
64 2 16 16 
65 2 16 16 
66 2 16 16 
67 2 5 5 
68 2 5 5 
69 2 5 5 
70 2 5 5 
71 2 16 16 
72 2 16 16 
73 3 3 3 
74 2 3 3 
75 3 3 3 
76 2 3 3 
77 3 16 16 
78 3 16 16 
79 5 7 5 
80 3 6 5 
81 5 5 7 
82 3 5 6 
83 5 16 16 
84 3 16 16 
85 2 16 16 
86 16 2 16 
87 3 3 3 
88 16 2 16 
89 5 2 5 
90 16 2 16 
91 5 2 5 
92 5 2 5 
93 16 2 16 
94 5 2 5 
95 16 2 16 
96 3 2 3 
97 3 3 3 
98 16 3 16 
99 7 5 5 
100 16 3 16 
101 6 3 5 
102 5 5 7 
103 16 5 16 
104 5 3 6 
105 16 3 16 
106 3 2 3 
107 16 2 16 
108 16 16 2 
109 3 3 2 
110 3 3 2 
111 16 16 2 
112 5 5 2 
113 5 5 2 
114 16 16 2 
115 16 16 2 
116 5 5 2 
117 5 5 2 
118 16 16 2 
119 16 16 3 
120 5 6 3 
121 6 5 3 
122 16 16 3 
123 16 16 5 
124 5 7 5 
125 7 5 5 
126 16 16 3 
127 3 3 3 
128 3 3 3 
129 16 16 2 
130 16 16 2 
131 3 3 3 
132 3 3 3 
133 16 16 3 
134 7 5 5 
135 5 7 5 
136 16 16 5 
137 16 16 3 
138 6 5 3 
139 5 6 3 
140 16 16 3 
141 16 16 2 
142 5 5 2 
143 5 5 2 
144 16 16 2 
145 16 16 2 
146 5 5 2 
147 5 5 2 
148 16 16 2 
149 3 3 2 
150 3 3 2 
151 16 16 2 
152 16 2 16 
153 3 2 3 
154 16 3 16 
155 5 3 5 
156 16 5 16 
157 5 5 7 
158 6 3 5 
159 16 3 16 
160 7 5 5 
161 16 3 16 
162 3 3 3 
163 3 2 3 
164 16 2 16 
165 5 2 5 
166 16 2 16 
167 5 2 5 
168 5 2 5 
169 16 2 16 
170 5 2 5 
171 16 2 16 
172 3 3 3 
173 16 2 16 
174 2 16 16 
175 3 16 16 
176 5 16 16 
177 3 5 6 
178 5 5 7 
179 3 6 5 
180 5 7 5 
181 3 16 16 
182 3 16 16 
183 2 3 3 
184 3 3 3 
185 2 3 3 
186 3 3 3 
187 2 16 16 
188 2 16 16 
189 2 5 5 
190 2 5 5 
191 2 5 5 
192 2 5 5 
193 2 16 16 
194 2 16 16 
195 2 16 16 
196 16 16 16 
197 5 16 16 
198 16 5 16 
199 16 16 5 
200 16 16 5 
201 16 5 16 
202 5 16 16 
203 16 16 16 
204 3 16 16 
205 3 16 16 
206 5 7 5 
207 3 6 5 
208 5 5 7 
209 3 5 6 
210 5 16 16 
211 3 16 16 
212 16 3 16 
213 7 5 5 
214 16 3 16 
215 6 3 5 
216 5 5 7 
217 16 5 16 
218 5 3 6 
219 16 3 16 
220 16 16 3 
221 5 6 3 
222 6 5 3 
223 16 16 3 
224 16 16 5 
225 5 7 5 
226 7 5 5 
227 16 16 3 
228 16 16 3 
229 7 5 5 
230 5 7 5 
231 16 16 5 
232 16 16 3 
233 6 5 3 
234 5 6 3 
235 16 16 3 
236 16 3 16 
237 5 3 5 
238 16 5 16 
239 5 5 7 
240 6 3 5 
241 16 3 16 
242 7 5 5 
243 16 3 16 
244 3 16 16 
245 5 16 16 
246 3 5 6 
247 5 5 7 
248 3 6 5 
249 5 7 5 
250 3 16 16 
251 3 16 16 
252 16 16 16 
253 5 16 16 
254 16 5 16 
255 16 16 5 
256 16 16 5 
257 16 5 16 
258 5 16 16 
259 16 16 16 
