0 704
1 488
2 488
3 488
4 488
5 488
6 488
7 704
8 1872
9 1872
10 1872
11 1872
12 1872
13 1872
14 704
15 488
16 488
17 488
18 488
19 488
20 488
21 704
22 1328
23 1328
24 488
25 314
26 488
27 314
28 1872
29 1328
30 1328
31 488
32 1328
33 314
34 488
35 1872
36 314
37 1328
38 1328
39 314
40 314
41 1328
42 1872
43 488
44 488
45 1328
46 1328
47 488
48 488
49 1872
50 1328
51 314
52 314
53 1328
54 1328
55 314
56 1872
57 488
58 314
59 1328
60 488
61 1328
62 1328
63 1872
64 314
65 488
66 314
67 488
68 1328
69 1328
70 704
71 488
72 488
73 488
74 488
75 488
76 488
77 704
78 1872
79 1872
80 1872
81 1872
82 1872
83 1872
84 704
85 488
86 488
87 488
88 488
89 488
90 488
91 704
92 5216
93 5216
94 996
95 588
96 996
97 588
98 1328
99 1328
100 488
101 314
102 488
103 314
104 1872
105 1328
106 5216
107 5216
108 996
109 5216
110 588
111 996
112 1328
113 488
114 1328
115 314
116 488
117 1872
118 314
119 1328
120 588
121 5216
122 5216
123 588
124 588
125 5216
126 1328
127 314
128 314
129 1328
130 1872
131 488
132 488
133 1328
134 996
135 996
136 5216
137 5216
138 996
139 996
140 1328
141 488
142 488
143 1872
144 1328
145 314
146 314
147 1328
148 5216
149 588
150 588
151 5216
152 5216
153 588
154 1328
155 314
156 1872
157 488
158 314
159 1328
160 488
161 1328
162 996
163 588
164 5216
165 996
166 5216
167 5216
168 1328
169 1872
170 314
171 488
172 314
173 488
174 1328
175 1328
176 588
177 996
178 588
179 996
180 5216
181 5216
182 704
183 488
184 488
185 488
186 488
187 488
188 488
189 704
190 1872
191 1872
192 1872
193 1872
194 1872
195 1872
196 704
197 488
198 488
199 488
200 488
201 488
202 488
203 704
204 1328
205 1328
206 488
207 314
208 488
209 314
210 1872
211 1328
212 1328
213 488
214 1328
215 314
216 488
217 1872
218 314
219 1328
220 1328
221 314
222 314
223 1328
224 1872
225 488
226 488
227 1328
228 1328
229 488
230 488
231 1872
232 1328
233 314
234 314
235 1328
236 1328
237 314
238 1872
239 488
240 314
241 1328
242 488
243 1328
244 1328
245 1872
246 314
247 488
248 314
249 488
250 1328
251 1328
252 704
253 488
254 488
255 488
256 488
257 488
258 488
259 704
260 1872
261 1872
262 1872
263 1872
264 1872
265 1872
266 704
267 488
268 488
269 488
270 488
271 488
272 488
273 704
274 20672
275 4160
276 4160
277 520
278 476
279 520
280 476
281 4160
282 4160
283 2026
284 1150
285 2026
286 1150
287 5216
288 5216
289 996
290 588
291 996
292 588
293 1328
294 1328
295 488
296 314
297 488
298 314
299 1872
300 1328
301 5216
302 20672
303 20672
304 2026
305 4160
306 520
307 4160
308 476
309 520
310 4160
311 476
312 4160
313 1150
314 2026
315 5216
316 996
317 5216
318 588
319 996
320 1328
321 488
322 1328
323 314
324 488
325 1872
326 314
327 1328
328 588
329 5216
330 1150
331 20672
332 20672
333 1150
334 1150
335 4160
336 476
337 476
338 4160
339 4160
340 520
341 520
342 4160
343 5216
344 588
345 588
346 5216
347 1328
348 314
349 314
350 1328
351 1872
352 488
353 488
354 1328
355 996
356 996
357 5216
358 2026
359 2026
360 20672
361 20672
362 2026
363 2026
364 5216
365 996
366 996
367 1328
368 488
369 488
370 1872
371 1328
372 314
373 314
374 1328
375 5216
376 588
377 588
378 5216
379 4160
380 520
381 520
382 4160
383 4160
384 476
385 476
386 4160
387 1150
388 1150
389 20672
390 20672
391 1150
392 5216
393 588
394 1328
395 314
396 1872
397 488
398 314
399 1328
400 488
401 1328
402 996
403 588
404 5216
405 996
406 5216
407 2026
408 1150
409 4160
410 476
411 4160
412 520
413 476
414 4160
415 520
416 4160
417 2026
418 20672
419 20672
420 5216
421 1328
422 1872
423 314
424 488
425 314
426 488
427 1328
428 1328
429 588
430 996
431 588
432 996
433 5216
434 5216
435 1150
436 2026
437 1150
438 2026
439 4160
440 4160
441 476
442 520
443 476
444 520
445 4160
446 4160
447 20672
448 704
449 488
450 488
451 488
452 488
453 488
454 488
455 704
456 1872
457 1872
458 1872
459 1872
460 1872
461 1872
462 704
463 488
464 488
465 488
466 488
467 488
468 488
469 704
470 1328
471 1328
472 488
473 314
474 488
475 314
476 1872
477 1328
478 1328
479 488
480 1328
481 314
482 488
483 1872
484 314
485 1328
486 1328
487 314
488 314
489 1328
490 1872
491 488
492 488
493 1328
494 1328
495 488
496 488
497 1872
498 1328
499 314
500 314
501 1328
502 1328
503 314
504 1872
505 488
506 314
507 1328
508 488
509 1328
510 1328
511 1872
512 314
513 488
514 314
515 488
516 1328
517 1328
518 704
519 488
520 488
521 488
522 488
523 488
524 488
525 704
526 1872
527 1872
528 1872
529 1872
530 1872
531 1872
532 704
533 488
534 488
535 488
536 488
537 488
538 488
539 704
540 5216
541 5216
542 996
543 588
544 996
545 588
546 1328
547 1328
548 488
549 314
550 488
551 314
552 1872
553 1328
554 5216
555 5216
556 996
557 5216
558 588
559 996
560 1328
561 488
562 1328
563 314
564 488
565 1872
566 314
567 1328
568 588
569 5216
570 5216
571 588
572 588
573 5216
574 1328
575 314
576 314
577 1328
578 1872
579 488
580 488
581 1328
582 996
583 996
584 5216
585 5216
586 996
587 996
588 1328
589 488
590 488
591 1872
592 1328
593 314
594 314
595 1328
596 5216
597 588
598 588
599 5216
600 5216
601 588
602 1328
603 314
604 1872
605 488
606 314
607 1328
608 488
609 1328
610 996
611 588
612 5216
613 996
614 5216
615 5216
616 1328
617 1872
618 314
619 488
620 314
621 488
622 1328
623 1328
624 588
625 996
626 588
627 996
628 5216
629 5216
630 704
631 488
632 488
633 488
634 488
635 488
636 488
637 704
638 1872
639 1872
640 1872
641 1872
642 1872
643 1872
644 704
645 488
646 488
647 488
648 488
649 488
650 488
651 704
652 1328
653 1328
654 488
655 314
656 488
657 314
658 1872
659 1328
660 1328
661 488
662 1328
663 314
664 488
665 1872
666 314
667 1328
668 1328
669 314
670 314
671 1328
672 1872
673 488
674 488
675 1328
676 1328
677 488
678 488
679 1872
680 1328
681 314
682 314
683 1328
684 1328
685 314
686 1872
687 488
688 314
689 1328
690 488
691 1328
692 1328
693 1872
694 314
695 488
696 314
697 488
698 1328
699 1328
700 704
701 488
702 488
703 488
704 488
705 488
706 488
707 704
708 1872
709 1872
710 1872
711 1872
712 1872
713 1872
714 704
715 488
716 488
717 488
718 488
719 488
720 488
721 704
