0 8.1902e-07
1 7.50154e-06
2 7.50154e-06
3 7.50154e-06
4 7.50154e-06
5 7.50154e-06
6 7.50154e-06
7 8.1902e-07
8 0.000265616
9 0.000265616
10 0.000265616
11 0.000265616
12 0.000265616
13 0.000265616
14 8.1902e-07
15 7.50154e-06
16 7.50154e-06
17 7.50154e-06
18 7.50154e-06
19 7.50154e-06
20 7.50154e-06
21 8.1902e-07
22 0.000218554
23 0.000366126
24 0.000353929
25 0.000353934
26 0.000353929
27 0.000353934
28 0.000265616
29 0.000218554
30 0.000218554
31 0.000353929
32 0.000366126
33 0.000353934
34 0.000353929
35 0.000265616
36 0.000353934
37 0.000218554
38 0.000218554
39 0.000353934
40 0.000353934
41 0.000366126
42 0.000265616
43 0.000353929
44 0.000353929
45 0.000218554
46 0.000218554
47 0.000353929
48 0.000353929
49 0.000265616
50 0.000366126
51 0.000353934
52 0.000353934
53 0.000218554
54 0.000218554
55 0.000353934
56 0.000265616
57 0.000353929
58 0.000353934
59 0.000366126
60 0.000353929
61 0.000218554
62 0.000218554
63 0.000265616
64 0.000353934
65 0.000353929
66 0.000353934
67 0.000353929
68 0.000366126
69 0.000218554
70 8.1902e-07
71 7.50154e-06
72 7.50154e-06
73 7.50154e-06
74 7.50154e-06
75 7.50154e-06
76 7.50154e-06
77 8.1902e-07
78 0.000265616
79 0.000265616
80 0.000265616
81 0.000265616
82 0.000265616
83 0.000265616
84 8.1902e-07
85 7.50154e-06
86 7.50154e-06
87 7.50154e-06
88 7.50154e-06
89 7.50154e-06
90 7.50154e-06
91 8.1902e-07
92 0.00081302
93 0.000549834
94 0.000898011
95 0.000781055
96 0.000898011
97 0.000781055
98 0.000218554
99 0.000366126
100 0.000353929
101 0.000353934
102 0.000353929
103 0.000353934
104 0.000265616
105 0.000218554
106 0.00081302
107 0.00081302
108 0.000898011
109 0.000549834
110 0.000781055
111 0.000898011
112 0.000218554
113 0.000353929
114 0.000366126
115 0.000353934
116 0.000353929
117 0.000265616
118 0.000353934
119 0.000218554
120 0.000781055
121 0.00081302
122 0.00081302
123 0.000781055
124 0.000781055
125 0.000549834
126 0.000218554
127 0.000353934
128 0.000353934
129 0.000366126
130 0.000265616
131 0.000353929
132 0.000353929
133 0.000218554
134 0.000898011
135 0.000898011
136 0.00081302
137 0.00081302
138 0.000898011
139 0.000898011
140 0.000218554
141 0.000353929
142 0.000353929
143 0.000265616
144 0.000366126
145 0.000353934
146 0.000353934
147 0.000218554
148 0.000549834
149 0.000781055
150 0.000781055
151 0.00081302
152 0.00081302
153 0.000781055
154 0.000218554
155 0.000353934
156 0.000265616
157 0.000353929
158 0.000353934
159 0.000366126
160 0.000353929
161 0.000218554
162 0.000898011
163 0.000781055
164 0.000549834
165 0.000898011
166 0.00081302
167 0.00081302
168 0.000218554
169 0.000265616
170 0.000353934
171 0.000353929
172 0.000353934
173 0.000353929
174 0.000366126
175 0.000218554
176 0.000781055
177 0.000898011
178 0.000781055
179 0.000898011
180 0.000549834
181 0.00081302
182 8.1902e-07
183 7.50154e-06
184 7.50154e-06
185 7.50154e-06
186 7.50154e-06
187 7.50154e-06
188 7.50154e-06
189 8.1902e-07
190 0.000265616
191 0.000265616
192 0.000265616
193 0.000265616
194 0.000265616
195 0.000265616
196 8.1902e-07
197 7.50154e-06
198 7.50154e-06
199 7.50154e-06
200 7.50154e-06
201 7.50154e-06
202 7.50154e-06
203 8.1902e-07
204 0.000218554
205 0.000366126
206 0.000353929
207 0.000353934
208 0.000353929
209 0.000353934
210 0.000265616
211 0.000218554
212 0.000218554
213 0.000353929
214 0.000366126
215 0.000353934
216 0.000353929
217 0.000265616
218 0.000353934
219 0.000218554
220 0.000218554
221 0.000353934
222 0.000353934
223 0.000366126
224 0.000265616
225 0.000353929
226 0.000353929
227 0.000218554
228 0.000218554
229 0.000353929
230 0.000353929
231 0.000265616
232 0.000366126
233 0.000353934
234 0.000353934
235 0.000218554
236 0.000218554
237 0.000353934
238 0.000265616
239 0.000353929
240 0.000353934
241 0.000366126
242 0.000353929
243 0.000218554
244 0.000218554
245 0.000265616
246 0.000353934
247 0.000353929
248 0.000353934
249 0.000353929
250 0.000366126
251 0.000218554
252 8.1902e-07
253 7.50154e-06
254 7.50154e-06
255 7.50154e-06
256 7.50154e-06
257 7.50154e-06
258 7.50154e-06
259 8.1902e-07
260 0.000265616
261 0.000265616
262 0.000265616
263 0.000265616
264 0.000265616
265 0.000265616
266 8.1902e-07
267 7.50154e-06
268 7.50154e-06
269 7.50154e-06
270 7.50154e-06
271 7.50154e-06
272 7.50154e-06
273 8.1902e-07
274 0.00151282
275 0.000425834
276 0.00041407
277 0.000480732
278 0.000727566
279 0.000480732
280 0.000727566
281 0.000447249
282 0.000425834
283 0.00158068
284 0.00159701
285 0.00158068
286 0.00159701
287 0.00081302
288 0.000549834
289 0.000898011
290 0.000781055
291 0.000898011
292 0.000781055
293 0.000218554
294 0.000366126
295 0.000353929
296 0.000353934
297 0.000353929
298 0.000353934
299 0.000265616
300 0.000218554
301 0.00081302
302 0.00151282
303 0.00151282
304 0.00158068
305 0.000425834
306 0.000480732
307 0.00041407
308 0.000727566
309 0.000480732
310 0.000447249
311 0.000727566
312 0.000425834
313 0.00160719
314 0.00158068
315 0.00081302
316 0.000898011
317 0.000549834
318 0.000781055
319 0.000898011
320 0.000218554
321 0.000353929
322 0.000366126
323 0.000353934
324 0.000353929
325 0.000265616
326 0.000353934
327 0.000218554
328 0.000781055
329 0.00081302
330 0.00160719
331 0.00151282
332 0.00151282
333 0.00159701
334 0.00161731
335 0.000425834
336 0.000727566
337 0.000727566
338 0.00041407
339 0.000447249
340 0.000480732
341 0.000480732
342 0.000425834
343 0.00081302
344 0.000781055
345 0.000781055
346 0.000549834
347 0.000218554
348 0.000353934
349 0.000353934
350 0.000366126
351 0.000265616
352 0.000353929
353 0.000353929
354 0.000218554
355 0.000898011
356 0.000898011
357 0.00081302
358 0.00158068
359 0.00158068
360 0.00151282
361 0.00151282
362 0.00158068
363 0.00158068
364 0.00081302
365 0.000898011
366 0.000898011
367 0.000218554
368 0.000353929
369 0.000353929
370 0.000265616
371 0.000366126
372 0.000353934
373 0.000353934
374 0.000218554
375 0.000549834
376 0.000781055
377 0.000781055
378 0.00081302
379 0.000425834
380 0.000480732
381 0.000480732
382 0.000447249
383 0.00041407
384 0.000727566
385 0.000727566
386 0.000425834
387 0.00160719
388 0.00160719
389 0.00151282
390 0.00151282
391 0.00160719
392 0.00081302
393 0.000781055
394 0.000218554
395 0.000353934
396 0.000265616
397 0.000353929
398 0.000353934
399 0.000366126
400 0.000353929
401 0.000218554
402 0.000898011
403 0.000781055
404 0.000549834
405 0.000898011
406 0.00081302
407 0.00158068
408 0.00161731
409 0.000425834
410 0.000727566
411 0.000447249
412 0.000480732
413 0.000727566
414 0.00041407
415 0.000480732
416 0.000425834
417 0.00158068
418 0.00151282
419 0.00151282
420 0.00081302
421 0.000218554
422 0.000265616
423 0.000353934
424 0.000353929
425 0.000353934
426 0.000353929
427 0.000366126
428 0.000218554
429 0.000781055
430 0.000898011
431 0.000781055
432 0.000898011
433 0.000549834
434 0.00081302
435 0.00161731
436 0.00158068
437 0.00161731
438 0.00158068
439 0.000425834
440 0.000447249
441 0.000727566
442 0.000480732
443 0.000727566
444 0.000480732
445 0.00041407
446 0.000425834
447 0.00151282
448 8.1902e-07
449 7.50154e-06
450 7.50154e-06
451 7.50154e-06
452 7.50154e-06
453 7.50154e-06
454 7.50154e-06
455 8.1902e-07
456 0.000265616
457 0.000265616
458 0.000265616
459 0.000265616
460 0.000265616
461 0.000265616
462 8.1902e-07
463 7.50154e-06
464 7.50154e-06
465 7.50154e-06
466 7.50154e-06
467 7.50154e-06
468 7.50154e-06
469 8.1902e-07
470 0.000218554
471 0.000366126
472 0.000353929
473 0.000353934
474 0.000353929
475 0.000353934
476 0.000265616
477 0.000218554
478 0.000218554
479 0.000353929
480 0.000366126
481 0.000353934
482 0.000353929
483 0.000265616
484 0.000353934
485 0.000218554
486 0.000218554
487 0.000353934
488 0.000353934
489 0.000366126
490 0.000265616
491 0.000353929
492 0.000353929
493 0.000218554
494 0.000218554
495 0.000353929
496 0.000353929
497 0.000265616
498 0.000366126
499 0.000353934
500 0.000353934
501 0.000218554
502 0.000218554
503 0.000353934
504 0.000265616
505 0.000353929
506 0.000353934
507 0.000366126
508 0.000353929
509 0.000218554
510 0.000218554
511 0.000265616
512 0.000353934
513 0.000353929
514 0.000353934
515 0.000353929
516 0.000366126
517 0.000218554
518 8.1902e-07
519 7.50154e-06
520 7.50154e-06
521 7.50154e-06
522 7.50154e-06
523 7.50154e-06
524 7.50154e-06
525 8.1902e-07
526 0.000265616
527 0.000265616
528 0.000265616
529 0.000265616
530 0.000265616
531 0.000265616
532 8.1902e-07
533 7.50154e-06
534 7.50154e-06
535 7.50154e-06
536 7.50154e-06
537 7.50154e-06
538 7.50154e-06
539 8.1902e-07
540 0.00081302
541 0.000549834
542 0.000898011
543 0.000781055
544 0.000898011
545 0.000781055
546 0.000218554
547 0.000366126
548 0.000353929
549 0.000353934
550 0.000353929
551 0.000353934
552 0.000265616
553 0.000218554
554 0.00081302
555 0.00081302
556 0.000898011
557 0.000549834
558 0.000781055
559 0.000898011
560 0.000218554
561 0.000353929
562 0.000366126
563 0.000353934
564 0.000353929
565 0.000265616
566 0.000353934
567 0.000218554
568 0.000781055
569 0.00081302
570 0.00081302
571 0.000781055
572 0.000781055
573 0.000549834
574 0.000218554
575 0.000353934
576 0.000353934
577 0.000366126
578 0.000265616
579 0.000353929
580 0.000353929
581 0.000218554
582 0.000898011
583 0.000898011
584 0.00081302
585 0.00081302
586 0.000898011
587 0.000898011
588 0.000218554
589 0.000353929
590 0.000353929
591 0.000265616
592 0.000366126
593 0.000353934
594 0.000353934
595 0.000218554
596 0.000549834
597 0.000781055
598 0.000781055
599 0.00081302
600 0.00081302
601 0.000781055
602 0.000218554
603 0.000353934
604 0.000265616
605 0.000353929
606 0.000353934
607 0.000366126
608 0.000353929
609 0.000218554
610 0.000898011
611 0.000781055
612 0.000549834
613 0.000898011
614 0.00081302
615 0.00081302
616 0.000218554
617 0.000265616
618 0.000353934
619 0.000353929
620 0.000353934
621 0.000353929
622 0.000366126
623 0.000218554
624 0.000781055
625 0.000898011
626 0.000781055
627 0.000898011
628 0.000549834
629 0.00081302
630 8.1902e-07
631 7.50154e-06
632 7.50154e-06
633 7.50154e-06
634 7.50154e-06
635 7.50154e-06
636 7.50154e-06
637 8.1902e-07
638 0.000265616
639 0.000265616
640 0.000265616
641 0.000265616
642 0.000265616
643 0.000265616
644 8.1902e-07
645 7.50154e-06
646 7.50154e-06
647 7.50154e-06
648 7.50154e-06
649 7.50154e-06
650 7.50154e-06
651 8.1902e-07
652 0.000218554
653 0.000366126
654 0.000353929
655 0.000353934
656 0.000353929
657 0.000353934
658 0.000265616
659 0.000218554
660 0.000218554
661 0.000353929
662 0.000366126
663 0.000353934
664 0.000353929
665 0.000265616
666 0.000353934
667 0.000218554
668 0.000218554
669 0.000353934
670 0.000353934
671 0.000366126
672 0.000265616
673 0.000353929
674 0.000353929
675 0.000218554
676 0.000218554
677 0.000353929
678 0.000353929
679 0.000265616
680 0.000366126
681 0.000353934
682 0.000353934
683 0.000218554
684 0.000218554
685 0.000353934
686 0.000265616
687 0.000353929
688 0.000353934
689 0.000366126
690 0.000353929
691 0.000218554
692 0.000218554
693 0.000265616
694 0.000353934
695 0.000353929
696 0.000353934
697 0.000353929
698 0.000366126
699 0.000218554
700 8.1902e-07
701 7.50154e-06
702 7.50154e-06
703 7.50154e-06
704 7.50154e-06
705 7.50154e-06
706 7.50154e-06
707 8.1902e-07
708 0.000265616
709 0.000265616
710 0.000265616
711 0.000265616
712 0.000265616
713 0.000265616
714 8.1902e-07
715 7.50154e-06
716 7.50154e-06
717 7.50154e-06
718 7.50154e-06
719 7.50154e-06
720 7.50154e-06
721 8.1902e-07
