0 97
1 49
2 49
3 224
4 160
5 136
6 704
7 560
8 25
9 25
10 136
11 160
12 224
13 160
14 136
15 25
16 25
17 704
18 560
19 136
20 160
21 49
22 49
23 49
24 66
25 49
26 1152
27 224
28 49
29 1064
30 49
31 49
32 1064
33 1152
34 49
35 49
36 224
37 66
38 49
39 49
40 66
41 224
42 49
43 49
44 1152
45 1064
46 49
47 49
48 1064
49 49
50 224
51 1152
52 49
53 66
54 49
55 49
56 49
57 160
58 136
59 560
60 704
61 25
62 25
63 136
64 160
65 224
66 160
67 136
68 25
69 25
70 560
71 704
72 136
73 160
74 224
75 49
76 49
77 97
78 49
79 49
80 1108
81 763
82 1108
83 763
84 49
85 49
86 49
87 49
88 626
89 626
90 626
91 626
92 49
93 49
94 2528
95 895
96 496
97 1020
98 160
99 136
100 704
101 560
102 25
103 25
104 136
105 160
106 1108
107 1064
108 2528
109 579
110 482
111 280
112 196
113 763
114 626
115 895
116 579
117 2528
118 895
119 160
120 136
121 25
122 25
123 704
124 560
125 136
126 160
127 1108
128 496
129 1020
130 1064
131 2528
132 579
133 482
134 763
135 626
136 280
137 196
138 895
139 579
140 49
141 49
142 224
143 160
144 136
145 704
146 560
147 25
148 25
149 136
150 160
151 224
152 160
153 136
154 25
155 25
156 704
157 560
158 136
159 160
160 49
161 49
162 49
163 49
164 1108
165 763
166 1108
167 763
168 49
169 49
170 2245
171 3152
172 576
173 1260
174 1260
175 1152
176 1152
177 576
178 3152
179 1474
180 812
181 352
182 864
183 252
184 496
185 1260
186 416
187 812
188 2528
189 1064
190 1020
191 496
192 1108
193 160
194 136
195 560
196 704
197 25
198 25
199 136
200 160
201 895
202 2528
203 49
204 66
205 49
206 1152
207 224
208 49
209 1064
210 49
211 812
212 496
213 664
214 416
215 280
216 1020
217 216
218 812
219 2245
220 2245
221 812
222 216
223 416
224 664
225 1020
226 280
227 496
228 812
229 812
230 416
231 252
232 864
233 1260
234 496
235 352
236 812
237 1474
238 49
239 1064
240 1152
241 49
242 49
243 224
244 66
245 49
246 2528
247 895
248 496
249 1020
250 160
251 136
252 704
253 560
254 25
255 25
256 136
257 160
258 1108
259 1064
260 2528
261 3152
262 576
263 1260
264 1260
265 1152
266 1152
267 576
268 3152
269 2245
270 2245
271 3152
272 576
273 1152
274 1152
275 1260
276 1260
277 576
278 3152
279 2528
280 1064
281 1108
282 160
283 136
284 25
285 25
286 560
287 704
288 136
289 160
290 1020
291 496
292 895
293 2528
294 49
295 66
296 224
297 49
298 49
299 1152
300 1064
301 49
302 1474
303 812
304 352
305 496
306 1260
307 864
308 252
309 416
310 812
311 812
312 496
313 280
314 1020
315 664
316 416
317 216
318 812
319 2245
320 2245
321 812
322 216
323 1020
324 280
325 416
326 664
327 496
328 812
329 49
330 1064
331 49
332 224
333 1152
334 49
335 66
336 49
337 2528
338 895
339 160
340 136
341 25
342 25
343 704
344 560
345 136
346 160
347 1108
348 496
349 1020
350 1064
351 2528
352 812
353 416
354 1260
355 496
356 252
357 864
358 352
359 812
360 1474
361 3152
362 576
363 1152
364 1152
365 1260
366 1260
367 576
368 3152
369 2245
370 49
371 49
372 763
373 1108
374 763
375 1108
376 49
377 49
378 49
379 49
380 160
381 136
382 560
383 704
384 25
385 25
386 136
387 160
388 224
389 160
390 136
391 25
392 25
393 560
394 704
395 136
396 160
397 224
398 49
399 49
400 579
401 895
402 196
403 280
404 626
405 763
406 482
407 579
408 2528
409 1064
410 1020
411 496
412 1108
413 160
414 136
415 560
416 704
417 25
418 25
419 136
420 160
421 895
422 2528
423 579
424 895
425 626
426 763
427 196
428 280
429 482
430 579
431 2528
432 1064
433 1108
434 160
435 136
436 25
437 25
438 560
439 704
440 136
441 160
442 1020
443 496
444 895
445 2528
446 49
447 49
448 626
449 626
450 626
451 626
452 49
453 49
454 49
455 49
456 763
457 1108
458 763
459 1108
460 49
461 49
462 97
463 49
464 49
465 224
466 160
467 136
468 704
469 560
470 25
471 25
472 136
473 160
474 224
475 160
476 136
477 25
478 25
479 704
480 560
481 136
482 160
483 49
484 49
485 49
486 66
487 49
488 1152
489 224
490 49
491 1064
492 49
493 49
494 1064
495 1152
496 49
497 49
498 224
499 66
500 49
501 49
502 66
503 224
504 49
505 49
506 1152
507 1064
508 49
509 49
510 1064
511 49
512 224
513 1152
514 49
515 66
516 49
517 49
518 49
519 160
520 136
521 560
522 704
523 25
524 25
525 136
526 160
527 224
528 160
529 136
530 25
531 25
532 560
533 704
534 136
535 160
536 224
537 49
538 49
539 97
540 16307
541 11202
542 538
543 312
544 3250
545 434
546 579
547 482
548 280
549 196
550 763
551 626
552 895
553 579
554 3464
555 812
556 216
557 416
558 664
559 1020
560 280
561 496
562 812
563 538
564 4692
565 538
566 312
567 579
568 482
569 763
570 626
571 280
572 196
573 895
574 579
575 3464
576 3250
577 434
578 812
579 216
580 1020
581 280
582 416
583 664
584 496
585 812
586 538
587 4692
588 49
589 49
590 1108
591 763
592 1108
593 763
594 49
595 49
596 49
597 49
598 626
599 626
600 626
601 626
602 49
603 49
604 2528
605 895
606 496
607 1020
608 160
609 136
610 704
611 560
612 25
613 25
614 136
615 160
616 1108
617 1064
618 2528
619 579
620 482
621 280
622 196
623 763
624 626
625 895
626 579
627 2528
628 895
629 160
630 136
631 25
632 25
633 704
634 560
635 136
636 160
637 1108
638 496
639 1020
640 1064
641 2528
642 579
643 482
644 763
645 626
646 280
647 196
648 895
649 579
650 49
651 49
652 224
653 160
654 136
655 704
656 560
657 25
658 25
659 136
660 160
661 224
662 160
663 136
664 25
665 25
666 704
667 560
668 136
669 160
670 49
671 49
672 49
673 49
674 1108
675 763
676 1108
677 763
678 49
679 49
680 16307
681 17232
682 719
683 626
684 416
685 192
686 626
687 864
688 416
689 216
690 626
691 434
692 434
693 812
694 352
695 864
696 252
697 496
698 1260
699 416
700 812
701 812
702 416
703 252
704 864
705 1260
706 496
707 352
708 812
709 626
710 216
711 626
712 192
713 416
714 864
715 416
716 626
717 719
718 9892
719 5400
720 538
721 812
722 496
723 664
724 416
725 280
726 1020
727 216
728 812
729 434
730 3250
731 3464
732 579
733 895
734 196
735 280
736 626
737 763
738 482
739 579
740 312
741 538
742 2245
743 3152
744 576
745 1260
746 1260
747 1152
748 1152
749 576
750 3152
751 1474
752 812
753 352
754 864
755 252
756 496
757 1260
758 416
759 812
760 2528
761 1064
762 1020
763 496
764 1108
765 160
766 136
767 560
768 704
769 25
770 25
771 136
772 160
773 895
774 2528
775 49
776 66
777 49
778 1152
779 224
780 49
781 1064
782 49
783 812
784 496
785 664
786 416
787 280
788 1020
789 216
790 812
791 2245
792 5400
793 17232
794 17232
795 5400
796 5400
797 9892
798 2245
799 812
800 216
801 416
802 664
803 1020
804 280
805 496
806 812
807 812
808 416
809 252
810 864
811 1260
812 496
813 352
814 812
815 1474
816 49
817 1064
818 1152
819 49
820 49
821 224
822 66
823 49
824 2528
825 895
826 496
827 1020
828 160
829 136
830 704
831 560
832 25
833 25
834 136
835 160
836 1108
837 1064
838 2528
839 3152
840 576
841 1260
842 1260
843 1152
844 1152
845 576
846 3152
847 2245
848 538
849 312
850 3250
851 434
852 579
853 482
854 280
855 196
856 763
857 626
858 895
859 579
860 3464
861 812
862 216
863 416
864 664
865 1020
866 280
867 496
868 812
869 538
870 719
871 626
872 416
873 192
874 626
875 864
876 416
877 216
878 626
879 434
880 434
881 812
882 352
883 864
884 252
885 496
886 1260
887 416
888 812
889 812
890 416
891 252
892 864
893 1260
894 496
895 352
896 812
897 626
898 216
899 626
900 192
901 416
902 864
903 416
904 626
905 719
906 17232
907 17232
908 719
909 626
910 416
911 864
912 416
913 192
914 626
915 216
916 626
917 812
918 352
919 496
920 1260
921 864
922 252
923 416
924 812
925 812
926 416
927 1260
928 496
929 252
930 864
931 352
932 812
933 434
934 434
935 626
936 216
937 416
938 864
939 626
940 192
941 416
942 626
943 719
944 538
945 812
946 496
947 280
948 1020
949 664
950 416
951 216
952 812
953 3464
954 579
955 895
956 626
957 763
958 196
959 280
960 482
961 579
962 434
963 3250
964 312
965 538
966 2245
967 3152
968 576
969 1152
970 1152
971 1260
972 1260
973 576
974 3152
975 2528
976 1064
977 1108
978 160
979 136
980 25
981 25
982 560
983 704
984 136
985 160
986 1020
987 496
988 895
989 2528
990 49
991 66
992 224
993 49
994 49
995 1152
996 1064
997 49
998 1474
999 812
1000 352
1001 496
1002 1260
1003 864
1004 252
1005 416
1006 812
1007 812
1008 496
1009 280
1010 1020
1011 664
1012 416
1013 216
1014 812
1015 2245
1016 9892
1017 5400
1018 5400
1019 17232
1020 17232
1021 5400
1022 2245
1023 812
1024 216
1025 1020
1026 280
1027 416
1028 664
1029 496
1030 812
1031 49
1032 1064
1033 49
1034 224
1035 1152
1036 49
1037 66
1038 49
1039 2528
1040 895
1041 160
1042 136
1043 25
1044 25
1045 704
1046 560
1047 136
1048 160
1049 1108
1050 496
1051 1020
1052 1064
1053 2528
1054 812
1055 416
1056 1260
1057 496
1058 252
1059 864
1060 352
1061 812
1062 1474
1063 3152
1064 576
1065 1152
1066 1152
1067 1260
1068 1260
1069 576
1070 3152
1071 2245
1072 538
1073 312
1074 579
1075 482
1076 763
1077 626
1078 280
1079 196
1080 895
1081 579
1082 3464
1083 3250
1084 434
1085 812
1086 216
1087 1020
1088 280
1089 416
1090 664
1091 496
1092 812
1093 538
1094 5400
1095 9892
1096 719
1097 626
1098 416
1099 864
1100 416
1101 192
1102 626
1103 216
1104 626
1105 812
1106 352
1107 496
1108 1260
1109 864
1110 252
1111 416
1112 812
1113 812
1114 416
1115 1260
1116 496
1117 252
1118 864
1119 352
1120 812
1121 434
1122 434
1123 626
1124 216
1125 416
1126 864
1127 626
1128 192
1129 416
1130 626
1131 719
1132 17232
1133 16307
1134 49
1135 49
1136 763
1137 1108
1138 763
1139 1108
1140 49
1141 49
1142 49
1143 49
1144 160
1145 136
1146 560
1147 704
1148 25
1149 25
1150 136
1151 160
1152 224
1153 160
1154 136
1155 25
1156 25
1157 560
1158 704
1159 136
1160 160
1161 224
1162 49
1163 49
1164 579
1165 895
1166 196
1167 280
1168 626
1169 763
1170 482
1171 579
1172 2528
1173 1064
1174 1020
1175 496
1176 1108
1177 160
1178 136
1179 560
1180 704
1181 25
1182 25
1183 136
1184 160
1185 895
1186 2528
1187 579
1188 895
1189 626
1190 763
1191 196
1192 280
1193 482
1194 579
1195 2528
1196 1064
1197 1108
1198 160
1199 136
1200 25
1201 25
1202 560
1203 704
1204 136
1205 160
1206 1020
1207 496
1208 895
1209 2528
1210 49
1211 49
1212 626
1213 626
1214 626
1215 626
1216 49
1217 49
1218 49
1219 49
1220 763
1221 1108
1222 763
1223 1108
1224 49
1225 49
1226 4692
1227 538
1228 812
1229 496
1230 664
1231 416
1232 280
1233 1020
1234 216
1235 812
1236 434
1237 3250
1238 3464
1239 579
1240 895
1241 196
1242 280
1243 626
1244 763
1245 482
1246 579
1247 312
1248 538
1249 4692
1250 538
1251 812
1252 496
1253 280
1254 1020
1255 664
1256 416
1257 216
1258 812
1259 3464
1260 579
1261 895
1262 626
1263 763
1264 196
1265 280
1266 482
1267 579
1268 434
1269 3250
1270 312
1271 538
1272 11202
1273 16307
1274 97
1275 49
1276 49
1277 224
1278 160
1279 136
1280 704
1281 560
1282 25
1283 25
1284 136
1285 160
1286 224
1287 160
1288 136
1289 25
1290 25
1291 704
1292 560
1293 136
1294 160
1295 49
1296 49
1297 49
1298 66
1299 49
1300 1152
1301 224
1302 49
1303 1064
1304 49
1305 49
1306 1064
1307 1152
1308 49
1309 49
1310 224
1311 66
1312 49
1313 49
1314 66
1315 224
1316 49
1317 49
1318 1152
1319 1064
1320 49
1321 49
1322 1064
1323 49
1324 224
1325 1152
1326 49
1327 66
1328 49
1329 49
1330 49
1331 160
1332 136
1333 560
1334 704
1335 25
1336 25
1337 136
1338 160
1339 224
1340 160
1341 136
1342 25
1343 25
1344 560
1345 704
1346 136
1347 160
1348 224
1349 49
1350 49
1351 97
1352 49
1353 49
1354 1108
1355 763
1356 1108
1357 763
1358 49
1359 49
1360 49
1361 49
1362 626
1363 626
1364 626
1365 626
1366 49
1367 49
1368 2528
1369 895
1370 496
1371 1020
1372 160
1373 136
1374 704
1375 560
1376 25
1377 25
1378 136
1379 160
1380 1108
1381 1064
1382 2528
1383 579
1384 482
1385 280
1386 196
1387 763
1388 626
1389 895
1390 579
1391 2528
1392 895
1393 160
1394 136
1395 25
1396 25
1397 704
1398 560
1399 136
1400 160
1401 1108
1402 496
1403 1020
1404 1064
1405 2528
1406 579
1407 482
1408 763
1409 626
1410 280
1411 196
1412 895
1413 579
1414 49
1415 49
1416 224
1417 160
1418 136
1419 704
1420 560
1421 25
1422 25
1423 136
1424 160
1425 224
1426 160
1427 136
1428 25
1429 25
1430 704
1431 560
1432 136
1433 160
1434 49
1435 49
1436 49
1437 49
1438 1108
1439 763
1440 1108
1441 763
1442 49
1443 49
1444 2245
1445 3152
1446 576
1447 1260
1448 1260
1449 1152
1450 1152
1451 576
1452 3152
1453 1474
1454 812
1455 352
1456 864
1457 252
1458 496
1459 1260
1460 416
1461 812
1462 2528
1463 1064
1464 1020
1465 496
1466 1108
1467 160
1468 136
1469 560
1470 704
1471 25
1472 25
1473 136
1474 160
1475 895
1476 2528
1477 49
1478 66
1479 49
1480 1152
1481 224
1482 49
1483 1064
1484 49
1485 812
1486 496
1487 664
1488 416
1489 280
1490 1020
1491 216
1492 812
1493 2245
1494 2245
1495 812
1496 216
1497 416
1498 664
1499 1020
1500 280
1501 496
1502 812
1503 812
1504 416
1505 252
1506 864
1507 1260
1508 496
1509 352
1510 812
1511 1474
1512 49
1513 1064
1514 1152
1515 49
1516 49
1517 224
1518 66
1519 49
1520 2528
1521 895
1522 496
1523 1020
1524 160
1525 136
1526 704
1527 560
1528 25
1529 25
1530 136
1531 160
1532 1108
1533 1064
1534 2528
1535 3152
1536 576
1537 1260
1538 1260
1539 1152
1540 1152
1541 576
1542 3152
1543 2245
1544 2245
1545 3152
1546 576
1547 1152
1548 1152
1549 1260
1550 1260
1551 576
1552 3152
1553 2528
1554 1064
1555 1108
1556 160
1557 136
1558 25
1559 25
1560 560
1561 704
1562 136
1563 160
1564 1020
1565 496
1566 895
1567 2528
1568 49
1569 66
1570 224
1571 49
1572 49
1573 1152
1574 1064
1575 49
1576 1474
1577 812
1578 352
1579 496
1580 1260
1581 864
1582 252
1583 416
1584 812
1585 812
1586 496
1587 280
1588 1020
1589 664
1590 416
1591 216
1592 812
1593 2245
1594 2245
1595 812
1596 216
1597 1020
1598 280
1599 416
1600 664
1601 496
1602 812
1603 49
1604 1064
1605 49
1606 224
1607 1152
1608 49
1609 66
1610 49
1611 2528
1612 895
1613 160
1614 136
1615 25
1616 25
1617 704
1618 560
1619 136
1620 160
1621 1108
1622 496
1623 1020
1624 1064
1625 2528
1626 812
1627 416
1628 1260
1629 496
1630 252
1631 864
1632 352
1633 812
1634 1474
1635 3152
1636 576
1637 1152
1638 1152
1639 1260
1640 1260
1641 576
1642 3152
1643 2245
1644 49
1645 49
1646 763
1647 1108
1648 763
1649 1108
1650 49
1651 49
1652 49
1653 49
1654 160
1655 136
1656 560
1657 704
1658 25
1659 25
1660 136
1661 160
1662 224
1663 160
1664 136
1665 25
1666 25
1667 560
1668 704
1669 136
1670 160
1671 224
1672 49
1673 49
1674 579
1675 895
1676 196
1677 280
1678 626
1679 763
1680 482
1681 579
1682 2528
1683 1064
1684 1020
1685 496
1686 1108
1687 160
1688 136
1689 560
1690 704
1691 25
1692 25
1693 136
1694 160
1695 895
1696 2528
1697 579
1698 895
1699 626
1700 763
1701 196
1702 280
1703 482
1704 579
1705 2528
1706 1064
1707 1108
1708 160
1709 136
1710 25
1711 25
1712 560
1713 704
1714 136
1715 160
1716 1020
1717 496
1718 895
1719 2528
1720 49
1721 49
1722 626
1723 626
1724 626
1725 626
1726 49
1727 49
1728 49
1729 49
1730 763
1731 1108
1732 763
1733 1108
1734 49
1735 49
1736 97
1737 49
1738 49
1739 224
1740 160
1741 136
1742 704
1743 560
1744 25
1745 25
1746 136
1747 160
1748 224
1749 160
1750 136
1751 25
1752 25
1753 704
1754 560
1755 136
1756 160
1757 49
1758 49
1759 49
1760 66
1761 49
1762 1152
1763 224
1764 49
1765 1064
1766 49
1767 49
1768 1064
1769 1152
1770 49
1771 49
1772 224
1773 66
1774 49
1775 49
1776 66
1777 224
1778 49
1779 49
1780 1152
1781 1064
1782 49
1783 49
1784 1064
1785 49
1786 224
1787 1152
1788 49
1789 66
1790 49
1791 49
1792 49
1793 160
1794 136
1795 560
1796 704
1797 25
1798 25
1799 136
1800 160
1801 224
1802 160
1803 136
1804 25
1805 25
1806 560
1807 704
1808 136
1809 160
1810 224
1811 49
1812 49
1813 97
