0 1.44354e-05
1 5.10368e-06
2 5.10368e-06
3 0.00244616
4 0.0020982
5 0.000278585
6 1.80442e-06
7 0.000344691
8 1.80442e-06
9 1.80442e-06
10 0.0018915
11 0.0020982
12 0.00244616
13 0.0020982
14 0.000278585
15 1.80442e-06
16 1.80442e-06
17 1.80442e-06
18 0.000344691
19 0.0018915
20 0.0020982
21 5.10368e-06
22 5.10368e-06
23 5.10368e-06
24 5.53728e-05
25 5.10368e-06
26 0.00279089
27 0.00244616
28 5.10368e-06
29 0.00299899
30 5.10368e-06
31 5.10368e-06
32 0.00299899
33 0.00279089
34 5.10368e-06
35 5.10368e-06
36 0.00244616
37 5.53728e-05
38 5.10368e-06
39 5.10368e-06
40 5.53728e-05
41 0.00244616
42 5.10368e-06
43 5.10368e-06
44 0.00279089
45 0.00299899
46 5.10368e-06
47 5.10368e-06
48 0.00299899
49 5.10368e-06
50 0.00244616
51 0.00279089
52 5.10368e-06
53 5.53728e-05
54 5.10368e-06
55 5.10368e-06
56 5.10368e-06
57 0.0020982
58 0.0018915
59 0.000344691
60 1.80442e-06
61 1.80442e-06
62 1.80442e-06
63 0.000278585
64 0.0020982
65 0.00244616
66 0.0020982
67 0.0018915
68 1.80442e-06
69 1.80442e-06
70 0.000344691
71 1.80442e-06
72 0.000278585
73 0.0020982
74 0.00244616
75 5.10368e-06
76 5.10368e-06
77 1.44354e-05
78 5.10368e-06
79 5.10368e-06
80 0.00166021
81 0.00226409
82 0.00166021
83 0.00226409
84 5.10368e-06
85 5.10368e-06
86 5.10368e-06
87 5.10368e-06
88 0.00250848
89 0.00293329
90 0.00250848
91 0.00293329
92 5.10368e-06
93 5.10368e-06
94 0.0039886
95 0.00338282
96 0.00321982
97 0.00323095
98 0.0020982
99 0.000278585
100 1.80442e-06
101 0.000344691
102 1.80442e-06
103 1.80442e-06
104 0.0018915
105 0.0020982
106 0.00166021
107 0.00299899
108 0.0039886
109 0.00384973
110 0.00272607
111 0.00334833
112 0.00150454
113 0.00226409
114 0.00250848
115 0.00338282
116 0.00384973
117 0.0039886
118 0.00338282
119 0.0020982
120 0.000278585
121 1.80442e-06
122 1.80442e-06
123 1.80442e-06
124 0.000344691
125 0.0018915
126 0.0020982
127 0.00166021
128 0.00321982
129 0.00323095
130 0.00299899
131 0.0039886
132 0.00384973
133 0.00272607
134 0.00226409
135 0.00250848
136 0.00334833
137 0.00150454
138 0.00338282
139 0.00384973
140 5.10368e-06
141 5.10368e-06
142 0.00244616
143 0.0020982
144 0.000278585
145 1.80442e-06
146 0.000344691
147 1.80442e-06
148 1.80442e-06
149 0.0018915
150 0.0020982
151 0.00244616
152 0.0020982
153 0.000278585
154 1.80442e-06
155 1.80442e-06
156 1.80442e-06
157 0.000344691
158 0.0018915
159 0.0020982
160 5.10368e-06
161 5.10368e-06
162 5.10368e-06
163 5.10368e-06
164 0.00166021
165 0.00226409
166 0.00166021
167 0.00226409
168 5.10368e-06
169 5.10368e-06
170 0.00641437
171 0.00300023
172 0.00353173
173 0.00339106
174 0.00339106
175 0.00279089
176 0.00279089
177 0.00353173
178 0.00300023
179 0.00566997
180 0.00340497
181 0.00324946
182 0.00145295
183 0.00378493
184 0.00301719
185 0.00339106
186 0.00285544
187 0.00340497
188 0.0039886
189 0.00299899
190 0.00323095
191 0.00321982
192 0.00166021
193 0.0020982
194 0.0018915
195 0.000344691
196 1.80442e-06
197 1.80442e-06
198 1.80442e-06
199 0.000278585
200 0.0020982
201 0.00338282
202 0.0039886
203 5.10368e-06
204 5.53728e-05
205 5.10368e-06
206 0.00279089
207 0.00244616
208 5.10368e-06
209 0.00299899
210 5.10368e-06
211 0.00251606
212 0.0030332
213 0.0023694
214 0.00283399
215 0.00334833
216 0.00323095
217 0.00418315
218 0.00251606
219 0.00641437
220 0.00641437
221 0.00251606
222 0.00418315
223 0.00283399
224 0.0023694
225 0.00323095
226 0.00334833
227 0.0030332
228 0.00251606
229 0.00340497
230 0.00285544
231 0.00432119
232 0.00145295
233 0.00339106
234 0.00301719
235 0.00324946
236 0.00340497
237 0.00566997
238 5.10368e-06
239 0.00299899
240 0.00279089
241 5.10368e-06
242 5.10368e-06
243 0.00244616
244 5.53728e-05
245 5.10368e-06
246 0.0039886
247 0.00338282
248 0.00321982
249 0.00323095
250 0.0020982
251 0.000278585
252 1.80442e-06
253 0.000344691
254 1.80442e-06
255 1.80442e-06
256 0.0018915
257 0.0020982
258 0.00166021
259 0.00299899
260 0.0039886
261 0.00300023
262 0.00353173
263 0.00339106
264 0.00339106
265 0.00279089
266 0.00279089
267 0.00353173
268 0.00300023
269 0.00641437
270 0.00641437
271 0.00300023
272 0.00353173
273 0.00279089
274 0.00279089
275 0.00339106
276 0.00339106
277 0.00353173
278 0.00300023
279 0.0039886
280 0.00299899
281 0.00166021
282 0.0020982
283 0.0018915
284 1.80442e-06
285 1.80442e-06
286 0.000344691
287 1.80442e-06
288 0.000278585
289 0.0020982
290 0.00323095
291 0.00321982
292 0.00338282
293 0.0039886
294 5.10368e-06
295 5.53728e-05
296 0.00244616
297 5.10368e-06
298 5.10368e-06
299 0.00279089
300 0.00299899
301 5.10368e-06
302 0.00566997
303 0.00340497
304 0.00324946
305 0.00301719
306 0.00339106
307 0.00145295
308 0.00378493
309 0.00285544
310 0.00340497
311 0.00251606
312 0.0030332
313 0.00334833
314 0.00323095
315 0.0023694
316 0.00283399
317 0.00418315
318 0.00251606
319 0.00641437
320 0.00641437
321 0.00251606
322 0.00418315
323 0.00323095
324 0.00334833
325 0.00283399
326 0.0023694
327 0.0030332
328 0.00251606
329 5.10368e-06
330 0.00299899
331 5.10368e-06
332 0.00244616
333 0.00279089
334 5.10368e-06
335 5.53728e-05
336 5.10368e-06
337 0.0039886
338 0.00338282
339 0.0020982
340 0.000278585
341 1.80442e-06
342 1.80442e-06
343 1.80442e-06
344 0.000344691
345 0.0018915
346 0.0020982
347 0.00166021
348 0.00321982
349 0.00323095
350 0.00299899
351 0.0039886
352 0.00340497
353 0.00285544
354 0.00339106
355 0.00301719
356 0.00432119
357 0.00145295
358 0.00324946
359 0.00340497
360 0.00566997
361 0.00300023
362 0.00353173
363 0.00279089
364 0.00279089
365 0.00339106
366 0.00339106
367 0.00353173
368 0.00300023
369 0.00641437
370 5.10368e-06
371 5.10368e-06
372 0.00226409
373 0.00166021
374 0.00226409
375 0.00166021
376 5.10368e-06
377 5.10368e-06
378 5.10368e-06
379 5.10368e-06
380 0.0020982
381 0.0018915
382 0.000344691
383 1.80442e-06
384 1.80442e-06
385 1.80442e-06
386 0.000278585
387 0.0020982
388 0.00244616
389 0.0020982
390 0.0018915
391 1.80442e-06
392 1.80442e-06
393 0.000344691
394 1.80442e-06
395 0.000278585
396 0.0020982
397 0.00244616
398 5.10368e-06
399 5.10368e-06
400 0.00384973
401 0.00338282
402 0.00150454
403 0.00334833
404 0.00250848
405 0.00226409
406 0.00272607
407 0.00384973
408 0.0039886
409 0.00299899
410 0.00323095
411 0.00321982
412 0.00166021
413 0.0020982
414 0.0018915
415 0.000344691
416 1.80442e-06
417 1.80442e-06
418 1.80442e-06
419 0.000278585
420 0.0020982
421 0.00338282
422 0.0039886
423 0.00384973
424 0.00338282
425 0.00250848
426 0.00226409
427 0.00150454
428 0.00334833
429 0.00272607
430 0.00384973
431 0.0039886
432 0.00299899
433 0.00166021
434 0.0020982
435 0.0018915
436 1.80442e-06
437 1.80442e-06
438 0.000344691
439 1.80442e-06
440 0.000278585
441 0.0020982
442 0.00323095
443 0.00321982
444 0.00338282
445 0.0039886
446 5.10368e-06
447 5.10368e-06
448 0.00293329
449 0.00250848
450 0.00293329
451 0.00250848
452 5.10368e-06
453 5.10368e-06
454 5.10368e-06
455 5.10368e-06
456 0.00226409
457 0.00166021
458 0.00226409
459 0.00166021
460 5.10368e-06
461 5.10368e-06
462 1.44354e-05
463 5.10368e-06
464 5.10368e-06
465 0.00244616
466 0.0020982
467 0.000278585
468 1.80442e-06
469 0.000344691
470 1.80442e-06
471 1.80442e-06
472 0.0018915
473 0.0020982
474 0.00244616
475 0.0020982
476 0.000278585
477 1.80442e-06
478 1.80442e-06
479 1.80442e-06
480 0.000344691
481 0.0018915
482 0.0020982
483 5.10368e-06
484 5.10368e-06
485 5.10368e-06
486 5.53728e-05
487 5.10368e-06
488 0.00279089
489 0.00244616
490 5.10368e-06
491 0.00299899
492 5.10368e-06
493 5.10368e-06
494 0.00299899
495 0.00279089
496 5.10368e-06
497 5.10368e-06
498 0.00244616
499 5.53728e-05
500 5.10368e-06
501 5.10368e-06
502 5.53728e-05
503 0.00244616
504 5.10368e-06
505 5.10368e-06
506 0.00279089
507 0.00299899
508 5.10368e-06
509 5.10368e-06
510 0.00299899
511 5.10368e-06
512 0.00244616
513 0.00279089
514 5.10368e-06
515 5.53728e-05
516 5.10368e-06
517 5.10368e-06
518 5.10368e-06
519 0.0020982
520 0.0018915
521 0.000344691
522 1.80442e-06
523 1.80442e-06
524 1.80442e-06
525 0.000278585
526 0.0020982
527 0.00244616
528 0.0020982
529 0.0018915
530 1.80442e-06
531 1.80442e-06
532 0.000344691
533 1.80442e-06
534 0.000278585
535 0.0020982
536 0.00244616
537 5.10368e-06
538 5.10368e-06
539 1.44354e-05
540 0.0195924
541 0.015576
542 0.0089917
543 0.00815572
544 0.00883653
545 0.00819236
546 0.00384973
547 0.00272607
548 0.00334833
549 0.00150454
550 0.00226409
551 0.00250848
552 0.00338282
553 0.00384973
554 0.00883998
555 0.00251606
556 0.00418315
557 0.00283399
558 0.0023694
559 0.00323095
560 0.00334833
561 0.0030332
562 0.00251606
563 0.0089917
564 0.0195525
565 0.0089917
566 0.00815572
567 0.00384973
568 0.00272607
569 0.00226409
570 0.00250848
571 0.00334833
572 0.00150454
573 0.00338282
574 0.00384973
575 0.00883998
576 0.00883653
577 0.00819236
578 0.00251606
579 0.00418315
580 0.00323095
581 0.00334833
582 0.00283399
583 0.0023694
584 0.0030332
585 0.00251606
586 0.0089917
587 0.0195525
588 5.10368e-06
589 5.10368e-06
590 0.00166021
591 0.00226409
592 0.00166021
593 0.00226409
594 5.10368e-06
595 5.10368e-06
596 5.10368e-06
597 5.10368e-06
598 0.00250848
599 0.00293329
600 0.00250848
601 0.00293329
602 5.10368e-06
603 5.10368e-06
604 0.0039886
605 0.00338282
606 0.00321982
607 0.00323095
608 0.0020982
609 0.000278585
610 1.80442e-06
611 0.000344691
612 1.80442e-06
613 1.80442e-06
614 0.0018915
615 0.0020982
616 0.00166021
617 0.00299899
618 0.0039886
619 0.00384973
620 0.00272607
621 0.00334833
622 0.00150454
623 0.00226409
624 0.00250848
625 0.00338282
626 0.00384973
627 0.0039886
628 0.00338282
629 0.0020982
630 0.000278585
631 1.80442e-06
632 1.80442e-06
633 1.80442e-06
634 0.000344691
635 0.0018915
636 0.0020982
637 0.00166021
638 0.00321982
639 0.00323095
640 0.00299899
641 0.0039886
642 0.00384973
643 0.00272607
644 0.00226409
645 0.00250848
646 0.00334833
647 0.00150454
648 0.00338282
649 0.00384973
650 5.10368e-06
651 5.10368e-06
652 0.00244616
653 0.0020982
654 0.000278585
655 1.80442e-06
656 0.000344691
657 1.80442e-06
658 1.80442e-06
659 0.0018915
660 0.0020982
661 0.00244616
662 0.0020982
663 0.000278585
664 1.80442e-06
665 1.80442e-06
666 1.80442e-06
667 0.000344691
668 0.0018915
669 0.0020982
670 5.10368e-06
671 5.10368e-06
672 5.10368e-06
673 5.10368e-06
674 0.00166021
675 0.00226409
676 0.00166021
677 0.00226409
678 5.10368e-06
679 5.10368e-06
680 0.0195924
681 0.0206233
682 0.00942856
683 0.00229785
684 0.0033054
685 0.00389473
686 0.00313272
687 0.00145295
688 0.00282718
689 0.00430545
690 0.00229785
691 0.00818096
692 0.00818096
693 0.00340497
694 0.00324946
695 0.00145295
696 0.00378493
697 0.00301719
698 0.00339106
699 0.00285544
700 0.00340497
701 0.00340497
702 0.00285544
703 0.00432119
704 0.00145295
705 0.00339106
706 0.00301719
707 0.00324946
708 0.00340497
709 0.00229785
710 0.00430545
711 0.00313272
712 0.00389473
713 0.00282718
714 0.00145295
715 0.0033054
716 0.00229785
717 0.00942856
718 0.0187555
719 0.0207275
720 0.0089917
721 0.00251606
722 0.0030332
723 0.0023694
724 0.00283399
725 0.00334833
726 0.00323095
727 0.00418315
728 0.00251606
729 0.00819236
730 0.00883653
731 0.00883998
732 0.00384973
733 0.00338282
734 0.00150454
735 0.00334833
736 0.00250848
737 0.00226409
738 0.00272607
739 0.00384973
740 0.00815572
741 0.0089917
742 0.00641437
743 0.00300023
744 0.00353173
745 0.00339106
746 0.00339106
747 0.00279089
748 0.00279089
749 0.00353173
750 0.00300023
751 0.00566997
752 0.00340497
753 0.00386083
754 0.00145295
755 0.00432119
756 0.00301719
757 0.00339106
758 0.00285544
759 0.00340497
760 0.0039886
761 0.00299899
762 0.00323095
763 0.00321982
764 0.00166021
765 0.0020982
766 0.0018915
767 0.000344691
768 1.80442e-06
769 1.80442e-06
770 1.80442e-06
771 0.000278585
772 0.0020982
773 0.00338282
774 0.0039886
775 5.10368e-06
776 5.53728e-05
777 5.10368e-06
778 0.00279089
779 0.00244616
780 5.10368e-06
781 0.00299899
782 5.10368e-06
783 0.00251606
784 0.0030332
785 0.0023694
786 0.00283399
787 0.00334833
788 0.00323095
789 0.00418315
790 0.00251606
791 0.00641437
792 0.020551
793 0.0206233
794 0.0206233
795 0.020551
796 0.0207275
797 0.0187555
798 0.00641437
799 0.00251606
800 0.00418315
801 0.00283399
802 0.0023694
803 0.00323095
804 0.00334833
805 0.0030332
806 0.00251606
807 0.00340497
808 0.00285544
809 0.00432119
810 0.00145295
811 0.00339106
812 0.00301719
813 0.00386083
814 0.00340497
815 0.00566997
816 5.10368e-06
817 0.00299899
818 0.00279089
819 5.10368e-06
820 5.10368e-06
821 0.00244616
822 5.53728e-05
823 5.10368e-06
824 0.0039886
825 0.00338282
826 0.00321982
827 0.00323095
828 0.0020982
829 0.000278585
830 1.80442e-06
831 0.000344691
832 1.80442e-06
833 1.80442e-06
834 0.0018915
835 0.0020982
836 0.00166021
837 0.00299899
838 0.0039886
839 0.00300023
840 0.00353173
841 0.00339106
842 0.00339106
843 0.00279089
844 0.00279089
845 0.00353173
846 0.00300023
847 0.00641437
848 0.0089917
849 0.00815572
850 0.00883653
851 0.00819236
852 0.00384973
853 0.00272607
854 0.00334833
855 0.00150454
856 0.00226409
857 0.00250848
858 0.00338282
859 0.00384973
860 0.00883998
861 0.00251606
862 0.00418315
863 0.00283399
864 0.0023694
865 0.00323095
866 0.00334833
867 0.0030332
868 0.00251606
869 0.0089917
870 0.00965633
871 0.00229785
872 0.0033054
873 0.00389473
874 0.00313272
875 0.00145295
876 0.00282718
877 0.00430545
878 0.00229785
879 0.00818096
880 0.00818096
881 0.00340497
882 0.00386083
883 0.00145295
884 0.00432119
885 0.00301719
886 0.00339106
887 0.00285544
888 0.00340497
889 0.00340497
890 0.00285544
891 0.00432119
892 0.00145295
893 0.00339106
894 0.00301719
895 0.00386083
896 0.00340497
897 0.00229785
898 0.00430545
899 0.00313272
900 0.00389473
901 0.00282718
902 0.00145295
903 0.0033054
904 0.00229785
905 0.00965633
906 0.0206233
907 0.0206233
908 0.00942856
909 0.00229785
910 0.0033054
911 0.00145295
912 0.00282718
913 0.00389473
914 0.00313272
915 0.00430545
916 0.00229785
917 0.00340497
918 0.00324946
919 0.00301719
920 0.00339106
921 0.00145295
922 0.00378493
923 0.00285544
924 0.00340497
925 0.00340497
926 0.00285544
927 0.00339106
928 0.00301719
929 0.00432119
930 0.00145295
931 0.00324946
932 0.00340497
933 0.00818096
934 0.00818096
935 0.00229785
936 0.00430545
937 0.00282718
938 0.00145295
939 0.00313272
940 0.00389473
941 0.0033054
942 0.00229785
943 0.00942856
944 0.0089917
945 0.00251606
946 0.0030332
947 0.00334833
948 0.00323095
949 0.0023694
950 0.00283399
951 0.00418315
952 0.00251606
953 0.00883998
954 0.00384973
955 0.00338282
956 0.00250848
957 0.00226409
958 0.00150454
959 0.00334833
960 0.00272607
961 0.00384973
962 0.00819236
963 0.00883653
964 0.00815572
965 0.0089917
966 0.00641437
967 0.00300023
968 0.00353173
969 0.00279089
970 0.00279089
971 0.00339106
972 0.00339106
973 0.00353173
974 0.00300023
975 0.0039886
976 0.00299899
977 0.00166021
978 0.0020982
979 0.0018915
980 1.80442e-06
981 1.80442e-06
982 0.000344691
983 1.80442e-06
984 0.000278585
985 0.0020982
986 0.00323095
987 0.00321982
988 0.00338282
989 0.0039886
990 5.10368e-06
991 5.53728e-05
992 0.00244616
993 5.10368e-06
994 5.10368e-06
995 0.00279089
996 0.00299899
997 5.10368e-06
998 0.00566997
999 0.00340497
1000 0.00324946
1001 0.00301719
1002 0.00339106
1003 0.00145295
1004 0.00378493
1005 0.00285544
1006 0.00340497
1007 0.00251606
1008 0.0030332
1009 0.00334833
1010 0.00323095
1011 0.0023694
1012 0.00283399
1013 0.00418315
1014 0.00251606
1015 0.00641437
1016 0.0187555
1017 0.0207275
1018 0.020551
1019 0.0206233
1020 0.0206233
1021 0.020551
1022 0.00641437
1023 0.00251606
1024 0.00418315
1025 0.00323095
1026 0.00334833
1027 0.00283399
1028 0.0023694
1029 0.0030332
1030 0.00251606
1031 5.10368e-06
1032 0.00299899
1033 5.10368e-06
1034 0.00244616
1035 0.00279089
1036 5.10368e-06
1037 5.53728e-05
1038 5.10368e-06
1039 0.0039886
1040 0.00338282
1041 0.0020982
1042 0.000278585
1043 1.80442e-06
1044 1.80442e-06
1045 1.80442e-06
1046 0.000344691
1047 0.0018915
1048 0.0020982
1049 0.00166021
1050 0.00321982
1051 0.00323095
1052 0.00299899
1053 0.0039886
1054 0.00340497
1055 0.00285544
1056 0.00339106
1057 0.00301719
1058 0.00432119
1059 0.00145295
1060 0.00324946
1061 0.00340497
1062 0.00566997
1063 0.00300023
1064 0.00353173
1065 0.00279089
1066 0.00279089
1067 0.00339106
1068 0.00339106
1069 0.00353173
1070 0.00300023
1071 0.00641437
1072 0.0089917
1073 0.00815572
1074 0.00384973
1075 0.00272607
1076 0.00226409
1077 0.00250848
1078 0.00334833
1079 0.00150454
1080 0.00338282
1081 0.00384973
1082 0.00883998
1083 0.00883653
1084 0.00819236
1085 0.00251606
1086 0.00418315
1087 0.00323095
1088 0.00334833
1089 0.00283399
1090 0.0023694
1091 0.0030332
1092 0.00251606
1093 0.0089917
1094 0.0207275
1095 0.0187555
1096 0.00942856
1097 0.00229785
1098 0.0033054
1099 0.00145295
1100 0.00282718
1101 0.00389473
1102 0.00313272
1103 0.00430545
1104 0.00229785
1105 0.00340497
1106 0.00324946
1107 0.00301719
1108 0.00339106
1109 0.00145295
1110 0.00378493
1111 0.00285544
1112 0.00340497
1113 0.00340497
1114 0.00285544
1115 0.00339106
1116 0.00301719
1117 0.00432119
1118 0.00145295
1119 0.00324946
1120 0.00340497
1121 0.00818096
1122 0.00818096
1123 0.00229785
1124 0.00430545
1125 0.00282718
1126 0.00145295
1127 0.00313272
1128 0.00389473
1129 0.0033054
1130 0.00229785
1131 0.00942856
1132 0.0206233
1133 0.0195924
1134 5.10368e-06
1135 5.10368e-06
1136 0.00226409
1137 0.00166021
1138 0.00226409
1139 0.00166021
1140 5.10368e-06
1141 5.10368e-06
1142 5.10368e-06
1143 5.10368e-06
1144 0.0020982
1145 0.0018915
1146 0.000344691
1147 1.80442e-06
1148 1.80442e-06
1149 1.80442e-06
1150 0.000278585
1151 0.0020982
1152 0.00244616
1153 0.0020982
1154 0.0018915
1155 1.80442e-06
1156 1.80442e-06
1157 0.000344691
1158 1.80442e-06
1159 0.000278585
1160 0.0020982
1161 0.00244616
1162 5.10368e-06
1163 5.10368e-06
1164 0.00384973
1165 0.00338282
1166 0.00150454
1167 0.00334833
1168 0.00250848
1169 0.00226409
1170 0.00272607
1171 0.00384973
1172 0.0039886
1173 0.00299899
1174 0.00323095
1175 0.00321982
1176 0.00166021
1177 0.0020982
1178 0.0018915
1179 0.000344691
1180 1.80442e-06
1181 1.80442e-06
1182 1.80442e-06
1183 0.000278585
1184 0.0020982
1185 0.00338282
1186 0.0039886
1187 0.00384973
1188 0.00338282
1189 0.00250848
1190 0.00226409
1191 0.00150454
1192 0.00334833
1193 0.00272607
1194 0.00384973
1195 0.0039886
1196 0.00299899
1197 0.00166021
1198 0.0020982
1199 0.0018915
1200 1.80442e-06
1201 1.80442e-06
1202 0.000344691
1203 1.80442e-06
1204 0.000278585
1205 0.0020982
1206 0.00323095
1207 0.00321982
1208 0.00338282
1209 0.0039886
1210 5.10368e-06
1211 5.10368e-06
1212 0.00293329
1213 0.00250848
1214 0.00293329
1215 0.00250848
1216 5.10368e-06
1217 5.10368e-06
1218 5.10368e-06
1219 5.10368e-06
1220 0.00226409
1221 0.00166021
1222 0.00226409
1223 0.00166021
1224 5.10368e-06
1225 5.10368e-06
1226 0.0195525
1227 0.0089917
1228 0.00251606
1229 0.0030332
1230 0.0023694
1231 0.00283399
1232 0.00334833
1233 0.00323095
1234 0.00418315
1235 0.00251606
1236 0.00819236
1237 0.00883653
1238 0.00883998
1239 0.00384973
1240 0.00338282
1241 0.00150454
1242 0.00334833
1243 0.00250848
1244 0.00226409
1245 0.00272607
1246 0.00384973
1247 0.00815572
1248 0.0089917
1249 0.0195525
1250 0.0089917
1251 0.00251606
1252 0.0030332
1253 0.00334833
1254 0.00323095
1255 0.0023694
1256 0.00283399
1257 0.00418315
1258 0.00251606
1259 0.00883998
1260 0.00384973
1261 0.00338282
1262 0.00250848
1263 0.00226409
1264 0.00150454
1265 0.00334833
1266 0.00272607
1267 0.00384973
1268 0.00819236
1269 0.00883653
1270 0.00815572
1271 0.0089917
1272 0.015576
1273 0.0195924
1274 1.44354e-05
1275 5.10368e-06
1276 5.10368e-06
1277 0.00244616
1278 0.0020982
1279 0.000278585
1280 1.80442e-06
1281 0.000344691
1282 1.80442e-06
1283 1.80442e-06
1284 0.0018915
1285 0.0020982
1286 0.00244616
1287 0.0020982
1288 0.000278585
1289 1.80442e-06
1290 1.80442e-06
1291 1.80442e-06
1292 0.000344691
1293 0.0018915
1294 0.0020982
1295 5.10368e-06
1296 5.10368e-06
1297 5.10368e-06
1298 5.53728e-05
1299 5.10368e-06
1300 0.00279089
1301 0.00244616
1302 5.10368e-06
1303 0.00299899
1304 5.10368e-06
1305 5.10368e-06
1306 0.00299899
1307 0.00279089
1308 5.10368e-06
1309 5.10368e-06
1310 0.00244616
1311 5.53728e-05
1312 5.10368e-06
1313 5.10368e-06
1314 5.53728e-05
1315 0.00244616
1316 5.10368e-06
1317 5.10368e-06
1318 0.00279089
1319 0.00299899
1320 5.10368e-06
1321 5.10368e-06
1322 0.00299899
1323 5.10368e-06
1324 0.00244616
1325 0.00279089
1326 5.10368e-06
1327 5.53728e-05
1328 5.10368e-06
1329 5.10368e-06
1330 5.10368e-06
1331 0.0020982
1332 0.0018915
1333 0.000344691
1334 1.80442e-06
1335 1.80442e-06
1336 1.80442e-06
1337 0.000278585
1338 0.0020982
1339 0.00244616
1340 0.0020982
1341 0.0018915
1342 1.80442e-06
1343 1.80442e-06
1344 0.000344691
1345 1.80442e-06
1346 0.000278585
1347 0.0020982
1348 0.00244616
1349 5.10368e-06
1350 5.10368e-06
1351 1.44354e-05
1352 5.10368e-06
1353 5.10368e-06
1354 0.00166021
1355 0.00226409
1356 0.00166021
1357 0.00226409
1358 5.10368e-06
1359 5.10368e-06
1360 5.10368e-06
1361 5.10368e-06
1362 0.00250848
1363 0.00293329
1364 0.00250848
1365 0.00293329
1366 5.10368e-06
1367 5.10368e-06
1368 0.0039886
1369 0.00338282
1370 0.00321982
1371 0.00323095
1372 0.0020982
1373 0.000278585
1374 1.80442e-06
1375 0.000344691
1376 1.80442e-06
1377 1.80442e-06
1378 0.0018915
1379 0.0020982
1380 0.00166021
1381 0.00299899
1382 0.0039886
1383 0.00384973
1384 0.00272607
1385 0.00334833
1386 0.00150454
1387 0.00226409
1388 0.00250848
1389 0.00338282
1390 0.00384973
1391 0.0039886
1392 0.00338282
1393 0.0020982
1394 0.000278585
1395 1.80442e-06
1396 1.80442e-06
1397 1.80442e-06
1398 0.000344691
1399 0.0018915
1400 0.0020982
1401 0.00166021
1402 0.00321982
1403 0.00323095
1404 0.00299899
1405 0.0039886
1406 0.00384973
1407 0.00272607
1408 0.00226409
1409 0.00250848
1410 0.00334833
1411 0.00150454
1412 0.00338282
1413 0.00384973
1414 5.10368e-06
1415 5.10368e-06
1416 0.00244616
1417 0.0020982
1418 0.000278585
1419 1.80442e-06
1420 0.000344691
1421 1.80442e-06
1422 1.80442e-06
1423 0.0018915
1424 0.0020982
1425 0.00244616
1426 0.0020982
1427 0.000278585
1428 1.80442e-06
1429 1.80442e-06
1430 1.80442e-06
1431 0.000344691
1432 0.0018915
1433 0.0020982
1434 5.10368e-06
1435 5.10368e-06
1436 5.10368e-06
1437 5.10368e-06
1438 0.00166021
1439 0.00226409
1440 0.00166021
1441 0.00226409
1442 5.10368e-06
1443 5.10368e-06
1444 0.00641437
1445 0.00300023
1446 0.00353173
1447 0.00339106
1448 0.00339106
1449 0.00279089
1450 0.00279089
1451 0.00353173
1452 0.00300023
1453 0.00566997
1454 0.00340497
1455 0.00386083
1456 0.00145295
1457 0.00432119
1458 0.00301719
1459 0.00339106
1460 0.00285544
1461 0.00340497
1462 0.0039886
1463 0.00299899
1464 0.00323095
1465 0.00321982
1466 0.00166021
1467 0.0020982
1468 0.0018915
1469 0.000344691
1470 1.80442e-06
1471 1.80442e-06
1472 1.80442e-06
1473 0.000278585
1474 0.0020982
1475 0.00338282
1476 0.0039886
1477 5.10368e-06
1478 5.53728e-05
1479 5.10368e-06
1480 0.00279089
1481 0.00244616
1482 5.10368e-06
1483 0.00299899
1484 5.10368e-06
1485 0.00251606
1486 0.0030332
1487 0.0023694
1488 0.00283399
1489 0.00334833
1490 0.00323095
1491 0.00418315
1492 0.00251606
1493 0.00641437
1494 0.00641437
1495 0.00251606
1496 0.00418315
1497 0.00283399
1498 0.0023694
1499 0.00323095
1500 0.00334833
1501 0.0030332
1502 0.00251606
1503 0.00340497
1504 0.00285544
1505 0.00432119
1506 0.00145295
1507 0.00339106
1508 0.00301719
1509 0.00386083
1510 0.00340497
1511 0.00566997
1512 5.10368e-06
1513 0.00299899
1514 0.00279089
1515 5.10368e-06
1516 5.10368e-06
1517 0.00244616
1518 5.53728e-05
1519 5.10368e-06
1520 0.0039886
1521 0.00338282
1522 0.00321982
1523 0.00323095
1524 0.0020982
1525 0.000278585
1526 1.80442e-06
1527 0.000344691
1528 1.80442e-06
1529 1.80442e-06
1530 0.0018915
1531 0.0020982
1532 0.00166021
1533 0.00299899
1534 0.0039886
1535 0.00300023
1536 0.00353173
1537 0.00339106
1538 0.00339106
1539 0.00279089
1540 0.00279089
1541 0.00353173
1542 0.00300023
1543 0.00641437
1544 0.00641437
1545 0.00300023
1546 0.00353173
1547 0.00279089
1548 0.00279089
1549 0.00339106
1550 0.00339106
1551 0.00353173
1552 0.00300023
1553 0.0039886
1554 0.00299899
1555 0.00166021
1556 0.0020982
1557 0.0018915
1558 1.80442e-06
1559 1.80442e-06
1560 0.000344691
1561 1.80442e-06
1562 0.000278585
1563 0.0020982
1564 0.00323095
1565 0.00321982
1566 0.00338282
1567 0.0039886
1568 5.10368e-06
1569 5.53728e-05
1570 0.00244616
1571 5.10368e-06
1572 5.10368e-06
1573 0.00279089
1574 0.00299899
1575 5.10368e-06
1576 0.00566997
1577 0.00340497
1578 0.00324946
1579 0.00301719
1580 0.00339106
1581 0.00145295
1582 0.00378493
1583 0.00285544
1584 0.00340497
1585 0.00251606
1586 0.0030332
1587 0.00334833
1588 0.00323095
1589 0.0023694
1590 0.00283399
1591 0.00418315
1592 0.00251606
1593 0.00641437
1594 0.00641437
1595 0.00251606
1596 0.00418315
1597 0.00323095
1598 0.00334833
1599 0.00283399
1600 0.0023694
1601 0.0030332
1602 0.00251606
1603 5.10368e-06
1604 0.00299899
1605 5.10368e-06
1606 0.00244616
1607 0.00279089
1608 5.10368e-06
1609 5.53728e-05
1610 5.10368e-06
1611 0.0039886
1612 0.00338282
1613 0.0020982
1614 0.000278585
1615 1.80442e-06
1616 1.80442e-06
1617 1.80442e-06
1618 0.000344691
1619 0.0018915
1620 0.0020982
1621 0.00166021
1622 0.00321982
1623 0.00323095
1624 0.00299899
1625 0.0039886
1626 0.00340497
1627 0.00285544
1628 0.00339106
1629 0.00301719
1630 0.00432119
1631 0.00145295
1632 0.00324946
1633 0.00340497
1634 0.00566997
1635 0.00300023
1636 0.00353173
1637 0.00279089
1638 0.00279089
1639 0.00339106
1640 0.00339106
1641 0.00353173
1642 0.00300023
1643 0.00641437
1644 5.10368e-06
1645 5.10368e-06
1646 0.00226409
1647 0.00166021
1648 0.00226409
1649 0.00166021
1650 5.10368e-06
1651 5.10368e-06
1652 5.10368e-06
1653 5.10368e-06
1654 0.0020982
1655 0.0018915
1656 0.000344691
1657 1.80442e-06
1658 1.80442e-06
1659 1.80442e-06
1660 0.000278585
1661 0.0020982
1662 0.00244616
1663 0.0020982
1664 0.0018915
1665 1.80442e-06
1666 1.80442e-06
1667 0.000344691
1668 1.80442e-06
1669 0.000278585
1670 0.0020982
1671 0.00244616
1672 5.10368e-06
1673 5.10368e-06
1674 0.00384973
1675 0.00338282
1676 0.00150454
1677 0.00334833
1678 0.00250848
1679 0.00226409
1680 0.00272607
1681 0.00384973
1682 0.0039886
1683 0.00299899
1684 0.00323095
1685 0.00321982
1686 0.00166021
1687 0.0020982
1688 0.0018915
1689 0.000344691
1690 1.80442e-06
1691 1.80442e-06
1692 1.80442e-06
1693 0.000278585
1694 0.0020982
1695 0.00338282
1696 0.0039886
1697 0.00384973
1698 0.00338282
1699 0.00250848
1700 0.00226409
1701 0.00150454
1702 0.00334833
1703 0.00272607
1704 0.00384973
1705 0.0039886
1706 0.00299899
1707 0.00166021
1708 0.0020982
1709 0.0018915
1710 1.80442e-06
1711 1.80442e-06
1712 0.000344691
1713 1.80442e-06
1714 0.000278585
1715 0.0020982
1716 0.00323095
1717 0.00321982
1718 0.00338282
1719 0.0039886
1720 5.10368e-06
1721 5.10368e-06
1722 0.00293329
1723 0.00250848
1724 0.00293329
1725 0.00250848
1726 5.10368e-06
1727 5.10368e-06
1728 5.10368e-06
1729 5.10368e-06
1730 0.00226409
1731 0.00166021
1732 0.00226409
1733 0.00166021
1734 5.10368e-06
1735 5.10368e-06
1736 1.44354e-05
1737 5.10368e-06
1738 5.10368e-06
1739 0.00244616
1740 0.0020982
1741 0.000278585
1742 1.80442e-06
1743 0.000344691
1744 1.80442e-06
1745 1.80442e-06
1746 0.0018915
1747 0.0020982
1748 0.00244616
1749 0.0020982
1750 0.000278585
1751 1.80442e-06
1752 1.80442e-06
1753 1.80442e-06
1754 0.000344691
1755 0.0018915
1756 0.0020982
1757 5.10368e-06
1758 5.10368e-06
1759 5.10368e-06
1760 5.53728e-05
1761 5.10368e-06
1762 0.00279089
1763 0.00244616
1764 5.10368e-06
1765 0.00299899
1766 5.10368e-06
1767 5.10368e-06
1768 0.00299899
1769 0.00279089
1770 5.10368e-06
1771 5.10368e-06
1772 0.00244616
1773 5.53728e-05
1774 5.10368e-06
1775 5.10368e-06
1776 5.53728e-05
1777 0.00244616
1778 5.10368e-06
1779 5.10368e-06
1780 0.00279089
1781 0.00299899
1782 5.10368e-06
1783 5.10368e-06
1784 0.00299899
1785 5.10368e-06
1786 0.00244616
1787 0.00279089
1788 5.10368e-06
1789 5.53728e-05
1790 5.10368e-06
1791 5.10368e-06
1792 5.10368e-06
1793 0.0020982
1794 0.0018915
1795 0.000344691
1796 1.80442e-06
1797 1.80442e-06
1798 1.80442e-06
1799 0.000278585
1800 0.0020982
1801 0.00244616
1802 0.0020982
1803 0.0018915
1804 1.80442e-06
1805 1.80442e-06
1806 0.000344691
1807 1.80442e-06
1808 0.000278585
1809 0.0020982
1810 0.00244616
1811 5.10368e-06
1812 5.10368e-06
1813 1.44354e-05
