0 1 1 1 
1 1 1 1 
2 1 1 1 
3 1 1 1 
4 1 1 1 
5 1 1 1 
6 1 1 1 
7 1 1 1 
8 1 1 1 
9 1 1 1 
10 2 2 2 
11 8 7 6 
12 2 2 2 
13 8 6 7 
14 1 1 1 
15 1 1 1 
16 1 1 1 
17 1 1 1 
18 1 1 1 
19 5 7 4 
20 2 2 2 
21 1 1 1 
22 4 6 5 
23 1 1 1 
24 1 1 1 
25 5 5 6 
26 5 4 7 
27 1 1 1 
28 1 1 1 
29 2 2 2 
30 1 1 1 
31 1 1 1 
32 1 1 1 
33 1 1 1 
34 2 2 2 
35 1 1 1 
36 1 1 1 
37 5 4 7 
38 4 5 6 
39 1 1 1 
40 1 1 1 
41 5 6 5 
42 1 1 1 
43 2 2 2 
44 5 7 4 
45 1 1 1 
46 1 1 1 
47 1 1 1 
48 1 1 1 
49 1 1 1 
50 8 6 7 
51 2 2 2 
52 8 7 6 
53 2 2 2 
54 1 1 1 
55 1 1 1 
56 1 1 1 
57 1 1 1 
58 1 1 1 
59 1 1 1 
60 1 1 1 
61 1 1 1 
62 1 1 1 
63 1 1 1 
64 1 1 1 
65 1 1 1 
66 3 6 6 
67 3 6 6 
68 3 6 6 
69 3 6 6 
70 1 1 1 
71 1 1 1 
72 1 1 1 
73 1 1 1 
74 2 6 6 
75 2 6 6 
76 2 6 6 
77 2 6 6 
78 1 1 1 
79 1 1 1 
80 8 8 7 
81 4 7 6 
82 4 4 3 
83 7 8 3 
84 8 7 6 
85 3 6 6 
86 5 5 6 
87 8 8 7 
88 3 7 6 
89 2 6 6 
90 3 5 3 
91 2 4 3 
92 3 6 6 
93 2 6 6 
94 4 7 6 
95 3 7 6 
96 8 7 8 
97 4 6 7 
98 8 6 7 
99 3 6 6 
100 4 3 4 
101 7 3 8 
102 5 6 5 
103 8 7 8 
104 3 6 7 
105 2 6 6 
106 3 6 6 
107 2 6 6 
108 3 3 5 
109 2 3 4 
110 4 6 7 
111 3 6 7 
112 1 1 1 
113 1 1 1 
114 2 2 2 
115 8 7 6 
116 2 2 2 
117 8 6 7 
118 1 1 1 
119 1 1 1 
120 1 1 1 
121 1 1 1 
122 3 6 6 
123 3 6 6 
124 3 6 6 
125 3 6 6 
126 1 1 1 
127 1 1 1 
128 1 1 1 
129 5 3 4 
130 1 1 1 
131 4 3 4 
132 4 3 4 
133 1 1 1 
134 4 2 4 
135 1 1 1 
136 8 8 8 
137 5 4 3 
138 8 4 7 
139 8 7 4 
140 5 7 4 
141 5 4 7 
142 5 3 4 
143 8 8 8 
144 1 1 1 
145 4 2 4 
146 1 1 1 
147 4 2 4 
148 4 2 4 
149 1 1 1 
150 4 2 4 
151 1 1 1 
152 8 3 7 
153 5 3 3 
154 7 2 7 
155 4 2 3 
156 4 3 4 
157 8 4 7 
158 4 2 4 
159 8 3 7 
160 8 7 8 
161 4 6 5 
162 7 3 8 
163 4 3 4 
164 3 6 6 
165 8 6 7 
166 4 6 7 
167 8 7 8 
168 1 1 1 
169 1 1 1 
170 1 1 1 
171 5 7 4 
172 2 2 2 
173 1 1 1 
174 4 6 5 
175 1 1 1 
176 7 3 8 
177 4 2 4 
178 7 2 7 
179 4 2 4 
180 3 3 5 
181 7 3 8 
182 3 2 4 
183 7 3 8 
184 1 1 1 
185 5 3 4 
186 1 1 1 
187 4 3 4 
188 4 3 4 
189 1 1 1 
190 4 2 4 
191 1 1 1 
192 1 1 1 
193 4 4 2 
194 4 4 3 
195 1 1 1 
196 1 1 1 
197 4 4 3 
198 5 4 3 
199 1 1 1 
200 7 8 3 
201 3 4 2 
202 4 4 2 
203 7 7 2 
204 7 8 3 
205 3 5 3 
206 4 4 2 
207 7 8 3 
208 8 7 3 
209 4 4 2 
210 4 3 2 
211 7 7 2 
212 8 7 4 
213 4 4 3 
214 5 3 3 
215 8 7 3 
216 1 1 1 
217 4 4 2 
218 4 4 2 
219 1 1 1 
220 1 1 1 
221 4 4 2 
222 4 4 2 
223 1 1 1 
224 1 1 1 
225 5 5 6 
226 5 4 7 
227 1 1 1 
228 1 1 1 
229 2 2 2 
230 1 1 1 
231 1 1 1 
232 8 8 7 
233 4 7 6 
234 4 4 3 
235 7 8 3 
236 8 7 6 
237 3 6 6 
238 5 5 6 
239 8 8 7 
240 8 8 8 
241 5 4 3 
242 8 4 7 
243 8 7 4 
244 5 7 4 
245 5 4 7 
246 5 3 4 
247 8 8 8 
248 1 1 1 
249 4 4 2 
250 4 4 3 
251 1 1 1 
252 1 1 1 
253 4 4 3 
254 5 4 3 
255 1 1 1 
256 1 1 1 
257 5 4 3 
258 4 4 3 
259 1 1 1 
260 1 1 1 
261 4 4 3 
262 4 4 2 
263 1 1 1 
264 8 8 8 
265 5 3 4 
266 5 4 7 
267 5 7 4 
268 8 7 4 
269 8 4 7 
270 5 4 3 
271 8 8 8 
272 8 8 7 
273 4 5 6 
274 3 6 6 
275 8 7 6 
276 7 8 3 
277 4 4 3 
278 4 7 6 
279 8 8 7 
280 1 1 1 
281 1 1 1 
282 2 2 2 
283 1 1 1 
284 1 1 1 
285 5 4 7 
286 4 5 6 
287 1 1 1 
288 1 1 1 
289 4 4 2 
290 4 4 2 
291 1 1 1 
292 1 1 1 
293 4 4 2 
294 4 4 2 
295 1 1 1 
296 8 7 3 
297 5 3 3 
298 4 4 3 
299 8 7 4 
300 7 7 2 
301 4 3 2 
302 4 4 2 
303 8 7 3 
304 7 8 3 
305 4 4 2 
306 3 5 3 
307 7 8 3 
308 7 7 2 
309 4 4 2 
310 3 4 2 
311 7 8 3 
312 1 1 1 
313 5 4 3 
314 4 4 3 
315 1 1 1 
316 1 1 1 
317 4 4 3 
318 4 4 2 
319 1 1 1 
320 1 1 1 
321 4 2 4 
322 1 1 1 
323 4 3 4 
324 4 3 4 
325 1 1 1 
326 5 3 4 
327 1 1 1 
328 7 3 8 
329 3 2 4 
330 7 3 8 
331 3 3 5 
332 4 2 4 
333 7 2 7 
334 4 2 4 
335 7 3 8 
336 1 1 1 
337 5 6 5 
338 1 1 1 
339 2 2 2 
340 5 7 4 
341 1 1 1 
342 1 1 1 
343 1 1 1 
344 8 7 8 
345 4 6 7 
346 8 6 7 
347 3 6 6 
348 4 3 4 
349 7 3 8 
350 5 6 5 
351 8 7 8 
352 8 3 7 
353 4 2 4 
354 8 4 7 
355 4 3 4 
356 4 2 3 
357 7 2 7 
358 5 3 3 
359 8 3 7 
360 1 1 1 
361 4 2 4 
362 1 1 1 
363 4 2 4 
364 4 2 4 
365 1 1 1 
366 4 2 4 
367 1 1 1 
368 8 8 8 
369 5 3 4 
370 5 4 7 
371 5 7 4 
372 8 7 4 
373 8 4 7 
374 5 4 3 
375 8 8 8 
376 1 1 1 
377 4 2 4 
378 1 1 1 
379 4 3 4 
380 4 3 4 
381 1 1 1 
382 5 3 4 
383 1 1 1 
384 1 1 1 
385 1 1 1 
386 3 6 6 
387 3 6 6 
388 3 6 6 
389 3 6 6 
390 1 1 1 
391 1 1 1 
392 1 1 1 
393 1 1 1 
394 8 6 7 
395 2 2 2 
396 8 7 6 
397 2 2 2 
398 1 1 1 
399 1 1 1 
400 3 6 7 
401 4 6 7 
402 2 3 4 
403 3 3 5 
404 2 6 6 
405 3 6 6 
406 2 6 6 
407 3 6 7 
408 8 7 8 
409 4 6 5 
410 7 3 8 
411 4 3 4 
412 3 6 6 
413 8 6 7 
414 4 6 7 
415 8 7 8 
416 3 7 6 
417 4 7 6 
418 2 6 6 
419 3 6 6 
420 2 4 3 
421 3 5 3 
422 2 6 6 
423 3 7 6 
424 8 8 7 
425 4 5 6 
426 3 6 6 
427 8 7 6 
428 7 8 3 
429 4 4 3 
430 4 7 6 
431 8 8 7 
432 1 1 1 
433 1 1 1 
434 2 6 6 
435 2 6 6 
436 2 6 6 
437 2 6 6 
438 1 1 1 
439 1 1 1 
440 1 1 1 
441 1 1 1 
442 3 6 6 
443 3 6 6 
444 3 6 6 
445 3 6 6 
446 1 1 1 
447 1 1 1 
448 1 1 1 
449 1 1 1 
450 1 1 1 
451 1 1 1 
452 1 1 1 
453 1 1 1 
454 1 1 1 
455 1 1 1 
456 1 1 1 
457 1 1 1 
458 2 2 2 
459 8 7 6 
460 2 2 2 
461 8 6 7 
462 1 1 1 
463 1 1 1 
464 1 1 1 
465 1 1 1 
466 1 1 1 
467 5 7 4 
468 2 2 2 
469 1 1 1 
470 4 6 5 
471 1 1 1 
472 1 1 1 
473 5 5 6 
474 5 4 7 
475 1 1 1 
476 1 1 1 
477 2 2 2 
478 1 1 1 
479 1 1 1 
480 1 1 1 
481 1 1 1 
482 2 2 2 
483 1 1 1 
484 1 1 1 
485 5 4 7 
486 4 5 6 
487 1 1 1 
488 1 1 1 
489 5 6 5 
490 1 1 1 
491 2 2 2 
492 5 7 4 
493 1 1 1 
494 1 1 1 
495 1 1 1 
496 1 1 1 
497 1 1 1 
498 8 6 7 
499 2 2 2 
500 8 7 6 
501 2 2 2 
502 1 1 1 
503 1 1 1 
504 1 1 1 
505 1 1 1 
506 1 1 1 
507 1 1 1 
508 1 1 1 
509 1 1 1 
510 1 1 1 
511 1 1 1 
512 1 1 1 
513 1 1 1 
514 2 6 6 
515 1 6 6 
516 2 6 6 
517 1 6 6 
518 1 1 1 
519 1 1 1 
520 1 1 1 
521 1 1 1 
522 1 6 6 
523 1 6 6 
524 1 6 6 
525 1 6 6 
526 1 1 1 
527 1 1 1 
528 2 6 6 
529 2 6 6 
530 2 4 3 
531 2 3 3 
532 2 6 6 
533 2 6 6 
534 2 6 6 
535 2 6 6 
536 1 6 6 
537 1 6 6 
538 1 3 3 
539 1 3 3 
540 1 6 6 
541 1 6 6 
542 2 6 6 
543 1 6 6 
544 2 6 6 
545 2 6 6 
546 2 6 6 
547 2 6 6 
548 2 3 4 
549 2 3 3 
550 2 6 6 
551 2 6 6 
552 1 6 6 
553 1 6 6 
554 1 6 6 
555 1 6 6 
556 1 3 3 
557 1 3 3 
558 2 6 6 
559 1 6 6 
560 1 1 1 
561 1 1 1 
562 2 6 6 
563 2 6 6 
564 2 6 6 
565 2 6 6 
566 1 1 1 
567 1 1 1 
568 1 1 1 
569 1 1 1 
570 2 6 6 
571 1 6 6 
572 2 6 6 
573 1 6 6 
574 1 1 1 
575 1 1 1 
576 1 1 1 
577 1 1 1 
578 1 6 6 
579 1 6 6 
580 1 6 6 
581 1 6 6 
582 1 1 1 
583 1 1 1 
584 1 1 1 
585 1 1 1 
586 1 6 6 
587 1 6 6 
588 1 6 6 
589 1 6 6 
590 1 1 1 
591 1 1 1 
592 1 6 6 
593 1 6 6 
594 1 3 3 
595 1 3 3 
596 1 6 6 
597 1 6 6 
598 1 6 6 
599 1 6 6 
600 1 6 6 
601 1 6 6 
602 1 3 3 
603 1 3 3 
604 1 6 6 
605 1 6 6 
606 1 6 6 
607 1 6 6 
608 1 6 6 
609 1 6 6 
610 1 6 6 
611 1 6 6 
612 1 3 3 
613 1 3 3 
614 1 6 6 
615 1 6 6 
616 1 6 6 
617 1 6 6 
618 1 6 6 
619 1 6 6 
620 1 3 3 
621 1 3 3 
622 1 6 6 
623 1 6 6 
624 1 1 1 
625 1 1 1 
626 1 6 6 
627 1 6 6 
628 1 6 6 
629 1 6 6 
630 1 1 1 
631 1 1 1 
632 1 1 1 
633 1 1 1 
634 1 6 6 
635 1 6 6 
636 1 6 6 
637 1 6 6 
638 1 1 1 
639 1 1 1 
640 2 3 2 
641 2 3 2 
642 3 3 2 
643 2 3 2 
644 2 4 3 
645 2 4 3 
646 3 4 2 
647 2 3 2 
648 2 3 2 
649 1 2 2 
650 2 3 2 
651 2 2 2 
652 2 3 3 
653 1 3 3 
654 2 3 2 
655 2 3 2 
656 7 7 2 
657 3 3 1 
658 4 4 2 
659 7 7 1 
660 7 7 2 
661 3 3 2 
662 4 4 2 
663 7 7 2 
664 2 2 2 
665 2 2 1 
666 3 3 1 
667 2 2 1 
668 2 3 2 
669 2 3 2 
670 3 3 1 
671 2 2 2 
672 3 7 6 
673 2 6 6 
674 3 5 3 
675 2 4 3 
676 3 6 6 
677 2 6 6 
678 4 7 6 
679 3 7 6 
680 2 6 6 
681 2 6 6 
682 2 4 3 
683 2 3 3 
684 2 6 6 
685 2 6 6 
686 2 6 6 
687 2 6 6 
688 7 8 3 
689 3 4 2 
690 4 4 2 
691 7 7 2 
692 7 8 3 
693 3 5 3 
694 4 4 2 
695 7 8 3 
696 2 3 2 
697 2 3 2 
698 3 3 2 
699 2 3 2 
700 2 4 3 
701 2 4 3 
702 3 4 2 
703 2 3 2 
704 1 2 2 
705 1 2 2 
706 1 2 2 
707 1 2 2 
708 1 3 3 
709 1 3 3 
710 1 2 2 
711 1 2 2 
712 1 2 2 
713 1 2 2 
714 1 2 2 
715 1 2 2 
716 1 3 3 
717 1 3 3 
718 1 2 2 
719 1 2 2 
720 2 2 1 
721 1 2 2 
722 2 2 1 
723 2 2 1 
724 2 2 2 
725 1 2 2 
726 2 2 1 
727 2 2 1 
728 1 2 1 
729 1 2 1 
730 1 2 1 
731 1 1 1 
732 1 2 2 
733 1 2 2 
734 1 2 2 
735 1 2 1 
736 1 6 6 
737 1 6 6 
738 1 3 3 
739 1 3 3 
740 1 6 6 
741 1 6 6 
742 2 6 6 
743 1 6 6 
744 1 6 6 
745 1 6 6 
746 1 3 3 
747 1 3 3 
748 1 6 6 
749 1 6 6 
750 1 6 6 
751 1 6 6 
752 2 3 2 
753 1 2 2 
754 2 3 2 
755 2 2 2 
756 2 3 3 
757 1 3 3 
758 2 3 2 
759 2 3 2 
760 1 2 2 
761 1 2 2 
762 1 2 2 
763 1 2 2 
764 1 3 3 
765 1 3 3 
766 1 2 2 
767 1 2 2 
768 2 2 3 
769 2 2 3 
770 2 3 4 
771 2 3 4 
772 3 2 3 
773 2 2 3 
774 3 2 4 
775 2 2 3 
776 2 2 3 
777 1 2 2 
778 2 3 3 
779 1 3 3 
780 2 2 3 
781 2 2 2 
782 2 2 3 
783 2 2 3 
784 3 6 7 
785 2 6 6 
786 3 6 6 
787 2 6 6 
788 3 3 5 
789 2 3 4 
790 4 6 7 
791 3 6 7 
792 2 6 6 
793 2 6 6 
794 2 6 6 
795 2 6 6 
796 2 3 4 
797 2 3 3 
798 2 6 6 
799 2 6 6 
800 7 2 7 
801 3 1 3 
802 7 2 7 
803 3 2 3 
804 4 2 4 
805 7 1 7 
806 4 2 4 
807 7 2 7 
808 2 2 2 
809 2 1 2 
810 2 2 3 
811 2 2 3 
812 3 1 3 
813 2 1 2 
814 3 1 3 
815 2 2 2 
816 7 3 8 
817 3 2 4 
818 7 3 8 
819 3 3 5 
820 4 2 4 
821 7 2 7 
822 4 2 4 
823 7 3 8 
824 2 2 3 
825 2 2 3 
826 2 3 4 
827 2 3 4 
828 3 2 3 
829 2 2 3 
830 3 2 4 
831 2 2 3 
832 1 2 2 
833 1 2 2 
834 1 3 3 
835 1 3 3 
836 1 2 2 
837 1 2 2 
838 1 2 2 
839 1 2 2 
840 1 2 2 
841 1 2 2 
842 1 3 3 
843 1 3 3 
844 1 2 2 
845 1 2 2 
846 1 2 2 
847 1 2 2 
848 1 6 6 
849 1 6 6 
850 1 6 6 
851 1 6 6 
852 1 3 3 
853 1 3 3 
854 2 6 6 
855 1 6 6 
856 1 6 6 
857 1 6 6 
858 1 6 6 
859 1 6 6 
860 1 3 3 
861 1 3 3 
862 1 6 6 
863 1 6 6 
864 2 1 2 
865 1 2 2 
866 2 2 2 
867 1 2 2 
868 2 1 2 
869 2 1 2 
870 2 1 2 
871 2 1 2 
872 1 1 2 
873 1 1 2 
874 1 2 2 
875 1 2 2 
876 1 1 2 
877 1 1 1 
878 1 2 2 
879 1 1 2 
880 2 2 3 
881 1 2 2 
882 2 3 3 
883 1 3 3 
884 2 2 3 
885 2 2 2 
886 2 2 3 
887 2 2 3 
888 1 2 2 
889 1 2 2 
890 1 3 3 
891 1 3 3 
892 1 2 2 
893 1 2 2 
894 1 2 2 
895 1 2 2 
896 1 1 1 
897 1 1 1 
898 3 6 6 
899 3 6 6 
900 3 6 6 
901 3 6 6 
902 1 1 1 
903 1 1 1 
904 1 1 1 
905 1 1 1 
906 2 6 6 
907 2 6 6 
908 2 6 6 
909 2 6 6 
910 1 1 1 
911 1 1 1 
912 8 8 7 
913 4 7 6 
914 4 4 3 
915 7 8 3 
916 8 7 6 
917 3 6 6 
918 5 5 6 
919 8 8 7 
920 3 7 6 
921 2 6 6 
922 3 5 3 
923 2 4 3 
924 3 6 6 
925 2 6 6 
926 4 7 6 
927 3 7 6 
928 8 7 8 
929 4 6 7 
930 8 6 7 
931 3 6 6 
932 4 3 4 
933 7 3 8 
934 4 6 5 
935 8 7 8 
936 3 6 7 
937 2 6 6 
938 3 6 6 
939 2 6 6 
940 3 3 5 
941 2 3 4 
942 4 6 7 
943 3 6 7 
944 1 1 1 
945 1 1 1 
946 2 2 2 
947 8 7 6 
948 2 2 2 
949 8 6 7 
950 1 1 1 
951 1 1 1 
952 1 1 1 
953 1 1 1 
954 3 6 6 
955 3 6 6 
956 3 6 6 
957 3 6 6 
958 1 1 1 
959 1 1 1 
960 1 1 1 
961 1 1 1 
962 2 6 6 
963 1 6 6 
964 2 6 6 
965 1 6 6 
966 1 1 1 
967 1 1 1 
968 1 1 1 
969 1 1 1 
970 1 6 6 
971 1 6 6 
972 1 6 6 
973 1 6 6 
974 1 1 1 
975 1 1 1 
976 2 6 6 
977 2 6 6 
978 2 4 3 
979 2 3 3 
980 2 6 6 
981 2 6 6 
982 2 6 6 
983 2 6 6 
984 1 6 6 
985 1 6 6 
986 1 3 3 
987 1 3 3 
988 1 6 6 
989 1 6 6 
990 2 6 6 
991 1 6 6 
992 2 6 6 
993 2 6 6 
994 2 6 6 
995 2 6 6 
996 2 3 4 
997 2 3 3 
998 2 6 6 
999 2 6 6 
1000 1 6 6 
1001 1 6 6 
1002 1 6 6 
1003 1 6 6 
1004 1 3 3 
1005 1 3 3 
1006 2 6 6 
1007 1 6 6 
1008 1 1 1 
1009 1 1 1 
1010 2 6 6 
1011 2 6 6 
1012 2 6 6 
1013 2 6 6 
1014 1 1 1 
1015 1 1 1 
1016 1 1 1 
1017 1 1 1 
1018 2 6 6 
1019 1 6 6 
1020 2 6 6 
1021 1 6 6 
1022 1 1 1 
1023 1 1 1 
1024 1 1 1 
1025 4 2 4 
1026 1 1 1 
1027 4 1 4 
1028 4 2 4 
1029 1 1 1 
1030 4 1 4 
1031 1 1 1 
1032 7 2 7 
1033 4 2 3 
1034 7 2 7 
1035 3 2 3 
1036 4 2 4 
1037 7 2 7 
1038 4 2 4 
1039 7 2 7 
1040 1 1 1 
1041 4 1 4 
1042 1 1 1 
1043 4 1 4 
1044 4 1 4 
1045 1 1 1 
1046 4 1 4 
1047 1 1 1 
1048 7 1 7 
1049 3 1 3 
1050 7 1 7 
1051 3 1 3 
1052 4 1 4 
1053 7 2 7 
1054 4 1 4 
1055 7 1 7 
1056 7 2 7 
1057 4 2 4 
1058 7 1 7 
1059 4 2 4 
1060 3 2 3 
1061 7 2 7 
1062 3 1 3 
1063 7 2 7 
1064 1 1 1 
1065 4 2 4 
1066 1 1 1 
1067 4 2 4 
1068 4 2 4 
1069 1 1 1 
1070 4 2 4 
1071 1 1 1 
1072 7 1 7 
1073 4 1 4 
1074 7 1 7 
1075 4 1 4 
1076 3 1 3 
1077 7 1 7 
1078 3 1 3 
1079 7 1 7 
1080 1 1 1 
1081 4 2 4 
1082 1 1 1 
1083 4 1 4 
1084 4 2 4 
1085 1 1 1 
1086 4 1 4 
1087 1 1 1 
1088 3 2 2 
1089 4 3 2 
1090 3 2 2 
1091 3 2 2 
1092 4 2 3 
1093 4 3 2 
1094 4 2 3 
1095 3 2 2 
1096 7 7 2 
1097 4 4 2 
1098 3 3 2 
1099 7 7 2 
1100 7 7 2 
1101 4 4 2 
1102 4 3 2 
1103 7 7 2 
1104 3 2 2 
1105 3 2 2 
1106 3 1 2 
1107 2 2 2 
1108 3 2 3 
1109 3 2 2 
1110 3 1 3 
1111 3 2 2 
1112 3 2 2 
1113 3 3 1 
1114 2 2 2 
1115 3 2 1 
1116 3 2 2 
1117 3 3 2 
1118 3 2 2 
1119 3 2 2 
1120 8 3 7 
1121 5 3 3 
1122 7 2 7 
1123 4 2 3 
1124 4 3 4 
1125 8 4 7 
1126 4 2 4 
1127 8 3 7 
1128 8 7 3 
1129 4 4 2 
1130 4 3 2 
1131 7 7 2 
1132 8 7 4 
1133 4 4 3 
1134 5 3 3 
1135 8 7 3 
1136 7 2 7 
1137 4 2 3 
1138 7 2 7 
1139 3 2 3 
1140 4 2 4 
1141 7 2 7 
1142 4 2 4 
1143 7 2 7 
1144 3 2 2 
1145 4 3 2 
1146 3 2 2 
1147 3 2 2 
1148 4 2 3 
1149 4 3 2 
1150 4 2 3 
1151 3 2 2 
1152 1 1 1 
1153 4 1 4 
1154 1 1 1 
1155 4 1 4 
1156 4 1 4 
1157 1 1 1 
1158 4 1 4 
1159 1 1 1 
1160 7 1 7 
1161 3 1 3 
1162 7 1 7 
1163 3 1 3 
1164 4 1 4 
1165 7 1 7 
1166 4 1 4 
1167 7 1 7 
1168 1 1 1 
1169 4 1 4 
1170 1 1 1 
1171 4 1 4 
1172 4 1 4 
1173 1 1 1 
1174 4 1 4 
1175 1 1 1 
1176 7 1 7 
1177 3 1 3 
1178 7 1 7 
1179 3 1 3 
1180 4 1 4 
1181 7 1 7 
1182 4 1 4 
1183 7 1 7 
1184 7 1 7 
1185 4 1 4 
1186 7 1 7 
1187 4 1 4 
1188 3 1 3 
1189 7 1 7 
1190 3 1 3 
1191 7 1 7 
1192 1 1 1 
1193 4 1 4 
1194 1 1 1 
1195 4 1 4 
1196 4 1 4 
1197 1 1 1 
1198 4 1 4 
1199 1 1 1 
1200 7 1 7 
1201 4 1 4 
1202 7 1 7 
1203 4 1 4 
1204 3 1 3 
1205 7 1 7 
1206 3 1 3 
1207 7 1 7 
1208 1 1 1 
1209 4 1 4 
1210 1 1 1 
1211 4 1 4 
1212 4 1 4 
1213 1 1 1 
1214 4 1 4 
1215 1 1 1 
1216 2 1 2 
1217 2 1 2 
1218 2 1 2 
1219 2 1 2 
1220 3 1 3 
1221 3 1 2 
1222 3 1 3 
1223 2 1 2 
1224 2 2 2 
1225 2 2 1 
1226 2 1 2 
1227 2 2 1 
1228 2 2 2 
1229 2 2 2 
1230 2 1 2 
1231 2 2 2 
1232 2 1 2 
1233 2 1 2 
1234 2 1 2 
1235 2 1 2 
1236 3 1 3 
1237 2 1 2 
1238 3 1 3 
1239 2 1 2 
1240 2 1 2 
1241 2 1 1 
1242 2 1 2 
1243 2 1 1 
1244 2 1 2 
1245 2 1 2 
1246 2 1 2 
1247 2 1 2 
1248 7 1 7 
1249 3 1 3 
1250 7 1 7 
1251 3 1 3 
1252 4 1 4 
1253 7 2 7 
1254 4 1 4 
1255 7 1 7 
1256 3 2 2 
1257 3 2 2 
1258 3 1 2 
1259 2 2 2 
1260 3 2 3 
1261 3 2 2 
1262 3 1 3 
1263 3 2 2 
1264 7 1 7 
1265 3 1 3 
1266 7 1 7 
1267 3 1 3 
1268 4 1 4 
1269 7 1 7 
1270 4 1 4 
1271 7 1 7 
1272 2 1 2 
1273 2 1 2 
1274 2 1 2 
1275 2 1 2 
1276 3 1 3 
1277 3 1 2 
1278 3 1 3 
1279 2 1 2 
1280 2 2 3 
1281 3 2 4 
1282 2 2 3 
1283 3 2 3 
1284 2 3 4 
1285 2 3 4 
1286 2 2 3 
1287 2 2 3 
1288 7 3 8 
1289 4 2 4 
1290 7 2 7 
1291 4 2 4 
1292 3 3 5 
1293 7 3 8 
1294 3 2 4 
1295 7 3 8 
1296 2 2 2 
1297 3 1 3 
1298 2 1 2 
1299 3 1 3 
1300 2 2 3 
1301 2 2 3 
1302 2 1 2 
1303 2 2 2 
1304 7 2 7 
1305 4 2 4 
1306 7 1 7 
1307 4 2 4 
1308 3 2 3 
1309 7 2 7 
1310 3 1 3 
1311 7 2 7 
1312 2 6 6 
1313 2 6 6 
1314 2 3 3 
1315 2 3 4 
1316 2 6 6 
1317 2 6 6 
1318 2 6 6 
1319 2 6 6 
1320 3 6 7 
1321 4 6 7 
1322 2 3 4 
1323 3 3 5 
1324 2 6 6 
1325 3 6 6 
1326 2 6 6 
1327 3 6 7 
1328 2 2 3 
1329 2 2 3 
1330 2 2 2 
1331 2 2 3 
1332 1 3 3 
1333 2 3 3 
1334 1 2 2 
1335 2 2 3 
1336 2 2 3 
1337 3 2 4 
1338 2 2 3 
1339 3 2 3 
1340 2 3 4 
1341 2 3 4 
1342 2 2 3 
1343 2 2 3 
1344 1 1 1 
1345 5 3 4 
1346 1 1 1 
1347 4 3 4 
1348 4 3 4 
1349 1 1 1 
1350 4 2 4 
1351 1 1 1 
1352 8 8 8 
1353 5 4 3 
1354 8 4 7 
1355 8 7 4 
1356 5 7 4 
1357 5 4 7 
1358 5 3 4 
1359 8 8 8 
1360 1 1 1 
1361 4 2 4 
1362 1 1 1 
1363 4 2 4 
1364 4 2 4 
1365 1 1 1 
1366 4 2 4 
1367 1 1 1 
1368 8 3 7 
1369 5 3 3 
1370 7 2 7 
1371 4 2 3 
1372 4 3 4 
1373 8 4 7 
1374 4 2 4 
1375 8 3 7 
1376 8 7 8 
1377 4 6 5 
1378 7 3 8 
1379 4 3 4 
1380 3 6 6 
1381 8 6 7 
1382 4 6 7 
1383 8 7 8 
1384 1 1 1 
1385 1 1 1 
1386 1 1 1 
1387 5 7 4 
1388 2 2 2 
1389 1 1 1 
1390 4 6 5 
1391 1 1 1 
1392 7 3 8 
1393 4 2 4 
1394 7 2 7 
1395 4 2 4 
1396 3 3 5 
1397 7 3 8 
1398 3 2 4 
1399 7 3 8 
1400 1 1 1 
1401 5 3 4 
1402 1 1 1 
1403 4 3 4 
1404 4 3 4 
1405 1 1 1 
1406 4 2 4 
1407 1 1 1 
1408 2 1 2 
1409 3 1 3 
1410 2 1 2 
1411 3 1 3 
1412 2 1 2 
1413 2 1 2 
1414 2 1 2 
1415 2 1 2 
1416 7 1 7 
1417 4 1 4 
1418 7 1 7 
1419 4 1 4 
1420 3 1 3 
1421 7 1 7 
1422 3 1 3 
1423 7 1 7 
1424 2 1 2 
1425 3 1 3 
1426 2 1 2 
1427 3 1 3 
1428 2 1 2 
1429 2 1 2 
1430 2 1 2 
1431 2 1 2 
1432 7 1 7 
1433 4 1 4 
1434 7 1 7 
1435 4 1 4 
1436 3 1 3 
1437 7 1 7 
1438 3 1 3 
1439 7 1 7 
1440 2 1 2 
1441 2 1 2 
1442 2 1 2 
1443 2 1 2 
1444 1 2 2 
1445 2 2 2 
1446 1 2 2 
1447 2 1 2 
1448 2 2 2 
1449 3 1 3 
1450 2 1 2 
1451 3 1 3 
1452 2 2 3 
1453 2 2 3 
1454 2 1 2 
1455 2 2 2 
1456 2 1 2 
1457 2 1 2 
1458 2 1 2 
1459 2 1 2 
1460 1 1 2 
1461 2 1 2 
1462 1 1 1 
1463 2 1 2 
1464 2 1 2 
1465 3 1 3 
1466 2 1 2 
1467 3 1 3 
1468 2 1 2 
1469 2 1 2 
1470 2 1 2 
1471 2 1 2 
1472 1 1 1 
1473 4 2 4 
1474 1 1 1 
1475 4 1 4 
1476 4 2 4 
1477 1 1 1 
1478 4 1 4 
1479 1 1 1 
1480 7 2 7 
1481 4 2 3 
1482 7 2 7 
1483 3 2 3 
1484 4 2 4 
1485 7 2 7 
1486 4 2 4 
1487 7 2 7 
1488 1 1 1 
1489 4 1 4 
1490 1 1 1 
1491 4 1 4 
1492 4 1 4 
1493 1 1 1 
1494 4 1 4 
1495 1 1 1 
1496 7 1 7 
1497 3 1 3 
1498 7 1 7 
1499 3 1 3 
1500 4 1 4 
1501 7 2 7 
1502 4 1 4 
1503 7 1 7 
1504 7 2 7 
1505 4 2 4 
1506 7 1 7 
1507 4 2 4 
1508 3 2 3 
1509 7 2 7 
1510 3 1 3 
1511 7 2 7 
1512 1 1 1 
1513 4 2 4 
1514 1 1 1 
1515 4 2 4 
1516 4 2 4 
1517 1 1 1 
1518 4 2 4 
1519 1 1 1 
1520 7 1 7 
1521 4 1 4 
1522 7 1 7 
1523 4 1 4 
1524 3 1 3 
1525 7 1 7 
1526 3 1 3 
1527 7 1 7 
1528 1 1 1 
1529 4 2 4 
1530 1 1 1 
1531 4 1 4 
1532 4 2 4 
1533 1 1 1 
1534 4 1 4 
1535 1 1 1 
1536 1 1 1 
1537 4 4 1 
1538 4 4 1 
1539 1 1 1 
1540 1 1 1 
1541 4 4 2 
1542 4 4 2 
1543 1 1 1 
1544 7 7 1 
1545 3 3 1 
1546 4 4 1 
1547 7 7 1 
1548 7 7 1 
1549 3 3 1 
1550 4 4 1 
1551 7 7 1 
1552 7 7 1 
1553 4 4 1 
1554 3 3 1 
1555 7 7 1 
1556 7 7 2 
1557 4 4 1 
1558 3 3 1 
1559 7 7 1 
1560 1 1 1 
1561 4 4 1 
1562 4 4 1 
1563 1 1 1 
1564 1 1 1 
1565 4 4 1 
1566 4 4 1 
1567 1 1 1 
1568 1 1 1 
1569 4 4 2 
1570 4 4 2 
1571 1 1 1 
1572 1 1 1 
1573 4 4 2 
1574 4 4 2 
1575 1 1 1 
1576 7 7 2 
1577 3 3 1 
1578 4 4 2 
1579 7 7 1 
1580 7 7 2 
1581 3 3 2 
1582 4 4 2 
1583 7 7 2 
1584 7 7 2 
1585 4 4 2 
1586 3 3 2 
1587 7 7 2 
1588 7 7 2 
1589 4 4 2 
1590 4 3 2 
1591 7 7 2 
1592 1 1 1 
1593 4 4 1 
1594 4 4 1 
1595 1 1 1 
1596 1 1 1 
1597 4 4 2 
1598 4 4 2 
1599 1 1 1 
1600 2 2 1 
1601 2 2 1 
1602 3 3 1 
1603 2 2 1 
1604 2 2 1 
1605 2 2 1 
1606 3 3 1 
1607 2 2 1 
1608 2 2 1 
1609 1 1 1 
1610 2 2 1 
1611 2 2 1 
1612 2 2 1 
1613 1 2 1 
1614 2 2 1 
1615 2 2 1 
1616 7 7 1 
1617 3 3 1 
1618 4 4 1 
1619 7 7 1 
1620 7 7 1 
1621 3 3 1 
1622 4 4 1 
1623 7 7 1 
1624 2 2 1 
1625 2 2 1 
1626 3 3 1 
1627 2 2 1 
1628 2 2 1 
1629 2 2 1 
1630 3 3 1 
1631 2 2 1 
1632 2 2 2 
1633 2 2 1 
1634 3 3 1 
1635 2 2 1 
1636 2 3 2 
1637 2 3 2 
1638 3 3 1 
1639 2 2 2 
1640 2 2 1 
1641 1 2 2 
1642 2 2 1 
1643 2 2 1 
1644 2 2 2 
1645 1 2 2 
1646 2 2 1 
1647 2 2 1 
1648 7 7 1 
1649 3 3 1 
1650 4 4 1 
1651 7 7 1 
1652 7 7 1 
1653 3 3 1 
1654 4 4 1 
1655 7 7 1 
1656 2 2 1 
1657 2 2 1 
1658 3 3 1 
1659 2 2 1 
1660 2 2 1 
1661 2 2 1 
1662 3 3 1 
1663 2 2 1 
1664 2 2 1 
1665 3 3 1 
1666 2 2 1 
1667 2 2 1 
1668 3 2 1 
1669 3 3 1 
1670 2 2 1 
1671 2 2 1 
1672 7 7 1 
1673 4 4 1 
1674 3 3 1 
1675 7 7 1 
1676 7 7 1 
1677 4 4 1 
1678 3 3 1 
1679 7 7 1 
1680 2 2 1 
1681 2 2 1 
1682 2 1 1 
1683 2 2 1 
1684 2 2 1 
1685 2 2 1 
1686 2 1 1 
1687 2 2 1 
1688 2 2 1 
1689 3 3 1 
1690 2 2 1 
1691 2 2 1 
1692 2 2 1 
1693 3 3 1 
1694 2 2 1 
1695 2 2 1 
1696 3 2 2 
1697 3 3 1 
1698 2 2 2 
1699 3 2 1 
1700 3 2 2 
1701 3 3 2 
1702 3 2 2 
1703 3 2 2 
1704 7 7 1 
1705 4 4 1 
1706 3 3 1 
1707 7 7 1 
1708 7 7 2 
1709 4 4 1 
1710 3 3 1 
1711 7 7 1 
1712 2 2 2 
1713 2 2 1 
1714 2 1 2 
1715 2 2 1 
1716 2 2 2 
1717 2 2 2 
1718 2 1 2 
1719 2 2 2 
1720 2 2 1 
1721 3 3 1 
1722 2 2 1 
1723 2 2 1 
1724 3 2 1 
1725 3 3 1 
1726 2 2 1 
1727 2 2 1 
1728 1 1 1 
1729 4 4 1 
1730 4 4 1 
1731 1 1 1 
1732 1 1 1 
1733 4 4 1 
1734 4 4 1 
1735 1 1 1 
1736 7 7 1 
1737 3 3 1 
1738 4 4 1 
1739 7 7 1 
1740 7 7 1 
1741 3 3 1 
1742 4 4 1 
1743 7 7 1 
1744 7 7 1 
1745 4 4 1 
1746 3 3 1 
1747 7 7 1 
1748 7 7 1 
1749 4 4 1 
1750 3 3 1 
1751 7 7 1 
1752 1 1 1 
1753 4 4 1 
1754 4 4 1 
1755 1 1 1 
1756 1 1 1 
1757 4 4 1 
1758 4 4 1 
1759 1 1 1 
1760 1 1 1 
1761 4 4 1 
1762 4 4 1 
1763 1 1 1 
1764 1 1 1 
1765 4 4 1 
1766 4 4 1 
1767 1 1 1 
1768 7 7 1 
1769 3 3 1 
1770 4 4 1 
1771 7 7 1 
1772 7 7 1 
1773 3 3 1 
1774 4 4 1 
1775 7 7 1 
1776 7 7 1 
1777 4 4 1 
1778 3 3 1 
1779 7 7 1 
1780 7 7 1 
1781 4 4 1 
1782 3 3 1 
1783 7 7 1 
1784 1 1 1 
1785 4 4 1 
1786 4 4 1 
1787 1 1 1 
1788 1 1 1 
1789 4 4 1 
1790 4 4 1 
1791 1 1 1 
1792 1 1 1 
1793 4 4 2 
1794 4 4 3 
1795 1 1 1 
1796 1 1 1 
1797 4 4 3 
1798 5 4 3 
1799 1 1 1 
1800 7 8 3 
1801 3 4 2 
1802 4 4 2 
1803 7 7 2 
1804 7 8 3 
1805 3 5 3 
1806 4 4 2 
1807 7 8 3 
1808 8 7 3 
1809 4 4 2 
1810 4 3 2 
1811 7 7 2 
1812 8 7 4 
1813 4 4 3 
1814 5 3 3 
1815 8 7 3 
1816 1 1 1 
1817 4 4 2 
1818 4 4 2 
1819 1 1 1 
1820 1 1 1 
1821 4 4 2 
1822 4 4 2 
1823 1 1 1 
1824 1 1 1 
1825 5 5 6 
1826 5 4 7 
1827 1 1 1 
1828 1 1 1 
1829 2 2 2 
1830 1 1 1 
1831 1 1 1 
1832 8 8 7 
1833 4 7 6 
1834 4 4 3 
1835 7 8 3 
1836 8 7 6 
1837 3 6 6 
1838 5 5 6 
1839 8 8 7 
1840 8 8 8 
1841 5 4 3 
1842 8 4 7 
1843 8 7 4 
1844 5 7 4 
1845 5 4 7 
1846 5 3 4 
1847 8 8 8 
1848 1 1 1 
1849 4 4 2 
1850 4 4 3 
1851 1 1 1 
1852 1 1 1 
1853 4 4 3 
1854 5 4 3 
1855 1 1 1 
1856 2 3 2 
1857 2 3 2 
1858 3 3 2 
1859 2 3 2 
1860 2 4 3 
1861 2 4 3 
1862 3 4 2 
1863 2 3 2 
1864 2 3 2 
1865 1 2 2 
1866 2 3 2 
1867 2 2 2 
1868 2 3 3 
1869 1 3 3 
1870 2 3 2 
1871 2 3 2 
1872 7 7 2 
1873 3 3 1 
1874 4 4 2 
1875 7 7 1 
1876 7 7 2 
1877 3 3 2 
1878 4 4 2 
1879 7 7 2 
1880 2 2 2 
1881 2 2 1 
1882 3 3 1 
1883 2 2 1 
1884 2 3 2 
1885 2 3 2 
1886 3 3 1 
1887 2 2 2 
1888 3 7 6 
1889 2 6 6 
1890 3 5 3 
1891 2 4 3 
1892 3 6 6 
1893 2 6 6 
1894 4 7 6 
1895 3 7 6 
1896 2 6 6 
1897 2 6 6 
1898 2 4 3 
1899 2 3 3 
1900 2 6 6 
1901 2 6 6 
1902 2 6 6 
1903 2 6 6 
1904 7 8 3 
1905 3 4 2 
1906 4 4 2 
1907 7 7 2 
1908 7 8 3 
1909 3 5 3 
1910 4 4 2 
1911 7 8 3 
1912 2 3 2 
1913 2 3 2 
1914 3 3 2 
1915 2 3 2 
1916 2 4 3 
1917 2 4 3 
1918 3 4 2 
1919 2 3 2 
1920 3 2 2 
1921 4 3 2 
1922 3 2 2 
1923 3 2 2 
1924 4 2 3 
1925 4 3 2 
1926 4 2 3 
1927 3 2 2 
1928 7 7 2 
1929 4 4 2 
1930 3 3 2 
1931 7 7 2 
1932 7 7 2 
1933 4 4 2 
1934 4 3 2 
1935 7 7 2 
1936 3 2 2 
1937 3 2 2 
1938 3 1 2 
1939 2 2 2 
1940 3 2 3 
1941 3 2 2 
1942 3 1 3 
1943 3 2 2 
1944 3 2 2 
1945 3 3 1 
1946 2 2 2 
1947 3 2 1 
1948 3 2 2 
1949 3 3 2 
1950 3 2 2 
1951 3 2 2 
1952 8 3 7 
1953 5 3 3 
1954 7 2 7 
1955 4 2 3 
1956 4 3 4 
1957 8 4 7 
1958 4 2 4 
1959 8 3 7 
1960 8 7 3 
1961 4 4 2 
1962 4 3 2 
1963 7 7 2 
1964 8 7 4 
1965 4 4 3 
1966 5 3 3 
1967 8 7 3 
1968 7 2 7 
1969 4 2 3 
1970 7 2 7 
1971 3 2 3 
1972 4 2 4 
1973 7 2 7 
1974 4 2 4 
1975 7 2 7 
1976 3 2 2 
1977 4 3 2 
1978 3 2 2 
1979 3 2 2 
1980 4 2 3 
1981 4 3 2 
1982 4 2 3 
1983 3 2 2 
1984 1 1 1 
1985 4 4 1 
1986 4 4 1 
1987 1 1 1 
1988 1 1 1 
1989 4 4 2 
1990 4 4 2 
1991 1 1 1 
1992 7 7 1 
1993 3 3 1 
1994 4 4 1 
1995 7 7 1 
1996 7 7 1 
1997 3 3 1 
1998 4 4 1 
1999 7 7 1 
2000 7 7 1 
2001 4 4 1 
2002 3 3 1 
2003 7 7 1 
2004 7 7 2 
2005 4 4 1 
2006 3 3 1 
2007 7 7 1 
2008 1 1 1 
2009 4 4 1 
2010 4 4 1 
2011 1 1 1 
2012 1 1 1 
2013 4 4 1 
2014 4 4 1 
2015 1 1 1 
2016 1 1 1 
2017 4 4 2 
2018 4 4 2 
2019 1 1 1 
2020 1 1 1 
2021 4 4 2 
2022 4 4 2 
2023 1 1 1 
2024 7 7 2 
2025 3 3 1 
2026 4 4 2 
2027 7 7 1 
2028 7 7 2 
2029 3 3 2 
2030 4 4 2 
2031 7 7 2 
2032 7 7 2 
2033 4 4 2 
2034 3 3 2 
2035 7 7 2 
2036 7 7 2 
2037 4 4 2 
2038 4 3 2 
2039 7 7 2 
2040 1 1 1 
2041 4 4 1 
2042 4 4 1 
2043 1 1 1 
2044 1 1 1 
2045 4 4 2 
2046 4 4 2 
2047 1 1 1 
2048 1 1 1 
2049 4 4 2 
2050 4 4 2 
2051 1 1 1 
2052 1 1 1 
2053 4 4 1 
2054 4 4 1 
2055 1 1 1 
2056 7 7 2 
2057 4 3 2 
2058 4 4 2 
2059 7 7 2 
2060 7 7 2 
2061 3 3 2 
2062 4 4 2 
2063 7 7 2 
2064 7 7 2 
2065 4 4 2 
2066 3 3 2 
2067 7 7 2 
2068 7 7 1 
2069 4 4 2 
2070 3 3 1 
2071 7 7 2 
2072 1 1 1 
2073 4 4 2 
2074 4 4 2 
2075 1 1 1 
2076 1 1 1 
2077 4 4 2 
2078 4 4 2 
2079 1 1 1 
2080 1 1 1 
2081 4 4 1 
2082 4 4 1 
2083 1 1 1 
2084 1 1 1 
2085 4 4 1 
2086 4 4 1 
2087 1 1 1 
2088 7 7 1 
2089 3 3 1 
2090 4 4 1 
2091 7 7 2 
2092 7 7 1 
2093 3 3 1 
2094 4 4 1 
2095 7 7 1 
2096 7 7 1 
2097 4 4 1 
2098 3 3 1 
2099 7 7 1 
2100 7 7 1 
2101 4 4 1 
2102 3 3 1 
2103 7 7 1 
2104 1 1 1 
2105 4 4 2 
2106 4 4 2 
2107 1 1 1 
2108 1 1 1 
2109 4 4 1 
2110 4 4 1 
2111 1 1 1 
2112 3 2 2 
2113 4 2 3 
2114 4 3 2 
2115 4 2 3 
2116 3 2 2 
2117 3 2 2 
2118 4 3 2 
2119 3 2 2 
2120 7 2 7 
2121 4 2 4 
2122 7 2 7 
2123 4 2 4 
2124 3 2 3 
2125 7 2 7 
2126 4 2 3 
2127 7 2 7 
2128 8 7 3 
2129 5 3 3 
2130 4 4 3 
2131 8 7 4 
2132 7 7 2 
2133 4 3 2 
2134 4 4 2 
2135 8 7 3 
2136 8 3 7 
2137 4 2 4 
2138 8 4 7 
2139 4 3 4 
2140 4 2 3 
2141 7 2 7 
2142 5 3 3 
2143 8 3 7 
2144 3 2 2 
2145 3 2 2 
2146 3 3 2 
2147 3 2 2 
2148 3 2 1 
2149 2 2 2 
2150 3 3 1 
2151 3 2 2 
2152 3 2 2 
2153 3 1 3 
2154 3 2 2 
2155 3 2 3 
2156 2 2 2 
2157 3 1 2 
2158 3 2 2 
2159 3 2 2 
2160 7 7 2 
2161 4 3 2 
2162 4 4 2 
2163 7 7 2 
2164 7 7 2 
2165 3 3 2 
2166 4 4 2 
2167 7 7 2 
2168 3 2 2 
2169 4 2 3 
2170 4 3 2 
2171 4 2 3 
2172 3 2 2 
2173 3 2 2 
2174 4 3 2 
2175 3 2 2 
2176 2 3 2 
2177 3 4 2 
2178 2 4 3 
2179 2 4 3 
2180 2 3 2 
2181 3 3 2 
2182 2 3 2 
2183 2 3 2 
2184 7 8 3 
2185 4 4 2 
2186 3 5 3 
2187 7 8 3 
2188 7 7 2 
2189 4 4 2 
2190 3 4 2 
2191 7 8 3 
2192 2 6 6 
2193 2 6 6 
2194 2 6 6 
2195 2 6 6 
2196 2 3 3 
2197 2 4 3 
2198 2 6 6 
2199 2 6 6 
2200 3 7 6 
2201 4 7 6 
2202 2 6 6 
2203 3 6 6 
2204 2 4 3 
2205 3 5 3 
2206 2 6 6 
2207 3 7 6 
2208 2 2 2 
2209 3 3 1 
2210 2 3 2 
2211 2 3 2 
2212 2 2 1 
2213 3 3 1 
2214 2 2 1 
2215 2 2 2 
2216 7 7 2 
2217 4 4 2 
2218 3 3 2 
2219 7 7 2 
2220 7 7 1 
2221 4 4 2 
2222 3 3 1 
2223 7 7 2 
2224 2 3 2 
2225 2 3 2 
2226 1 3 3 
2227 2 3 3 
2228 2 2 2 
2229 2 3 2 
2230 1 2 2 
2231 2 3 2 
2232 2 3 2 
2233 3 4 2 
2234 2 4 3 
2235 2 4 3 
2236 2 3 2 
2237 3 3 2 
2238 2 3 2 
2239 2 3 2 
2240 1 1 1 
2241 5 4 3 
2242 4 4 3 
2243 1 1 1 
2244 1 1 1 
2245 4 4 3 
2246 4 4 2 
2247 1 1 1 
2248 8 8 8 
2249 5 3 4 
2250 5 4 7 
2251 5 7 4 
2252 8 7 4 
2253 8 4 7 
2254 5 4 3 
2255 8 8 8 
2256 8 8 7 
2257 4 5 6 
2258 3 6 6 
2259 8 7 6 
2260 7 8 3 
2261 4 4 3 
2262 4 7 6 
2263 8 8 7 
2264 1 1 1 
2265 1 1 1 
2266 2 2 2 
2267 1 1 1 
2268 1 1 1 
2269 5 4 7 
2270 4 5 6 
2271 1 1 1 
2272 1 1 1 
2273 4 4 2 
2274 4 4 2 
2275 1 1 1 
2276 1 1 1 
2277 4 4 2 
2278 4 4 2 
2279 1 1 1 
2280 8 7 3 
2281 5 3 3 
2282 4 4 3 
2283 8 7 4 
2284 7 7 2 
2285 4 3 2 
2286 4 4 2 
2287 8 7 3 
2288 7 8 3 
2289 4 4 2 
2290 3 5 3 
2291 7 8 3 
2292 7 7 2 
2293 4 4 2 
2294 3 4 2 
2295 7 8 3 
2296 1 1 1 
2297 5 4 3 
2298 4 4 3 
2299 1 1 1 
2300 1 1 1 
2301 4 4 3 
2302 4 4 2 
2303 1 1 1 
2304 1 1 1 
2305 4 4 1 
2306 4 4 1 
2307 1 1 1 
2308 1 1 1 
2309 4 4 1 
2310 4 4 1 
2311 1 1 1 
2312 7 7 1 
2313 3 3 1 
2314 4 4 1 
2315 7 7 1 
2316 7 7 1 
2317 3 3 1 
2318 4 4 1 
2319 7 7 1 
2320 7 7 1 
2321 4 4 1 
2322 3 3 1 
2323 7 7 1 
2324 7 7 1 
2325 4 4 1 
2326 3 3 1 
2327 7 7 1 
2328 1 1 1 
2329 4 4 1 
2330 4 4 1 
2331 1 1 1 
2332 1 1 1 
2333 4 4 1 
2334 4 4 1 
2335 1 1 1 
2336 1 1 1 
2337 4 4 1 
2338 4 4 1 
2339 1 1 1 
2340 1 1 1 
2341 4 4 1 
2342 4 4 1 
2343 1 1 1 
2344 7 7 1 
2345 3 3 1 
2346 4 4 1 
2347 7 7 1 
2348 7 7 1 
2349 3 3 1 
2350 4 4 1 
2351 7 7 1 
2352 7 7 1 
2353 4 4 1 
2354 3 3 1 
2355 7 7 1 
2356 7 7 1 
2357 4 4 1 
2358 3 3 1 
2359 7 7 1 
2360 1 1 1 
2361 4 4 1 
2362 4 4 1 
2363 1 1 1 
2364 1 1 1 
2365 4 4 1 
2366 4 4 1 
2367 1 1 1 
2368 2 2 1 
2369 2 2 1 
2370 3 3 1 
2371 3 2 1 
2372 2 2 1 
2373 2 2 1 
2374 3 3 1 
2375 2 2 1 
2376 2 2 2 
2377 2 1 2 
2378 2 2 2 
2379 2 2 2 
2380 2 2 1 
2381 2 1 2 
2382 2 2 1 
2383 2 2 2 
2384 7 7 1 
2385 3 3 1 
2386 4 4 1 
2387 7 7 2 
2388 7 7 1 
2389 3 3 1 
2390 4 4 1 
2391 7 7 1 
2392 3 2 2 
2393 3 2 2 
2394 3 3 2 
2395 3 2 2 
2396 3 2 1 
2397 2 2 2 
2398 3 3 1 
2399 3 2 2 
2400 2 2 1 
2401 2 2 1 
2402 3 3 1 
2403 2 2 1 
2404 2 2 1 
2405 2 2 1 
2406 3 3 1 
2407 2 2 1 
2408 2 2 1 
2409 2 1 1 
2410 2 2 1 
2411 2 2 1 
2412 2 2 1 
2413 2 1 1 
2414 2 2 1 
2415 2 2 1 
2416 7 7 1 
2417 3 3 1 
2418 4 4 1 
2419 7 7 1 
2420 7 7 1 
2421 3 3 1 
2422 4 4 1 
2423 7 7 1 
2424 2 2 1 
2425 2 2 1 
2426 3 3 1 
2427 3 2 1 
2428 2 2 1 
2429 2 2 1 
2430 3 3 1 
2431 2 2 1 
2432 2 2 1 
2433 3 3 1 
2434 2 2 1 
2435 2 2 1 
2436 2 2 1 
2437 3 3 1 
2438 2 2 1 
2439 2 2 1 
2440 7 7 1 
2441 4 4 1 
2442 3 3 1 
2443 7 7 1 
2444 7 7 1 
2445 4 4 1 
2446 3 3 1 
2447 7 7 1 
2448 2 2 1 
2449 2 2 1 
2450 1 2 2 
2451 2 2 2 
2452 2 2 1 
2453 2 2 1 
2454 1 2 2 
2455 2 2 1 
2456 2 2 2 
2457 3 3 1 
2458 2 3 2 
2459 2 3 2 
2460 2 2 1 
2461 3 3 1 
2462 2 2 1 
2463 2 2 2 
2464 2 2 1 
2465 3 3 1 
2466 2 2 1 
2467 2 2 1 
2468 2 2 1 
2469 3 3 1 
2470 2 2 1 
2471 2 2 1 
2472 7 7 1 
2473 4 4 1 
2474 3 3 1 
2475 7 7 1 
2476 7 7 1 
2477 4 4 1 
2478 3 3 1 
2479 7 7 1 
2480 2 2 1 
2481 2 2 1 
2482 1 2 1 
2483 2 2 1 
2484 2 2 1 
2485 2 2 1 
2486 1 1 1 
2487 2 2 1 
2488 2 2 1 
2489 3 3 1 
2490 2 2 1 
2491 2 2 1 
2492 2 2 1 
2493 3 3 1 
2494 2 2 1 
2495 2 2 1 
2496 1 1 1 
2497 4 4 2 
2498 4 4 2 
2499 1 1 1 
2500 1 1 1 
2501 4 4 1 
2502 4 4 1 
2503 1 1 1 
2504 7 7 2 
2505 4 3 2 
2506 4 4 2 
2507 7 7 2 
2508 7 7 2 
2509 3 3 2 
2510 4 4 2 
2511 7 7 2 
2512 7 7 2 
2513 4 4 2 
2514 3 3 2 
2515 7 7 2 
2516 7 7 1 
2517 4 4 2 
2518 3 3 1 
2519 7 7 2 
2520 1 1 1 
2521 4 4 2 
2522 4 4 2 
2523 1 1 1 
2524 1 1 1 
2525 4 4 2 
2526 4 4 2 
2527 1 1 1 
2528 1 1 1 
2529 4 4 1 
2530 4 4 1 
2531 1 1 1 
2532 1 1 1 
2533 4 4 1 
2534 4 4 1 
2535 1 1 1 
2536 7 7 1 
2537 3 3 1 
2538 4 4 1 
2539 7 7 2 
2540 7 7 1 
2541 3 3 1 
2542 4 4 1 
2543 7 7 1 
2544 7 7 1 
2545 4 4 1 
2546 3 3 1 
2547 7 7 1 
2548 7 7 1 
2549 4 4 1 
2550 3 3 1 
2551 7 7 1 
2552 1 1 1 
2553 4 4 2 
2554 4 4 2 
2555 1 1 1 
2556 1 1 1 
2557 4 4 1 
2558 4 4 1 
2559 1 1 1 
2560 1 1 1 
2561 4 1 4 
2562 1 1 1 
2563 4 2 4 
2564 4 1 4 
2565 1 1 1 
2566 4 2 4 
2567 1 1 1 
2568 7 1 7 
2569 3 1 3 
2570 7 1 7 
2571 3 1 3 
2572 4 1 4 
2573 7 1 7 
2574 4 1 4 
2575 7 1 7 
2576 1 1 1 
2577 4 2 4 
2578 1 1 1 
2579 4 2 4 
2580 4 2 4 
2581 1 1 1 
2582 4 2 4 
2583 1 1 1 
2584 7 2 7 
2585 3 1 3 
2586 7 2 7 
2587 3 2 3 
2588 4 2 4 
2589 7 1 7 
2590 4 2 4 
2591 7 2 7 
2592 7 1 7 
2593 4 1 4 
2594 7 2 7 
2595 4 1 4 
2596 3 1 3 
2597 7 1 7 
2598 3 1 3 
2599 7 1 7 
2600 1 1 1 
2601 4 1 4 
2602 1 1 1 
2603 4 1 4 
2604 4 1 4 
2605 1 1 1 
2606 4 1 4 
2607 1 1 1 
2608 7 2 7 
2609 4 2 4 
2610 7 2 7 
2611 4 2 4 
2612 3 2 3 
2613 7 2 7 
2614 4 2 3 
2615 7 2 7 
2616 1 1 1 
2617 4 1 4 
2618 1 1 1 
2619 4 2 4 
2620 4 1 4 
2621 1 1 1 
2622 4 2 4 
2623 1 1 1 
2624 2 1 2 
2625 2 1 2 
2626 2 1 2 
2627 2 1 2 
2628 3 1 3 
2629 2 1 2 
2630 3 1 3 
2631 2 1 2 
2632 2 1 2 
2633 1 1 1 
2634 2 1 2 
2635 1 1 2 
2636 2 1 2 
2637 2 1 2 
2638 2 1 2 
2639 2 1 2 
2640 2 2 2 
2641 2 1 2 
2642 2 2 3 
2643 2 2 3 
2644 3 1 3 
2645 2 1 2 
2646 3 1 3 
2647 2 2 2 
2648 2 1 2 
2649 1 2 2 
2650 2 2 2 
2651 1 2 2 
2652 2 1 2 
2653 2 1 2 
2654 2 1 2 
2655 2 1 2 
2656 7 1 7 
2657 3 1 3 
2658 7 1 7 
2659 3 1 3 
2660 4 1 4 
2661 7 1 7 
2662 4 1 4 
2663 7 1 7 
2664 2 1 2 
2665 2 1 2 
2666 2 1 2 
2667 2 1 2 
2668 3 1 3 
2669 2 1 2 
2670 3 1 3 
2671 2 1 2 
2672 7 1 7 
2673 3 1 3 
2674 7 1 7 
2675 3 1 3 
2676 4 1 4 
2677 7 1 7 
2678 4 1 4 
2679 7 1 7 
2680 2 1 2 
2681 2 1 2 
2682 2 1 2 
2683 2 1 2 
2684 3 1 3 
2685 2 1 2 
2686 3 1 3 
2687 2 1 2 
2688 1 1 1 
2689 4 2 4 
2690 1 1 1 
2691 4 3 4 
2692 4 3 4 
2693 1 1 1 
2694 5 3 4 
2695 1 1 1 
2696 7 3 8 
2697 3 2 4 
2698 7 3 8 
2699 3 3 5 
2700 4 2 4 
2701 7 2 7 
2702 4 2 4 
2703 7 3 8 
2704 1 1 1 
2705 4 6 5 
2706 1 1 1 
2707 2 2 2 
2708 5 7 4 
2709 1 1 1 
2710 1 1 1 
2711 1 1 1 
2712 8 7 8 
2713 4 6 7 
2714 8 6 7 
2715 3 6 6 
2716 4 3 4 
2717 7 3 8 
2718 4 6 5 
2719 8 7 8 
2720 8 3 7 
2721 4 2 4 
2722 8 4 7 
2723 4 3 4 
2724 4 2 3 
2725 7 2 7 
2726 5 3 3 
2727 8 3 7 
2728 1 1 1 
2729 4 2 4 
2730 1 1 1 
2731 4 2 4 
2732 4 2 4 
2733 1 1 1 
2734 4 2 4 
2735 1 1 1 
2736 8 8 8 
2737 5 3 4 
2738 5 4 7 
2739 5 7 4 
2740 8 7 4 
2741 8 4 7 
2742 5 4 3 
2743 8 8 8 
2744 1 1 1 
2745 4 2 4 
2746 1 1 1 
2747 4 3 4 
2748 4 3 4 
2749 1 1 1 
2750 5 3 4 
2751 1 1 1 
2752 2 2 3 
2753 2 2 3 
2754 2 3 4 
2755 2 3 4 
2756 3 2 3 
2757 2 2 3 
2758 3 2 4 
2759 2 2 3 
2760 2 2 3 
2761 1 2 2 
2762 2 3 3 
2763 1 3 3 
2764 2 2 3 
2765 2 2 2 
2766 2 2 3 
2767 2 2 3 
2768 3 6 7 
2769 2 6 6 
2770 3 6 6 
2771 2 6 6 
2772 3 3 5 
2773 2 3 4 
2774 4 6 7 
2775 3 6 7 
2776 2 6 6 
2777 2 6 6 
2778 2 6 6 
2779 2 6 6 
2780 2 3 4 
2781 2 3 3 
2782 2 6 6 
2783 2 6 6 
2784 7 2 7 
2785 3 1 3 
2786 7 2 7 
2787 3 2 3 
2788 4 2 4 
2789 7 1 7 
2790 4 2 4 
2791 7 2 7 
2792 2 2 2 
2793 2 1 2 
2794 2 2 3 
2795 2 2 3 
2796 3 1 3 
2797 2 1 2 
2798 3 1 3 
2799 2 2 2 
2800 7 3 8 
2801 3 2 4 
2802 7 3 8 
2803 3 3 5 
2804 4 2 4 
2805 7 2 7 
2806 4 2 4 
2807 7 3 8 
2808 2 2 3 
2809 2 2 3 
2810 2 3 4 
2811 2 3 4 
2812 3 2 3 
2813 2 2 3 
2814 3 2 4 
2815 2 2 3 
2816 2 1 2 
2817 3 1 3 
2818 3 1 2 
2819 3 1 3 
2820 2 1 2 
2821 2 1 2 
2822 2 1 2 
2823 2 1 2 
2824 7 1 7 
2825 4 1 4 
2826 7 1 7 
2827 4 1 4 
2828 3 1 3 
2829 7 1 7 
2830 3 1 3 
2831 7 1 7 
2832 3 2 2 
2833 3 1 3 
2834 3 2 2 
2835 3 2 3 
2836 2 2 2 
2837 3 1 2 
2838 3 2 2 
2839 3 2 2 
2840 7 1 7 
2841 4 1 4 
2842 7 2 7 
2843 4 1 4 
2844 3 1 3 
2845 7 1 7 
2846 3 1 3 
2847 7 1 7 
2848 2 1 2 
2849 2 1 2 
2850 2 1 2 
2851 2 1 2 
2852 2 1 1 
2853 2 1 2 
2854 2 1 1 
2855 2 1 2 
2856 2 1 2 
2857 3 1 3 
2858 2 1 2 
2859 3 1 3 
2860 2 1 2 
2861 2 1 2 
2862 2 1 2 
2863 2 1 2 
2864 2 2 2 
2865 2 1 2 
2866 2 2 2 
2867 2 2 2 
2868 2 2 1 
2869 2 1 2 
2870 2 2 1 
2871 2 2 2 
2872 2 1 2 
2873 3 1 3 
2874 3 1 2 
2875 3 1 3 
2876 2 1 2 
2877 2 1 2 
2878 2 1 2 
2879 2 1 2 
2880 1 1 1 
2881 4 1 4 
2882 1 1 1 
2883 4 1 4 
2884 4 1 4 
2885 1 1 1 
2886 4 1 4 
2887 1 1 1 
2888 7 1 7 
2889 3 1 3 
2890 7 1 7 
2891 3 1 3 
2892 4 1 4 
2893 7 1 7 
2894 4 1 4 
2895 7 1 7 
2896 1 1 1 
2897 4 1 4 
2898 1 1 1 
2899 4 1 4 
2900 4 1 4 
2901 1 1 1 
2902 4 1 4 
2903 1 1 1 
2904 7 1 7 
2905 3 1 3 
2906 7 1 7 
2907 3 1 3 
2908 4 1 4 
2909 7 1 7 
2910 4 1 4 
2911 7 1 7 
2912 7 1 7 
2913 4 1 4 
2914 7 1 7 
2915 4 1 4 
2916 3 1 3 
2917 7 1 7 
2918 3 1 3 
2919 7 1 7 
2920 1 1 1 
2921 4 1 4 
2922 1 1 1 
2923 4 1 4 
2924 4 1 4 
2925 1 1 1 
2926 4 1 4 
2927 1 1 1 
2928 7 1 7 
2929 4 1 4 
2930 7 1 7 
2931 4 1 4 
2932 3 1 3 
2933 7 1 7 
2934 3 1 3 
2935 7 1 7 
2936 1 1 1 
2937 4 1 4 
2938 1 1 1 
2939 4 1 4 
2940 4 1 4 
2941 1 1 1 
2942 4 1 4 
2943 1 1 1 
2944 3 2 2 
2945 4 2 3 
2946 4 3 2 
2947 4 2 3 
2948 3 2 2 
2949 3 2 2 
2950 4 3 2 
2951 3 2 2 
2952 7 2 7 
2953 4 2 4 
2954 7 2 7 
2955 4 2 4 
2956 3 2 3 
2957 7 2 7 
2958 4 2 3 
2959 7 2 7 
2960 8 7 3 
2961 5 3 3 
2962 4 4 3 
2963 8 7 4 
2964 7 7 2 
2965 4 3 2 
2966 4 4 2 
2967 8 7 3 
2968 8 3 7 
2969 4 2 4 
2970 8 4 7 
2971 4 3 4 
2972 4 2 3 
2973 7 2 7 
2974 5 3 3 
2975 8 3 7 
2976 3 2 2 
2977 3 2 2 
2978 3 3 2 
2979 3 2 2 
2980 3 2 1 
2981 2 2 2 
2982 3 3 1 
2983 3 2 2 
2984 3 2 2 
2985 3 1 3 
2986 3 2 2 
2987 3 2 3 
2988 2 2 2 
2989 3 1 2 
2990 3 2 2 
2991 3 2 2 
2992 7 7 2 
2993 4 3 2 
2994 4 4 2 
2995 7 7 2 
2996 7 7 2 
2997 3 3 2 
2998 4 4 2 
2999 7 7 2 
3000 3 2 2 
3001 4 2 3 
3002 4 3 2 
3003 4 2 3 
3004 3 2 2 
3005 3 2 2 
3006 4 3 2 
3007 3 2 2 
3008 1 1 1 
3009 4 1 4 
3010 1 1 1 
3011 4 2 4 
3012 4 1 4 
3013 1 1 1 
3014 4 2 4 
3015 1 1 1 
3016 7 1 7 
3017 3 1 3 
3018 7 1 7 
3019 3 1 3 
3020 4 1 4 
3021 7 1 7 
3022 4 1 4 
3023 7 1 7 
3024 1 1 1 
3025 4 2 4 
3026 1 1 1 
3027 4 2 4 
3028 4 2 4 
3029 1 1 1 
3030 4 2 4 
3031 1 1 1 
3032 7 2 7 
3033 3 1 3 
3034 7 2 7 
3035 3 2 3 
3036 4 2 4 
3037 7 1 7 
3038 4 2 4 
3039 7 2 7 
3040 7 1 7 
3041 4 1 4 
3042 7 2 7 
3043 4 1 4 
3044 3 1 3 
3045 7 1 7 
3046 3 1 3 
3047 7 1 7 
3048 1 1 1 
3049 4 1 4 
3050 1 1 1 
3051 4 1 4 
3052 4 1 4 
3053 1 1 1 
3054 4 1 4 
3055 1 1 1 
3056 7 2 7 
3057 4 2 4 
3058 7 2 7 
3059 4 2 4 
3060 3 2 3 
3061 7 2 7 
3062 4 2 3 
3063 7 2 7 
3064 1 1 1 
3065 4 1 4 
3066 1 1 1 
3067 4 2 4 
3068 4 1 4 
3069 1 1 1 
3070 4 2 4 
3071 1 1 1 
3072 1 1 1 
3073 1 1 1 
3074 1 6 6 
3075 2 6 6 
3076 1 6 6 
3077 2 6 6 
3078 1 1 1 
3079 1 1 1 
3080 1 1 1 
3081 1 1 1 
3082 2 6 6 
3083 2 6 6 
3084 2 6 6 
3085 2 6 6 
3086 1 1 1 
3087 1 1 1 
3088 1 6 6 
3089 2 6 6 
3090 1 3 3 
3091 1 3 3 
3092 1 6 6 
3093 1 6 6 
3094 1 6 6 
3095 1 6 6 
3096 2 6 6 
3097 2 6 6 
3098 2 3 3 
3099 2 3 4 
3100 2 6 6 
3101 2 6 6 
3102 2 6 6 
3103 2 6 6 
3104 1 6 6 
3105 2 6 6 
3106 1 6 6 
3107 1 6 6 
3108 1 3 3 
3109 1 3 3 
3110 1 6 6 
3111 1 6 6 
3112 2 6 6 
3113 2 6 6 
3114 2 6 6 
3115 2 6 6 
3116 2 3 3 
3117 2 4 3 
3118 2 6 6 
3119 2 6 6 
3120 1 1 1 
3121 1 1 1 
3122 1 6 6 
3123 1 6 6 
3124 1 6 6 
3125 1 6 6 
3126 1 1 1 
3127 1 1 1 
3128 1 1 1 
3129 1 1 1 
3130 1 6 6 
3131 2 6 6 
3132 1 6 6 
3133 2 6 6 
3134 1 1 1 
3135 1 1 1 
3136 1 1 1 
3137 1 1 1 
3138 3 6 6 
3139 3 6 6 
3140 3 6 6 
3141 3 6 6 
3142 1 1 1 
3143 1 1 1 
3144 1 1 1 
3145 1 1 1 
3146 8 6 7 
3147 2 2 2 
3148 8 7 6 
3149 2 2 2 
3150 1 1 1 
3151 1 1 1 
3152 3 6 7 
3153 4 6 7 
3154 2 3 4 
3155 3 3 5 
3156 2 6 6 
3157 3 6 6 
3158 2 6 6 
3159 3 6 7 
3160 8 7 8 
3161 4 6 5 
3162 7 3 8 
3163 4 3 4 
3164 3 6 6 
3165 8 6 7 
3166 4 6 7 
3167 8 7 8 
3168 3 7 6 
3169 4 7 6 
3170 2 6 6 
3171 3 6 6 
3172 2 4 3 
3173 3 5 3 
3174 2 6 6 
3175 3 7 6 
3176 8 8 7 
3177 4 5 6 
3178 3 6 6 
3179 8 7 6 
3180 7 8 3 
3181 4 4 3 
3182 4 7 6 
3183 8 8 7 
3184 1 1 1 
3185 1 1 1 
3186 2 6 6 
3187 2 6 6 
3188 2 6 6 
3189 2 6 6 
3190 1 1 1 
3191 1 1 1 
3192 1 1 1 
3193 1 1 1 
3194 3 6 6 
3195 3 6 6 
3196 3 6 6 
3197 3 6 6 
3198 1 1 1 
3199 1 1 1 
3200 1 2 2 
3201 1 2 2 
3202 1 2 2 
3203 1 2 2 
3204 1 3 3 
3205 1 3 3 
3206 1 2 2 
3207 1 2 2 
3208 2 2 3 
3209 2 2 3 
3210 2 2 2 
3211 2 2 3 
3212 1 3 3 
3213 2 3 3 
3214 1 2 2 
3215 2 2 3 
3216 1 1 2 
3217 1 2 2 
3218 1 1 1 
3219 1 1 2 
3220 1 2 2 
3221 1 2 2 
3222 1 1 2 
3223 1 1 2 
3224 2 1 2 
3225 2 1 2 
3226 2 1 2 
3227 2 1 2 
3228 1 2 2 
3229 2 2 2 
3230 1 2 2 
3231 2 1 2 
3232 1 6 6 
3233 1 6 6 
3234 1 3 3 
3235 1 3 3 
3236 1 6 6 
3237 1 6 6 
3238 1 6 6 
3239 1 6 6 
3240 1 6 6 
3241 2 6 6 
3242 1 3 3 
3243 1 3 3 
3244 1 6 6 
3245 1 6 6 
3246 1 6 6 
3247 1 6 6 
3248 1 2 2 
3249 1 2 2 
3250 1 2 2 
3251 1 2 2 
3252 1 3 3 
3253 1 3 3 
3254 1 2 2 
3255 1 2 2 
3256 1 2 2 
3257 1 2 2 
3258 1 2 2 
3259 1 2 2 
3260 1 3 3 
3261 1 3 3 
3262 1 2 2 
3263 1 2 2 
3264 2 2 3 
3265 3 2 4 
3266 2 2 3 
3267 3 2 3 
3268 2 3 4 
3269 2 3 4 
3270 2 2 3 
3271 2 2 3 
3272 7 3 8 
3273 4 2 4 
3274 7 2 7 
3275 4 2 4 
3276 3 3 5 
3277 7 3 8 
3278 3 2 4 
3279 7 3 8 
3280 2 2 2 
3281 3 1 3 
3282 2 1 2 
3283 3 1 3 
3284 2 2 3 
3285 2 2 3 
3286 2 1 2 
3287 2 2 2 
3288 7 2 7 
3289 4 2 4 
3290 7 1 7 
3291 4 2 4 
3292 3 2 3 
3293 7 2 7 
3294 3 1 3 
3295 7 2 7 
3296 2 6 6 
3297 2 6 6 
3298 2 3 3 
3299 2 3 4 
3300 2 6 6 
3301 2 6 6 
3302 2 6 6 
3303 2 6 6 
3304 3 6 7 
3305 4 6 7 
3306 2 3 4 
3307 3 3 5 
3308 2 6 6 
3309 3 6 6 
3310 2 6 6 
3311 3 6 7 
3312 2 2 3 
3313 2 2 3 
3314 2 2 2 
3315 2 2 3 
3316 1 3 3 
3317 2 3 3 
3318 1 2 2 
3319 2 2 3 
3320 2 2 3 
3321 3 2 4 
3322 2 2 3 
3323 3 2 3 
3324 2 3 4 
3325 2 3 4 
3326 2 2 3 
3327 2 2 3 
3328 1 2 2 
3329 1 2 2 
3330 1 3 3 
3331 1 3 3 
3332 1 2 2 
3333 1 2 2 
3334 1 2 2 
3335 1 2 2 
3336 2 3 2 
3337 2 3 2 
3338 1 3 3 
3339 2 3 3 
3340 2 2 2 
3341 2 3 2 
3342 1 2 2 
3343 2 3 2 
3344 1 6 6 
3345 1 6 6 
3346 1 6 6 
3347 1 6 6 
3348 1 3 3 
3349 1 3 3 
3350 1 6 6 
3351 1 6 6 
3352 1 6 6 
3353 2 6 6 
3354 1 6 6 
3355 1 6 6 
3356 1 3 3 
3357 1 3 3 
3358 1 6 6 
3359 1 6 6 
3360 1 2 1 
3361 1 2 2 
3362 1 2 2 
3363 1 2 2 
3364 1 1 1 
3365 1 2 1 
3366 1 2 1 
3367 1 2 1 
3368 2 2 1 
3369 2 2 1 
3370 1 2 2 
3371 2 2 2 
3372 2 2 1 
3373 2 2 1 
3374 1 2 2 
3375 2 2 1 
3376 1 2 2 
3377 1 2 2 
3378 1 3 3 
3379 1 3 3 
3380 1 2 2 
3381 1 2 2 
3382 1 2 2 
3383 1 2 2 
3384 1 2 2 
3385 1 2 2 
3386 1 3 3 
3387 1 3 3 
3388 1 2 2 
3389 1 2 2 
3390 1 2 2 
3391 1 2 2 
3392 2 3 2 
3393 3 4 2 
3394 2 4 3 
3395 2 4 3 
3396 2 3 2 
3397 3 3 2 
3398 2 3 2 
3399 2 3 2 
3400 7 8 3 
3401 4 4 2 
3402 3 5 3 
3403 7 8 3 
3404 7 7 2 
3405 4 4 2 
3406 3 4 2 
3407 7 8 3 
3408 2 6 6 
3409 2 6 6 
3410 2 6 6 
3411 2 6 6 
3412 2 3 3 
3413 2 4 3 
3414 2 6 6 
3415 2 6 6 
3416 3 7 6 
3417 4 7 6 
3418 2 6 6 
3419 3 6 6 
3420 2 4 3 
3421 3 5 3 
3422 2 6 6 
3423 3 7 6 
3424 2 2 2 
3425 3 3 1 
3426 2 3 2 
3427 2 3 2 
3428 2 2 1 
3429 3 3 1 
3430 2 2 1 
3431 2 2 2 
3432 7 7 2 
3433 4 4 2 
3434 3 3 2 
3435 7 7 2 
3436 7 7 1 
3437 4 4 2 
3438 3 3 1 
3439 7 7 2 
3440 2 3 2 
3441 2 3 2 
3442 1 3 3 
3443 2 3 3 
3444 2 2 2 
3445 2 3 2 
3446 1 2 2 
3447 2 3 2 
3448 2 3 2 
3449 3 4 2 
3450 2 4 3 
3451 2 4 3 
3452 2 3 2 
3453 3 3 2 
3454 2 3 2 
3455 2 3 2 
3456 1 1 1 
3457 1 1 1 
3458 1 6 6 
3459 1 6 6 
3460 1 6 6 
3461 1 6 6 
3462 1 1 1 
3463 1 1 1 
3464 1 1 1 
3465 1 1 1 
3466 1 6 6 
3467 1 6 6 
3468 1 6 6 
3469 1 6 6 
3470 1 1 1 
3471 1 1 1 
3472 1 6 6 
3473 1 6 6 
3474 1 3 3 
3475 1 3 3 
3476 1 6 6 
3477 1 6 6 
3478 1 6 6 
3479 1 6 6 
3480 1 6 6 
3481 1 6 6 
3482 1 3 3 
3483 1 3 3 
3484 1 6 6 
3485 1 6 6 
3486 1 6 6 
3487 1 6 6 
3488 1 6 6 
3489 1 6 6 
3490 1 6 6 
3491 1 6 6 
3492 1 3 3 
3493 1 3 3 
3494 1 6 6 
3495 1 6 6 
3496 1 6 6 
3497 1 6 6 
3498 1 6 6 
3499 1 6 6 
3500 1 3 3 
3501 1 3 3 
3502 1 6 6 
3503 1 6 6 
3504 1 1 1 
3505 1 1 1 
3506 1 6 6 
3507 1 6 6 
3508 1 6 6 
3509 1 6 6 
3510 1 1 1 
3511 1 1 1 
3512 1 1 1 
3513 1 1 1 
3514 1 6 6 
3515 1 6 6 
3516 1 6 6 
3517 1 6 6 
3518 1 1 1 
3519 1 1 1 
3520 1 1 1 
3521 1 1 1 
3522 1 6 6 
3523 2 6 6 
3524 1 6 6 
3525 2 6 6 
3526 1 1 1 
3527 1 1 1 
3528 1 1 1 
3529 1 1 1 
3530 2 6 6 
3531 2 6 6 
3532 2 6 6 
3533 2 6 6 
3534 1 1 1 
3535 1 1 1 
3536 1 6 6 
3537 2 6 6 
3538 1 3 3 
3539 1 3 3 
3540 1 6 6 
3541 1 6 6 
3542 1 6 6 
3543 1 6 6 
3544 2 6 6 
3545 2 6 6 
3546 2 3 3 
3547 2 3 4 
3548 2 6 6 
3549 2 6 6 
3550 2 6 6 
3551 2 6 6 
3552 1 6 6 
3553 2 6 6 
3554 1 6 6 
3555 1 6 6 
3556 1 3 3 
3557 1 3 3 
3558 1 6 6 
3559 1 6 6 
3560 2 6 6 
3561 2 6 6 
3562 2 6 6 
3563 2 6 6 
3564 2 3 3 
3565 2 4 3 
3566 2 6 6 
3567 2 6 6 
3568 1 1 1 
3569 1 1 1 
3570 1 6 6 
3571 1 6 6 
3572 1 6 6 
3573 1 6 6 
3574 1 1 1 
3575 1 1 1 
3576 1 1 1 
3577 1 1 1 
3578 1 6 6 
3579 2 6 6 
3580 1 6 6 
3581 2 6 6 
3582 1 1 1 
3583 1 1 1 
3584 1 1 1 
3585 1 1 1 
3586 1 1 1 
3587 1 1 1 
3588 1 1 1 
3589 1 1 1 
3590 1 1 1 
3591 1 1 1 
3592 1 1 1 
3593 1 1 1 
3594 2 2 2 
3595 8 7 6 
3596 2 2 2 
3597 8 6 7 
3598 1 1 1 
3599 1 1 1 
3600 1 1 1 
3601 1 1 1 
3602 1 1 1 
3603 5 7 4 
3604 2 2 2 
3605 1 1 1 
3606 4 6 5 
3607 1 1 1 
3608 1 1 1 
3609 5 5 6 
3610 5 4 7 
3611 1 1 1 
3612 1 1 1 
3613 2 2 2 
3614 1 1 1 
3615 1 1 1 
3616 1 1 1 
3617 1 1 1 
3618 2 2 2 
3619 1 1 1 
3620 1 1 1 
3621 5 4 7 
3622 4 5 6 
3623 1 1 1 
3624 1 1 1 
3625 4 6 5 
3626 1 1 1 
3627 2 2 2 
3628 5 7 4 
3629 1 1 1 
3630 1 1 1 
3631 1 1 1 
3632 1 1 1 
3633 1 1 1 
3634 8 6 7 
3635 2 2 2 
3636 8 7 6 
3637 2 2 2 
3638 1 1 1 
3639 1 1 1 
3640 1 1 1 
3641 1 1 1 
3642 1 1 1 
3643 1 1 1 
3644 1 1 1 
3645 1 1 1 
3646 1 1 1 
3647 1 1 1 
3648 1 1 1 
3649 1 1 1 
3650 3 6 6 
3651 3 6 6 
3652 3 6 6 
3653 3 6 6 
3654 1 1 1 
3655 1 1 1 
3656 1 1 1 
3657 1 1 1 
3658 2 6 6 
3659 2 6 6 
3660 2 6 6 
3661 2 6 6 
3662 1 1 1 
3663 1 1 1 
3664 8 8 7 
3665 4 7 6 
3666 4 4 3 
3667 7 8 3 
3668 8 7 6 
3669 3 6 6 
3670 5 5 6 
3671 8 8 7 
3672 3 7 6 
3673 2 6 6 
3674 3 5 3 
3675 2 4 3 
3676 3 6 6 
3677 2 6 6 
3678 4 7 6 
3679 3 7 6 
3680 8 7 8 
3681 4 6 7 
3682 8 6 7 
3683 3 6 6 
3684 4 3 4 
3685 7 3 8 
3686 4 6 5 
3687 8 7 8 
3688 3 6 7 
3689 2 6 6 
3690 3 6 6 
3691 2 6 6 
3692 3 3 5 
3693 2 3 4 
3694 4 6 7 
3695 3 6 7 
3696 1 1 1 
3697 1 1 1 
3698 2 2 2 
3699 8 7 6 
3700 2 2 2 
3701 8 6 7 
3702 1 1 1 
3703 1 1 1 
3704 1 1 1 
3705 1 1 1 
3706 3 6 6 
3707 3 6 6 
3708 3 6 6 
3709 3 6 6 
3710 1 1 1 
3711 1 1 1 
3712 1 1 1 
3713 5 3 4 
3714 1 1 1 
3715 4 3 4 
3716 4 3 4 
3717 1 1 1 
3718 4 2 4 
3719 1 1 1 
3720 8 8 8 
3721 5 4 3 
3722 8 4 7 
3723 8 7 4 
3724 5 7 4 
3725 5 4 7 
3726 5 3 4 
3727 8 8 8 
3728 1 1 1 
3729 4 2 4 
3730 1 1 1 
3731 4 2 4 
3732 4 2 4 
3733 1 1 1 
3734 4 2 4 
3735 1 1 1 
3736 8 3 7 
3737 5 3 3 
3738 7 2 7 
3739 4 2 3 
3740 4 3 4 
3741 8 4 7 
3742 4 2 4 
3743 8 3 7 
3744 8 7 8 
3745 4 6 5 
3746 7 3 8 
3747 4 3 4 
3748 3 6 6 
3749 8 6 7 
3750 4 6 7 
3751 8 7 8 
3752 1 1 1 
3753 1 1 1 
3754 1 1 1 
3755 5 7 4 
3756 2 2 2 
3757 1 1 1 
3758 4 6 5 
3759 1 1 1 
3760 7 3 8 
3761 4 2 4 
3762 7 2 7 
3763 4 2 4 
3764 3 3 5 
3765 7 3 8 
3766 3 2 4 
3767 7 3 8 
3768 1 1 1 
3769 5 3 4 
3770 1 1 1 
3771 4 3 4 
3772 4 3 4 
3773 1 1 1 
3774 4 2 4 
3775 1 1 1 
3776 1 1 1 
3777 4 4 2 
3778 4 4 3 
3779 1 1 1 
3780 1 1 1 
3781 4 4 3 
3782 5 4 3 
3783 1 1 1 
3784 7 8 3 
3785 3 4 2 
3786 4 4 2 
3787 7 7 2 
3788 7 8 3 
3789 3 5 3 
3790 4 4 2 
3791 7 8 3 
3792 8 7 3 
3793 4 4 2 
3794 4 3 2 
3795 7 7 2 
3796 8 7 4 
3797 4 4 3 
3798 5 3 3 
3799 8 7 3 
3800 1 1 1 
3801 4 4 2 
3802 4 4 2 
3803 1 1 1 
3804 1 1 1 
3805 4 4 2 
3806 4 4 2 
3807 1 1 1 
3808 1 1 1 
3809 5 5 6 
3810 5 4 7 
3811 1 1 1 
3812 1 1 1 
3813 2 2 2 
3814 1 1 1 
3815 1 1 1 
3816 8 8 7 
3817 4 7 6 
3818 4 4 3 
3819 7 8 3 
3820 8 7 6 
3821 3 6 6 
3822 5 5 6 
3823 8 8 7 
3824 8 8 8 
3825 5 4 3 
3826 8 4 7 
3827 8 7 4 
3828 5 7 4 
3829 5 4 7 
3830 5 3 4 
3831 8 8 8 
3832 1 1 1 
3833 4 4 2 
3834 4 4 3 
3835 1 1 1 
3836 1 1 1 
3837 4 4 3 
3838 5 4 3 
3839 1 1 1 
3840 1 1 1 
3841 5 4 3 
3842 4 4 3 
3843 1 1 1 
3844 1 1 1 
3845 4 4 3 
3846 4 4 2 
3847 1 1 1 
3848 8 8 8 
3849 5 3 4 
3850 5 4 7 
3851 5 7 4 
3852 8 7 4 
3853 8 4 7 
3854 5 4 3 
3855 8 8 8 
3856 8 8 7 
3857 4 5 6 
3858 3 6 6 
3859 8 7 6 
3860 7 8 3 
3861 4 4 3 
3862 4 7 6 
3863 8 8 7 
3864 1 1 1 
3865 1 1 1 
3866 2 2 2 
3867 1 1 1 
3868 1 1 1 
3869 5 4 7 
3870 4 5 6 
3871 1 1 1 
3872 1 1 1 
3873 4 4 2 
3874 4 4 2 
3875 1 1 1 
3876 1 1 1 
3877 4 4 2 
3878 4 4 2 
3879 1 1 1 
3880 8 7 3 
3881 5 3 3 
3882 4 4 3 
3883 8 7 4 
3884 7 7 2 
3885 4 3 2 
3886 4 4 2 
3887 8 7 3 
3888 7 8 3 
3889 4 4 2 
3890 3 5 3 
3891 7 8 3 
3892 7 7 2 
3893 4 4 2 
3894 3 4 2 
3895 7 8 3 
3896 1 1 1 
3897 5 4 3 
3898 4 4 3 
3899 1 1 1 
3900 1 1 1 
3901 4 4 3 
3902 4 4 2 
3903 1 1 1 
3904 1 1 1 
3905 4 2 4 
3906 1 1 1 
3907 4 3 4 
3908 4 3 4 
3909 1 1 1 
3910 5 3 4 
3911 1 1 1 
3912 7 3 8 
3913 3 2 4 
3914 7 3 8 
3915 3 3 5 
3916 4 2 4 
3917 7 2 7 
3918 4 2 4 
3919 7 3 8 
3920 1 1 1 
3921 4 6 5 
3922 1 1 1 
3923 2 2 2 
3924 5 7 4 
3925 1 1 1 
3926 1 1 1 
3927 1 1 1 
3928 8 7 8 
3929 4 6 7 
3930 8 6 7 
3931 3 6 6 
3932 4 3 4 
3933 7 3 8 
3934 4 6 5 
3935 8 7 8 
3936 8 3 7 
3937 4 2 4 
3938 8 4 7 
3939 4 3 4 
3940 4 2 3 
3941 7 2 7 
3942 5 3 3 
3943 8 3 7 
3944 1 1 1 
3945 4 2 4 
3946 1 1 1 
3947 4 2 4 
3948 4 2 4 
3949 1 1 1 
3950 4 2 4 
3951 1 1 1 
3952 8 8 8 
3953 5 3 4 
3954 5 4 7 
3955 5 7 4 
3956 8 7 4 
3957 8 4 7 
3958 5 4 3 
3959 8 8 8 
3960 1 1 1 
3961 4 2 4 
3962 1 1 1 
3963 4 3 4 
3964 4 3 4 
3965 1 1 1 
3966 5 3 4 
3967 1 1 1 
3968 1 1 1 
3969 1 1 1 
3970 3 6 6 
3971 3 6 6 
3972 3 6 6 
3973 3 6 6 
3974 1 1 1 
3975 1 1 1 
3976 1 1 1 
3977 1 1 1 
3978 8 6 7 
3979 2 2 2 
3980 8 7 6 
3981 2 2 2 
3982 1 1 1 
3983 1 1 1 
3984 3 6 7 
3985 4 6 7 
3986 2 3 4 
3987 3 3 5 
3988 2 6 6 
3989 3 6 6 
3990 2 6 6 
3991 3 6 7 
3992 8 7 8 
3993 4 6 5 
3994 7 3 8 
3995 4 3 4 
3996 3 6 6 
3997 8 6 7 
3998 4 6 7 
3999 8 7 8 
4000 3 7 6 
4001 4 7 6 
4002 2 6 6 
4003 3 6 6 
4004 2 4 3 
4005 3 5 3 
4006 2 6 6 
4007 3 7 6 
4008 8 8 7 
4009 4 5 6 
4010 3 6 6 
4011 8 7 6 
4012 7 8 3 
4013 4 4 3 
4014 4 7 6 
4015 8 8 7 
4016 1 1 1 
4017 1 1 1 
4018 2 6 6 
4019 2 6 6 
4020 2 6 6 
4021 2 6 6 
4022 1 1 1 
4023 1 1 1 
4024 1 1 1 
4025 1 1 1 
4026 3 6 6 
4027 3 6 6 
4028 3 6 6 
4029 3 6 6 
4030 1 1 1 
4031 1 1 1 
4032 1 1 1 
4033 1 1 1 
4034 1 1 1 
4035 1 1 1 
4036 1 1 1 
4037 1 1 1 
4038 1 1 1 
4039 1 1 1 
4040 1 1 1 
4041 1 1 1 
4042 2 2 2 
4043 8 7 6 
4044 2 2 2 
4045 8 6 7 
4046 1 1 1 
4047 1 1 1 
4048 1 1 1 
4049 1 1 1 
4050 1 1 1 
4051 5 7 4 
4052 2 2 2 
4053 1 1 1 
4054 4 6 5 
4055 1 1 1 
4056 1 1 1 
4057 5 5 6 
4058 5 4 7 
4059 1 1 1 
4060 1 1 1 
4061 2 2 2 
4062 1 1 1 
4063 1 1 1 
4064 1 1 1 
4065 1 1 1 
4066 2 2 2 
4067 1 1 1 
4068 1 1 1 
4069 5 4 7 
4070 4 5 6 
4071 1 1 1 
4072 1 1 1 
4073 4 6 5 
4074 1 1 1 
4075 2 2 2 
4076 5 7 4 
4077 1 1 1 
4078 1 1 1 
4079 1 1 1 
4080 1 1 1 
4081 1 1 1 
4082 8 6 7 
4083 2 2 2 
4084 8 7 6 
4085 2 2 2 
4086 1 1 1 
4087 1 1 1 
4088 1 1 1 
4089 1 1 1 
4090 1 1 1 
4091 1 1 1 
4092 1 1 1 
4093 1 1 1 
4094 1 1 1 
4095 1 1 1 
