0 0.000210329
1 0.00368599
2 0.00285157
3 0.00285157
4 0.00285157
5 0.00285157
6 0.00368599
7 0.000210329
8 0.00512232
9 0.00198037
10 0.00171268
11 0.00316362
12 0.00171268
13 0.00316362
14 0.00368599
15 0.00512232
16 0.00398399
17 0.00360789
18 0.00143944
19 0.00190769
20 0.00171268
21 0.00285157
22 0.000439674
23 0.00398399
24 0.00398399
25 0.000439674
26 0.00190769
27 0.00143944
28 0.00285157
29 0.00171268
30 0.00360789
31 0.00398399
32 0.00398399
33 0.00360789
34 0.00171268
35 0.00285157
36 0.00143944
37 0.00190769
38 0.000439674
39 0.00398399
40 0.00398399
41 0.000439674
42 0.00285157
43 0.00549665
44 0.00190769
45 0.00143944
46 0.00360789
47 0.00398399
48 0.00512232
49 0.00368599
50 0.00316362
51 0.00171268
52 0.00316362
53 0.00171268
54 0.00198037
55 0.00512232
56 0.000210329
57 0.00368599
58 0.00285157
59 0.00285157
60 0.00285157
61 0.00285157
62 0.00368599
63 0.000210329
64 0.00023288
65 0.00281892
66 0.00318886
67 0.000675155
68 0.00318886
69 0.000675155
70 0.00198037
71 0.00023288
72 0.000753435
73 0.000314836
74 0.00174534
75 0.000588116
76 0.00174534
77 0.000588116
78 0.00281892
79 0.000753435
80 0.0028635
81 0.00240687
82 0.00188053
83 0.00267584
84 0.00316362
85 0.00318886
86 0.000439674
87 0.0028635
88 0.0038153
89 0.00279638
90 0.00134906
91 0.00372681
92 0.000675155
93 0.00174534
94 0.00240687
95 0.0038153
96 0.0028635
97 0.00240687
98 0.00316362
99 0.00318886
100 0.00188053
101 0.00267584
102 0.000439674
103 0.0028635
104 0.0038153
105 0.00279638
106 0.000675155
107 0.00174534
108 0.00134906
109 0.00372681
110 0.00240687
111 0.0038153
112 0.00512232
113 0.00198037
114 0.00171268
115 0.00316362
116 0.00549665
117 0.00316362
118 0.00368599
119 0.00512232
120 0.00023288
121 0.00281892
122 0.00318886
123 0.000675155
124 0.00318886
125 0.000675155
126 0.00198037
127 0.00023288
128 0.000234186
129 0.00377992
130 0.00211247
131 0.000325189
132 0.00188053
133 0.00143944
134 0.000250626
135 0.000234186
136 0.00280839
137 0.00377992
138 0.00297738
139 0.00297738
140 0.00190769
141 0.00190769
142 0.00377992
143 0.00280839
144 0.00056811
145 0.00213186
146 0.000269322
147 0.000547646
148 0.00118226
149 0.00211247
150 0.000373472
151 0.00056811
152 0.00171475
153 0.00179961
154 0.001715
155 0.00407708
156 0.000325189
157 0.00297738
158 0.00213186
159 0.00171475
160 0.0028635
161 0.000439674
162 0.00267584
163 0.00188053
164 0.00318886
165 0.00316362
166 0.00240687
167 0.0028635
168 0.00398399
169 0.00360789
170 0.00143944
171 0.00190769
172 0.00171268
173 0.00285157
174 0.000439674
175 0.00398399
176 0.00271144
177 0.000250626
178 0.00548663
179 0.00118226
180 0.00134906
181 0.00267584
182 0.00307207
183 0.00271144
184 0.000234186
185 0.00377992
186 0.00211247
187 0.000325189
188 0.00188053
189 0.00143944
190 0.000250626
191 0.000234186
192 0.000234186
193 0.000250626
194 0.000325189
195 0.00211247
196 0.00143944
197 0.00188053
198 0.00377992
199 0.000234186
200 0.00271144
201 0.00307207
202 0.00118226
203 0.00548663
204 0.00267584
205 0.00134906
206 0.000250626
207 0.00271144
208 0.00171475
209 0.00213186
210 0.00407708
211 0.001715
212 0.00297738
213 0.000325189
214 0.00179961
215 0.00171475
216 0.00056811
217 0.000373472
218 0.000547646
219 0.000269322
220 0.00211247
221 0.00118226
222 0.00213186
223 0.00056811
224 0.00398399
225 0.000439674
226 0.00190769
227 0.00143944
228 0.00285157
229 0.00171268
230 0.00360789
231 0.00398399
232 0.0028635
233 0.00240687
234 0.00188053
235 0.00267584
236 0.00316362
237 0.00318886
238 0.000439674
239 0.0028635
240 0.00280839
241 0.00377992
242 0.00297738
243 0.00297738
244 0.00190769
245 0.00190769
246 0.00377992
247 0.00280839
248 0.000234186
249 0.000250626
250 0.000325189
251 0.00211247
252 0.00143944
253 0.00188053
254 0.00377992
255 0.000234186
256 0.000234186
257 0.00377992
258 0.00188053
259 0.00143944
260 0.00211247
261 0.000325189
262 0.000250626
263 0.000234186
264 0.00280839
265 0.00377992
266 0.00190769
267 0.00190769
268 0.00297738
269 0.00297738
270 0.00377992
271 0.00280839
272 0.0028635
273 0.000439674
274 0.00318886
275 0.00316362
276 0.00267584
277 0.00188053
278 0.00240687
279 0.0028635
280 0.00398399
281 0.00360789
282 0.00171268
283 0.00285157
284 0.00143944
285 0.00190769
286 0.000439674
287 0.00398399
288 0.00056811
289 0.00213186
290 0.00118226
291 0.00211247
292 0.000269322
293 0.000547646
294 0.000373472
295 0.00056811
296 0.00171475
297 0.00179961
298 0.000325189
299 0.00297738
300 0.001715
301 0.00407708
302 0.00213186
303 0.00171475
304 0.00271144
305 0.000250626
306 0.00134906
307 0.00267584
308 0.00548663
309 0.00118226
310 0.00307207
311 0.00271144
312 0.000234186
313 0.00377992
314 0.00188053
315 0.00143944
316 0.00211247
317 0.000325189
318 0.000250626
319 0.000234186
320 0.000234186
321 0.000250626
322 0.00143944
323 0.00188053
324 0.000325189
325 0.00211247
326 0.00377992
327 0.000234186
328 0.00271144
329 0.00307207
330 0.00267584
331 0.00134906
332 0.00118226
333 0.00548663
334 0.000250626
335 0.00271144
336 0.00398399
337 0.000439674
338 0.00285157
339 0.00549665
340 0.00190769
341 0.00143944
342 0.00360789
343 0.00398399
344 0.0028635
345 0.00240687
346 0.00316362
347 0.00318886
348 0.00188053
349 0.00267584
350 0.000439674
351 0.0028635
352 0.00171475
353 0.00213186
354 0.00297738
355 0.000325189
356 0.00407708
357 0.001715
358 0.00179961
359 0.00171475
360 0.00056811
361 0.000373472
362 0.00211247
363 0.00118226
364 0.000547646
365 0.000269322
366 0.00213186
367 0.00056811
368 0.00280839
369 0.00377992
370 0.00190769
371 0.00190769
372 0.00297738
373 0.00297738
374 0.00377992
375 0.00280839
376 0.000234186
377 0.000250626
378 0.00143944
379 0.00188053
380 0.000325189
381 0.00211247
382 0.00377992
383 0.000234186
384 0.00023288
385 0.00198037
386 0.000675155
387 0.00318886
388 0.000675155
389 0.00318886
390 0.00281892
391 0.00023288
392 0.00512232
393 0.00368599
394 0.00316362
395 0.00171268
396 0.00316362
397 0.00171268
398 0.00198037
399 0.00512232
400 0.0038153
401 0.00240687
402 0.00372681
403 0.00134906
404 0.00174534
405 0.000675155
406 0.00279638
407 0.0038153
408 0.0028635
409 0.000439674
410 0.00267584
411 0.00188053
412 0.00318886
413 0.00316362
414 0.00240687
415 0.0028635
416 0.0038153
417 0.00240687
418 0.00174534
419 0.000675155
420 0.00372681
421 0.00134906
422 0.00279638
423 0.0038153
424 0.0028635
425 0.000439674
426 0.00318886
427 0.00316362
428 0.00267584
429 0.00188053
430 0.00240687
431 0.0028635
432 0.000753435
433 0.00281892
434 0.000588116
435 0.00174534
436 0.000588116
437 0.00174534
438 0.000314836
439 0.000753435
440 0.00023288
441 0.00198037
442 0.000675155
443 0.00318886
444 0.000675155
445 0.00318886
446 0.00281892
447 0.00023288
448 0.000210329
449 0.00368599
450 0.00285157
451 0.00285157
452 0.00285157
453 0.00285157
454 0.00368599
455 0.000210329
456 0.00512232
457 0.00198037
458 0.00171268
459 0.00316362
460 0.00549665
461 0.00316362
462 0.00368599
463 0.00512232
464 0.00398399
465 0.00360789
466 0.00143944
467 0.00190769
468 0.00171268
469 0.00285157
470 0.000439674
471 0.00398399
472 0.00398399
473 0.000439674
474 0.00190769
475 0.00143944
476 0.00285157
477 0.00171268
478 0.00360789
479 0.00398399
480 0.00398399
481 0.00360789
482 0.00171268
483 0.00285157
484 0.00143944
485 0.00190769
486 0.000439674
487 0.00398399
488 0.00398399
489 0.000439674
490 0.00285157
491 0.00549665
492 0.00190769
493 0.00143944
494 0.00360789
495 0.00398399
496 0.00512232
497 0.00368599
498 0.00316362
499 0.00171268
500 0.00316362
501 0.00171268
502 0.00198037
503 0.00512232
504 0.000210329
505 0.00368599
506 0.00285157
507 0.00285157
508 0.00285157
509 0.00285157
510 0.00368599
511 0.000210329
