0 7.22285e-05
1 2.55366e-05
2 2.55366e-05
3 0.000184501
4 7.76603e-05
5 0.000184501
6 7.76603e-05
7 2.55366e-05
8 2.55366e-05
9 2.55366e-05
10 2.55366e-05
11 2.55366e-05
12 0.00039964
13 0.000184501
14 2.55366e-05
15 0.00201239
16 2.55366e-05
17 2.55366e-05
18 0.000432182
19 0.00039964
20 2.55366e-05
21 2.55366e-05
22 0.000184501
23 2.55366e-05
24 2.55366e-05
25 2.55366e-05
26 2.55366e-05
27 0.000184501
28 2.55366e-05
29 2.55366e-05
30 0.00039964
31 0.00201239
32 2.55366e-05
33 2.55366e-05
34 0.000432182
35 2.55366e-05
36 0.000184501
37 0.00039964
38 2.55366e-05
39 2.55366e-05
40 2.55366e-05
41 2.55366e-05
42 2.55366e-05
43 7.76603e-05
44 0.000184501
45 7.76603e-05
46 0.000184501
47 2.55366e-05
48 2.55366e-05
49 7.22285e-05
50 0.00174364
51 0.000698694
52 0.000327028
53 0.00161767
54 0.00192733
55 0.00135087
56 7.76603e-05
57 0.00123153
58 0.000432182
59 0.000327028
60 0.00295016
61 0.000327028
62 0.00161767
63 7.76603e-05
64 0.00123153
65 0.00192733
66 0.00135087
67 0.000432182
68 0.000327028
69 0.00295016
70 2.55366e-05
71 2.55366e-05
72 0.000184501
73 7.76603e-05
74 0.000184501
75 7.76603e-05
76 2.55366e-05
77 2.55366e-05
78 0.00174364
79 0.00232252
80 2.55366e-05
81 0.00053975
82 0.00136595
83 0.00136595
84 0.00039964
85 0.00039964
86 0.00053975
87 2.55366e-05
88 0.000325401
89 0.00279474
90 0.000327028
91 0.00201239
92 0.00135087
93 0.00192733
94 0.00123153
95 7.76603e-05
96 0.00161767
97 0.000327028
98 2.55366e-05
99 2.55366e-05
100 2.55366e-05
101 0.00039964
102 0.000184501
103 2.55366e-05
104 0.00201239
105 2.55366e-05
106 0.00224591
107 0.00232252
108 0.00232252
109 0.00224591
110 0.00279474
111 0.000325401
112 2.55366e-05
113 0.000432182
114 0.00039964
115 2.55366e-05
116 2.55366e-05
117 0.000184501
118 2.55366e-05
119 2.55366e-05
120 0.000327028
121 0.00161767
122 0.00192733
123 0.00135087
124 7.76603e-05
125 0.00123153
126 0.000432182
127 0.000327028
128 2.55366e-05
129 0.00053975
130 0.00136595
131 0.00136595
132 0.00039964
133 0.00039964
134 0.00053975
135 2.55366e-05
136 0.00232252
137 0.00232252
138 2.55366e-05
139 0.00053975
140 0.00039964
141 0.00039964
142 0.00136595
143 0.00136595
144 0.00053975
145 2.55366e-05
146 0.000327028
147 0.00201239
148 0.00123153
149 7.76603e-05
150 0.00135087
151 0.00192733
152 0.00161767
153 0.000327028
154 2.55366e-05
155 2.55366e-05
156 0.000184501
157 2.55366e-05
158 2.55366e-05
159 0.00039964
160 0.00201239
161 2.55366e-05
162 0.000325401
163 0.00279474
164 0.00224591
165 0.00232252
166 0.00232252
167 0.00224591
168 2.55366e-05
169 0.000432182
170 2.55366e-05
171 0.000184501
172 0.00039964
173 2.55366e-05
174 2.55366e-05
175 2.55366e-05
176 0.000327028
177 0.00161767
178 7.76603e-05
179 0.00123153
180 0.00192733
181 0.00135087
182 0.000432182
183 0.000327028
184 0.00279474
185 0.000325401
186 2.55366e-05
187 0.00053975
188 0.00039964
189 0.00039964
190 0.00136595
191 0.00136595
192 0.00053975
193 2.55366e-05
194 0.00232252
195 0.00174364
196 2.55366e-05
197 2.55366e-05
198 7.76603e-05
199 0.000184501
200 7.76603e-05
201 0.000184501
202 2.55366e-05
203 2.55366e-05
204 0.00295016
205 0.000327028
206 0.00201239
207 0.00135087
208 0.00192733
209 0.00123153
210 7.76603e-05
211 0.00161767
212 0.000327028
213 0.00295016
214 0.000327028
215 0.00201239
216 0.00123153
217 7.76603e-05
218 0.00135087
219 0.00192733
220 0.00161767
221 0.000327028
222 0.000698694
223 0.00174364
224 7.22285e-05
225 2.55366e-05
226 2.55366e-05
227 0.000184501
228 7.76603e-05
229 0.000184501
230 7.76603e-05
231 2.55366e-05
232 2.55366e-05
233 2.55366e-05
234 2.55366e-05
235 2.55366e-05
236 0.00039964
237 0.000184501
238 2.55366e-05
239 0.00201239
240 2.55366e-05
241 2.55366e-05
242 0.000432182
243 0.00039964
244 2.55366e-05
245 2.55366e-05
246 0.000184501
247 2.55366e-05
248 2.55366e-05
249 2.55366e-05
250 2.55366e-05
251 0.000184501
252 2.55366e-05
253 2.55366e-05
254 0.00039964
255 0.00201239
256 2.55366e-05
257 2.55366e-05
258 0.000432182
259 2.55366e-05
260 0.000184501
261 0.00039964
262 2.55366e-05
263 2.55366e-05
264 2.55366e-05
265 2.55366e-05
266 2.55366e-05
267 7.76603e-05
268 0.000184501
269 7.76603e-05
270 0.000184501
271 2.55366e-05
272 2.55366e-05
273 7.22285e-05
274 0.00627972
275 0.00275188
276 0.00352032
277 0.00284398
278 0.00313073
279 0.00462212
280 0.00295016
281 0.00220758
282 0.00224591
283 0.00352032
284 0.00792427
285 0.00352032
286 0.00284398
287 0.00295016
288 0.00220758
289 0.00313073
290 0.00462212
291 0.00224591
292 0.00352032
293 0.00792427
294 0.00174364
295 0.000698694
296 0.000327028
297 0.00161767
298 0.00192733
299 0.00135087
300 7.76603e-05
301 0.00123153
302 0.000432182
303 0.000327028
304 0.00295016
305 0.000327028
306 0.00161767
307 7.76603e-05
308 0.00123153
309 0.00192733
310 0.00135087
311 0.00201239
312 0.000327028
313 0.00295016
314 2.55366e-05
315 2.55366e-05
316 0.000184501
317 7.76603e-05
318 0.000184501
319 7.76603e-05
320 2.55366e-05
321 2.55366e-05
322 0.00174364
323 0.00627972
324 0.00609807
325 0.00431969
326 0.00187624
327 0.00406764
328 0.00406764
329 0.00279474
330 0.00279474
331 0.00187624
332 0.00431969
333 0.00284708
334 0.0103394
335 0.00352032
336 0.00224591
337 0.00462212
338 0.00313073
339 0.00220758
340 0.00295016
341 0.00284398
342 0.00352032
343 0.00232252
344 2.55366e-05
345 0.00053975
346 0.00136595
347 0.00136595
348 0.00039964
349 0.00039964
350 0.00053975
351 2.55366e-05
352 0.000325401
353 0.00279474
354 0.000327028
355 0.00201239
356 0.00135087
357 0.00192733
358 0.00123153
359 7.76603e-05
360 0.00161767
361 0.000327028
362 2.55366e-05
363 2.55366e-05
364 2.55366e-05
365 0.00039964
366 0.000184501
367 2.55366e-05
368 0.00201239
369 2.55366e-05
370 0.00224591
371 0.00232252
372 0.00992071
373 0.00609807
374 0.00609807
375 0.00992071
376 0.0103394
377 0.00284708
378 0.00232252
379 0.00224591
380 0.00279474
381 0.000325401
382 2.55366e-05
383 0.000432182
384 0.00039964
385 2.55366e-05
386 2.55366e-05
387 0.000184501
388 2.55366e-05
389 2.55366e-05
390 0.000327028
391 0.00161767
392 0.00192733
393 0.00135087
394 7.76603e-05
395 0.00123153
396 0.000432182
397 0.000327028
398 2.55366e-05
399 0.00053975
400 0.00136595
401 0.00136595
402 0.00039964
403 0.00039964
404 0.00053975
405 2.55366e-05
406 0.00232252
407 0.00352032
408 0.00284398
409 0.00313073
410 0.00462212
411 0.00295016
412 0.00220758
413 0.00224591
414 0.00352032
415 0.00431969
416 0.00187624
417 0.00406764
418 0.00406764
419 0.00279474
420 0.00279474
421 0.00187624
422 0.00431969
423 0.00609807
424 0.00609807
425 0.00431969
426 0.00187624
427 0.00279474
428 0.00279474
429 0.00406764
430 0.00406764
431 0.00187624
432 0.00431969
433 0.00352032
434 0.00224591
435 0.00220758
436 0.00295016
437 0.00462212
438 0.00313073
439 0.00284398
440 0.00352032
441 0.00232252
442 2.55366e-05
443 0.00053975
444 0.00039964
445 0.00039964
446 0.00136595
447 0.00136595
448 0.00053975
449 2.55366e-05
450 0.000327028
451 0.00201239
452 0.00123153
453 7.76603e-05
454 0.00135087
455 0.00192733
456 0.00161767
457 0.000327028
458 2.55366e-05
459 2.55366e-05
460 0.000184501
461 2.55366e-05
462 2.55366e-05
463 0.00039964
464 0.00201239
465 2.55366e-05
466 0.000325401
467 0.00279474
468 0.00224591
469 0.00232252
470 0.00284708
471 0.0103394
472 0.00992071
473 0.00609807
474 0.00609807
475 0.00992071
476 0.00232252
477 0.00224591
478 2.55366e-05
479 0.00201239
480 2.55366e-05
481 0.000184501
482 0.00039964
483 2.55366e-05
484 2.55366e-05
485 2.55366e-05
486 0.000327028
487 0.00161767
488 7.76603e-05
489 0.00123153
490 0.00192733
491 0.00135087
492 0.00201239
493 0.000327028
494 0.00279474
495 0.000325401
496 2.55366e-05
497 0.00053975
498 0.00039964
499 0.00039964
500 0.00136595
501 0.00136595
502 0.00053975
503 2.55366e-05
504 0.00232252
505 0.00352032
506 0.00284398
507 0.00295016
508 0.00220758
509 0.00313073
510 0.00462212
511 0.00224591
512 0.00352032
513 0.0103394
514 0.00284708
515 0.00431969
516 0.00187624
517 0.00279474
518 0.00279474
519 0.00406764
520 0.00406764
521 0.00187624
522 0.00431969
523 0.00609807
524 0.00627972
525 0.00174364
526 2.55366e-05
527 2.55366e-05
528 7.76603e-05
529 0.000184501
530 7.76603e-05
531 0.000184501
532 2.55366e-05
533 2.55366e-05
534 0.00295016
535 0.000327028
536 0.00201239
537 0.00135087
538 0.00192733
539 0.00123153
540 7.76603e-05
541 0.00161767
542 0.000327028
543 0.00295016
544 0.000327028
545 0.00201239
546 0.00123153
547 7.76603e-05
548 0.00135087
549 0.00192733
550 0.00161767
551 0.000327028
552 0.000698694
553 0.00174364
554 0.00792427
555 0.00352032
556 0.00224591
557 0.00462212
558 0.00313073
559 0.00220758
560 0.00295016
561 0.00284398
562 0.00352032
563 0.00792427
564 0.00352032
565 0.00224591
566 0.00220758
567 0.00295016
568 0.00462212
569 0.00313073
570 0.00284398
571 0.00352032
572 0.00275188
573 0.00627972
574 7.22285e-05
575 2.55366e-05
576 2.55366e-05
577 0.000184501
578 7.76603e-05
579 0.000184501
580 7.76603e-05
581 2.55366e-05
582 2.55366e-05
583 2.55366e-05
584 2.55366e-05
585 2.55366e-05
586 0.00039964
587 0.000184501
588 2.55366e-05
589 0.00201239
590 2.55366e-05
591 2.55366e-05
592 0.000432182
593 0.00039964
594 2.55366e-05
595 2.55366e-05
596 0.000184501
597 2.55366e-05
598 2.55366e-05
599 2.55366e-05
600 2.55366e-05
601 0.000184501
602 2.55366e-05
603 2.55366e-05
604 0.00039964
605 0.00201239
606 2.55366e-05
607 2.55366e-05
608 0.00201239
609 2.55366e-05
610 0.000184501
611 0.00039964
612 2.55366e-05
613 2.55366e-05
614 2.55366e-05
615 2.55366e-05
616 2.55366e-05
617 7.76603e-05
618 0.000184501
619 7.76603e-05
620 0.000184501
621 2.55366e-05
622 2.55366e-05
623 7.22285e-05
624 0.00174364
625 0.000698694
626 0.000327028
627 0.00161767
628 0.00192733
629 0.00135087
630 7.76603e-05
631 0.00123153
632 0.000432182
633 0.000327028
634 0.00295016
635 0.000327028
636 0.00161767
637 7.76603e-05
638 0.00123153
639 0.00192733
640 0.00135087
641 0.00201239
642 0.000327028
643 0.00295016
644 2.55366e-05
645 2.55366e-05
646 0.000184501
647 7.76603e-05
648 0.000184501
649 7.76603e-05
650 2.55366e-05
651 2.55366e-05
652 0.00174364
653 0.00232252
654 2.55366e-05
655 0.00053975
656 0.00136595
657 0.00136595
658 0.00039964
659 0.00039964
660 0.00053975
661 2.55366e-05
662 0.000325401
663 0.00279474
664 0.000327028
665 0.00201239
666 0.00135087
667 0.00192733
668 0.00123153
669 7.76603e-05
670 0.00161767
671 0.000327028
672 2.55366e-05
673 2.55366e-05
674 2.55366e-05
675 0.00039964
676 0.000184501
677 2.55366e-05
678 0.00201239
679 2.55366e-05
680 0.00224591
681 0.00232252
682 0.00232252
683 0.00224591
684 0.00279474
685 0.000325401
686 2.55366e-05
687 0.000432182
688 0.00039964
689 2.55366e-05
690 2.55366e-05
691 0.000184501
692 2.55366e-05
693 2.55366e-05
694 0.000327028
695 0.00161767
696 0.00192733
697 0.00135087
698 7.76603e-05
699 0.00123153
700 0.000432182
701 0.000327028
702 2.55366e-05
703 0.00053975
704 0.00136595
705 0.00136595
706 0.00039964
707 0.00039964
708 0.00053975
709 2.55366e-05
710 0.00232252
711 0.00232252
712 2.55366e-05
713 0.00053975
714 0.00039964
715 0.00039964
716 0.00136595
717 0.00136595
718 0.00053975
719 2.55366e-05
720 0.000327028
721 0.00201239
722 0.00123153
723 7.76603e-05
724 0.00135087
725 0.00192733
726 0.00161767
727 0.000327028
728 2.55366e-05
729 2.55366e-05
730 0.000184501
731 2.55366e-05
732 2.55366e-05
733 0.00039964
734 0.00201239
735 2.55366e-05
736 0.000325401
737 0.00279474
738 0.00224591
739 0.00232252
740 0.00232252
741 0.00224591
742 2.55366e-05
743 0.00201239
744 2.55366e-05
745 0.000184501
746 0.00039964
747 2.55366e-05
748 2.55366e-05
749 2.55366e-05
750 0.000327028
751 0.00161767
752 7.76603e-05
753 0.00123153
754 0.00192733
755 0.00135087
756 0.00201239
757 0.000327028
758 0.00279474
759 0.000325401
760 2.55366e-05
761 0.00053975
762 0.00039964
763 0.00039964
764 0.00136595
765 0.00136595
766 0.00053975
767 2.55366e-05
768 0.00232252
769 0.00174364
770 2.55366e-05
771 2.55366e-05
772 7.76603e-05
773 0.000184501
774 7.76603e-05
775 0.000184501
776 2.55366e-05
777 2.55366e-05
778 0.00295016
779 0.000327028
780 0.00201239
781 0.00135087
782 0.00192733
783 0.00123153
784 7.76603e-05
785 0.00161767
786 0.000327028
787 0.00295016
788 0.000327028
789 0.00201239
790 0.00123153
791 7.76603e-05
792 0.00135087
793 0.00192733
794 0.00161767
795 0.000327028
796 0.000698694
797 0.00174364
798 7.22285e-05
799 2.55366e-05
800 2.55366e-05
801 0.000184501
802 7.76603e-05
803 0.000184501
804 7.76603e-05
805 2.55366e-05
806 2.55366e-05
807 2.55366e-05
808 2.55366e-05
809 2.55366e-05
810 0.00039964
811 0.000184501
812 2.55366e-05
813 0.00201239
814 2.55366e-05
815 2.55366e-05
816 0.000432182
817 0.00039964
818 2.55366e-05
819 2.55366e-05
820 0.000184501
821 2.55366e-05
822 2.55366e-05
823 2.55366e-05
824 2.55366e-05
825 0.000184501
826 2.55366e-05
827 2.55366e-05
828 0.00039964
829 0.00201239
830 2.55366e-05
831 2.55366e-05
832 0.00201239
833 2.55366e-05
834 0.000184501
835 0.00039964
836 2.55366e-05
837 2.55366e-05
838 2.55366e-05
839 2.55366e-05
840 2.55366e-05
841 7.76603e-05
842 0.000184501
843 7.76603e-05
844 0.000184501
845 2.55366e-05
846 2.55366e-05
847 7.22285e-05
