0 1 1 1 
1 9 12 12 
2 8 9 8 
3 8 8 9 
4 8 8 9 
5 8 9 8 
6 9 12 12 
7 1 1 1 
8 3 11 11 
9 2 11 11 
10 16 16 14 
11 4 15 13 
12 16 14 16 
13 4 13 15 
14 9 12 12 
15 3 11 11 
16 8 3 7 
17 16 15 15 
18 7 2 7 
19 16 4 15 
20 16 14 16 
21 8 9 8 
22 15 4 16 
23 8 3 7 
24 8 7 3 
25 15 16 4 
26 16 15 4 
27 7 7 2 
28 8 8 9 
29 16 16 14 
30 16 15 15 
31 8 7 3 
32 8 7 3 
33 16 15 15 
34 16 16 14 
35 8 8 9 
36 7 7 2 
37 16 15 4 
38 15 16 4 
39 8 7 3 
40 8 3 7 
41 15 4 16 
42 8 9 8 
43 15 14 16 
44 16 4 15 
45 7 2 7 
46 16 15 15 
47 8 3 7 
48 3 11 11 
49 9 12 12 
50 4 13 15 
51 16 14 16 
52 4 15 13 
53 16 16 14 
54 2 11 11 
55 3 11 11 
56 1 1 1 
57 9 12 12 
58 8 9 8 
59 8 8 9 
60 8 8 9 
61 8 9 8 
62 9 12 12 
63 1 1 1 
64 2 11 11 
65 1 11 11 
66 4 5 3 
67 2 4 3 
68 15 15 2 
69 4 4 2 
70 4 15 13 
71 2 14 13 
72 15 16 4 
73 4 5 3 
74 2 3 3 
75 4 3 5 
76 2 3 4 
77 4 13 15 
78 2 13 14 
79 15 2 15 
80 4 2 4 
81 15 4 16 
82 4 3 5 
83 2 3 3 
84 3 11 11 
85 2 11 11 
86 16 16 14 
87 4 15 13 
88 15 14 16 
89 4 13 15 
90 9 12 12 
91 3 11 11 
92 2 11 11 
93 7 2 7 
94 5 4 4 
95 15 15 2 
96 4 2 4 
97 4 4 2 
98 16 4 15 
99 16 15 4 
100 15 2 15 
101 5 4 4 
102 7 1 7 
103 4 2 4 
104 4 3 5 
105 15 4 16 
106 4 2 4 
107 15 2 15 
108 2 13 14 
109 4 13 15 
110 2 3 4 
111 4 3 5 
112 8 3 7 
113 16 15 15 
114 7 2 7 
115 16 4 15 
116 16 14 16 
117 8 9 8 
118 15 4 16 
119 8 3 7 
120 4 1 4 
121 7 2 7 
122 7 7 2 
123 4 4 1 
124 4 4 2 
125 7 7 1 
126 8 7 3 
127 15 16 4 
128 16 15 4 
129 7 7 2 
130 8 8 9 
131 16 16 14 
132 16 15 15 
133 8 7 3 
134 4 5 3 
135 2 4 3 
136 15 15 2 
137 4 4 2 
138 4 15 13 
139 2 14 13 
140 15 16 4 
141 4 5 3 
142 5 4 4 
143 15 15 2 
144 4 2 4 
145 4 4 2 
146 16 4 15 
147 16 15 4 
148 15 2 15 
149 5 4 4 
150 7 7 2 
151 7 7 2 
152 5 4 4 
153 15 2 15 
154 16 15 4 
155 16 4 15 
156 4 4 2 
157 4 2 4 
158 15 15 2 
159 5 4 4 
160 4 5 3 
161 15 16 4 
162 2 14 13 
163 4 15 13 
164 4 4 2 
165 15 15 2 
166 2 4 3 
167 4 5 3 
168 8 7 3 
169 16 15 15 
170 16 16 14 
171 8 8 9 
172 7 7 2 
173 16 15 4 
174 15 16 4 
175 8 7 3 
176 7 7 1 
177 4 4 2 
178 4 4 1 
179 7 7 2 
180 7 2 7 
181 4 1 4 
182 8 3 7 
183 15 4 16 
184 8 9 8 
185 15 14 16 
186 16 4 15 
187 7 2 7 
188 16 15 15 
189 8 3 7 
190 4 3 5 
191 2 3 4 
192 4 13 15 
193 2 13 14 
194 15 2 15 
195 4 2 4 
196 15 4 16 
197 4 3 5 
198 4 2 4 
199 7 1 7 
200 5 4 4 
201 15 2 15 
202 16 15 4 
203 16 4 15 
204 4 4 2 
205 4 2 4 
206 15 15 2 
207 5 4 4 
208 7 2 7 
209 2 11 11 
210 3 11 11 
211 9 12 12 
212 4 13 15 
213 16 14 16 
214 4 15 13 
215 16 16 14 
216 2 11 11 
217 3 11 11 
218 2 3 3 
219 4 3 5 
220 15 4 16 
221 4 2 4 
222 15 2 15 
223 2 13 14 
224 4 13 15 
225 2 3 4 
226 4 3 5 
227 2 3 3 
228 4 5 3 
229 15 16 4 
230 2 14 13 
231 4 15 13 
232 4 4 2 
233 15 15 2 
234 2 4 3 
235 4 5 3 
236 1 11 11 
237 2 11 11 
238 1 1 1 
239 9 12 12 
240 8 9 8 
241 8 8 9 
242 8 8 9 
243 8 9 8 
244 9 12 12 
245 1 1 1 
246 3 11 11 
247 2 11 11 
248 16 16 14 
249 4 15 13 
250 15 14 16 
251 4 13 15 
252 9 12 12 
253 3 11 11 
254 8 3 7 
255 16 15 15 
256 7 2 7 
257 16 4 15 
258 16 14 16 
259 8 9 8 
260 15 4 16 
261 8 3 7 
262 8 7 3 
263 15 16 4 
264 16 15 4 
265 7 7 2 
266 8 8 9 
267 16 16 14 
268 16 15 15 
269 8 7 3 
270 8 7 3 
271 16 15 15 
272 16 16 14 
273 8 8 9 
274 7 7 2 
275 16 15 4 
276 15 16 4 
277 8 7 3 
278 8 3 7 
279 15 4 16 
280 8 9 8 
281 15 14 16 
282 16 4 15 
283 7 2 7 
284 16 15 15 
285 8 3 7 
286 3 11 11 
287 9 12 12 
288 4 13 15 
289 16 14 16 
290 4 15 13 
291 16 16 14 
292 2 11 11 
293 3 11 11 
294 1 1 1 
295 9 12 12 
296 8 9 8 
297 8 8 9 
298 8 8 9 
299 8 9 8 
300 9 12 12 
301 1 1 1 
