0 1 1 1 
1 1 1 1 
2 1 1 1 
3 1 1 1 
4 4 4 4 
5 3 4 4 
6 8 8 8 
7 6 8 8 
8 1 1 1 
9 1 1 1 
10 3 4 4 
11 4 4 4 
12 3 4 4 
13 4 4 4 
14 3 4 4 
15 1 1 1 
16 1 1 1 
17 8 8 8 
18 6 8 8 
19 3 4 4 
20 4 4 4 
21 3 4 4 
22 1 1 1 
23 1 1 1 
24 8 8 8 
25 6 8 8 
26 3 4 4 
27 4 4 4 
28 1 1 1 
29 1 1 1 
30 1 1 1 
31 1 1 1 
32 1 1 1 
33 2 1 2 
34 1 1 1 
35 1 1 1 
36 2 1 2 
37 1 1 1 
38 1 1 1 
39 2 2 1 
40 2 2 1 
41 1 1 1 
42 1 1 1 
43 1 1 1 
44 1 1 1 
45 1 1 1 
46 1 1 1 
47 1 1 1 
48 1 1 1 
49 1 1 1 
50 1 1 1 
51 2 2 1 
52 2 2 1 
53 1 1 1 
54 1 1 1 
55 2 1 2 
56 1 1 1 
57 4 4 4 
58 3 4 4 
59 6 8 8 
60 8 8 8 
61 1 1 1 
62 1 1 1 
63 3 4 4 
64 4 4 4 
65 3 4 4 
66 4 4 4 
67 3 4 4 
68 1 1 1 
69 1 1 1 
70 6 8 8 
71 8 8 8 
72 3 4 4 
73 4 4 4 
74 3 4 4 
75 1 1 1 
76 1 1 1 
77 6 8 8 
78 8 8 8 
79 3 4 4 
80 4 4 4 
81 1 1 1 
82 1 1 1 
83 1 1 1 
84 1 1 1 
85 1 1 1 
86 1 1 1 
87 1 1 1 
88 1 1 1 
89 1 1 1 
90 1 1 1 
91 1 1 1 
92 1 1 1 
93 1 1 1 
94 2 4 4 
95 2 4 4 
96 2 4 4 
97 2 4 4 
98 4 4 4 
99 3 4 4 
100 8 8 8 
101 6 8 8 
102 1 1 1 
103 1 1 1 
104 3 4 4 
105 4 4 4 
106 3 4 4 
107 8 8 8 
108 6 8 8 
109 1 1 1 
110 1 1 1 
111 3 4 4 
112 4 4 4 
113 3 4 4 
114 8 8 8 
115 6 8 8 
116 1 1 1 
117 1 1 1 
118 3 4 4 
119 4 4 4 
120 3 4 4 
121 1 1 1 
122 1 1 1 
123 8 8 8 
124 6 8 8 
125 3 4 4 
126 4 4 4 
127 3 4 4 
128 1 1 1 
129 1 1 1 
130 8 8 8 
131 6 8 8 
132 3 4 4 
133 4 4 4 
134 3 4 4 
135 1 1 1 
136 1 1 1 
137 8 8 8 
138 6 8 8 
139 3 4 4 
140 4 4 4 
141 2 4 4 
142 1 1 1 
143 4 4 4 
144 3 4 4 
145 8 8 8 
146 6 8 8 
147 1 1 1 
148 1 1 1 
149 3 4 4 
150 4 4 4 
151 3 4 4 
152 4 4 4 
153 3 4 4 
154 1 1 1 
155 1 1 1 
156 8 8 8 
157 6 8 8 
158 3 4 4 
159 4 4 4 
160 3 4 4 
161 1 1 1 
162 1 1 1 
163 8 8 8 
164 6 8 8 
165 3 4 4 
166 4 4 4 
167 3 4 4 
168 1 1 1 
169 1 1 1 
170 8 8 8 
171 6 8 8 
172 3 4 4 
173 4 4 4 
174 1 1 1 
175 1 1 1 
176 1 1 1 
177 1 1 1 
178 2 4 4 
179 2 4 4 
180 2 4 4 
181 2 4 4 
182 1 1 1 
183 1 1 1 
184 1 1 1 
185 1 1 1 
186 1 1 1 
187 1 1 1 
188 1 1 1 
189 1 1 1 
190 1 1 1 
191 1 1 1 
192 8 6 6 
193 4 4 4 
194 3 4 4 
195 6 8 8 
196 8 8 8 
197 1 1 1 
198 1 1 1 
199 3 4 4 
200 4 4 4 
201 3 4 4 
202 6 8 8 
203 8 8 8 
204 1 1 1 
205 1 1 1 
206 3 4 4 
207 4 4 4 
208 3 4 4 
209 6 8 8 
210 8 8 8 
211 1 1 1 
212 1 1 1 
213 3 4 4 
214 4 4 4 
215 3 4 4 
216 6 8 8 
217 8 8 8 
218 1 1 1 
219 1 1 1 
220 3 4 4 
221 4 4 4 
222 3 4 4 
223 6 8 8 
224 8 8 8 
225 1 1 1 
226 1 1 1 
227 3 4 4 
228 4 4 4 
229 3 4 5 
230 6 4 7 
231 1 1 1 
232 1 1 1 
233 1 1 1 
234 2 1 2 
235 1 1 1 
236 1 1 1 
237 2 1 2 
238 1 1 1 
239 5 2 5 
240 1 1 1 
241 5 2 5 
242 1 1 1 
243 3 2 3 
244 5 3 6 
245 2 2 3 
246 5 2 5 
247 1 1 1 
248 1 1 1 
249 1 1 1 
250 4 4 4 
251 3 4 4 
252 8 8 8 
253 6 8 8 
254 1 1 1 
255 1 1 1 
256 3 4 4 
257 4 4 4 
258 3 4 4 
259 8 8 8 
260 6 8 8 
261 1 1 1 
262 1 1 1 
263 3 4 4 
264 4 4 4 
265 3 4 4 
266 8 8 8 
267 6 8 8 
268 1 1 1 
269 1 1 1 
270 3 4 4 
271 4 4 4 
272 3 4 4 
273 8 8 8 
274 6 8 8 
275 1 1 1 
276 1 1 1 
277 3 4 4 
278 4 4 4 
279 3 4 4 
280 8 8 8 
281 6 8 8 
282 4 4 4 
283 3 4 4 
284 1 1 1 
285 1 1 1 
286 6 8 8 
287 8 8 8 
288 3 4 4 
289 4 4 4 
290 3 4 4 
291 1 1 1 
292 1 1 1 
293 6 8 8 
294 8 8 8 
295 3 4 4 
296 4 4 4 
297 3 4 4 
298 1 1 1 
299 1 1 1 
300 6 8 8 
301 8 8 8 
302 3 4 4 
303 4 4 4 
304 3 4 4 
305 1 1 1 
306 1 1 1 
307 6 8 8 
308 8 8 8 
309 3 4 4 
310 4 4 4 
311 3 4 4 
312 1 1 1 
313 1 1 1 
314 6 8 8 
315 8 8 8 
316 3 4 4 
317 4 4 4 
318 3 4 4 
319 1 1 1 
320 1 1 1 
321 6 8 8 
322 8 8 8 
323 3 4 4 
324 4 4 4 
325 3 4 4 
326 1 1 1 
327 1 1 1 
328 6 8 8 
329 8 8 8 
330 3 4 4 
331 4 4 4 
332 3 4 4 
333 1 1 1 
334 1 1 1 
335 6 8 8 
336 8 8 8 
337 3 4 4 
338 4 4 4 
339 4 4 4 
340 3 4 4 
341 1 1 1 
342 1 1 1 
343 8 8 8 
344 6 8 8 
345 3 4 4 
346 4 4 4 
347 3 4 4 
348 1 1 1 
349 1 1 1 
350 8 8 8 
351 6 8 8 
352 3 4 4 
353 4 4 4 
354 3 4 4 
355 1 1 1 
356 1 1 1 
357 8 8 8 
358 6 8 8 
359 3 4 4 
360 4 4 4 
361 3 4 4 
362 1 1 1 
363 1 1 1 
364 8 8 8 
365 6 8 8 
366 3 4 4 
367 4 4 4 
368 3 4 4 
369 1 1 1 
370 1 1 1 
371 8 8 8 
372 6 8 8 
373 3 4 4 
374 4 4 4 
375 3 4 4 
376 1 1 1 
377 1 1 1 
378 8 8 8 
379 6 8 8 
380 4 4 4 
381 3 4 4 
382 6 8 8 
383 8 8 8 
384 1 1 1 
385 1 1 1 
386 3 4 4 
387 4 4 4 
388 3 4 4 
389 4 4 4 
390 3 4 4 
391 1 1 1 
392 1 1 1 
393 6 8 8 
394 8 8 8 
395 3 4 4 
396 4 4 4 
397 3 4 4 
398 1 1 1 
399 1 1 1 
400 6 8 8 
401 8 8 8 
402 3 4 4 
403 4 4 4 
404 3 4 4 
405 1 1 1 
406 1 1 1 
407 6 8 8 
408 8 8 8 
409 3 4 4 
410 4 4 4 
411 3 4 4 
412 1 1 1 
413 4 4 4 
414 3 4 4 
415 6 8 8 
416 8 8 8 
417 1 1 1 
418 1 1 1 
419 3 4 4 
420 4 4 4 
421 3 4 4 
422 6 8 8 
423 8 8 8 
424 1 1 1 
425 1 1 1 
426 3 4 4 
427 4 4 4 
428 3 4 4 
429 6 8 8 
430 8 8 8 
431 1 1 1 
432 1 1 1 
433 3 4 4 
434 4 4 4 
435 3 4 4 
436 1 1 1 
437 1 1 1 
438 6 8 8 
439 8 8 8 
440 3 4 4 
441 4 4 4 
442 3 4 4 
443 1 1 1 
444 1 1 1 
445 6 8 8 
446 8 8 8 
447 3 4 4 
448 4 4 4 
449 3 4 4 
450 1 1 1 
451 1 1 1 
452 6 8 8 
453 8 8 8 
454 3 4 4 
455 4 4 4 
456 3 4 4 
457 1 1 1 
458 1 1 1 
459 6 8 8 
460 8 8 8 
461 3 4 4 
462 4 4 4 
463 3 4 4 
464 1 1 1 
465 1 1 1 
466 4 4 4 
467 3 4 4 
468 8 8 8 
469 6 8 8 
470 1 1 1 
471 1 1 1 
472 3 4 4 
473 4 4 4 
474 3 4 4 
475 4 4 4 
476 3 4 4 
477 1 1 1 
478 1 1 1 
479 8 8 8 
480 6 8 8 
481 3 4 4 
482 4 4 4 
483 3 4 4 
484 1 1 1 
485 1 1 1 
486 8 8 8 
487 6 8 8 
488 3 4 4 
489 4 4 4 
490 3 4 4 
491 1 1 1 
492 1 1 1 
493 8 8 8 
494 6 8 8 
495 3 4 4 
496 4 4 4 
497 3 4 4 
498 1 1 1 
499 1 1 1 
500 8 8 8 
501 6 8 8 
502 3 4 4 
503 4 4 4 
504 3 4 4 
505 1 1 1 
506 1 1 1 
507 8 8 8 
508 6 8 8 
509 3 4 4 
510 4 4 4 
511 3 4 4 
512 1 1 1 
513 1 1 1 
514 8 8 8 
515 6 8 8 
516 3 4 4 
517 4 4 4 
518 3 4 4 
519 4 4 4 
520 3 4 4 
521 6 8 8 
522 8 8 8 
523 1 1 1 
524 1 1 1 
525 3 4 4 
526 4 4 4 
527 3 4 4 
528 4 4 4 
529 3 4 4 
530 1 1 1 
531 1 1 1 
532 6 8 8 
533 8 8 8 
534 3 4 4 
535 4 4 4 
536 3 4 4 
537 1 1 1 
538 1 1 1 
539 6 8 8 
540 8 8 8 
541 3 4 4 
542 4 4 4 
543 3 4 4 
544 1 1 1 
545 1 1 1 
546 6 8 8 
547 8 8 8 
548 3 4 4 
549 4 4 4 
550 3 4 4 
551 1 1 1 
552 1 1 1 
553 6 8 8 
554 8 8 8 
555 3 4 4 
556 4 4 4 
557 3 4 4 
558 1 1 1 
559 1 1 1 
560 6 8 8 
561 8 8 8 
562 3 4 4 
563 4 4 4 
564 3 4 4 
565 1 1 1 
566 1 1 1 
567 6 8 8 
568 8 8 8 
569 3 4 4 
570 4 4 4 
571 3 4 4 
572 1 1 1 
573 1 1 1 
574 6 8 8 
575 8 8 8 
576 3 4 4 
577 4 4 4 
578 3 4 4 
579 1 1 1 
580 1 1 1 
581 6 8 8 
582 8 8 8 
583 3 4 4 
584 4 4 4 
585 3 4 4 
586 1 1 1 
587 1 1 1 
588 6 8 8 
589 8 8 8 
590 3 4 4 
591 4 4 4 
592 3 4 4 
593 1 1 1 
594 1 1 1 
595 6 8 8 
596 8 8 8 
597 3 4 4 
598 4 4 4 
599 3 4 4 
600 1 1 1 
601 1 1 1 
602 6 8 8 
603 8 8 8 
604 3 4 4 
605 4 4 4 
606 3 4 4 
607 1 1 1 
608 4 4 4 
609 3 4 4 
610 8 8 8 
611 6 8 8 
612 1 1 1 
613 1 1 1 
614 3 4 4 
615 4 4 4 
616 3 4 4 
617 8 8 8 
618 6 8 8 
619 1 1 1 
620 1 1 1 
621 3 4 4 
622 4 4 4 
623 3 4 4 
624 8 8 8 
625 6 8 8 
626 1 1 1 
627 1 1 1 
628 3 4 4 
629 4 4 4 
630 3 4 4 
631 1 1 1 
632 1 1 1 
633 8 8 8 
634 6 8 8 
635 3 4 4 
636 4 4 4 
637 3 4 4 
638 1 1 1 
639 1 1 1 
640 8 8 8 
641 6 8 8 
642 3 4 4 
643 4 4 4 
644 3 4 4 
645 1 1 1 
646 1 1 1 
647 8 8 8 
648 6 8 8 
649 3 4 4 
650 4 4 4 
651 1 1 1 
652 1 1 1 
653 4 4 4 
654 3 4 4 
655 8 8 8 
656 6 8 8 
657 1 1 1 
658 1 1 1 
659 3 4 4 
660 4 4 4 
661 3 4 4 
662 4 4 4 
663 3 4 4 
664 1 1 1 
665 1 1 1 
666 8 8 8 
667 6 8 8 
668 3 4 4 
669 4 4 4 
670 3 4 4 
671 1 1 1 
672 1 1 1 
673 8 8 8 
674 6 8 8 
675 3 4 4 
676 4 4 4 
677 3 4 4 
678 1 1 1 
679 1 1 1 
680 8 8 8 
681 6 8 8 
682 3 4 4 
683 4 4 4 
684 6 8 8 
685 1 1 1 
686 1 1 1 
687 3 4 4 
688 4 4 4 
689 8 8 8 
690 4 4 4 
691 3 4 4 
692 1 1 1 
693 1 1 1 
694 8 8 8 
695 6 8 8 
696 3 4 4 
697 4 4 4 
698 3 4 4 
699 4 4 4 
700 3 4 4 
701 1 1 1 
702 4 4 4 
703 3 4 4 
704 8 8 8 
705 6 8 8 
706 1 1 1 
707 1 1 1 
708 3 4 4 
709 4 4 4 
710 3 4 4 
711 4 4 4 
712 3 4 4 
713 1 1 1 
714 1 1 1 
715 8 8 8 
716 6 8 8 
717 3 4 4 
718 4 4 4 
719 3 4 4 
720 1 1 1 
721 1 1 1 
722 8 8 8 
723 6 8 8 
724 3 4 4 
725 4 4 4 
726 3 4 4 
727 1 1 1 
728 1 1 1 
729 8 8 8 
730 6 8 8 
731 3 4 4 
732 4 4 4 
733 3 4 4 
734 1 1 1 
735 1 1 1 
736 8 8 8 
737 6 8 8 
738 3 4 4 
739 4 4 4 
740 3 4 4 
741 1 1 1 
742 1 1 1 
743 8 8 8 
744 6 8 8 
745 3 4 4 
746 4 4 4 
747 3 4 4 
748 1 1 1 
749 1 1 1 
750 8 8 8 
751 6 8 8 
752 3 4 4 
753 4 4 4 
754 3 4 4 
755 1 1 1 
756 1 1 1 
757 8 8 8 
758 6 8 8 
759 3 4 4 
760 4 4 4 
761 3 4 4 
762 1 1 1 
763 1 1 1 
764 8 8 8 
765 4 4 4 
766 3 4 4 
767 6 8 8 
768 8 8 8 
769 1 1 1 
770 1 1 1 
771 3 4 4 
772 4 4 4 
773 3 4 4 
774 6 8 8 
775 8 8 8 
776 1 1 1 
777 1 1 1 
778 3 4 4 
779 4 4 4 
780 3 4 4 
781 6 8 8 
782 8 8 8 
783 1 1 1 
784 1 1 1 
785 3 4 4 
786 4 4 4 
787 3 4 4 
788 4 4 4 
789 3 4 4 
790 1 1 1 
791 1 1 1 
792 8 8 8 
793 4 4 4 
794 3 4 4 
795 6 8 8 
796 8 8 8 
797 1 1 1 
798 1 1 1 
799 3 4 4 
800 4 4 4 
801 3 4 4 
802 4 4 4 
803 3 4 4 
804 1 1 1 
805 1 1 1 
806 8 8 8 
807 6 8 8 
808 3 4 4 
809 4 4 4 
810 3 4 4 
811 1 1 1 
812 1 1 1 
813 8 8 8 
814 4 4 4 
815 3 4 4 
816 6 8 8 
817 8 8 8 
818 1 1 1 
819 1 1 1 
820 3 4 4 
821 4 4 4 
822 3 4 4 
823 6 8 8 
824 8 8 8 
825 1 1 1 
826 1 1 1 
827 3 4 4 
828 4 4 4 
829 3 4 4 
830 8 8 8 
831 6 8 8 
832 1 1 1 
833 1 1 1 
834 3 4 4 
835 4 4 4 
836 3 4 4 
837 8 8 8 
838 6 8 8 
839 1 1 1 
840 1 1 1 
841 3 4 4 
842 4 4 4 
843 3 4 4 
844 8 8 8 
845 6 8 8 
846 1 1 1 
847 1 1 1 
848 3 4 4 
849 4 4 4 
850 3 4 4 
851 8 8 8 
852 6 8 8 
853 1 1 1 
854 1 1 1 
855 3 4 4 
856 4 4 4 
857 3 4 4 
858 4 4 4 
859 3 4 4 
860 1 1 1 
861 1 1 1 
862 8 8 8 
863 4 4 4 
864 3 4 4 
865 8 8 8 
866 6 8 8 
867 1 1 1 
868 1 1 1 
869 3 4 4 
870 4 4 4 
871 3 4 4 
872 6 8 8 
873 8 8 8 
874 1 1 1 
875 1 1 1 
876 3 4 4 
877 4 4 4 
878 3 4 4 
879 8 8 8 
880 6 8 8 
881 1 1 1 
882 1 1 1 
883 3 4 4 
884 4 4 4 
885 3 4 4 
886 8 8 8 
887 6 8 8 
888 1 1 1 
889 1 1 1 
890 3 4 4 
891 4 4 4 
892 3 4 4 
893 8 8 8 
894 6 8 8 
895 1 1 1 
896 1 1 1 
897 3 4 4 
898 4 4 4 
899 3 4 4 
900 8 8 8 
901 6 8 8 
902 1 1 1 
903 1 1 1 
904 3 4 4 
905 4 4 4 
906 3 4 4 
907 6 8 8 
908 8 8 8 
909 1 1 1 
910 1 1 1 
911 3 4 4 
912 4 4 4 
913 3 4 4 
914 8 8 8 
915 6 8 8 
916 1 1 1 
917 1 1 1 
918 3 4 4 
919 4 4 4 
920 3 4 4 
921 6 8 8 
922 8 8 8 
923 1 1 1 
924 1 1 1 
925 3 4 4 
926 4 4 4 
927 3 4 4 
928 6 8 8 
929 8 8 8 
930 1 1 1 
931 1 1 1 
932 3 4 4 
933 4 4 4 
934 3 4 4 
935 8 8 8 
936 6 8 8 
937 1 1 1 
938 1 1 1 
939 3 4 4 
940 4 4 4 
941 3 4 4 
942 8 8 8 
943 6 8 8 
944 1 1 1 
945 1 1 1 
946 3 4 4 
947 4 4 4 
948 3 4 4 
949 8 8 8 
950 6 8 8 
951 1 1 1 
952 1 1 1 
953 3 4 4 
954 4 4 4 
955 3 4 4 
956 6 8 8 
957 8 8 8 
958 1 1 1 
959 1 1 1 
960 3 4 4 
961 4 4 4 
962 3 4 4 
963 8 8 8 
964 6 8 8 
965 1 1 1 
966 1 1 1 
967 3 4 4 
968 4 4 4 
969 3 4 4 
970 6 8 8 
971 8 8 8 
972 1 1 1 
973 1 1 1 
974 3 4 4 
975 4 4 4 
976 3 4 4 
977 6 8 8 
978 4 4 4 
979 3 4 4 
980 1 1 1 
981 1 1 1 
982 6 8 8 
983 8 8 8 
984 3 4 4 
985 4 4 4 
986 1 1 1 
987 1 1 1 
988 3 4 4 
989 4 4 4 
990 3 4 4 
991 8 8 8 
992 4 4 4 
993 3 4 4 
994 1 1 1 
995 1 1 1 
996 6 8 8 
997 8 8 8 
998 3 4 4 
999 4 4 4 
1000 1 1 1 
1001 1 1 1 
1002 3 4 4 
1003 4 4 4 
1004 3 4 4 
1005 8 8 8 
1006 4 4 4 
1007 3 4 4 
1008 1 1 1 
1009 1 1 1 
1010 6 8 8 
1011 8 8 8 
1012 3 4 4 
1013 4 4 4 
1014 3 4 4 
1015 1 1 1 
1016 1 1 1 
1017 6 8 8 
1018 8 8 8 
1019 3 4 4 
1020 4 4 4 
1021 3 4 4 
1022 1 1 1 
1023 1 1 1 
1024 6 8 8 
1025 8 8 8 
1026 3 4 4 
1027 4 4 4 
1028 3 4 4 
1029 1 1 1 
1030 1 1 1 
1031 6 8 8 
1032 8 8 8 
1033 3 4 4 
1034 4 4 4 
1035 1 1 1 
1036 1 1 1 
1037 3 4 4 
1038 4 4 4 
1039 3 4 4 
1040 8 8 8 
1041 4 4 4 
1042 3 4 4 
1043 1 1 1 
1044 1 1 1 
1045 8 8 8 
1046 6 8 8 
1047 3 4 4 
1048 4 4 4 
1049 3 4 4 
1050 1 1 1 
1051 1 1 1 
1052 8 8 8 
1053 6 8 8 
1054 3 4 4 
1055 4 4 4 
1056 3 4 4 
1057 1 1 1 
1058 1 1 1 
1059 6 8 8 
1060 8 8 8 
1061 3 4 4 
1062 4 4 4 
1063 3 4 4 
1064 1 1 1 
1065 1 1 1 
1066 8 8 8 
1067 6 8 8 
1068 3 4 4 
1069 4 4 4 
1070 3 4 4 
1071 1 1 1 
1072 1 1 1 
1073 6 8 8 
1074 8 8 8 
1075 3 4 4 
1076 4 4 4 
1077 3 4 4 
1078 1 1 1 
1079 1 1 1 
1080 8 8 8 
1081 6 8 8 
1082 3 4 4 
1083 4 4 4 
1084 3 4 4 
1085 1 1 1 
1086 1 1 1 
1087 8 8 8 
1088 6 8 8 
1089 3 4 4 
1090 4 4 4 
1091 3 4 4 
1092 1 1 1 
1093 1 1 1 
1094 8 8 8 
1095 6 8 8 
1096 3 4 4 
1097 4 4 4 
1098 3 4 4 
1099 1 1 1 
1100 1 1 1 
1101 8 8 8 
1102 6 8 8 
1103 3 4 4 
1104 4 4 4 
1105 1 1 1 
1106 1 1 1 
1107 3 4 4 
1108 4 4 4 
1109 3 4 4 
1110 8 8 8 
1111 4 4 4 
1112 3 4 4 
1113 1 1 1 
1114 1 1 1 
1115 8 8 8 
1116 6 8 8 
1117 3 4 4 
1118 4 4 4 
1119 3 4 4 
1120 1 1 1 
1121 1 1 1 
1122 6 8 8 
1123 8 8 8 
1124 3 4 4 
1125 4 4 4 
1126 3 4 4 
1127 1 1 1 
1128 1 1 1 
1129 8 8 8 
1130 6 8 8 
1131 3 4 4 
1132 4 4 4 
1133 3 4 4 
1134 1 1 1 
1135 1 1 1 
1136 8 8 8 
1137 6 8 8 
1138 3 4 4 
1139 4 4 4 
1140 3 4 4 
1141 1 1 1 
1142 1 1 1 
1143 8 8 8 
1144 4 4 4 
1145 3 4 4 
1146 6 8 8 
1147 8 8 8 
1148 1 1 1 
1149 1 1 1 
1150 3 4 4 
1151 4 4 4 
1152 3 4 4 
1153 4 4 4 
1154 3 4 4 
1155 1 1 1 
1156 1 1 1 
1157 6 8 8 
1158 8 8 8 
1159 3 4 4 
1160 4 4 4 
1161 3 4 4 
1162 1 1 1 
1163 1 1 1 
1164 8 8 8 
1165 4 4 4 
1166 3 4 4 
1167 6 8 8 
1168 8 8 8 
1169 1 1 1 
1170 1 1 1 
1171 3 4 4 
1172 4 4 4 
1173 3 4 4 
1174 4 4 4 
1175 3 4 4 
1176 1 1 1 
1177 4 4 4 
1178 3 4 4 
1179 6 8 8 
1180 8 8 8 
1181 1 1 1 
1182 1 1 1 
1183 3 4 4 
1184 4 4 4 
1185 3 4 4 
1186 4 4 4 
1187 3 4 4 
1188 4 4 4 
1189 3 4 4 
1190 1 1 1 
1191 1 1 1 
1192 6 8 8 
1193 8 8 8 
1194 3 4 4 
1195 4 4 4 
1196 3 4 4 
1197 1 1 1 
1198 4 4 4 
1199 3 4 4 
1200 1 1 1 
1201 1 1 1 
1202 6 8 8 
1203 8 8 8 
1204 3 4 4 
1205 4 4 4 
1206 6 8 8 
1207 8 8 8 
1208 3 4 4 
1209 4 4 4 
1210 3 4 4 
1211 1 1 1 
1212 4 4 4 
1213 3 4 4 
1214 6 8 8 
1215 8 8 8 
1216 1 1 1 
1217 1 1 1 
1218 3 4 4 
1219 4 4 4 
1220 3 4 4 
1221 1 1 1 
1222 1 1 1 
1223 6 8 8 
1224 8 8 8 
1225 3 4 4 
1226 4 4 4 
1227 3 4 4 
1228 6 8 8 
1229 8 8 8 
1230 1 1 1 
1231 1 1 1 
1232 3 4 4 
1233 4 4 4 
1234 3 4 4 
1235 1 1 1 
1236 1 1 1 
1237 6 8 8 
1238 8 8 8 
1239 3 4 4 
1240 4 4 4 
1241 3 4 4 
1242 1 1 1 
1243 1 1 1 
1244 6 8 8 
1245 8 8 8 
1246 3 4 4 
1247 4 4 4 
1248 3 4 4 
1249 1 1 1 
1250 1 1 1 
1251 6 8 8 
1252 8 8 8 
1253 3 4 4 
1254 4 4 4 
1255 3 4 4 
1256 1 1 1 
1257 1 1 1 
1258 6 8 8 
1259 8 8 8 
1260 3 4 4 
1261 4 4 4 
1262 3 4 4 
1263 6 8 8 
1264 8 8 8 
1265 1 1 1 
1266 1 1 1 
1267 3 4 4 
1268 4 4 4 
1269 3 4 4 
1270 1 1 1 
1271 1 1 1 
1272 6 8 8 
1273 8 8 8 
1274 3 4 4 
1275 4 4 4 
1276 3 4 4 
1277 6 8 8 
1278 4 4 4 
1279 3 4 4 
1280 8 8 8 
1281 6 8 8 
1282 1 1 1 
1283 1 1 1 
1284 3 4 4 
1285 4 4 4 
1286 6 8 8 
1287 4 4 4 
1288 3 4 4 
1289 1 1 1 
1290 1 1 1 
1291 8 8 8 
1292 6 8 8 
1293 3 4 4 
1294 4 4 4 
1295 3 4 4 
1296 4 4 4 
1297 3 4 4 
1298 1 1 1 
1299 4 4 4 
1300 3 4 4 
1301 8 8 8 
1302 6 8 8 
1303 1 1 1 
1304 1 1 1 
1305 3 4 4 
1306 4 4 4 
1307 6 8 8 
1308 4 4 4 
1309 3 4 4 
1310 1 1 1 
1311 1 1 1 
1312 8 8 8 
1313 6 8 8 
1314 3 4 4 
1315 4 4 4 
1316 6 8 8 
1317 1 1 1 
1318 1 1 1 
1319 3 4 4 
1320 4 4 4 
1321 3 4 4 
1322 4 4 4 
1323 3 4 4 
1324 1 1 1 
1325 1 1 1 
1326 8 8 8 
1327 6 8 8 
1328 3 4 4 
1329 4 4 4 
1330 3 4 4 
1331 4 4 4 
1332 3 4 4 
1333 6 8 8 
1334 8 8 8 
1335 1 1 1 
1336 1 1 1 
1337 3 4 4 
1338 4 4 4 
1339 1 1 1 
1340 4 4 4 
1341 3 4 4 
1342 1 1 1 
1343 1 1 1 
1344 6 8 8 
1345 8 8 8 
1346 3 4 4 
1347 4 4 4 
1348 4 4 4 
1349 3 4 4 
1350 8 8 8 
1351 6 8 8 
1352 4 4 4 
1353 3 4 4 
1354 6 8 8 
1355 8 8 8 
1356 1 1 1 
1357 1 1 1 
1358 3 4 4 
1359 4 4 4 
1360 1 1 1 
1361 4 4 4 
1362 3 4 4 
1363 1 1 1 
1364 1 1 1 
1365 6 8 8 
1366 8 8 8 
1367 3 4 4 
1368 4 4 4 
1369 8 8 8 
1370 1 1 1 
1371 1 1 1 
1372 4 4 4 
1373 3 4 4 
1374 8 8 8 
1375 6 8 8 
1376 1 1 1 
1377 1 1 1 
1378 3 4 4 
1379 4 4 4 
1380 8 8 8 
1381 3 4 4 
1382 4 4 4 
1383 3 4 4 
1384 1 1 1 
1385 1 1 1 
1386 6 8 8 
1387 8 8 8 
1388 3 4 4 
1389 4 4 4 
1390 3 4 4 
1391 1 1 1 
1392 1 1 1 
1393 4 4 4 
1394 3 4 4 
1395 1 1 1 
1396 1 1 1 
1397 8 8 8 
1398 6 8 8 
1399 3 4 4 
1400 4 4 4 
1401 4 4 4 
1402 3 4 4 
1403 6 8 8 
1404 8 8 8 
1405 1 1 1 
1406 1 1 1 
1407 4 4 4 
1408 3 4 4 
1409 8 8 8 
1410 6 8 8 
1411 1 1 1 
1412 1 1 1 
1413 3 4 4 
1414 4 4 4 
1415 3 4 4 
1416 1 1 1 
1417 4 4 4 
1418 3 4 4 
1419 8 8 8 
1420 6 8 8 
1421 1 1 1 
1422 1 1 1 
1423 3 4 4 
1424 4 4 4 
1425 1 1 1 
1426 4 4 4 
1427 3 4 4 
1428 1 1 1 
1429 1 1 1 
1430 8 8 8 
1431 6 8 8 
1432 3 4 4 
1433 4 4 4 
1434 3 4 4 
1435 4 4 4 
1436 3 4 4 
1437 1 1 1 
1438 4 4 4 
1439 3 4 4 
1440 8 8 8 
1441 6 8 8 
1442 1 1 1 
1443 1 1 1 
1444 3 4 4 
1445 4 4 4 
1446 8 8 8 
1447 4 4 4 
1448 3 4 4 
1449 1 1 1 
1450 1 1 1 
1451 8 8 8 
1452 6 8 8 
1453 3 4 4 
1454 4 4 4 
1455 6 8 8 
1456 1 1 1 
1457 1 1 1 
1458 3 4 4 
1459 4 4 4 
1460 3 4 4 
1461 4 4 4 
1462 3 4 4 
1463 1 1 1 
1464 1 1 1 
1465 8 8 8 
1466 6 8 8 
1467 4 4 4 
1468 3 4 4 
1469 6 8 8 
1470 8 8 8 
1471 1 1 1 
1472 1 1 1 
1473 3 4 4 
1474 4 4 4 
1475 4 4 4 
1476 3 4 4 
1477 1 1 1 
1478 1 1 1 
1479 8 8 8 
1480 6 8 8 
1481 3 4 4 
1482 4 4 4 
1483 3 4 4 
1484 4 4 4 
1485 3 4 4 
1486 1 1 1 
1487 4 4 4 
1488 4 4 4 
1489 3 4 4 
1490 6 8 8 
1491 8 8 8 
1492 1 1 1 
1493 1 1 1 
1494 3 4 4 
1495 4 4 4 
1496 4 4 4 
1497 3 4 4 
1498 1 1 1 
1499 1 1 1 
1500 8 8 8 
1501 6 8 8 
1502 4 4 4 
1503 3 4 4 
1504 6 8 8 
1505 8 8 8 
1506 1 1 1 
1507 1 1 1 
1508 3 4 4 
1509 4 4 4 
1510 3 4 4 
1511 6 8 8 
1512 8 8 8 
1513 1 1 1 
1514 1 1 1 
1515 3 4 4 
1516 4 4 4 
1517 3 4 4 
1518 6 8 8 
1519 8 8 8 
1520 1 1 1 
1521 1 1 1 
1522 3 4 4 
1523 4 4 4 
1524 4 4 4 
1525 3 4 4 
1526 8 8 8 
1527 6 8 8 
1528 1 1 1 
1529 1 1 1 
1530 3 4 4 
1531 4 4 4 
1532 3 4 4 
1533 1 1 1 
1534 1 1 1 
1535 8 8 8 
1536 6 8 8 
1537 4 4 4 
1538 3 4 4 
1539 6 8 8 
1540 8 8 8 
1541 1 1 1 
1542 1 1 1 
1543 3 4 4 
1544 4 4 4 
1545 4 4 4 
1546 3 4 4 
1547 8 8 8 
1548 6 8 8 
1549 1 1 1 
1550 1 1 1 
1551 3 4 4 
1552 4 4 4 
1553 6 8 8 
1554 8 8 8 
1555 1 1 1 
1556 4 4 4 
1557 3 4 4 
1558 1 1 1 
1559 1 1 1 
1560 6 8 8 
1561 8 8 8 
1562 3 4 4 
1563 4 4 4 
1564 1 1 1 
1565 3 4 4 
1566 4 4 4 
1567 3 4 4 
1568 8 8 8 
1569 6 8 8 
1570 1 1 1 
1571 1 1 1 
1572 3 4 4 
1573 4 4 4 
1574 3 4 4 
1575 8 8 8 
1576 6 8 8 
1577 4 4 4 
1578 3 4 4 
1579 1 1 1 
1580 1 1 1 
1581 6 8 8 
1582 8 8 8 
1583 3 4 4 
1584 4 4 4 
1585 6 8 8 
1586 4 4 4 
1587 3 4 4 
1588 6 8 8 
1589 8 8 8 
1590 1 1 1 
1591 4 4 4 
1592 3 4 4 
1593 1 1 1 
1594 1 1 1 
1595 6 8 8 
1596 8 8 8 
1597 3 4 4 
1598 4 4 4 
1599 3 4 4 
1600 1 1 1 
1601 1 1 1 
1602 6 8 8 
1603 8 8 8 
1604 3 4 4 
1605 4 4 4 
1606 3 4 4 
1607 1 1 1 
1608 1 1 1 
1609 6 8 8 
1610 8 8 8 
1611 3 4 4 
1612 4 4 4 
1613 4 4 4 
1614 3 4 4 
1615 1 1 1 
1616 1 1 1 
1617 8 8 8 
1618 6 8 8 
1619 3 4 4 
1620 4 4 4 
1621 3 4 4 
1622 4 4 4 
1623 3 4 4 
1624 8 8 8 
1625 6 8 8 
1626 4 4 4 
1627 3 4 4 
1628 1 1 1 
1629 1 1 1 
1630 6 8 8 
1631 8 8 8 
1632 3 4 4 
1633 4 4 4 
1634 4 4 4 
1635 3 4 4 
1636 1 1 1 
1637 1 1 1 
1638 8 8 8 
1639 6 8 8 
1640 3 4 4 
1641 4 4 4 
1642 1 1 1 
1643 1 1 1 
1644 6 8 8 
1645 8 8 8 
1646 3 4 4 
1647 4 4 4 
1648 4 4 4 
1649 3 4 4 
1650 1 1 1 
1651 1 1 1 
1652 8 8 8 
1653 6 8 8 
1654 4 4 4 
1655 3 4 4 
1656 6 8 8 
1657 8 8 8 
1658 1 1 1 
1659 1 1 1 
1660 3 4 4 
1661 4 4 4 
1662 4 4 4 
1663 4 4 4 
1664 3 4 4 
1665 1 1 1 
1666 1 1 1 
1667 6 8 8 
1668 8 8 8 
1669 3 4 4 
1670 4 4 4 
1671 4 4 4 
1672 3 4 4 
1673 8 8 8 
1674 6 8 8 
1675 4 4 4 
1676 3 4 4 
1677 6 8 8 
1678 8 8 8 
1679 1 1 1 
1680 1 1 1 
1681 3 4 4 
1682 4 4 4 
1683 4 4 4 
1684 4 4 4 
1685 3 4 4 
1686 1 1 1 
1687 4 4 4 
1688 3 4 4 
1689 6 8 8 
1690 8 8 8 
1691 1 1 1 
1692 1 1 1 
1693 3 4 4 
1694 4 4 4 
1695 3 4 4 
1696 4 4 4 
1697 3 4 4 
1698 4 4 4 
1699 3 4 4 
1700 1 1 1 
1701 1 1 1 
1702 6 8 8 
1703 8 8 8 
1704 3 4 4 
1705 4 4 4 
1706 3 4 4 
1707 1 1 1 
1708 4 4 4 
1709 3 4 4 
1710 1 1 1 
1711 1 1 1 
1712 6 8 8 
1713 8 8 8 
1714 3 4 4 
1715 4 4 4 
1716 6 8 8 
1717 8 8 8 
1718 3 4 4 
1719 4 4 4 
1720 1 1 1 
1721 1 1 1 
1722 4 4 4 
1723 3 4 4 
1724 6 8 8 
1725 8 8 8 
1726 1 1 1 
1727 1 1 1 
1728 3 4 4 
1729 4 4 4 
1730 3 4 4 
1731 1 1 1 
1732 1 1 1 
1733 6 8 8 
1734 8 8 8 
1735 3 4 4 
1736 4 4 4 
1737 3 4 4 
1738 6 8 8 
1739 8 8 8 
1740 4 4 4 
1741 3 4 4 
1742 8 8 8 
1743 6 8 8 
1744 1 1 1 
1745 1 1 1 
1746 3 4 4 
1747 4 4 4 
1748 8 8 8 
1749 4 4 4 
1750 3 4 4 
1751 1 1 1 
1752 1 1 1 
1753 8 8 8 
1754 6 8 8 
1755 3 4 4 
1756 4 4 4 
1757 4 4 4 
1758 3 4 4 
1759 1 1 1 
1760 1 1 1 
1761 4 4 4 
1762 3 4 4 
1763 8 8 8 
1764 6 8 8 
1765 1 1 1 
1766 1 1 1 
1767 3 4 4 
1768 4 4 4 
1769 3 4 4 
1770 4 4 4 
1771 3 4 4 
1772 1 1 1 
1773 1 1 1 
1774 8 8 8 
1775 6 8 8 
1776 3 4 4 
1777 4 4 4 
1778 6 8 8 
1779 1 1 1 
1780 1 1 1 
1781 3 4 4 
1782 4 4 4 
1783 3 4 4 
1784 4 4 4 
1785 3 4 4 
1786 1 1 1 
1787 1 1 1 
1788 8 8 8 
1789 6 8 8 
1790 3 4 4 
1791 4 4 4 
1792 3 4 4 
1793 4 4 4 
1794 3 4 4 
1795 6 8 8 
1796 8 8 8 
1797 1 1 1 
1798 1 1 1 
1799 3 4 4 
1800 4 4 4 
1801 1 1 1 
1802 4 4 4 
1803 3 4 4 
1804 1 1 1 
1805 1 1 1 
1806 6 8 8 
1807 8 8 8 
1808 3 4 4 
1809 4 4 4 
1810 4 4 4 
1811 3 4 4 
1812 8 8 8 
1813 6 8 8 
