%!PS-Adobe-3.0 EPSF-3.0
%%Creator: (MATLAB, The Mathworks, Inc. Version 9.7.0.1296695 \(R2019b\) Update 4. Operating System: Mac OS X)
%%Title: /Users/mfuentez/Documents/ADAPT-master/code/tensLib/Outputs/CPTTvsALS_16d/ASVDvsALSvsCPTT_dim16_beta9.1/16difference_h1_Res.eps
%%CreationDate: 2020-09-29T11:27:26
%%Pages: (atend)
%%BoundingBox: 0 0 560 420
%%LanguageLevel: 3
%%EndComments
%%BeginProlog
%%BeginResource: procset (Apache XML Graphics Std ProcSet) 1.2 0
%%Version: 1.2 0
%%Copyright: (Copyright 2001-2003,2010 The Apache Software Foundation. License terms: http://www.apache.org/licenses/LICENSE-2.0)
/bd{bind def}bind def
/ld{load def}bd
/GR/grestore ld
/GS/gsave ld
/RM/rmoveto ld
/C/curveto ld
/t/show ld
/L/lineto ld
/ML/setmiterlimit ld
/CT/concat ld
/f/fill ld
/N/newpath ld
/S/stroke ld
/CC/setcmykcolor ld
/A/ashow ld
/cp/closepath ld
/RC/setrgbcolor ld
/LJ/setlinejoin ld
/GC/setgray ld
/LW/setlinewidth ld
/M/moveto ld
/re {4 2 roll M
1 index 0 rlineto
0 exch rlineto
neg 0 rlineto
cp } bd
/_ctm matrix def
/_tm matrix def
/BT { _ctm currentmatrix pop matrix _tm copy pop 0 0 moveto } bd
/ET { _ctm setmatrix } bd
/iTm { _ctm setmatrix _tm concat } bd
/Tm { _tm astore pop iTm 0 0 moveto } bd
/ux 0.0 def
/uy 0.0 def
/F {
  /Tp exch def
  /Tf exch def
  Tf findfont Tp scalefont setfont
  /cf Tf def  /cs Tp def
} bd
/ULS {currentpoint /uy exch def /ux exch def} bd
/ULE {
  /Tcx currentpoint pop def
  gsave
  newpath
  cf findfont cs scalefont dup
  /FontMatrix get 0 get /Ts exch def /FontInfo get dup
  /UnderlinePosition get Ts mul /To exch def
  /UnderlineThickness get Ts mul /Tt exch def
  ux uy To add moveto  Tcx uy To add lineto
  Tt setlinewidth stroke
  grestore
} bd
/OLE {
  /Tcx currentpoint pop def
  gsave
  newpath
  cf findfont cs scalefont dup
  /FontMatrix get 0 get /Ts exch def /FontInfo get dup
  /UnderlinePosition get Ts mul /To exch def
  /UnderlineThickness get Ts mul /Tt exch def
  ux uy To add cs add moveto Tcx uy To add cs add lineto
  Tt setlinewidth stroke
  grestore
} bd
/SOE {
  /Tcx currentpoint pop def
  gsave
  newpath
  cf findfont cs scalefont dup
  /FontMatrix get 0 get /Ts exch def /FontInfo get dup
  /UnderlinePosition get Ts mul /To exch def
  /UnderlineThickness get Ts mul /Tt exch def
  ux uy To add cs 10 mul 26 idiv add moveto Tcx uy To add cs 10 mul 26 idiv add lineto
  Tt setlinewidth stroke
  grestore
} bd
/QT {
/Y22 exch store
/X22 exch store
/Y21 exch store
/X21 exch store
currentpoint
/Y21 load 2 mul add 3 div exch
/X21 load 2 mul add 3 div exch
/X21 load 2 mul /X22 load add 3 div
/Y21 load 2 mul /Y22 load add 3 div
/X22 load /Y22 load curveto
} bd
/SSPD {
dup length /d exch dict def
{
/v exch def
/k exch def
currentpagedevice k known {
/cpdv currentpagedevice k get def
v cpdv ne {
/upd false def
/nullv v type /nulltype eq def
/nullcpdv cpdv type /nulltype eq def
nullv nullcpdv or
{
/upd true def
} {
/sametype v type cpdv type eq def
sametype {
v type /arraytype eq {
/vlen v length def
/cpdvlen cpdv length def
vlen cpdvlen eq {
0 1 vlen 1 sub {
/i exch def
/obj v i get def
/cpdobj cpdv i get def
obj cpdobj ne {
/upd true def
exit
} if
} for
} {
/upd true def
} ifelse
} {
v type /dicttype eq {
v {
/dv exch def
/dk exch def
/cpddv cpdv dk get def
dv cpddv ne {
/upd true def
exit
} if
} forall
} {
/upd true def
} ifelse
} ifelse
} if
} ifelse
upd true eq {
d k v put
} if
} if
} if
} forall
d length 0 gt {
d setpagedevice
} if
} bd
/RE { % /NewFontName [NewEncodingArray] /FontName RE -
  findfont dup length dict begin
  {
    1 index /FID ne
    {def} {pop pop} ifelse
  } forall
  /Encoding exch def
  /FontName 1 index def
  currentdict definefont pop
  end
} bind def
%%EndResource
%%BeginResource: procset (Apache XML Graphics EPS ProcSet) 1.0 0
%%Version: 1.0 0
%%Copyright: (Copyright 2002-2003 The Apache Software Foundation. License terms: http://www.apache.org/licenses/LICENSE-2.0)
/BeginEPSF { %def
/b4_Inc_state save def         % Save state for cleanup
/dict_count countdictstack def % Count objects on dict stack
/op_count count 1 sub def      % Count objects on operand stack
userdict begin                 % Push userdict on dict stack
/showpage { } def              % Redefine showpage, { } = null proc
0 setgray 0 setlinecap         % Prepare graphics state
1 setlinewidth 0 setlinejoin
10 setmiterlimit [ ] 0 setdash newpath
/languagelevel where           % If level not equal to 1 then
{pop languagelevel             % set strokeadjust and
1 ne                           % overprint to their defaults.
{false setstrokeadjust false setoverprint
} if
} if
} bd
/EndEPSF { %def
count op_count sub {pop} repeat            % Clean up stacks
countdictstack dict_count sub {end} repeat
b4_Inc_state restore
} bd
%%EndResource
%FOPBeginFontDict
%%IncludeResource: font Courier-Oblique
%%IncludeResource: font Courier-BoldOblique
%%IncludeResource: font Courier-Bold
%%IncludeResource: font ZapfDingbats
%%IncludeResource: font Symbol
%%IncludeResource: font Helvetica
%%IncludeResource: font Helvetica-Oblique
%%IncludeResource: font Helvetica-Bold
%%IncludeResource: font Helvetica-BoldOblique
%%IncludeResource: font Times-Roman
%%IncludeResource: font Times-Italic
%%IncludeResource: font Times-Bold
%%IncludeResource: font Times-BoldItalic
%%IncludeResource: font Courier
%FOPEndFontDict
%%BeginResource: encoding WinAnsiEncoding
/WinAnsiEncoding [
/.notdef /.notdef /.notdef /.notdef /.notdef
/.notdef /.notdef /.notdef /.notdef /.notdef
/.notdef /.notdef /.notdef /.notdef /.notdef
/.notdef /.notdef /.notdef /.notdef /.notdef
/.notdef /.notdef /.notdef /.notdef /.notdef
/.notdef /.notdef /.notdef /.notdef /.notdef
/.notdef /.notdef /space /exclam /quotedbl
/numbersign /dollar /percent /ampersand /quotesingle
/parenleft /parenright /asterisk /plus /comma
/hyphen /period /slash /zero /one
/two /three /four /five /six
/seven /eight /nine /colon /semicolon
/less /equal /greater /question /at
/A /B /C /D /E
/F /G /H /I /J
/K /L /M /N /O
/P /Q /R /S /T
/U /V /W /X /Y
/Z /bracketleft /backslash /bracketright /asciicircum
/underscore /quoteleft /a /b /c
/d /e /f /g /h
/i /j /k /l /m
/n /o /p /q /r
/s /t /u /v /w
/x /y /z /braceleft /bar
/braceright /asciitilde /bullet /Euro /bullet
/quotesinglbase /florin /quotedblbase /ellipsis /dagger
/daggerdbl /circumflex /perthousand /Scaron /guilsinglleft
/OE /bullet /Zcaron /bullet /bullet
/quoteleft /quoteright /quotedblleft /quotedblright /bullet
/endash /emdash /asciitilde /trademark /scaron
/guilsinglright /oe /bullet /zcaron /Ydieresis
/space /exclamdown /cent /sterling /currency
/yen /brokenbar /section /dieresis /copyright
/ordfeminine /guillemotleft /logicalnot /sfthyphen /registered
/macron /degree /plusminus /twosuperior /threesuperior
/acute /mu /paragraph /middot /cedilla
/onesuperior /ordmasculine /guillemotright /onequarter /onehalf
/threequarters /questiondown /Agrave /Aacute /Acircumflex
/Atilde /Adieresis /Aring /AE /Ccedilla
/Egrave /Eacute /Ecircumflex /Edieresis /Igrave
/Iacute /Icircumflex /Idieresis /Eth /Ntilde
/Ograve /Oacute /Ocircumflex /Otilde /Odieresis
/multiply /Oslash /Ugrave /Uacute /Ucircumflex
/Udieresis /Yacute /Thorn /germandbls /agrave
/aacute /acircumflex /atilde /adieresis /aring
/ae /ccedilla /egrave /eacute /ecircumflex
/edieresis /igrave /iacute /icircumflex /idieresis
/eth /ntilde /ograve /oacute /ocircumflex
/otilde /odieresis /divide /oslash /ugrave
/uacute /ucircumflex /udieresis /yacute /thorn
/ydieresis
] def
%%EndResource
%FOPBeginFontReencode
/Courier-Oblique findfont
dup length dict begin
  {1 index /FID ne {def} {pop pop} ifelse} forall
  /Encoding WinAnsiEncoding def
  currentdict
end
/Courier-Oblique exch definefont pop
/Courier-BoldOblique findfont
dup length dict begin
  {1 index /FID ne {def} {pop pop} ifelse} forall
  /Encoding WinAnsiEncoding def
  currentdict
end
/Courier-BoldOblique exch definefont pop
/Courier-Bold findfont
dup length dict begin
  {1 index /FID ne {def} {pop pop} ifelse} forall
  /Encoding WinAnsiEncoding def
  currentdict
end
/Courier-Bold exch definefont pop
/Helvetica findfont
dup length dict begin
  {1 index /FID ne {def} {pop pop} ifelse} forall
  /Encoding WinAnsiEncoding def
  currentdict
end
/Helvetica exch definefont pop
/Helvetica-Oblique findfont
dup length dict begin
  {1 index /FID ne {def} {pop pop} ifelse} forall
  /Encoding WinAnsiEncoding def
  currentdict
end
/Helvetica-Oblique exch definefont pop
/Helvetica-Bold findfont
dup length dict begin
  {1 index /FID ne {def} {pop pop} ifelse} forall
  /Encoding WinAnsiEncoding def
  currentdict
end
/Helvetica-Bold exch definefont pop
/Helvetica-BoldOblique findfont
dup length dict begin
  {1 index /FID ne {def} {pop pop} ifelse} forall
  /Encoding WinAnsiEncoding def
  currentdict
end
/Helvetica-BoldOblique exch definefont pop
/Times-Roman findfont
dup length dict begin
  {1 index /FID ne {def} {pop pop} ifelse} forall
  /Encoding WinAnsiEncoding def
  currentdict
end
/Times-Roman exch definefont pop
/Times-Italic findfont
dup length dict begin
  {1 index /FID ne {def} {pop pop} ifelse} forall
  /Encoding WinAnsiEncoding def
  currentdict
end
/Times-Italic exch definefont pop
/Times-Bold findfont
dup length dict begin
  {1 index /FID ne {def} {pop pop} ifelse} forall
  /Encoding WinAnsiEncoding def
  currentdict
end
/Times-Bold exch definefont pop
/Times-BoldItalic findfont
dup length dict begin
  {1 index /FID ne {def} {pop pop} ifelse} forall
  /Encoding WinAnsiEncoding def
  currentdict
end
/Times-BoldItalic exch definefont pop
/Courier findfont
dup length dict begin
  {1 index /FID ne {def} {pop pop} ifelse} forall
  /Encoding WinAnsiEncoding def
  currentdict
end
/Courier exch definefont pop
%FOPEndFontReencode
%%EndProlog
%%Page: 1 1
%%PageBoundingBox: 0 0 560 420
%%BeginPageSetup
[1 0 0 -1 0 420] CT
%%EndPageSetup
GS
1 GC
N
0 0 560 420 re
f
GR
GS
1 GC
N
0 0 560 420 re
f
GR
GS
1 GC
N
73 374 M
507 374 L
507 31.5 L
73 31.5 L
cp
f
GR
GS
0.149 GC
2 setlinecap
1 LJ
0.5 LW
N
73 374 M
507 374 L
S
GR
GS
0.149 GC
2 setlinecap
1 LJ
0.5 LW
N
73 31.5 M
507 31.5 L
S
GR
GS
0.149 GC
2 setlinecap
1 LJ
0.5 LW
N
73 374 M
73 369.66 L
S
GR
GS
0.149 GC
2 setlinecap
1 LJ
0.5 LW
N
116.4 374 M
116.4 369.66 L
S
GR
GS
0.149 GC
2 setlinecap
1 LJ
0.5 LW
N
159.8 374 M
159.8 369.66 L
S
GR
GS
0.149 GC
2 setlinecap
1 LJ
0.5 LW
N
203.2 374 M
203.2 369.66 L
S
GR
GS
0.149 GC
2 setlinecap
1 LJ
0.5 LW
N
246.6 374 M
246.6 369.66 L
S
GR
GS
0.149 GC
2 setlinecap
1 LJ
0.5 LW
N
290 374 M
290 369.66 L
S
GR
GS
0.149 GC
2 setlinecap
1 LJ
0.5 LW
N
333.4 374 M
333.4 369.66 L
S
GR
GS
0.149 GC
2 setlinecap
1 LJ
0.5 LW
N
376.8 374 M
376.8 369.66 L
S
GR
GS
0.149 GC
2 setlinecap
1 LJ
0.5 LW
N
420.2 374 M
420.2 369.66 L
S
GR
GS
0.149 GC
2 setlinecap
1 LJ
0.5 LW
N
463.6 374 M
463.6 369.66 L
S
GR
GS
0.149 GC
2 setlinecap
1 LJ
0.5 LW
N
507 374 M
507 369.66 L
S
GR
GS
0.149 GC
2 setlinecap
1 LJ
0.5 LW
N
73 31.5 M
73 35.84 L
S
GR
GS
0.149 GC
2 setlinecap
1 LJ
0.5 LW
N
116.4 31.5 M
116.4 35.84 L
S
GR
GS
0.149 GC
2 setlinecap
1 LJ
0.5 LW
N
159.8 31.5 M
159.8 35.84 L
S
GR
GS
0.149 GC
2 setlinecap
1 LJ
0.5 LW
N
203.2 31.5 M
203.2 35.84 L
S
GR
GS
0.149 GC
2 setlinecap
1 LJ
0.5 LW
N
246.6 31.5 M
246.6 35.84 L
S
GR
GS
0.149 GC
2 setlinecap
1 LJ
0.5 LW
N
290 31.5 M
290 35.84 L
S
GR
GS
0.149 GC
2 setlinecap
1 LJ
0.5 LW
N
333.4 31.5 M
333.4 35.84 L
S
GR
GS
0.149 GC
2 setlinecap
1 LJ
0.5 LW
N
376.8 31.5 M
376.8 35.84 L
S
GR
GS
0.149 GC
2 setlinecap
1 LJ
0.5 LW
N
420.2 31.5 M
420.2 35.84 L
S
GR
GS
0.149 GC
2 setlinecap
1 LJ
0.5 LW
N
463.6 31.5 M
463.6 35.84 L
S
GR
GS
0.149 GC
2 setlinecap
1 LJ
0.5 LW
N
507 31.5 M
507 35.84 L
S
GR
GS
[1 0 0 1 73 378] CT
0.149 GC
/Helvetica 10 F
GS
[1 0 0 1 0 0] CT
-3 10 moveto 
1 -1 scale
(0) t 
GR
GR
GS
[1 0 0 1 116.4 378] CT
0.149 GC
/Helvetica 10 F
GS
[1 0 0 1 0 0] CT
-6 10 moveto 
1 -1 scale
(10) t 
GR
GR
GS
[1 0 0 1 159.8 378] CT
0.149 GC
/Helvetica 10 F
GS
[1 0 0 1 0 0] CT
-6 10 moveto 
1 -1 scale
(20) t 
GR
GR
GS
[1 0 0 1 203.2 378] CT
0.149 GC
/Helvetica 10 F
GS
[1 0 0 1 0 0] CT
-6 10 moveto 
1 -1 scale
(30) t 
GR
GR
GS
[1 0 0 1 246.60001 378] CT
0.149 GC
/Helvetica 10 F
GS
[1 0 0 1 0 0] CT
-6 10 moveto 
1 -1 scale
(40) t 
GR
GR
GS
[1 0 0 1 290 378] CT
0.149 GC
/Helvetica 10 F
GS
[1 0 0 1 0 0] CT
-6 10 moveto 
1 -1 scale
(50) t 
GR
GR
GS
[1 0 0 1 333.39999 378] CT
0.149 GC
/Helvetica 10 F
GS
[1 0 0 1 0 0] CT
-6 10 moveto 
1 -1 scale
(60) t 
GR
GR
GS
[1 0 0 1 376.79999 378] CT
0.149 GC
/Helvetica 10 F
GS
[1 0 0 1 0 0] CT
-6 10 moveto 
1 -1 scale
(70) t 
GR
GR
GS
[1 0 0 1 420.20001 378] CT
0.149 GC
/Helvetica 10 F
GS
[1 0 0 1 0 0] CT
-6 10 moveto 
1 -1 scale
(80) t 
GR
GR
GS
[1 0 0 1 463.60001 378] CT
0.149 GC
/Helvetica 10 F
GS
[1 0 0 1 0 0] CT
-6 10 moveto 
1 -1 scale
(90) t 
GR
GR
GS
[1 0 0 1 507 378] CT
0.149 GC
/Helvetica 10 F
GS
[1 0 0 1 0 0] CT
-8.5 10 moveto 
1 -1 scale
(100) t 
GR
GR
GS
[1 0 0 1 290.00021 391.5] CT
0.149 GC
/Helvetica 11 F
GS
[1 0 0 1 0 0] CT
-42 11 moveto 
1 -1 scale
(Number of terms) t 
GR
GR
GS
0.149 GC
2 setlinecap
1 LJ
0.5 LW
N
73 374 M
73 31.5 L
S
GR
GS
0.149 GC
2 setlinecap
1 LJ
0.5 LW
N
507 374 M
507 31.5 L
S
GR
GS
0.149 GC
2 setlinecap
1 LJ
0.5 LW
N
73 374 M
77.34 374 L
S
GR
GS
0.149 GC
2 setlinecap
1 LJ
0.5 LW
N
73 325.071 M
77.34 325.071 L
S
GR
GS
0.149 GC
2 setlinecap
1 LJ
0.5 LW
N
73 276.143 M
77.34 276.143 L
S
GR
GS
0.149 GC
2 setlinecap
1 LJ
0.5 LW
N
73 227.214 M
77.34 227.214 L
S
GR
GS
0.149 GC
2 setlinecap
1 LJ
0.5 LW
N
73 178.286 M
77.34 178.286 L
S
GR
GS
0.149 GC
2 setlinecap
1 LJ
0.5 LW
N
73 129.357 M
77.34 129.357 L
S
GR
GS
0.149 GC
2 setlinecap
1 LJ
0.5 LW
N
73 80.429 M
77.34 80.429 L
S
GR
GS
0.149 GC
2 setlinecap
1 LJ
0.5 LW
N
73 31.5 M
77.34 31.5 L
S
GR
GS
0.149 GC
2 setlinecap
1 LJ
0.5 LW
N
507 374 M
502.66 374 L
S
GR
GS
0.149 GC
2 setlinecap
1 LJ
0.5 LW
N
507 325.071 M
502.66 325.071 L
S
GR
GS
0.149 GC
2 setlinecap
1 LJ
0.5 LW
N
507 276.143 M
502.66 276.143 L
S
GR
GS
0.149 GC
2 setlinecap
1 LJ
0.5 LW
N
507 227.214 M
502.66 227.214 L
S
GR
GS
0.149 GC
2 setlinecap
1 LJ
0.5 LW
N
507 178.286 M
502.66 178.286 L
S
GR
GS
0.149 GC
2 setlinecap
1 LJ
0.5 LW
N
507 129.357 M
502.66 129.357 L
S
GR
GS
0.149 GC
2 setlinecap
1 LJ
0.5 LW
N
507 80.429 M
502.66 80.429 L
S
GR
GS
0.149 GC
2 setlinecap
1 LJ
0.5 LW
N
507 31.5 M
502.66 31.5 L
S
GR
GS
[1 0 0 1 69 374] CT
0.149 GC
/Helvetica 10 F
GS
[1 0 0 1 0 0] CT
-18 3.5 moveto 
1 -1 scale
(-0.4) t 
GR
GR
GS
[1 0 0 1 69 325.07144] CT
0.149 GC
/Helvetica 10 F
GS
[1 0 0 1 0 0] CT
-18 3.5 moveto 
1 -1 scale
(-0.2) t 
GR
GR
GS
[1 0 0 1 69 276.14285] CT
0.149 GC
/Helvetica 10 F
GS
[1 0 0 1 0 0] CT
-6 3.5 moveto 
1 -1 scale
(0) t 
GR
GR
GS
[1 0 0 1 69 227.21428] CT
0.149 GC
/Helvetica 10 F
GS
[1 0 0 1 0 0] CT
-14 3.5 moveto 
1 -1 scale
(0.2) t 
GR
GR
GS
[1 0 0 1 69 178.28571] CT
0.149 GC
/Helvetica 10 F
GS
[1 0 0 1 0 0] CT
-14 3.5 moveto 
1 -1 scale
(0.4) t 
GR
GR
GS
[1 0 0 1 69 129.35713] CT
0.149 GC
/Helvetica 10 F
GS
[1 0 0 1 0 0] CT
-14 3.5 moveto 
1 -1 scale
(0.6) t 
GR
GR
GS
[1 0 0 1 69 80.42857] CT
0.149 GC
/Helvetica 10 F
GS
[1 0 0 1 0 0] CT
-14 3.5 moveto 
1 -1 scale
(0.8) t 
GR
GR
GS
[1 0 0 1 69 31.5] CT
0.149 GC
/Helvetica 10 F
GS
[1 0 0 1 0 0] CT
-6 3.5 moveto 
1 -1 scale
(1) t 
GR
GR
GS
[0 -1 1 0 48 202.74983] CT
0.149 GC
/Helvetica 11 F
GS
[1 0 0 1 0 0] CT
-65 -3 moveto 
1 -1 scale
(Difference between norms) t 
GR
GR
GS
[1 0 0 1 290.00027 30.12499] CT
/Helvetica-Bold 11 F
GS
[1 0 0 1 0 0] CT
-191 -3 moveto 
1 -1 scale
(Difference of the norm of the residual between ASVD and ALS with CPTT) t 
GR
GR
GS
1 0 0 RC
1 LJ
0.5 LW
N
77.34 276.143 M
81.68 276.143 L
86.02 221.527 L
90.36 213.848 L
94.7 263.4 L
99.04 260.67 L
103.38 251.529 L
107.72 246.474 L
112.06 241.37 L
116.4 236.548 L
120.74 235.975 L
125.08 233.943 L
129.42 232.045 L
133.76 248.813 L
138.1 250.693 L
142.44 248.659 L
146.78 246.952 L
151.12 245.66 L
155.46 244.209 L
159.8 242.648 L
164.14 249.366 L
168.48 250.331 L
172.82 249.466 L
177.16 249.284 L
181.5 249.386 L
185.84 248.313 L
190.18 247.859 L
194.52 248.09 L
198.86 248.341 L
203.2 248.923 L
207.54 264.101 L
211.88 263.294 L
216.22 262.391 L
220.56 262.121 L
224.9 261.323 L
229.24 260.407 L
233.58 261.643 L
237.92 261.705 L
242.26 262.66 L
246.6 265.466 L
250.94 264.869 L
255.28 264.647 L
259.62 263.823 L
263.96 267.055 L
268.3 266.527 L
272.64 266.012 L
276.98 265.418 L
281.32 264.834 L
285.66 264.826 L
290 264.31 L
294.34 264.579 L
298.68 264.398 L
303.02 263.907 L
307.36 263.993 L
311.7 264.273 L
316.04 263.912 L
320.38 263.584 L
324.72 263.16 L
329.06 262.903 L
333.4 262.579 L
337.74 262.405 L
342.08 262.132 L
346.42 261.791 L
350.76 261.523 L
355.1 261.316 L
359.44 262.924 L
363.78 262.629 L
368.12 262.413 L
372.46 263.507 L
376.8 263.051 L
381.14 262.784 L
385.48 263.288 L
389.82 263.061 L
394.16 262.703 L
398.5 262.25 L
402.84 262.022 L
407.18 261.629 L
411.52 261.443 L
415.86 261.61 L
420.2 262.186 L
424.54 265.068 L
428.88 264.96 L
433.22 264.632 L
437.56 264.493 L
441.9 264.657 L
446.24 264.339 L
450.58 264.038 L
454.92 263.987 L
459.26 264.007 L
463.6 263.747 L
467.94 264.167 L
S
GR
GS
1 0 0 RC
[1 3] 0 setdash
2 LJ
0.5 LW
N
467.94 264.167 M
472.28 264.79 L
476.62 265.727 L
480.96 266.527 L
485.3 266.633 L
489.64 267.964 L
493.98 268.186 L
498.32 274.552 L
502.66 274.387 L
507 275.828 L
S
GR
GS
1 0 0 RC
1 LJ
0.5 LW
N
77.34 276.143 M
81.68 238.917 L
86.02 208.063 L
90.36 182.449 L
94.7 196.359 L
99.04 240.086 L
103.38 235.555 L
107.72 233.24 L
112.06 230.136 L
116.4 229.998 L
120.74 262.794 L
125.08 261.483 L
129.42 257.963 L
133.76 254.382 L
138.1 250.708 L
142.44 248.455 L
146.78 246.335 L
151.12 247.941 L
155.46 245.813 L
159.8 244.578 L
164.14 242.772 L
168.48 241.533 L
172.82 240.734 L
177.16 239.761 L
181.5 238.449 L
185.84 236.958 L
190.18 235.506 L
194.52 234.885 L
198.86 234.315 L
203.2 233.725 L
207.54 232.885 L
211.88 231.425 L
216.22 233.178 L
220.56 231.774 L
224.9 241.16 L
229.24 242.204 L
233.58 241.461 L
237.92 240.968 L
242.26 239.655 L
246.6 239.191 L
250.94 237.807 L
255.28 238.18 L
259.62 246.84 L
263.96 246.187 L
268.3 245.396 L
272.64 245.337 L
276.98 245.112 L
281.32 245.374 L
285.66 244.577 L
290 243.905 L
294.34 243.552 L
298.68 242.852 L
S
GR
GS
1 0 0 RC
[1 3] 0 setdash
2 LJ
0.5 LW
N
298.68 242.852 M
303.02 243.454 L
307.36 242.851 L
311.7 244.224 L
316.04 243.632 L
320.38 243.297 L
324.72 250.28 L
329.06 249.771 L
333.4 248.813 L
337.74 248.231 L
342.08 248.471 L
346.42 248.116 L
350.76 248.805 L
355.1 250.414 L
359.44 249.828 L
363.78 249.4 L
368.12 249.014 L
372.46 248.604 L
376.8 248.214 L
381.14 247.734 L
385.48 255.986 L
389.82 256.297 L
394.16 255.745 L
398.5 256.645 L
402.84 256.409 L
407.18 261.94 L
411.52 261.675 L
415.86 261.598 L
420.2 261.38 L
424.54 261.173 L
428.88 260.953 L
433.22 260.892 L
437.56 261.116 L
441.9 263.232 L
446.24 264.321 L
450.58 264.695 L
454.92 264.906 L
459.26 266.357 L
463.6 266.157 L
467.94 268.731 L
472.28 271.664 L
476.62 272.199 L
480.96 273.804 L
485.3 275.239 L
489.64 275.163 L
493.98 275.082 L
498.32 275.111 L
502.66 275.088 L
507 275.018 L
S
GR
GS
1 0 0 RC
1 LJ
0.5 LW
N
77.34 276.143 M
81.68 266.764 L
86.02 253.93 L
90.36 245.585 L
94.7 242.072 L
99.04 234.29 L
103.38 233.715 L
107.72 231.158 L
112.06 231.044 L
116.4 223.214 L
120.74 214.799 L
125.08 225.688 L
129.42 222.336 L
133.76 227.089 L
138.1 223.369 L
142.44 217.797 L
146.78 213.208 L
151.12 207.037 L
155.46 219.883 L
159.8 219.901 L
164.14 217.254 L
168.48 215.602 L
172.82 211.397 L
177.16 210.537 L
181.5 207.203 L
185.84 203.522 L
190.18 200.966 L
194.52 199.649 L
198.86 202.002 L
203.2 209.018 L
207.54 207.419 L
211.88 205.784 L
216.22 211.731 L
220.56 212.365 L
224.9 223.373 L
229.24 221.746 L
233.58 244.058 L
237.92 242.377 L
242.26 241.323 L
246.6 239.65 L
250.94 238.459 L
255.28 237.135 L
S
GR
GS
1 0 0 RC
[1 3] 0 setdash
2 LJ
0.5 LW
N
255.28 237.135 M
259.62 235.93 L
263.96 235.065 L
268.3 235.299 L
272.64 234.377 L
276.98 233.466 L
281.32 237.634 L
285.66 237.466 L
290 238.092 L
294.34 236.988 L
298.68 236.552 L
303.02 235.68 L
307.36 241.936 L
311.7 240.858 L
316.04 242.72 L
320.38 243.855 L
324.72 247.286 L
329.06 246.564 L
333.4 246.102 L
337.74 247.938 L
342.08 247.223 L
346.42 246.73 L
350.76 245.639 L
355.1 245.95 L
359.44 245.397 L
363.78 245.18 L
368.12 244.669 L
372.46 245.388 L
376.8 247.704 L
381.14 247.298 L
385.48 247.413 L
389.82 246.979 L
394.16 246.326 L
398.5 246.492 L
402.84 257.241 L
407.18 256.464 L
411.52 256.175 L
415.86 258.204 L
420.2 258.289 L
424.54 258.08 L
428.88 257.785 L
433.22 257.276 L
437.56 256.828 L
441.9 256.512 L
446.24 255.934 L
450.58 255.456 L
454.92 255.542 L
459.26 256.588 L
463.6 256.514 L
467.94 257.178 L
472.28 256.738 L
476.62 258.296 L
480.96 258.475 L
485.3 258.125 L
489.64 257.737 L
493.98 268.935 L
498.32 273.021 L
502.66 275.133 L
507 276.092 L
S
GR
GS
1 0 0 RC
1 LJ
0.5 LW
N
77.34 276.143 M
81.68 276.143 L
86.02 240.135 L
90.36 235.105 L
94.7 230.189 L
99.04 225.77 L
103.38 217.579 L
107.72 213.323 L
112.06 209.844 L
116.4 206.62 L
120.74 203.356 L
125.08 199.8 L
129.42 199.084 L
133.76 196.52 L
138.1 194.197 L
142.44 192.268 L
146.78 190.207 L
151.12 187.741 L
155.46 190.562 L
159.8 190.788 L
164.14 189.422 L
168.48 188.617 L
172.82 187.022 L
177.16 187.223 L
181.5 185.511 L
185.84 184.727 L
190.18 183.925 L
194.52 183.102 L
198.86 182.331 L
203.2 182.032 L
207.54 181.029 L
211.88 180.031 L
216.22 178.755 L
220.56 177.657 L
S
GR
GS
1 0 0 RC
[1 3] 0 setdash
2 LJ
0.5 LW
N
220.56 177.657 M
224.9 176.964 L
229.24 224.954 L
233.58 223.637 L
237.92 223.214 L
242.26 223.225 L
246.6 223.004 L
250.94 222.153 L
255.28 222.324 L
259.62 221.458 L
263.96 220.842 L
268.3 220.833 L
272.64 220.064 L
276.98 219.573 L
281.32 218.955 L
285.66 218.493 L
290 229.081 L
294.34 229.09 L
298.68 228.412 L
303.02 230.694 L
307.36 229.879 L
311.7 229.104 L
316.04 228.899 L
320.38 228.435 L
324.72 228.064 L
329.06 232.228 L
333.4 231.634 L
337.74 230.967 L
342.08 230.981 L
346.42 230.383 L
350.76 231.064 L
355.1 230.556 L
359.44 231.409 L
363.78 231.675 L
368.12 231.171 L
372.46 232.343 L
376.8 231.976 L
381.14 231.527 L
385.48 266.794 L
389.82 266.418 L
394.16 266.362 L
398.5 266.051 L
402.84 265.515 L
407.18 265.037 L
411.52 265.846 L
415.86 266.215 L
420.2 268.773 L
424.54 268.589 L
428.88 268.266 L
433.22 267.952 L
437.56 268.782 L
441.9 268.438 L
446.24 270.742 L
450.58 271.451 L
454.92 271.211 L
459.26 270.891 L
463.6 270.78 L
467.94 271.054 L
472.28 270.822 L
476.62 270.685 L
480.96 270.752 L
485.3 271.228 L
489.64 271.795 L
493.98 275.219 L
498.32 275.709 L
502.66 275.63 L
507 275.766 L
S
GR
GS
1 0 0 RC
1 LJ
0.5 LW
N
77.34 276.143 M
81.68 276.143 L
86.02 260.942 L
90.36 252.668 L
94.7 252.877 L
99.04 251.604 L
103.38 243.349 L
107.72 235.159 L
112.06 232.884 L
116.4 224.678 L
120.74 219.353 L
125.08 216.41 L
129.42 212.217 L
133.76 208.567 L
138.1 210.525 L
142.44 205.117 L
146.78 210.874 L
151.12 207.816 L
155.46 209.117 L
159.8 206.531 L
164.14 203.363 L
168.48 202.616 L
S
GR
GS
1 0 0 RC
[1 3] 0 setdash
2 LJ
0.5 LW
N
168.48 202.616 M
172.82 200.986 L
177.16 199.78 L
181.5 198.391 L
185.84 197.887 L
190.18 196.602 L
194.52 195.184 L
198.86 196.713 L
203.2 197.243 L
207.54 216.519 L
211.88 216.089 L
216.22 218.2 L
220.56 219.276 L
224.9 218.68 L
229.24 218.534 L
233.58 217.911 L
237.92 217.079 L
242.26 216.932 L
246.6 216.039 L
250.94 215.455 L
255.28 216.388 L
259.62 215.938 L
263.96 215.332 L
268.3 214.784 L
272.64 213.472 L
276.98 212.862 L
281.32 212.252 L
285.66 243.231 L
290 242.585 L
294.34 252.05 L
298.68 253.453 L
303.02 252.942 L
307.36 252.365 L
311.7 251.976 L
316.04 251.638 L
320.38 260.919 L
324.72 261.288 L
329.06 260.645 L
333.4 261.404 L
337.74 262.297 L
342.08 262.352 L
346.42 262.477 L
350.76 262.032 L
355.1 261.688 L
359.44 261.521 L
363.78 261.842 L
368.12 261.5 L
372.46 260.639 L
376.8 260.356 L
381.14 260.372 L
385.48 260.19 L
389.82 260.891 L
394.16 260.817 L
398.5 260.46 L
402.84 260.051 L
407.18 261.176 L
411.52 260.554 L
415.86 260.33 L
420.2 259.938 L
424.54 260.217 L
428.88 261.299 L
433.22 261.265 L
437.56 266.033 L
441.9 267.081 L
446.24 267.278 L
450.58 267.783 L
454.92 267.55 L
459.26 268.274 L
463.6 268.898 L
467.94 268.826 L
472.28 270.129 L
476.62 272.008 L
480.96 271.752 L
485.3 271.442 L
489.64 273.188 L
493.98 272.786 L
498.32 272.874 L
502.66 274.65 L
507 274.862 L
S
GR
GS
1 0 0 RC
1 LJ
0.5 LW
N
77.34 276.143 M
81.68 258.663 L
86.02 248.452 L
90.36 246.797 L
94.7 245.626 L
99.04 231.784 L
103.38 237.987 L
107.72 240.766 L
112.06 234.287 L
116.4 226.733 L
120.74 219.95 L
125.08 215.07 L
129.42 212.325 L
133.76 223.168 L
138.1 219.667 L
142.44 221.82 L
146.78 218.532 L
151.12 216.042 L
155.46 218.558 L
159.8 216.67 L
164.14 213.403 L
168.48 213.004 L
172.82 211.37 L
177.16 209.481 L
181.5 206.475 L
185.84 216.254 L
190.18 214.928 L
194.52 211.558 L
198.86 209.882 L
203.2 208.48 L
207.54 206.995 L
211.88 206.859 L
216.22 205.58 L
220.56 206.842 L
224.9 205.591 L
229.24 207.427 L
233.58 206.094 L
237.92 204.703 L
242.26 208.925 L
246.6 207.95 L
250.94 207.136 L
255.28 205.611 L
259.62 204.403 L
263.96 204.822 L
268.3 206.093 L
272.64 239.54 L
276.98 239.544 L
281.32 239.28 L
285.66 238.86 L
290 238.036 L
294.34 239.824 L
298.68 239.253 L
303.02 244.616 L
307.36 250.472 L
311.7 250.045 L
316.04 255.273 L
320.38 254.533 L
324.72 254.733 L
329.06 254.063 L
333.4 254.665 L
337.74 259.75 L
342.08 259.259 L
346.42 258.638 L
350.76 258.349 L
355.1 257.961 L
359.44 257.777 L
363.78 257.119 L
368.12 256.517 L
372.46 255.847 L
376.8 255.716 L
381.14 256.402 L
385.48 255.907 L
389.82 255.207 L
394.16 254.891 L
398.5 254.339 L
402.84 254.097 L
407.18 253.875 L
411.52 257.031 L
415.86 257.486 L
420.2 257.566 L
424.54 257.723 L
428.88 257.766 L
433.22 258.75 L
437.56 258.845 L
441.9 272.846 L
446.24 272.884 L
450.58 273.806 L
454.92 273.844 L
459.26 274.343 L
463.6 275.701 L
467.94 276.819 L
472.28 276.858 L
476.62 277.205 L
480.96 277.332 L
485.3 278.792 L
489.64 278.987 L
493.98 280.441 L
498.32 283.992 L
502.66 284.722 L
507 286.049 L
S
GR
GS
1 0 0 RC
1 LJ
0.5 LW
N
77.34 276.143 M
81.68 231.639 L
86.02 207.752 L
90.36 191.234 L
94.7 178.968 L
99.04 170.156 L
103.38 165.925 L
107.72 164.806 L
112.06 180.85 L
116.4 227.859 L
120.74 224.99 L
125.08 221.496 L
129.42 219.242 L
133.76 215.973 L
138.1 214.266 L
142.44 211.455 L
146.78 208.72 L
151.12 227.279 L
155.46 226.782 L
159.8 228.684 L
164.14 228.058 L
168.48 224.035 L
172.82 240.233 L
177.16 237.97 L
181.5 236.877 L
185.84 235.781 L
190.18 234.597 L
194.52 235.101 L
198.86 234.489 L
203.2 239.326 L
207.54 237.789 L
211.88 236.811 L
216.22 238.362 L
220.56 237.419 L
224.9 236.039 L
229.24 234.708 L
233.58 233.32 L
237.92 231.873 L
242.26 230.686 L
246.6 230.902 L
250.94 230.664 L
255.28 251.726 L
259.62 251.41 L
263.96 250.551 L
268.3 251.244 L
272.64 250.352 L
276.98 251.472 L
281.32 251.991 L
285.66 252.223 L
290 251.433 L
294.34 252.639 L
298.68 251.863 L
303.02 250.893 L
307.36 250.099 L
311.7 250.092 L
316.04 249.185 L
320.38 249.1 L
324.72 248.81 L
329.06 248.255 L
333.4 248.76 L
337.74 247.962 L
342.08 248.926 L
346.42 249.1 L
350.76 248.641 L
355.1 248.641 L
359.44 248.121 L
363.78 248.25 L
368.12 249.451 L
372.46 259.756 L
376.8 259.086 L
381.14 258.687 L
385.48 258.081 L
389.82 257.937 L
394.16 257.694 L
398.5 258.989 L
402.84 259.241 L
407.18 259.332 L
411.52 259.044 L
415.86 259.57 L
420.2 260.207 L
424.54 269.858 L
428.88 270.208 L
433.22 269.736 L
437.56 269.474 L
441.9 271.621 L
446.24 271.469 L
450.58 271.499 L
454.92 271.352 L
459.26 271.493 L
463.6 271.349 L
467.94 271.164 L
472.28 272.06 L
476.62 271.708 L
480.96 271.492 L
485.3 271.256 L
489.64 273.058 L
493.98 272.785 L
498.32 272.536 L
502.66 273.84 L
507 274.082 L
S
GR
GS
1 0 0 RC
1 LJ
0.5 LW
N
77.34 276.143 M
81.68 276.143 L
86.02 269.056 L
90.36 258.542 L
94.7 248.901 L
99.04 242.936 L
103.38 236.76 L
107.72 231.782 L
112.06 239.641 L
116.4 258.983 L
120.74 257.173 L
125.08 254.352 L
129.42 252.773 L
133.76 257.81 L
138.1 256.077 L
142.44 254.227 L
146.78 255.285 L
151.12 254.172 L
155.46 251.89 L
159.8 253.22 L
164.14 251.836 L
168.48 250.866 L
172.82 249.988 L
177.16 250.706 L
181.5 258.275 L
185.84 257.898 L
190.18 260.751 L
194.52 260.261 L
198.86 260.052 L
203.2 259.482 L
207.54 259.031 L
211.88 258.366 L
216.22 257.757 L
220.56 257.114 L
224.9 256.761 L
229.24 256.336 L
233.58 256.371 L
237.92 257.73 L
242.26 257.183 L
246.6 256.887 L
250.94 256.436 L
255.28 256.066 L
259.62 255.597 L
263.96 255.66 L
268.3 255.278 L
272.64 255.064 L
276.98 254.809 L
281.32 254.456 L
285.66 254.129 L
290 253.804 L
294.34 254.654 L
298.68 254.779 L
303.02 254.644 L
307.36 254.745 L
311.7 255.289 L
316.04 256.136 L
320.38 255.805 L
324.72 257.916 L
329.06 259.025 L
333.4 258.715 L
337.74 259.774 L
342.08 259.574 L
346.42 259.687 L
350.76 259.705 L
355.1 259.738 L
359.44 259.783 L
363.78 259.982 L
368.12 259.992 L
372.46 260.365 L
376.8 260.648 L
381.14 260.904 L
385.48 260.923 L
389.82 263.885 L
394.16 264.445 L
398.5 264.567 L
402.84 264.609 L
407.18 264.61 L
411.52 264.711 L
415.86 265.02 L
420.2 265.034 L
424.54 265.035 L
428.88 265.052 L
433.22 265.056 L
437.56 265.223 L
441.9 265.223 L
446.24 265.357 L
450.58 265.381 L
454.92 265.584 L
459.26 265.75 L
463.6 265.75 L
467.94 265.771 L
472.28 265.772 L
476.62 265.779 L
480.96 276.843 L
485.3 276.854 L
489.64 276.945 L
493.98 278.25 L
498.32 278.268 L
502.66 278.312 L
507 283 L
S
GR
GS
1 0 0 RC
1 LJ
0.5 LW
N
77.34 276.143 M
81.68 244.646 L
86.02 217.868 L
90.36 212.267 L
94.7 202.028 L
99.04 204.091 L
103.38 197.324 L
107.72 229.641 L
112.06 222.461 L
116.4 220.19 L
120.74 217.554 L
125.08 214.276 L
129.42 212.024 L
133.76 210.628 L
138.1 208.179 L
142.44 205.519 L
146.78 202.207 L
151.12 239.134 L
155.46 237.101 L
159.8 235.68 L
164.14 234.155 L
168.48 242.089 L
172.82 240.255 L
177.16 238.225 L
181.5 236.766 L
185.84 234.838 L
190.18 233.122 L
194.52 232.085 L
198.86 230.81 L
203.2 230.056 L
207.54 229.351 L
211.88 229.893 L
216.22 229.629 L
220.56 228.756 L
224.9 228.813 L
229.24 227.902 L
233.58 226.505 L
237.92 225.303 L
242.26 226.189 L
246.6 225.614 L
250.94 227.317 L
255.28 230.32 L
259.62 232.528 L
263.96 231.651 L
268.3 232.526 L
272.64 232.234 L
276.98 232.996 L
281.32 232.078 L
285.66 232.112 L
290 231.234 L
294.34 230.505 L
298.68 229.499 L
303.02 228.527 L
307.36 227.938 L
311.7 227.339 L
316.04 225.931 L
320.38 224.992 L
324.72 225.053 L
329.06 224.038 L
333.4 222.919 L
337.74 223.462 L
342.08 226.785 L
346.42 242.139 L
350.76 242.839 L
355.1 242.798 L
359.44 241.75 L
363.78 247.907 L
368.12 247.918 L
372.46 247.439 L
376.8 247.709 L
381.14 247.052 L
385.48 246.536 L
389.82 249.499 L
394.16 249.601 L
398.5 249.095 L
S
GR
GS
1 0 0 RC
[1 3] 0 setdash
2 LJ
0.5 LW
N
398.5 249.095 M
402.84 248.703 L
407.18 250.281 L
411.52 260.263 L
415.86 260.008 L
420.2 260.615 L
424.54 262.695 L
428.88 262.893 L
433.22 262.576 L
437.56 262.34 L
441.9 262.083 L
446.24 261.814 L
450.58 261.729 L
454.92 266.441 L
459.26 269.07 L
463.6 269.962 L
467.94 270.052 L
472.28 270.165 L
476.62 270.177 L
480.96 270.667 L
485.3 270.685 L
489.64 271.27 L
493.98 271.416 L
498.32 271.458 L
502.66 277.29 L
507 277.304 L
S
GR
GS
1 0 0 RC
1 LJ
0.5 LW
N
77.34 276.143 M
81.68 242.919 L
86.02 235.517 L
90.36 229.164 L
94.7 229.495 L
99.04 227.219 L
103.38 219.242 L
107.72 219.135 L
112.06 251.937 L
116.4 254.409 L
120.74 248.445 L
125.08 242.826 L
129.42 243.537 L
133.76 238.09 L
138.1 233.562 L
142.44 229.485 L
146.78 226.261 L
151.12 223.574 L
155.46 219.533 L
159.8 218.376 L
164.14 215.093 L
168.48 211.615 L
172.82 213.536 L
177.16 214.29 L
181.5 211.913 L
185.84 208.951 L
190.18 215.961 L
194.52 213.283 L
198.86 210.563 L
203.2 207.677 L
207.54 212.083 L
211.88 209.924 L
216.22 214.882 L
220.56 214.009 L
224.9 217.56 L
229.24 216.12 L
233.58 214.652 L
237.92 226.184 L
242.26 225.077 L
246.6 223.72 L
250.94 222.373 L
255.28 221.228 L
259.62 219.908 L
263.96 218.262 L
268.3 218.547 L
272.64 217.537 L
276.98 216.68 L
281.32 217.946 L
285.66 216.839 L
290 220.249 L
294.34 221.799 L
298.68 220.832 L
303.02 221.07 L
307.36 220.239 L
311.7 219.591 L
316.04 219.761 L
320.38 225.344 L
324.72 224.324 L
329.06 223.502 L
333.4 225.13 L
337.74 224.897 L
342.08 226.924 L
346.42 226.241 L
350.76 225.559 L
355.1 230.99 L
359.44 230.34 L
363.78 229.525 L
368.12 229.064 L
372.46 229.149 L
376.8 229.318 L
381.14 229.648 L
385.48 229.703 L
389.82 230.034 L
394.16 230.56 L
398.5 231.067 L
402.84 231.326 L
407.18 234.789 L
411.52 240.837 L
415.86 264.654 L
420.2 264.743 L
424.54 264.876 L
428.88 267.452 L
433.22 267.471 L
437.56 267.474 L
441.9 267.689 L
446.24 270.997 L
450.58 270.997 L
454.92 274.324 L
459.26 274.621 L
463.6 280.604 L
467.94 280.955 L
472.28 282.255 L
476.62 283.065 L
480.96 283.068 L
485.3 283.146 L
489.64 283.2 L
493.98 287.381 L
498.32 287.768 L
502.66 288.589 L
507 290.113 L
S
GR
GS
1 0 0 RC
1 LJ
0.5 LW
N
77.34 276.143 M
81.68 233.523 L
86.02 172.264 L
90.36 154.678 L
94.7 141.446 L
99.04 130.913 L
103.38 126.656 L
107.72 120.37 L
S
GR
GS
1 0 0 RC
[1 3] 0 setdash
2 LJ
0.5 LW
N
107.72 120.37 M
112.06 118.657 L
116.4 118.625 L
120.74 115.501 L
125.08 165.402 L
129.42 164.595 L
133.76 163.319 L
138.1 161.012 L
142.44 159.254 L
146.78 157.897 L
151.12 156.646 L
155.46 155.291 L
159.8 154.114 L
164.14 152.845 L
168.48 151.898 L
172.82 150.729 L
177.16 149.913 L
181.5 149.324 L
185.84 148.687 L
190.18 147.948 L
194.52 147.134 L
198.86 146.793 L
203.2 145.933 L
207.54 145.244 L
211.88 144.779 L
216.22 143.922 L
220.56 143.186 L
224.9 142.543 L
229.24 141.841 L
233.58 140.867 L
237.92 140.161 L
242.26 139.12 L
246.6 138.403 L
250.94 140.02 L
255.28 139.214 L
259.62 139.209 L
263.96 138.894 L
268.3 137.907 L
272.64 137.61 L
276.98 137.283 L
281.32 136.552 L
285.66 136.05 L
290 135.386 L
294.34 137.732 L
298.68 137.002 L
303.02 136.355 L
307.36 135.812 L
311.7 135.574 L
316.04 135.075 L
320.38 134.293 L
324.72 133.805 L
329.06 133.451 L
333.4 133.101 L
337.74 133.267 L
342.08 133.281 L
346.42 133.298 L
350.76 256.459 L
355.1 256.529 L
359.44 256.609 L
363.78 257.58 L
368.12 257.707 L
372.46 257.971 L
376.8 257.972 L
381.14 258.992 L
385.48 264.2 L
389.82 265.12 L
394.16 265.226 L
398.5 265.242 L
402.84 265.687 L
407.18 266.908 L
411.52 266.96 L
415.86 267.022 L
420.2 267.153 L
424.54 268.326 L
428.88 269.381 L
433.22 269.439 L
437.56 269.452 L
441.9 269.565 L
446.24 275.94 L
450.58 275.983 L
454.92 280.739 L
459.26 281.651 L
463.6 282.463 L
467.94 282.754 L
472.28 284.032 L
476.62 284.085 L
480.96 284.203 L
485.3 284.307 L
489.64 284.346 L
493.98 284.348 L
498.32 284.35 L
502.66 285.138 L
507 286.279 L
S
GR
GS
1 0 0 RC
1 LJ
0.5 LW
N
77.34 276.143 M
81.68 265.126 L
86.02 253.907 L
90.36 246.094 L
94.7 229.825 L
99.04 213.715 L
103.38 213.337 L
107.72 217.515 L
112.06 214.822 L
116.4 221.981 L
120.74 215.974 L
125.08 210.481 L
129.42 223.93 L
133.76 233.672 L
138.1 237.553 L
S
GR
GS
1 0 0 RC
[1 3] 0 setdash
2 LJ
0.5 LW
N
138.1 237.553 M
142.44 232.195 L
146.78 229.892 L
151.12 227.749 L
155.46 225.295 L
159.8 223.284 L
164.14 223.701 L
168.48 220.012 L
172.82 217.343 L
177.16 233.649 L
181.5 232.115 L
185.84 231.139 L
190.18 230.031 L
194.52 231.055 L
198.86 235.112 L
203.2 233.759 L
207.54 232.422 L
211.88 231.548 L
216.22 229.968 L
220.56 228.681 L
224.9 227.792 L
229.24 226.34 L
233.58 241.792 L
237.92 243.129 L
242.26 242.122 L
246.6 242.825 L
250.94 242.147 L
255.28 241.17 L
259.62 240.544 L
263.96 239.461 L
268.3 239.376 L
272.64 238.398 L
276.98 238.639 L
281.32 237.683 L
285.66 236.342 L
290 235.103 L
294.34 234.681 L
298.68 234.63 L
303.02 246.265 L
307.36 250.585 L
311.7 250.044 L
316.04 255.713 L
320.38 255.988 L
324.72 255.246 L
329.06 254.922 L
333.4 253.883 L
337.74 253.383 L
342.08 252.472 L
346.42 251.726 L
350.76 250.995 L
355.1 250.823 L
359.44 250.652 L
363.78 249.964 L
368.12 249.4 L
372.46 249.037 L
376.8 248.305 L
381.14 247.843 L
385.48 248.396 L
389.82 247.908 L
394.16 247.163 L
398.5 246.447 L
402.84 246.128 L
407.18 247.664 L
411.52 246.87 L
415.86 246.608 L
420.2 246.136 L
424.54 246.766 L
428.88 247.605 L
433.22 247.56 L
437.56 247.081 L
441.9 246.814 L
446.24 246.421 L
450.58 246.314 L
454.92 246.604 L
459.26 246.549 L
463.6 249.585 L
467.94 249.362 L
472.28 253.665 L
476.62 253.812 L
480.96 269.445 L
485.3 270.303 L
489.64 270.137 L
493.98 269.779 L
498.32 271.81 L
502.66 273.853 L
507 275.226 L
S
GR
GS
1 0 0 RC
1 LJ
0.5 LW
N
77.34 276.143 M
81.68 252.399 L
86.02 253.654 L
90.36 256.404 L
94.7 253.014 L
99.04 242.633 L
103.38 236.614 L
107.72 236.774 L
112.06 232.275 L
116.4 227.381 L
120.74 226.983 L
125.08 222.56 L
129.42 223.73 L
133.76 222.931 L
138.1 248.502 L
142.44 248.656 L
146.78 250.235 L
151.12 246.84 L
155.46 244.356 L
159.8 247.699 L
164.14 245.499 L
168.48 241.655 L
172.82 240.787 L
177.16 238.217 L
181.5 234.345 L
185.84 232.107 L
190.18 229.119 L
194.52 226.361 L
198.86 229.109 L
203.2 230.577 L
207.54 228.896 L
211.88 231.264 L
216.22 229.862 L
220.56 228.5 L
224.9 227.051 L
229.24 229.778 L
233.58 231.996 L
237.92 230.468 L
242.26 230.713 L
246.6 229.841 L
250.94 229.014 L
255.28 226.408 L
259.62 225.772 L
263.96 224.135 L
268.3 224.431 L
272.64 223.742 L
276.98 222.286 L
281.32 220.786 L
285.66 219.348 L
290 218.614 L
294.34 217.562 L
298.68 216.251 L
303.02 223.857 L
307.36 223.032 L
311.7 240.17 L
316.04 244.805 L
320.38 245.948 L
324.72 249.108 L
329.06 254.975 L
333.4 254.749 L
337.74 254.089 L
342.08 255.012 L
346.42 254.027 L
350.76 253.636 L
355.1 254.687 L
359.44 256.236 L
363.78 257.287 L
368.12 256.812 L
372.46 256.177 L
376.8 255.867 L
381.14 255.517 L
385.48 254.87 L
389.82 256.981 L
394.16 258.122 L
398.5 257.849 L
402.84 258.965 L
407.18 259.458 L
411.52 258.749 L
415.86 260.176 L
420.2 261.372 L
424.54 260.898 L
428.88 260.346 L
433.22 259.915 L
437.56 259.577 L
441.9 260.159 L
446.24 259.784 L
450.58 263.702 L
454.92 263.737 L
459.26 263.922 L
463.6 263.596 L
467.94 263.743 L
472.28 263.957 L
476.62 263.517 L
480.96 263.239 L
485.3 263.703 L
489.64 267.995 L
493.98 267.972 L
498.32 267.701 L
502.66 268.728 L
507 273.315 L
S
GR
GS
1 0 0 RC
1 LJ
0.5 LW
N
77.34 276.143 M
81.68 172.898 L
86.02 146.248 L
90.36 122.043 L
94.7 92.759 L
99.04 85.369 L
103.38 93.595 L
107.72 91.71 L
112.06 90.778 L
116.4 98.993 L
120.74 97.525 L
125.08 219.499 L
129.42 219.425 L
133.76 217.809 L
138.1 216.795 L
142.44 216.396 L
146.78 215.486 L
151.12 214.795 L
155.46 213.907 L
159.8 212.877 L
164.14 212.501 L
168.48 211.474 L
172.82 211.067 L
177.16 210.272 L
181.5 210.544 L
185.84 209.659 L
190.18 208.877 L
194.52 256.945 L
198.86 256.231 L
203.2 255.221 L
207.54 254.585 L
211.88 254.03 L
216.22 253.494 L
220.56 252.904 L
224.9 252.542 L
229.24 252.605 L
233.58 252.383 L
237.92 251.808 L
242.26 251.235 L
246.6 251.42 L
250.94 251.304 L
255.28 251.516 L
259.62 251.379 L
263.96 250.893 L
268.3 250.489 L
272.64 250.314 L
276.98 249.819 L
281.32 249.442 L
285.66 261.349 L
290 261.074 L
S
GR
GS
1 0 0 RC
[1 3] 0 setdash
2 LJ
0.5 LW
N
290 261.074 M
294.34 260.871 L
298.68 262.736 L
303.02 263.671 L
307.36 264.623 L
311.7 264.302 L
316.04 263.965 L
320.38 263.639 L
324.72 263.282 L
329.06 263.423 L
333.4 263.745 L
337.74 264.214 L
342.08 264.05 L
346.42 264.304 L
350.76 263.974 L
355.1 263.713 L
359.44 263.449 L
363.78 263.642 L
368.12 263.376 L
372.46 263.196 L
376.8 263.109 L
381.14 263.161 L
385.48 263.301 L
389.82 263.598 L
394.16 263.599 L
398.5 263.821 L
402.84 263.99 L
407.18 264.105 L
411.52 265.931 L
415.86 265.933 L
420.2 270.966 L
424.54 271.134 L
428.88 271.224 L
433.22 271.231 L
437.56 271.431 L
441.9 271.657 L
446.24 271.699 L
450.58 272.128 L
454.92 272.486 L
459.26 274.238 L
463.6 275.813 L
467.94 275.823 L
472.28 276.032 L
476.62 280.151 L
480.96 280.26 L
485.3 280.26 L
489.64 280.36 L
493.98 280.86 L
498.32 281.037 L
502.66 281.291 L
507 281.387 L
S
GR
GS
1 0 0 RC
1 LJ
0.5 LW
N
77.34 276.143 M
81.68 276.143 L
86.02 217.671 L
90.36 212.917 L
94.7 205.229 L
99.04 197.954 L
103.38 194.167 L
107.72 189.001 L
112.06 186.758 L
116.4 244.23 L
120.74 240.827 L
125.08 236.87 L
129.42 241.283 L
133.76 239.954 L
138.1 246.446 L
142.44 244.88 L
146.78 242.86 L
151.12 250.11 L
155.46 248.568 L
159.8 247.204 L
164.14 246.755 L
168.48 245.237 L
172.82 244.095 L
177.16 246.606 L
181.5 250.855 L
185.84 249.734 L
190.18 248.84 L
194.52 247.653 L
198.86 246.7 L
203.2 245.715 L
207.54 244.56 L
211.88 245.17 L
216.22 243.8 L
220.56 242.414 L
224.9 241.04 L
229.24 240.753 L
233.58 240.364 L
237.92 241.597 L
242.26 247.702 L
246.6 247.763 L
250.94 247.105 L
255.28 252.892 L
259.62 252.882 L
263.96 252.362 L
268.3 251.388 L
272.64 250.465 L
276.98 249.419 L
281.32 250.296 L
285.66 249.606 L
290 251.983 L
294.34 251.119 L
298.68 250.704 L
303.02 250.168 L
307.36 249.241 L
311.7 249.109 L
316.04 248.453 L
320.38 248.7 L
324.72 248.139 L
329.06 249.152 L
333.4 250.233 L
337.74 249.673 L
342.08 249.288 L
346.42 249.462 L
350.76 248.655 L
355.1 248.556 L
359.44 248.098 L
363.78 247.648 L
368.12 247.203 L
372.46 246.702 L
376.8 246.189 L
381.14 247.387 L
385.48 246.982 L
389.82 247.132 L
394.16 246.809 L
398.5 246.213 L
402.84 245.737 L
407.18 245.987 L
411.52 245.446 L
415.86 245.407 L
420.2 245.92 L
424.54 245.439 L
428.88 244.636 L
433.22 244.271 L
437.56 243.826 L
441.9 253.774 L
446.24 258.01 L
450.58 257.812 L
454.92 258.807 L
459.26 258.595 L
463.6 263.591 L
467.94 264.623 L
472.28 264.742 L
476.62 264.779 L
480.96 264.619 L
485.3 264.391 L
489.64 264.357 L
493.98 265.057 L
498.32 265.465 L
502.66 275.552 L
507 276.143 L
S
GR
GS
1 0 0 RC
1 LJ
0.5 LW
N
77.34 276.143 M
81.68 249.433 L
86.02 223.715 L
90.36 209.806 L
94.7 198.857 L
99.04 188.127 L
103.38 179.062 L
107.72 171.008 L
112.06 165.72 L
116.4 161.009 L
120.74 156.23 L
125.08 153.005 L
129.42 149.791 L
133.76 152.858 L
138.1 152.122 L
142.44 149.634 L
146.78 159.07 L
151.12 162.888 L
155.46 160.215 L
159.8 157.467 L
164.14 157.327 L
168.48 154.996 L
172.82 154.314 L
177.16 180.797 L
181.5 177.298 L
185.84 179.944 L
190.18 179.692 L
194.52 178.773 L
198.86 178.921 L
203.2 176.869 L
207.54 174.498 L
211.88 172.637 L
216.22 171.104 L
220.56 170.682 L
224.9 169.331 L
229.24 168.208 L
233.58 166.797 L
237.92 167.674 L
242.26 166.398 L
246.6 165.037 L
250.94 164.54 L
255.28 163.47 L
259.62 162.581 L
263.96 162.018 L
268.3 161.015 L
272.64 160.17 L
276.98 159.29 L
281.32 158.634 L
285.66 157.753 L
290 156.667 L
294.34 155.829 L
298.68 154.907 L
303.02 154.291 L
307.36 153.302 L
311.7 153.369 L
316.04 152.385 L
320.38 151.428 L
324.72 163.435 L
329.06 162.955 L
333.4 233.387 L
337.74 232.305 L
342.08 231.913 L
346.42 231.592 L
350.76 231.033 L
355.1 230.672 L
359.44 230.015 L
363.78 229.018 L
368.12 228.366 L
372.46 227.904 L
376.8 229.554 L
381.14 229.131 L
385.48 228.859 L
389.82 228.34 L
394.16 229.896 L
398.5 235.849 L
402.84 238.346 L
407.18 238.02 L
411.52 237.48 L
415.86 237.31 L
420.2 237.486 L
424.54 237.089 L
428.88 236.816 L
433.22 236.216 L
437.56 236.215 L
441.9 235.544 L
446.24 235.954 L
450.58 235.452 L
454.92 235.503 L
459.26 237.007 L
463.6 237.745 L
467.94 259.432 L
472.28 258.986 L
476.62 258.705 L
480.96 258.404 L
485.3 258.686 L
489.64 262.47 L
493.98 262.101 L
498.32 273.072 L
502.66 275.576 L
507 275.52 L
S
GR
GS
1 0 0 RC
1 LJ
0.5 LW
N
77.34 276.143 M
81.68 170.777 L
86.02 161.731 L
90.36 155.382 L
94.7 154.838 L
99.04 149.244 L
103.38 258.453 L
107.72 256.609 L
112.06 256.194 L
116.4 253.953 L
120.74 253.193 L
125.08 251.262 L
129.42 249.669 L
133.76 249.097 L
138.1 246.252 L
142.44 245.585 L
146.78 244.401 L
151.12 242.445 L
155.46 242.63 L
159.8 242.394 L
164.14 240.546 L
168.48 240.018 L
172.82 237.986 L
177.16 236.852 L
181.5 237.765 L
185.84 243.978 L
190.18 242.626 L
194.52 240.732 L
198.86 238.624 L
203.2 237.974 L
207.54 235.157 L
211.88 233.665 L
216.22 231.947 L
220.56 232.224 L
224.9 231.207 L
229.24 231.157 L
233.58 248.719 L
237.92 247.319 L
242.26 245.876 L
246.6 245.02 L
250.94 243.9 L
255.28 242.668 L
259.62 241.772 L
263.96 241.646 L
268.3 240.431 L
272.64 239.539 L
276.98 241.047 L
281.32 241.681 L
285.66 240.693 L
290 242.312 L
294.34 241.878 L
298.68 241.26 L
303.02 240.707 L
307.36 240.399 L
311.7 239.436 L
316.04 238.667 L
320.38 238.031 L
324.72 237.66 L
S
GR
GS
1 0 0 RC
[1 3] 0 setdash
2 LJ
0.5 LW
N
324.72 237.66 M
329.06 236.906 L
333.4 237.384 L
337.74 239.435 L
342.08 239.453 L
346.42 239.55 L
350.76 240.34 L
355.1 243.154 L
359.44 248.374 L
363.78 249.92 L
368.12 249.925 L
372.46 249.986 L
376.8 250.678 L
381.14 256.804 L
385.48 256.846 L
389.82 257.047 L
394.16 257.156 L
398.5 258.423 L
402.84 263.054 L
407.18 263.055 L
411.52 263.122 L
415.86 266.214 L
420.2 266.536 L
424.54 266.629 L
428.88 273.698 L
433.22 273.957 L
437.56 275.017 L
441.9 276.163 L
446.24 276.185 L
450.58 276.297 L
454.92 276.297 L
459.26 277.345 L
463.6 277.447 L
467.94 277.489 L
472.28 277.641 L
476.62 277.959 L
480.96 281.555 L
485.3 281.557 L
489.64 281.573 L
493.98 291.124 L
498.32 291.264 L
502.66 291.777 L
507 292.987 L
S
GR
GS
1 0 0 RC
1 LJ
0.5 LW
N
77.34 276.143 M
81.68 219.649 L
86.02 190.748 L
90.36 177.724 L
94.7 195.036 L
99.04 187.804 L
103.38 183.384 L
107.72 176.867 L
112.06 173.12 L
116.4 177.539 L
120.74 175.705 L
125.08 170.136 L
129.42 165.647 L
133.76 161.424 L
138.1 157.438 L
142.44 154.858 L
146.78 155.439 L
151.12 152.971 L
155.46 150.358 L
159.8 151.721 L
164.14 149.851 L
168.48 147.653 L
172.82 148.031 L
177.16 242.067 L
181.5 240.884 L
185.84 240.596 L
190.18 239.316 L
194.52 237.936 L
198.86 236.31 L
203.2 235.332 L
207.54 234.117 L
211.88 232.88 L
216.22 232.046 L
220.56 231.68 L
224.9 232.978 L
229.24 232.28 L
233.58 241.534 L
237.92 240.816 L
242.26 239.656 L
246.6 239.788 L
250.94 239.431 L
255.28 238.963 L
259.62 246.868 L
263.96 245.95 L
268.3 245.546 L
272.64 244.922 L
276.98 244.348 L
281.32 243.921 L
285.66 243.462 L
290 243.091 L
294.34 243.206 L
298.68 242.654 L
303.02 242.211 L
307.36 242.231 L
311.7 241.523 L
316.04 241.981 L
320.38 243.481 L
324.72 242.968 L
329.06 242.771 L
333.4 242.6 L
337.74 244.702 L
342.08 244.79 L
346.42 244.139 L
S
GR
GS
1 0 0 RC
[1 3] 0 setdash
2 LJ
0.5 LW
N
346.42 244.139 M
350.76 243.629 L
355.1 245.633 L
359.44 248.346 L
363.78 248.558 L
368.12 248.842 L
372.46 249.069 L
376.8 249.408 L
381.14 249.708 L
385.48 249.711 L
389.82 249.895 L
394.16 250.404 L
398.5 252.258 L
402.84 252.259 L
407.18 252.41 L
411.52 252.467 L
415.86 252.47 L
420.2 252.47 L
424.54 252.517 L
428.88 252.543 L
433.22 261.715 L
437.56 261.824 L
441.9 262.291 L
446.24 262.593 L
450.58 264.875 L
454.92 274.149 L
459.26 274.15 L
463.6 274.621 L
467.94 278.067 L
472.28 278.179 L
476.62 285.414 L
480.96 286.655 L
485.3 287.687 L
489.64 287.98 L
493.98 289.224 L
498.32 291.274 L
502.66 291.349 L
507 291.484 L
S
GR
GS
1 0 0 RC
1 LJ
0.5 LW
N
77.34 276.143 M
81.68 276.143 L
86.02 254.594 L
90.36 246.403 L
94.7 234.83 L
99.04 232.657 L
103.38 226.617 L
107.72 221.852 L
112.06 218.829 L
116.4 215.893 L
120.74 211.276 L
125.08 208.817 L
129.42 206.215 L
133.76 205.872 L
138.1 201.368 L
142.44 197.455 L
146.78 194.783 L
151.12 194.548 L
155.46 193.478 L
159.8 191.001 L
164.14 190.535 L
168.48 207.695 L
172.82 205.755 L
177.16 203.58 L
181.5 202.931 L
185.84 201.994 L
190.18 200.282 L
194.52 200.304 L
198.86 203.144 L
203.2 201.897 L
207.54 200.205 L
211.88 198.47 L
216.22 198.047 L
220.56 196.936 L
224.9 197.83 L
229.24 197.379 L
233.58 196.322 L
237.92 196.068 L
242.26 194.8 L
246.6 193.373 L
250.94 228.165 L
255.28 239.077 L
259.62 238.058 L
263.96 237.394 L
268.3 237.078 L
272.64 243.295 L
276.98 242.99 L
281.32 242.125 L
285.66 241.155 L
290 243.069 L
294.34 242.441 L
298.68 241.548 L
303.02 239.926 L
307.36 239.545 L
311.7 237.993 L
316.04 236.986 L
320.38 236.993 L
324.72 236.601 L
329.06 235.529 L
333.4 238.01 L
337.74 238.807 L
342.08 240.236 L
346.42 239.947 L
350.76 240.028 L
355.1 239.152 L
359.44 238.329 L
363.78 237.537 L
368.12 237.07 L
372.46 236.303 L
376.8 235.898 L
381.14 236.54 L
385.48 236.178 L
389.82 235.571 L
394.16 235.792 L
398.5 235.404 L
402.84 235.071 L
407.18 241.777 L
411.52 241.41 L
415.86 243.235 L
420.2 243.058 L
424.54 242.777 L
428.88 242.575 L
433.22 243.009 L
437.56 242.591 L
441.9 244.112 L
446.24 245.204 L
450.58 244.553 L
454.92 245.136 L
459.26 244.836 L
463.6 244.478 L
467.94 256.785 L
472.28 256.348 L
476.62 255.852 L
480.96 255.795 L
485.3 257.578 L
489.64 261.134 L
493.98 272.019 L
498.32 271.963 L
502.66 274.925 L
507 274.846 L
S
GR
GS
1 0 0 RC
1 LJ
0.5 LW
N
77.34 276.143 M
81.68 267.331 L
86.02 266.793 L
90.36 259.596 L
94.7 248.191 L
99.04 238.557 L
103.38 230.409 L
107.72 222.36 L
112.06 222.749 L
116.4 226.466 L
120.74 230.881 L
125.08 228.827 L
129.42 221.78 L
133.76 215.169 L
138.1 209.125 L
142.44 206.258 L
146.78 206.896 L
151.12 207.124 L
155.46 203.551 L
159.8 199.868 L
164.14 194.762 L
168.48 194.041 L
172.82 198.748 L
177.16 197.151 L
181.5 193.186 L
185.84 191.146 L
190.18 189.169 L
194.52 187.734 L
198.86 191.639 L
203.2 201.665 L
207.54 199.745 L
211.88 224.428 L
216.22 227.686 L
220.56 226.194 L
224.9 225.289 L
229.24 225.174 L
233.58 223.66 L
237.92 222.663 L
242.26 224.895 L
246.6 223.398 L
250.94 221.887 L
255.28 221.817 L
259.62 220.496 L
263.96 220.396 L
268.3 219.92 L
272.64 218.916 L
276.98 217.936 L
281.32 216.934 L
285.66 228.096 L
290 227.431 L
294.34 227.003 L
298.68 228.025 L
303.02 227.846 L
307.36 226.921 L
311.7 225.88 L
316.04 225.078 L
320.38 226.277 L
324.72 226.274 L
329.06 225.293 L
333.4 224.888 L
337.74 223.791 L
342.08 223.344 L
346.42 228.407 L
350.76 227.558 L
355.1 227.18 L
S
GR
GS
1 0 0 RC
[1 3] 0 setdash
2 LJ
0.5 LW
N
355.1 227.18 M
359.44 226.386 L
363.78 226.728 L
368.12 227.984 L
372.46 228.012 L
376.8 228.762 L
381.14 228.802 L
385.48 229.109 L
389.82 238.409 L
394.16 238.447 L
398.5 260.49 L
402.84 260.491 L
407.18 260.635 L
411.52 260.635 L
415.86 260.82 L
420.2 261.709 L
424.54 261.782 L
428.88 261.969 L
433.22 263.647 L
437.56 263.697 L
441.9 263.795 L
446.24 263.819 L
450.58 264.174 L
454.92 264.476 L
459.26 266.141 L
463.6 266.17 L
467.94 282.328 L
472.28 284.652 L
476.62 284.652 L
480.96 285.296 L
485.3 286.441 L
489.64 286.544 L
493.98 286.956 L
498.32 287.132 L
502.66 287.517 L
507 288.12 L
S
GR
GS
1 0 0 RC
1 LJ
0.5 LW
N
77.34 276.143 M
81.68 247.042 L
86.02 258.626 L
90.36 244.555 L
94.7 238.088 L
99.04 226.083 L
103.38 219.068 L
107.72 229.191 L
112.06 235.251 L
116.4 254.253 L
120.74 248.639 L
125.08 246.745 L
129.42 262.139 L
133.76 256.423 L
138.1 251.956 L
142.44 249.657 L
146.78 253.187 L
151.12 251.685 L
155.46 250.056 L
159.8 246.958 L
164.14 245.077 L
168.48 245.705 L
172.82 244.828 L
177.16 241.758 L
181.5 241.907 L
185.84 238.97 L
190.18 236.867 L
194.52 235.833 L
198.86 234.045 L
203.2 232.987 L
207.54 232.131 L
211.88 231.155 L
216.22 231.315 L
220.56 230.54 L
224.9 229.219 L
229.24 227.055 L
233.58 226.575 L
237.92 225.513 L
242.26 224.564 L
246.6 223.228 L
250.94 221.991 L
255.28 220.993 L
259.62 221.177 L
263.96 231.277 L
268.3 230.647 L
272.64 229.556 L
276.98 228.982 L
281.32 228.11 L
285.66 227.451 L
290 227.281 L
294.34 226.68 L
298.68 226.554 L
303.02 227.46 L
307.36 226.822 L
311.7 227.048 L
316.04 225.88 L
320.38 226.403 L
324.72 225.387 L
329.06 224.91 L
333.4 224.694 L
337.74 223.053 L
342.08 222.421 L
346.42 221.489 L
350.76 221.501 L
355.1 220.84 L
359.44 221.356 L
363.78 220.649 L
368.12 220.816 L
372.46 220.108 L
376.8 219.443 L
381.14 218.748 L
385.48 230.97 L
389.82 230.281 L
394.16 234.102 L
S
GR
GS
1 0 0 RC
[1 3] 0 setdash
2 LJ
0.5 LW
N
394.16 234.102 M
398.5 233.61 L
402.84 234.588 L
407.18 244.734 L
411.52 244.808 L
415.86 247.401 L
420.2 247.656 L
424.54 247.675 L
428.88 254.181 L
433.22 254.2 L
437.56 254.2 L
441.9 254.28 L
446.24 255.516 L
450.58 255.805 L
454.92 256.058 L
459.26 256.317 L
463.6 257.461 L
467.94 257.462 L
472.28 258.072 L
476.62 258.084 L
480.96 258.318 L
485.3 271.746 L
489.64 272.552 L
493.98 272.775 L
498.32 273.485 L
502.66 280.9 L
507 281.023 L
S
GR
GS
1 0 0 RC
1 LJ
0.5 LW
N
77.34 276.143 M
81.68 276.143 L
86.02 271.979 L
90.36 259.077 L
94.7 254.737 L
99.04 262.174 L
103.38 253.976 L
107.72 247.655 L
112.06 244.918 L
116.4 238.752 L
120.74 235.806 L
125.08 229.542 L
129.42 224.604 L
133.76 226.217 L
138.1 224.929 L
142.44 222.901 L
146.78 220.621 L
151.12 217.502 L
155.46 213.674 L
159.8 210.595 L
164.14 213.039 L
168.48 211.1 L
172.82 210.52 L
177.16 207.214 L
181.5 205.45 L
185.84 203.353 L
190.18 206.293 L
194.52 210.659 L
198.86 208.759 L
203.2 208.017 L
207.54 206.128 L
211.88 204.147 L
216.22 202.155 L
220.56 200.017 L
224.9 202.783 L
229.24 201.266 L
233.58 199.723 L
237.92 197.482 L
242.26 195.159 L
246.6 212.207 L
250.94 211.385 L
255.28 209.819 L
259.62 213.488 L
263.96 211.555 L
268.3 211.413 L
272.64 210.71 L
276.98 210.302 L
281.32 210.401 L
285.66 209.751 L
290 209.582 L
294.34 207.838 L
298.68 206.945 L
303.02 205.718 L
307.36 203.213 L
311.7 201.227 L
316.04 200.436 L
320.38 199.899 L
324.72 201.342 L
329.06 199.874 L
333.4 204.46 L
337.74 203.682 L
342.08 202.394 L
346.42 201.424 L
350.76 200.606 L
355.1 201.296 L
359.44 211.778 L
363.78 223.377 L
368.12 228.589 L
372.46 228.505 L
376.8 227.481 L
381.14 227.224 L
385.48 233.272 L
389.82 232.255 L
394.16 233.013 L
398.5 236.261 L
402.84 246.282 L
407.18 245.404 L
411.52 250.22 L
415.86 249.971 L
420.2 249.58 L
424.54 248.896 L
428.88 249.332 L
433.22 248.314 L
437.56 248.227 L
441.9 252.901 L
446.24 252.176 L
450.58 252.204 L
454.92 251.608 L
459.26 251.935 L
463.6 252.494 L
467.94 258.608 L
472.28 260.578 L
476.62 264.553 L
480.96 268.684 L
485.3 268.804 L
489.64 268.444 L
493.98 270.443 L
498.32 270.234 L
502.66 271.276 L
507 271.344 L
S
GR
GS
1 0 0 RC
1 LJ
0.5 LW
N
77.34 276.143 M
81.68 239.871 L
86.02 212.655 L
90.36 203.192 L
94.7 200.259 L
99.04 193.134 L
103.38 189.068 L
107.72 180.769 L
112.06 174.491 L
116.4 171.843 L
120.74 164.663 L
125.08 158.974 L
129.42 155.716 L
133.76 181.285 L
138.1 178.979 L
142.44 180.097 L
146.78 178.027 L
151.12 176.757 L
155.46 173.955 L
159.8 228.61 L
164.14 226.928 L
168.48 230.96 L
172.82 228.083 L
177.16 228.865 L
181.5 232.697 L
185.84 231.038 L
190.18 229.546 L
194.52 227.961 L
198.86 227.654 L
203.2 225.773 L
207.54 224.474 L
211.88 223.639 L
216.22 222.627 L
220.56 221.853 L
224.9 223.517 L
229.24 222.651 L
233.58 221.528 L
237.92 222.718 L
242.26 223.763 L
246.6 222.867 L
250.94 221.702 L
255.28 221.368 L
259.62 219.971 L
263.96 219.138 L
268.3 217.568 L
272.64 218.155 L
276.98 218.012 L
281.32 217.698 L
285.66 217.874 L
290 217.123 L
294.34 218.891 L
298.68 218.473 L
303.02 217.441 L
307.36 216.804 L
311.7 217.178 L
316.04 216.351 L
320.38 216.397 L
324.72 215.435 L
329.06 235.116 L
333.4 234.124 L
337.74 234.266 L
342.08 233.569 L
346.42 232.693 L
350.76 231.802 L
355.1 231.615 L
359.44 230.846 L
363.78 230.703 L
368.12 230.037 L
372.46 229.283 L
376.8 228.601 L
381.14 246.364 L
385.48 245.758 L
389.82 244.877 L
394.16 244.212 L
398.5 243.669 L
402.84 248.491 L
407.18 248.896 L
411.52 249.192 L
415.86 248.569 L
420.2 247.958 L
424.54 247.441 L
428.88 247.282 L
433.22 246.867 L
437.56 246.388 L
441.9 245.567 L
446.24 248.146 L
450.58 260.765 L
454.92 260.348 L
459.26 259.573 L
S
GR
GS
1 0 0 RC
[1 3] 0 setdash
2 LJ
0.5 LW
N
459.26 259.573 M
463.6 258.72 L
467.94 258.788 L
472.28 259.717 L
476.62 262.386 L
480.96 262.91 L
485.3 267.12 L
489.64 267.125 L
493.98 267.61 L
498.32 267.616 L
502.66 269.14 L
507 269.143 L
S
GR
GS
1 0 0 RC
1 LJ
0.5 LW
N
77.34 276.143 M
81.68 245.11 L
86.02 234.276 L
90.36 260.538 L
94.7 254.68 L
99.04 249.917 L
103.38 241.973 L
107.72 238.462 L
112.06 233.481 L
116.4 232.279 L
120.74 232.686 L
125.08 231.062 L
129.42 227.242 L
133.76 239.883 L
138.1 232.526 L
142.44 226.568 L
146.78 224.058 L
151.12 219.506 L
155.46 214.49 L
159.8 211.455 L
164.14 207.192 L
168.48 205.44 L
172.82 202.964 L
177.16 200.56 L
181.5 198.859 L
185.84 196.676 L
190.18 194.372 L
194.52 192.766 L
198.86 191.466 L
203.2 200.949 L
207.54 199.438 L
211.88 197.806 L
216.22 196.206 L
220.56 196.351 L
224.9 215.876 L
229.24 214.752 L
233.58 213.147 L
237.92 212.367 L
242.26 211.407 L
246.6 211.112 L
250.94 210.144 L
255.28 211.856 L
259.62 211.094 L
263.96 210.929 L
268.3 209.756 L
272.64 208.603 L
276.98 208.668 L
281.32 207.869 L
285.66 206.887 L
290 212.026 L
294.34 211.431 L
298.68 231.592 L
303.02 231.202 L
307.36 230.215 L
311.7 231.899 L
316.04 231.251 L
320.38 230.438 L
324.72 232.175 L
329.06 232.509 L
333.4 233.356 L
337.74 233.43 L
342.08 233.25 L
346.42 234.139 L
350.76 233.585 L
355.1 233.361 L
359.44 250.251 L
363.78 262.3 L
368.12 261.662 L
372.46 262.27 L
376.8 263.236 L
381.14 263.85 L
385.48 264.289 L
389.82 263.826 L
394.16 263.712 L
398.5 263.397 L
402.84 262.895 L
407.18 262.225 L
411.52 261.702 L
415.86 261.691 L
420.2 261.479 L
424.54 260.992 L
428.88 260.913 L
S
GR
GS
1 0 0 RC
[1 3] 0 setdash
2 LJ
0.5 LW
N
428.88 260.913 M
433.22 264.885 L
437.56 266.742 L
441.9 267.345 L
446.24 267.365 L
450.58 267.864 L
454.92 268.229 L
459.26 268.767 L
463.6 269.732 L
467.94 269.737 L
472.28 270.018 L
476.62 275.295 L
480.96 275.859 L
485.3 276.672 L
489.64 276.672 L
493.98 276.891 L
498.32 276.928 L
502.66 280.224 L
507 280.799 L
S
GR
GS
1 0 0 RC
1 LJ
0.5 LW
N
77.34 276.143 M
81.68 244.406 L
86.02 276.143 L
90.36 276.143 L
94.7 262.22 L
99.04 261.375 L
103.38 256.807 L
107.72 254.058 L
112.06 253.953 L
116.4 248.269 L
120.74 247.547 L
125.08 242.883 L
129.42 244.005 L
133.76 241.756 L
138.1 255.363 L
142.44 253.887 L
146.78 251.277 L
151.12 249.486 L
155.46 254.463 L
159.8 255.409 L
164.14 251.947 L
168.48 253.384 L
172.82 251.484 L
177.16 252.992 L
181.5 259.278 L
185.84 259.523 L
190.18 259.241 L
194.52 259.158 L
198.86 256.844 L
203.2 255.682 L
207.54 254.136 L
211.88 253.968 L
216.22 251.415 L
220.56 252.747 L
224.9 252.858 L
229.24 250.634 L
233.58 249.523 L
237.92 247.695 L
242.26 246.338 L
246.6 245.205 L
250.94 244.297 L
255.28 243.919 L
259.62 242.279 L
263.96 240.855 L
268.3 240.178 L
272.64 239.377 L
276.98 238.987 L
281.32 237.899 L
285.66 237.29 L
290 238.778 L
294.34 239.072 L
298.68 238.029 L
303.02 237.277 L
307.36 239.078 L
311.7 238.294 L
316.04 239.231 L
320.38 238.98 L
324.72 238.24 L
329.06 237.717 L
333.4 237.14 L
337.74 238.513 L
342.08 237.968 L
346.42 237.456 L
350.76 236.875 L
355.1 237.872 L
359.44 241.734 L
363.78 241.052 L
368.12 240.471 L
372.46 240.578 L
376.8 240.357 L
381.14 240.787 L
385.48 240.444 L
389.82 240.077 L
394.16 240.096 L
398.5 239.895 L
402.84 241.494 L
407.18 241.326 L
411.52 243.825 L
415.86 243.782 L
S
GR
GS
1 0 0 RC
[1 3] 0 setdash
2 LJ
0.5 LW
N
415.86 243.782 M
420.2 243.354 L
424.54 243.443 L
428.88 243.915 L
433.22 243.917 L
437.56 246.555 L
441.9 246.638 L
446.24 246.716 L
450.58 272.052 L
454.92 272.153 L
459.26 272.413 L
463.6 272.646 L
467.94 273.532 L
472.28 275.008 L
476.62 275.513 L
480.96 275.844 L
485.3 275.936 L
489.64 276.554 L
493.98 276.56 L
498.32 277.064 L
502.66 278.244 L
507 282.278 L
S
GR
GS
1 0 0 RC
1 LJ
0.5 LW
N
77.34 276.143 M
81.68 246.391 L
86.02 276.143 L
90.36 263.324 L
94.7 255.532 L
99.04 249.908 L
103.38 244.238 L
107.72 239.478 L
112.06 241.472 L
116.4 247.84 L
120.74 244.994 L
125.08 247.064 L
129.42 245.112 L
133.76 242.678 L
138.1 241.849 L
142.44 240.983 L
146.78 239.562 L
151.12 238.397 L
155.46 236.097 L
159.8 235.923 L
164.14 259.248 L
168.48 258.016 L
172.82 258.716 L
177.16 257.127 L
181.5 257.375 L
185.84 259.043 L
190.18 258.064 L
194.52 257.645 L
198.86 256.609 L
203.2 256.146 L
207.54 255.877 L
211.88 255.228 L
216.22 256.302 L
220.56 255.896 L
224.9 255.275 L
229.24 256.108 L
233.58 255.75 L
237.92 256.428 L
242.26 256.819 L
246.6 255.889 L
250.94 255.254 L
255.28 256.325 L
259.62 255.746 L
263.96 255.13 L
268.3 254.661 L
272.64 254.056 L
276.98 253.324 L
281.32 252.576 L
285.66 252.769 L
290 252.403 L
294.34 256.828 L
298.68 256.311 L
303.02 255.686 L
307.36 255.426 L
311.7 254.825 L
316.04 254.291 L
320.38 254.873 L
324.72 254.549 L
329.06 254.044 L
333.4 255.035 L
337.74 256.495 L
342.08 256.427 L
S
GR
GS
1 0 0 RC
[1 3] 0 setdash
2 LJ
0.5 LW
N
342.08 256.427 M
346.42 256.044 L
350.76 256.052 L
355.1 256.559 L
359.44 256.657 L
363.78 256.717 L
368.12 256.796 L
372.46 256.798 L
376.8 257.128 L
381.14 257.667 L
385.48 269.876 L
389.82 270.645 L
394.16 270.681 L
398.5 272.144 L
402.84 272.194 L
407.18 272.203 L
411.52 272.205 L
415.86 272.205 L
420.2 272.224 L
424.54 272.676 L
428.88 273.09 L
433.22 276.59 L
437.56 276.745 L
441.9 279.111 L
446.24 280.157 L
450.58 280.178 L
454.92 280.294 L
459.26 280.725 L
463.6 281.693 L
467.94 281.693 L
472.28 281.714 L
476.62 282.414 L
480.96 282.723 L
485.3 282.755 L
489.64 282.759 L
493.98 282.782 L
498.32 282.934 L
502.66 283.654 L
507 286.673 L
S
GR
GS
1 0 0 RC
1 LJ
0.5 LW
N
77.34 276.143 M
81.68 248.231 L
86.02 239.841 L
90.36 232.907 L
94.7 237.495 L
99.04 230.242 L
103.38 221.187 L
107.72 219.874 L
112.06 217.41 L
116.4 211.437 L
120.74 205.883 L
125.08 207.686 L
129.42 204.695 L
133.76 203.293 L
138.1 233.855 L
142.44 230.076 L
146.78 228.207 L
151.12 229.283 L
155.46 229.365 L
159.8 223.883 L
164.14 222.843 L
168.48 222.441 L
172.82 221.034 L
177.16 221.989 L
181.5 220.473 L
185.84 219.534 L
190.18 217.557 L
194.52 223.403 L
198.86 225.041 L
203.2 222.195 L
207.54 224.806 L
211.88 223.546 L
216.22 222.702 L
220.56 232.136 L
224.9 231.856 L
229.24 229.593 L
233.58 233.734 L
237.92 232.092 L
242.26 235.045 L
246.6 234.715 L
250.94 232.912 L
255.28 231.325 L
259.62 230.614 L
263.96 229.421 L
268.3 228.238 L
272.64 228.816 L
276.98 227.732 L
281.32 227.536 L
285.66 226.479 L
290 226.035 L
294.34 225.025 L
298.68 225.293 L
303.02 225.005 L
307.36 224.11 L
311.7 223.583 L
316.04 222.946 L
320.38 222.561 L
324.72 222.726 L
329.06 224.94 L
333.4 223.832 L
337.74 223.204 L
342.08 222.289 L
346.42 223.813 L
350.76 223.011 L
355.1 222.3 L
359.44 221.473 L
363.78 224.814 L
368.12 224.275 L
372.46 222.954 L
376.8 222.529 L
381.14 222.071 L
385.48 221.76 L
389.82 221.352 L
394.16 236.322 L
398.5 235.821 L
402.84 238.178 L
407.18 239.636 L
411.52 240.048 L
415.86 248.178 L
420.2 247.956 L
424.54 247.027 L
428.88 246.238 L
433.22 245.673 L
437.56 245.805 L
441.9 245.162 L
446.24 245.349 L
450.58 244.78 L
454.92 244.245 L
459.26 243.746 L
463.6 243.703 L
467.94 243.283 L
472.28 243.105 L
476.62 242.743 L
480.96 264.252 L
485.3 263.762 L
489.64 273.071 L
493.98 275.756 L
498.32 275.626 L
502.66 274.811 L
507 274.825 L
S
GR
GS
1 0 0 RC
1 LJ
0.5 LW
N
77.34 276.143 M
81.68 206.585 L
86.02 165.897 L
90.36 136.768 L
94.7 129.567 L
99.04 124.302 L
103.38 148.586 L
107.72 144.499 L
112.06 142.468 L
116.4 138.985 L
120.74 136.142 L
125.08 132.89 L
129.42 130.793 L
133.76 128.455 L
138.1 128.908 L
142.44 127.334 L
146.78 127.721 L
151.12 143.802 L
155.46 142.142 L
159.8 141.016 L
164.14 139.312 L
168.48 139.228 L
172.82 258.177 L
177.16 256.811 L
181.5 255.68 L
185.84 255.654 L
190.18 254.574 L
194.52 254.935 L
198.86 256.356 L
203.2 256.016 L
207.54 254.937 L
211.88 254.245 L
216.22 253.448 L
220.56 253.828 L
224.9 259.488 L
229.24 259.354 L
233.58 258.727 L
237.92 258.585 L
242.26 257.59 L
246.6 256.73 L
250.94 255.861 L
255.28 255.085 L
259.62 254.408 L
263.96 253.702 L
268.3 256.646 L
272.64 257.148 L
276.98 257.525 L
281.32 256.809 L
285.66 256.377 L
290 256.007 L
294.34 255.553 L
298.68 255.197 L
303.02 254.676 L
307.36 254.771 L
311.7 254.369 L
316.04 253.813 L
320.38 253.208 L
324.72 252.691 L
329.06 252.468 L
333.4 252.304 L
337.74 251.805 L
342.08 251.895 L
346.42 251.489 L
350.76 251.638 L
355.1 251.293 L
359.44 251.408 L
363.78 250.966 L
368.12 251.002 L
372.46 250.585 L
376.8 251.283 L
381.14 252.134 L
385.48 251.694 L
389.82 251.324 L
394.16 251.085 L
398.5 252.097 L
402.84 251.779 L
407.18 251.387 L
411.52 250.978 L
415.86 252.871 L
420.2 252.596 L
424.54 252.307 L
428.88 252.737 L
433.22 253.386 L
437.56 257.717 L
441.9 265.956 L
446.24 265.681 L
450.58 266.364 L
454.92 266.257 L
459.26 267.61 L
463.6 268.419 L
467.94 268.154 L
472.28 268.573 L
476.62 268.499 L
480.96 274.092 L
S
GR
GS
1 0 0 RC
[1 3] 0 setdash
2 LJ
0.5 LW
N
480.96 274.092 M
485.3 273.888 L
489.64 274.292 L
493.98 274.361 L
498.32 274.578 L
502.66 276.47 L
507 276.711 L
S
GR
GS
1 0 0 RC
1 LJ
0.5 LW
N
77.34 276.143 M
81.68 211.468 L
86.02 180.686 L
90.36 169.207 L
94.7 225.17 L
99.04 215.026 L
103.38 210.312 L
107.72 248.084 L
112.06 244.795 L
116.4 242.792 L
120.74 241.859 L
125.08 240.045 L
129.42 237.276 L
133.76 236.486 L
138.1 233.983 L
142.44 237.779 L
146.78 236.813 L
151.12 236.026 L
155.46 233.708 L
159.8 232.412 L
164.14 232.128 L
168.48 230.965 L
172.82 229.565 L
177.16 244.71 L
181.5 257.6 L
185.84 258.489 L
190.18 263.75 L
194.52 262.35 L
198.86 261.704 L
203.2 260.413 L
207.54 259.07 L
211.88 258.316 L
216.22 260.632 L
220.56 261.837 L
224.9 263.342 L
229.24 262.47 L
233.58 261.713 L
237.92 261.515 L
242.26 261.21 L
246.6 261.04 L
250.94 260.186 L
255.28 259.835 L
259.62 259.444 L
263.96 258.766 L
268.3 259.504 L
272.64 262.653 L
276.98 262.031 L
281.32 261.341 L
285.66 261.1 L
290 260.689 L
294.34 259.661 L
298.68 258.965 L
303.02 258.489 L
307.36 258.165 L
311.7 258.211 L
316.04 257.894 L
320.38 257.625 L
324.72 257.547 L
329.06 258.605 L
333.4 260.664 L
337.74 259.786 L
342.08 259.53 L
346.42 258.774 L
350.76 257.973 L
355.1 259.181 L
359.44 258.064 L
363.78 257.705 L
368.12 257.569 L
372.46 256.934 L
376.8 257.068 L
381.14 256.611 L
385.48 259.577 L
389.82 259.095 L
394.16 258.682 L
398.5 258.126 L
402.84 259.144 L
407.18 258.955 L
411.52 258.491 L
415.86 258.679 L
420.2 258.218 L
424.54 258.269 L
428.88 262.709 L
433.22 262.32 L
437.56 262.713 L
441.9 263.963 L
446.24 263.712 L
450.58 263.655 L
454.92 264.172 L
459.26 264.2 L
463.6 265.926 L
467.94 265.73 L
472.28 268.269 L
476.62 269.002 L
480.96 269.124 L
485.3 269.047 L
489.64 269.388 L
493.98 269.256 L
498.32 269.15 L
S
GR
GS
1 0 0 RC
[1 3] 0 setdash
2 LJ
0.5 LW
N
498.32 269.15 M
502.66 275.721 L
507 275.909 L
S
GR
GS
1 0 0 RC
1 LJ
0.5 LW
N
77.34 276.143 M
81.68 275.229 L
86.02 231.97 L
90.36 207.044 L
94.7 200.955 L
99.04 195.347 L
103.38 192.69 L
107.72 261.433 L
112.06 260.872 L
116.4 262.278 L
120.74 265.073 L
125.08 261.152 L
129.42 258.594 L
133.76 254.666 L
138.1 250.277 L
142.44 249.048 L
146.78 249.449 L
151.12 246.897 L
155.46 251.758 L
159.8 251.436 L
164.14 249.394 L
168.48 247.586 L
172.82 253.964 L
177.16 257.913 L
181.5 262.107 L
185.84 261.679 L
190.18 260.872 L
194.52 261.566 L
198.86 260.832 L
203.2 261.618 L
207.54 261 L
211.88 261.143 L
216.22 260.057 L
220.56 259.38 L
224.9 258.986 L
229.24 259.237 L
233.58 259.443 L
237.92 259 L
242.26 258.696 L
246.6 258.013 L
250.94 257.214 L
255.28 256.719 L
259.62 264.847 L
263.96 263.812 L
268.3 263.185 L
272.64 262.419 L
276.98 262.744 L
281.32 262.175 L
285.66 261.622 L
290 261.541 L
294.34 261.684 L
298.68 260.949 L
303.02 260.372 L
307.36 259.999 L
311.7 260.212 L
316.04 259.578 L
320.38 259.909 L
324.72 259.54 L
329.06 260.309 L
333.4 266.265 L
337.74 266.054 L
342.08 265.544 L
346.42 265.582 L
350.76 265.82 L
355.1 266.619 L
359.44 266.34 L
363.78 266.323 L
368.12 266.032 L
372.46 265.867 L
376.8 265.584 L
381.14 266.575 L
S
GR
GS
1 0 0 RC
[1 3] 0 setdash
2 LJ
0.5 LW
N
381.14 266.575 M
385.48 266.381 L
389.82 266.452 L
394.16 266.562 L
398.5 266.628 L
402.84 266.638 L
407.18 266.652 L
411.52 266.653 L
415.86 266.788 L
420.2 266.789 L
424.54 266.827 L
428.88 269.651 L
433.22 270.21 L
437.56 270.466 L
441.9 270.519 L
446.24 270.521 L
450.58 270.678 L
454.92 274.682 L
459.26 274.684 L
463.6 274.84 L
467.94 278.404 L
472.28 279.353 L
476.62 279.358 L
480.96 279.757 L
485.3 279.783 L
489.64 280.432 L
493.98 280.435 L
498.32 280.983 L
502.66 280.993 L
507 281.079 L
S
GR
GS
1 0 0 RC
1 LJ
0.5 LW
N
77.34 276.143 M
81.68 252.325 L
86.02 276.143 L
90.36 269.215 L
94.7 268.682 L
99.04 264.981 L
103.38 264.581 L
107.72 253.879 L
112.06 248.723 L
116.4 242.221 L
120.74 234.886 L
125.08 230.902 L
129.42 228.725 L
133.76 226.931 L
138.1 227.806 L
142.44 225.592 L
146.78 222.231 L
151.12 223.271 L
155.46 227.555 L
159.8 225.446 L
164.14 223.76 L
168.48 221.565 L
172.82 220.259 L
177.16 218.375 L
181.5 217.278 L
185.84 215.319 L
190.18 212.573 L
194.52 211.046 L
198.86 208.673 L
203.2 207.177 L
207.54 205.523 L
211.88 203.727 L
216.22 203.065 L
220.56 201.316 L
224.9 199.609 L
229.24 200.127 L
233.58 207.101 L
237.92 205.397 L
242.26 205.218 L
246.6 230.532 L
250.94 231.521 L
255.28 230.397 L
259.62 239.208 L
263.96 237.702 L
268.3 236.01 L
272.64 236.611 L
276.98 237.874 L
281.32 238.498 L
285.66 237.637 L
290 236.423 L
294.34 236.123 L
298.68 236.024 L
303.02 235.34 L
307.36 239.829 L
311.7 238.666 L
316.04 239.726 L
320.38 238.807 L
324.72 237.407 L
329.06 236.829 L
333.4 235.681 L
337.74 241.149 L
342.08 240.2 L
346.42 240.137 L
350.76 239.293 L
355.1 238.535 L
359.44 238.23 L
363.78 239.128 L
368.12 238.402 L
372.46 237.721 L
376.8 237.412 L
381.14 249.596 L
385.48 254.971 L
389.82 254.704 L
394.16 257.662 L
398.5 261.587 L
402.84 263.228 L
407.18 262.728 L
411.52 263.922 L
415.86 264.09 L
420.2 263.778 L
424.54 263.124 L
428.88 262.494 L
433.22 262.919 L
437.56 263.017 L
441.9 262.763 L
446.24 265.582 L
450.58 265.349 L
454.92 265.632 L
459.26 265.335 L
463.6 265.784 L
467.94 265.541 L
472.28 265.41 L
476.62 268.534 L
480.96 268.174 L
485.3 269.282 L
489.64 269.02 L
493.98 271.191 L
498.32 271.173 L
502.66 276.005 L
507 275.979 L
S
GR
GS
1 0 0 RC
1 LJ
0.5 LW
N
77.34 276.143 M
81.68 243.241 L
86.02 227.935 L
90.36 210.231 L
94.7 224.996 L
99.04 209.827 L
103.38 192.521 L
107.72 184.569 L
112.06 181.267 L
116.4 175.239 L
120.74 172.336 L
125.08 170.24 L
129.42 179.284 L
133.76 195.782 L
138.1 194.167 L
142.44 190.642 L
146.78 189.599 L
151.12 187.59 L
155.46 186.676 L
159.8 205.15 L
164.14 202.707 L
168.48 201.309 L
172.82 199.581 L
177.16 197.822 L
181.5 195.893 L
185.84 194.725 L
190.18 193.086 L
194.52 191.168 L
198.86 189.626 L
203.2 187.737 L
207.54 186.683 L
211.88 185.559 L
216.22 184.295 L
220.56 184.582 L
224.9 183.631 L
229.24 182.551 L
233.58 181.956 L
237.92 181.201 L
242.26 180.326 L
246.6 179.647 L
250.94 179.025 L
255.28 178.799 L
259.62 212.721 L
263.96 239.883 L
268.3 239.013 L
272.64 239.459 L
276.98 238.502 L
281.32 237.756 L
285.66 238.998 L
290 238.688 L
294.34 238.031 L
298.68 237.497 L
303.02 237.241 L
307.36 239.912 L
311.7 239.378 L
316.04 241.548 L
320.38 240.727 L
324.72 240.178 L
329.06 239.588 L
333.4 238.994 L
337.74 238.344 L
342.08 237.778 L
346.42 242.311 L
350.76 242.028 L
355.1 241.655 L
359.44 248.107 L
363.78 247.119 L
368.12 252.493 L
372.46 252.144 L
376.8 251.671 L
381.14 251.674 L
385.48 251.053 L
389.82 251.874 L
394.16 251.398 L
398.5 252.501 L
402.84 252.047 L
407.18 252.372 L
411.52 252.8 L
415.86 256.064 L
420.2 256.54 L
424.54 257.06 L
428.88 257.101 L
433.22 257.659 L
437.56 257.289 L
441.9 267.244 L
446.24 266.766 L
450.58 268.793 L
454.92 268.572 L
459.26 268.66 L
463.6 268.222 L
467.94 268.868 L
472.28 268.596 L
476.62 269.609 L
480.96 271.367 L
485.3 271.545 L
489.64 273.535 L
493.98 273.411 L
498.32 273.283 L
502.66 273.24 L
507 273.991 L
S
GR
GS
1 LJ
0.5 LW
N
77.34 276.143 M
81.68 226.139 L
86.02 211.491 L
90.36 202.926 L
94.7 263.4 L
99.04 257.523 L
103.38 248.714 L
107.72 244.642 L
112.06 239.781 L
116.4 234.416 L
120.74 235.949 L
125.08 233.04 L
129.42 232.426 L
133.76 231.639 L
138.1 230.732 L
142.44 228.483 L
146.78 245.825 L
151.12 244.254 L
155.46 242.768 L
159.8 241.999 L
164.14 240.978 L
168.48 247.046 L
172.82 245.673 L
177.16 249.997 L
181.5 248.468 L
185.84 247.684 L
190.18 246.962 L
194.52 246.561 L
198.86 247.221 L
203.2 246.236 L
207.54 245.734 L
211.88 244.66 L
216.22 243.862 L
220.56 243.824 L
224.9 244.144 L
229.24 243.155 L
233.58 243.429 L
237.92 242.986 L
242.26 242.373 L
246.6 243.936 L
250.94 243.622 L
255.28 243.381 L
259.62 244.022 L
263.96 243.539 L
268.3 242.855 L
272.64 242.437 L
276.98 241.817 L
281.32 241.216 L
285.66 240.622 L
290 241.435 L
294.34 243.183 L
298.68 243.105 L
303.02 242.627 L
307.36 242.036 L
311.7 241.568 L
316.04 241.32 L
320.38 241.006 L
324.72 241.239 L
329.06 240.925 L
333.4 262.79 L
337.74 262.44 L
342.08 262.069 L
346.42 261.752 L
350.76 261.569 L
355.1 263.185 L
359.44 262.881 L
363.78 263.755 L
368.12 266.176 L
372.46 265.989 L
376.8 265.885 L
381.14 265.673 L
385.48 266.334 L
389.82 266.071 L
394.16 265.731 L
398.5 265.28 L
402.84 265.632 L
407.18 265.452 L
411.52 265.152 L
415.86 264.832 L
420.2 264.727 L
424.54 264.915 L
428.88 264.538 L
433.22 264.193 L
437.56 264.645 L
441.9 264.566 L
446.24 264.536 L
450.58 264.372 L
454.92 265.129 L
459.26 265.658 L
463.6 265.393 L
467.94 266.373 L
S
GR
GS
[1 3] 0 setdash
2 LJ
0.5 LW
N
467.94 266.373 M
472.28 266.198 L
476.62 266.025 L
480.96 265.815 L
485.3 265.631 L
489.64 265.507 L
493.98 265.38 L
498.32 265.208 L
502.66 265.025 L
507 264.981 L
S
GR
GS
1 LJ
0.5 LW
N
77.34 276.143 M
81.68 244.742 L
86.02 203.549 L
90.36 179.92 L
94.7 158.112 L
99.04 156.639 L
103.38 159.157 L
107.72 155.012 L
112.06 152.61 L
116.4 157.086 L
120.74 173.295 L
125.08 170.644 L
129.42 167.587 L
133.76 163.963 L
138.1 171.136 L
142.44 168.179 L
146.78 165.772 L
151.12 163.117 L
155.46 162.346 L
159.8 160.927 L
164.14 159.177 L
168.48 158.267 L
172.82 156.905 L
177.16 156.519 L
181.5 172.651 L
185.84 171.166 L
190.18 171.734 L
194.52 175.703 L
198.86 175.2 L
203.2 174.309 L
207.54 173.59 L
211.88 171.834 L
216.22 180.217 L
220.56 186.993 L
224.9 191.659 L
229.24 190.64 L
233.58 189.936 L
237.92 189.393 L
242.26 187.93 L
246.6 187.126 L
250.94 198.536 L
255.28 197.846 L
259.62 197.223 L
263.96 196.411 L
268.3 200.098 L
272.64 202.976 L
276.98 201.91 L
281.32 200.736 L
285.66 201.451 L
290 204.701 L
294.34 233.045 L
298.68 232.991 L
S
GR
GS
[1 3] 0 setdash
2 LJ
0.5 LW
N
298.68 232.991 M
303.02 232.199 L
307.36 231.371 L
311.7 230.747 L
316.04 230.104 L
320.38 229.49 L
324.72 228.678 L
329.06 227.901 L
333.4 226.924 L
337.74 226.329 L
342.08 225.763 L
346.42 225.046 L
350.76 224.448 L
355.1 223.898 L
359.44 223.306 L
363.78 222.782 L
368.12 222.357 L
372.46 221.947 L
376.8 221.53 L
381.14 221.037 L
385.48 220.505 L
389.82 220.02 L
394.16 219.428 L
398.5 218.957 L
402.84 218.484 L
407.18 218.151 L
411.52 217.839 L
415.86 217.587 L
420.2 217.348 L
424.54 217.097 L
428.88 216.875 L
433.22 216.604 L
437.56 216.397 L
441.9 216.101 L
446.24 215.793 L
450.58 215.547 L
454.92 215.306 L
459.26 215.085 L
463.6 214.83 L
467.94 214.644 L
472.28 214.484 L
476.62 214.298 L
480.96 214.186 L
485.3 214.065 L
489.64 213.978 L
493.98 213.86 L
498.32 213.764 L
502.66 213.679 L
507 213.571 L
S
GR
GS
1 LJ
0.5 LW
N
77.34 276.143 M
81.68 339.804 L
86.02 328.889 L
90.36 319.084 L
94.7 311.078 L
99.04 301.951 L
103.38 295.623 L
107.72 287.263 L
112.06 279.502 L
116.4 270.438 L
120.74 261.724 L
125.08 255.05 L
129.42 252.394 L
133.76 246.275 L
138.1 241.892 L
142.44 236.4 L
146.78 231.678 L
151.12 225.581 L
155.46 221.295 L
159.8 218.758 L
164.14 217.884 L
168.48 214.612 L
172.82 210.781 L
177.16 207.956 L
181.5 204.615 L
185.84 200.704 L
190.18 197.897 L
194.52 196.462 L
198.86 194.084 L
203.2 192.776 L
207.54 191.142 L
211.88 189.314 L
216.22 187.495 L
220.56 185.238 L
224.9 184.319 L
229.24 185.154 L
233.58 230.169 L
237.92 228.392 L
242.26 227.256 L
246.6 228.744 L
250.94 229.662 L
255.28 228.121 L
S
GR
GS
[1 3] 0 setdash
2 LJ
0.5 LW
N
255.28 228.121 M
259.62 226.847 L
263.96 225.611 L
268.3 224.49 L
272.64 223.464 L
276.98 222.372 L
281.32 221.545 L
285.66 220.671 L
290 219.816 L
294.34 218.621 L
298.68 217.857 L
303.02 216.938 L
307.36 216.149 L
311.7 214.865 L
316.04 214.125 L
320.38 213.378 L
324.72 212.512 L
329.06 211.756 L
333.4 211.293 L
337.74 210.55 L
342.08 209.813 L
346.42 209.176 L
350.76 208.061 L
355.1 207.425 L
359.44 206.839 L
363.78 206.049 L
368.12 205.473 L
372.46 204.41 L
376.8 204.031 L
381.14 203.29 L
385.48 202.546 L
389.82 201.847 L
394.16 201.192 L
398.5 200.489 L
402.84 199.86 L
407.18 199.067 L
411.52 198.418 L
415.86 197.299 L
420.2 196.667 L
424.54 196.065 L
428.88 195.413 L
433.22 194.774 L
437.56 194.092 L
441.9 193.418 L
446.24 192.827 L
450.58 192.179 L
454.92 191.466 L
459.26 191.003 L
463.6 190.51 L
467.94 190.115 L
472.28 189.673 L
476.62 189.191 L
480.96 188.771 L
485.3 188.368 L
489.64 187.98 L
493.98 187.841 L
498.32 187.705 L
502.66 187.499 L
507 187.418 L
S
GR
GS
1 LJ
0.5 LW
N
77.34 276.143 M
81.68 204.773 L
86.02 228.678 L
90.36 224.131 L
94.7 216.738 L
99.04 226.973 L
103.38 220.76 L
107.72 215.904 L
112.06 211.805 L
116.4 208.76 L
120.74 208.249 L
125.08 220.346 L
129.42 218.542 L
133.76 216.212 L
138.1 224.218 L
142.44 222.346 L
146.78 220.112 L
151.12 217.782 L
155.46 216.528 L
159.8 215.124 L
164.14 214.153 L
168.48 213.085 L
172.82 211.543 L
177.16 209.322 L
181.5 207.586 L
185.84 206.601 L
190.18 206.087 L
194.52 212.236 L
198.86 214.705 L
203.2 214.897 L
207.54 213.467 L
211.88 211.382 L
216.22 213.018 L
220.56 211.905 L
S
GR
GS
[1 3] 0 setdash
2 LJ
0.5 LW
N
220.56 211.905 M
224.9 211.072 L
229.24 209.578 L
233.58 208.226 L
237.92 207.061 L
242.26 205.728 L
246.6 204.857 L
250.94 203.986 L
255.28 203.085 L
259.62 202.168 L
263.96 201.497 L
268.3 200.362 L
272.64 199.379 L
276.98 198.503 L
281.32 197.65 L
285.66 196.851 L
290 195.871 L
294.34 195.079 L
298.68 194.256 L
303.02 193.64 L
307.36 192.671 L
311.7 191.854 L
316.04 191.304 L
320.38 190.666 L
324.72 189.996 L
329.06 189.391 L
333.4 188.795 L
337.74 188.062 L
342.08 187.621 L
346.42 186.946 L
350.76 186.469 L
355.1 185.839 L
359.44 185.468 L
363.78 185.024 L
368.12 184.405 L
372.46 183.92 L
376.8 183.516 L
381.14 183.055 L
385.48 182.654 L
389.82 182.204 L
394.16 181.8 L
398.5 181.34 L
402.84 180.757 L
407.18 180.222 L
411.52 179.821 L
415.86 179.517 L
420.2 179.016 L
424.54 178.536 L
428.88 178.207 L
433.22 177.891 L
437.56 177.452 L
441.9 177.102 L
446.24 176.697 L
450.58 176.276 L
454.92 175.925 L
459.26 175.6 L
463.6 175.227 L
467.94 174.851 L
472.28 174.402 L
476.62 174.242 L
480.96 174.067 L
485.3 173.894 L
489.64 173.793 L
493.98 173.69 L
498.32 173.579 L
502.66 173.463 L
507 173.354 L
S
GR
GS
1 LJ
0.5 LW
N
77.34 276.143 M
81.68 217.698 L
86.02 203.63 L
90.36 190.295 L
94.7 175.286 L
99.04 188.32 L
103.38 178.243 L
107.72 171.496 L
112.06 218.434 L
116.4 210.244 L
120.74 206.077 L
125.08 204.823 L
129.42 220.128 L
133.76 218.911 L
138.1 215.024 L
142.44 211.579 L
146.78 208.017 L
151.12 203.001 L
155.46 204.751 L
159.8 202.545 L
164.14 204.097 L
168.48 219.907 L
S
GR
GS
[1 3] 0 setdash
2 LJ
0.5 LW
N
168.48 219.907 M
172.82 218.172 L
177.16 216.774 L
181.5 215.38 L
185.84 214.31 L
190.18 212.99 L
194.52 211.558 L
198.86 210.572 L
203.2 208.032 L
207.54 206.97 L
211.88 205.842 L
216.22 204.812 L
220.56 203.983 L
224.9 202.834 L
229.24 202.201 L
233.58 201.144 L
237.92 200.224 L
242.26 199.361 L
246.6 198.163 L
250.94 197.397 L
255.28 196.3 L
259.62 195.358 L
263.96 194.696 L
268.3 193.996 L
272.64 192.673 L
276.98 192.036 L
281.32 191.418 L
285.66 190.774 L
290 190.092 L
294.34 189.294 L
298.68 188.314 L
303.02 187.703 L
307.36 187.015 L
311.7 186.333 L
316.04 185.56 L
320.38 184.962 L
324.72 184.255 L
329.06 183.53 L
333.4 182.962 L
337.74 182.425 L
342.08 181.817 L
346.42 181.294 L
350.76 180.757 L
355.1 180.238 L
359.44 179.755 L
363.78 179.275 L
368.12 178.899 L
372.46 178.032 L
376.8 177.612 L
381.14 177.085 L
385.48 176.676 L
389.82 176.261 L
394.16 175.799 L
398.5 175.28 L
402.84 174.841 L
407.18 174.408 L
411.52 173.649 L
415.86 173.298 L
420.2 172.855 L
424.54 172.422 L
428.88 172.039 L
433.22 171.705 L
437.56 171.422 L
441.9 170.919 L
446.24 170.569 L
450.58 170.243 L
454.92 169.967 L
459.26 169.524 L
463.6 169.26 L
467.94 169.033 L
472.28 168.741 L
476.62 168.481 L
480.96 168.193 L
485.3 167.773 L
489.64 167.472 L
493.98 167.048 L
498.32 166.742 L
502.66 166.479 L
507 166.219 L
S
GR
GS
1 LJ
0.5 LW
N
77.34 276.143 M
81.68 260.948 L
86.02 248.147 L
90.36 233.784 L
94.7 220.844 L
99.04 207.6 L
103.38 206.498 L
107.72 201.664 L
112.06 210.87 L
116.4 202.369 L
120.74 211.257 L
125.08 224.272 L
129.42 220.333 L
133.76 217.686 L
138.1 221.95 L
142.44 234.12 L
146.78 235.194 L
151.12 232.922 L
155.46 230.584 L
159.8 228.917 L
164.14 225.808 L
168.48 223.256 L
172.82 221.049 L
177.16 222.462 L
181.5 219.022 L
185.84 218.019 L
190.18 216.395 L
194.52 213.449 L
198.86 211.606 L
203.2 209.143 L
207.54 207.72 L
211.88 205.878 L
216.22 204.841 L
220.56 223.174 L
224.9 221.757 L
229.24 222.619 L
233.58 221.234 L
237.92 223.283 L
242.26 222.914 L
246.6 223.909 L
250.94 222.662 L
255.28 221.498 L
259.62 220.179 L
263.96 218.827 L
268.3 218.684 L
272.64 218.046 L
276.98 235.852 L
281.32 234.981 L
285.66 236.768 L
290 236.039 L
294.34 238.984 L
298.68 238.155 L
303.02 237.919 L
307.36 237.517 L
311.7 237.747 L
316.04 237.775 L
320.38 237.065 L
324.72 236.564 L
329.06 235.722 L
333.4 235.414 L
337.74 235.122 L
342.08 234.692 L
346.42 234.057 L
350.76 248.493 L
355.1 249.55 L
359.44 249.088 L
363.78 248.509 L
368.12 248.956 L
372.46 248.454 L
376.8 249.003 L
381.14 248.483 L
385.48 248.224 L
389.82 250.507 L
394.16 250.167 L
398.5 251.524 L
402.84 254.125 L
407.18 253.694 L
411.52 253.094 L
415.86 253.54 L
420.2 254.956 L
424.54 255.61 L
428.88 255.632 L
433.22 255.686 L
437.56 255.95 L
441.9 256.096 L
446.24 256.764 L
450.58 256.797 L
454.92 256.816 L
459.26 256.857 L
463.6 257.193 L
467.94 261.129 L
472.28 261.132 L
476.62 261.467 L
480.96 261.487 L
485.3 261.607 L
489.64 277.475 L
493.98 279.116 L
498.32 279.254 L
502.66 280.822 L
507 285.541 L
S
GR
GS
1 LJ
0.5 LW
N
77.34 276.143 M
81.68 232.607 L
86.02 216.045 L
90.36 199.332 L
94.7 188.63 L
99.04 176.539 L
103.38 171.72 L
107.72 169.547 L
112.06 167.79 L
116.4 188.558 L
120.74 185.983 L
125.08 188.624 L
129.42 186.927 L
133.76 190.237 L
138.1 191.713 L
142.44 187.516 L
146.78 184.976 L
151.12 186.242 L
155.46 183.684 L
159.8 182.808 L
164.14 179.894 L
168.48 175.283 L
172.82 179.839 L
177.16 211.132 L
181.5 209.249 L
185.84 208.489 L
190.18 206.602 L
194.52 208.151 L
198.86 208.104 L
203.2 207.125 L
207.54 205.377 L
211.88 205.634 L
216.22 204.299 L
220.56 202.749 L
224.9 202.235 L
229.24 203.42 L
233.58 205.135 L
237.92 203.584 L
242.26 210.977 L
246.6 210.149 L
250.94 209.349 L
255.28 208.15 L
259.62 206.746 L
263.96 214.592 L
268.3 213.981 L
272.64 214.326 L
276.98 216.885 L
281.32 224.775 L
285.66 224.159 L
290 224.664 L
294.34 229.829 L
298.68 229.798 L
303.02 229.386 L
307.36 229.686 L
311.7 233.459 L
316.04 233.532 L
320.38 233.301 L
324.72 232.567 L
329.06 231.769 L
333.4 231.076 L
337.74 229.942 L
342.08 229.282 L
346.42 229.547 L
350.76 229.766 L
355.1 255.989 L
359.44 254.967 L
363.78 254.667 L
368.12 254.778 L
372.46 254.347 L
376.8 253.739 L
381.14 253.594 L
385.48 254.765 L
389.82 254.055 L
394.16 253.735 L
398.5 253.189 L
402.84 252.534 L
407.18 254.86 L
411.52 254.991 L
415.86 256.43 L
420.2 257.252 L
424.54 257.243 L
428.88 259.181 L
433.22 259.23 L
437.56 258.91 L
441.9 258.78 L
446.24 258.662 L
450.58 259.427 L
454.92 259.493 L
459.26 259.399 L
463.6 259.098 L
467.94 261.708 L
472.28 261.88 L
476.62 262.035 L
480.96 261.791 L
485.3 262.132 L
489.64 268.891 L
493.98 272.677 L
498.32 272.713 L
502.66 273.898 L
507 273.812 L
S
GR
GS
1 LJ
0.5 LW
N
77.34 276.143 M
81.68 193.214 L
86.02 179.898 L
90.36 168.952 L
94.7 158.884 L
99.04 153.293 L
103.38 147.672 L
107.72 142.647 L
112.06 141.422 L
116.4 139.282 L
120.74 136.558 L
125.08 133.968 L
129.42 195.865 L
133.76 194.379 L
138.1 201.185 L
142.44 199.364 L
146.78 198.303 L
151.12 197.212 L
155.46 194.94 L
159.8 194.712 L
164.14 201.7 L
168.48 200.98 L
172.82 200.205 L
177.16 200.223 L
181.5 199.274 L
185.84 200.415 L
190.18 200.913 L
194.52 202.502 L
198.86 206.258 L
203.2 205.736 L
207.54 208.92 L
211.88 208.339 L
216.22 208.076 L
220.56 207.98 L
224.9 212.931 L
229.24 212.538 L
233.58 225.656 L
237.92 225.104 L
242.26 225.068 L
246.6 225.293 L
250.94 225.062 L
255.28 224.61 L
259.62 224.084 L
263.96 224.804 L
268.3 226.72 L
272.64 226.369 L
276.98 227.069 L
281.32 227.642 L
285.66 227.567 L
290 227.337 L
294.34 227.458 L
298.68 227.402 L
303.02 227.828 L
307.36 227.623 L
311.7 227.628 L
316.04 227.458 L
320.38 227.638 L
324.72 227.523 L
329.06 227.184 L
333.4 227.376 L
337.74 228.953 L
342.08 228.692 L
346.42 238.617 L
350.76 238.623 L
355.1 238.993 L
359.44 238.993 L
363.78 241.401 L
368.12 243.387 L
372.46 243.491 L
376.8 243.535 L
381.14 243.663 L
385.48 244.072 L
389.82 244.092 L
394.16 244.968 L
398.5 245.104 L
402.84 245.294 L
407.18 245.358 L
411.52 248.199 L
415.86 248.203 L
420.2 248.236 L
424.54 249.332 L
428.88 249.333 L
433.22 250.234 L
437.56 250.235 L
441.9 251.236 L
446.24 251.955 L
450.58 251.965 L
454.92 254.865 L
459.26 255.194 L
463.6 255.32 L
467.94 255.426 L
472.28 255.435 L
476.62 271.211 L
480.96 271.694 L
485.3 272.058 L
489.64 272.071 L
493.98 272.115 L
498.32 272.139 L
502.66 281.426 L
507 283.135 L
S
GR
GS
1 LJ
0.5 LW
N
77.34 276.143 M
81.68 244.712 L
86.02 215.243 L
90.36 195.44 L
94.7 181.603 L
99.04 175.805 L
103.38 170.322 L
107.72 167.338 L
112.06 159.732 L
116.4 156.115 L
120.74 153.554 L
125.08 150.296 L
129.42 154.011 L
133.76 151.595 L
138.1 149.111 L
142.44 149.005 L
146.78 145.557 L
151.12 151.394 L
155.46 150.232 L
159.8 148.481 L
164.14 146.797 L
168.48 146.729 L
172.82 144.956 L
177.16 142.829 L
181.5 169.654 L
185.84 167.72 L
190.18 166.986 L
194.52 165.795 L
198.86 164.673 L
203.2 163.971 L
207.54 164.28 L
211.88 163.129 L
216.22 162.216 L
220.56 160.773 L
224.9 159.695 L
229.24 159.466 L
233.58 162.243 L
237.92 162.724 L
242.26 162.041 L
246.6 160.966 L
250.94 160.03 L
255.28 214.577 L
259.62 213.509 L
263.96 212.428 L
268.3 211.806 L
272.64 211.051 L
276.98 214.772 L
281.32 217.755 L
285.66 216.806 L
290 217.315 L
294.34 216.192 L
298.68 215.279 L
303.02 214.702 L
307.36 238.66 L
311.7 237.812 L
316.04 236.681 L
320.38 236.141 L
324.72 237.031 L
329.06 235.688 L
333.4 234.656 L
337.74 233.73 L
342.08 233.008 L
346.42 232.47 L
350.76 232.757 L
355.1 232.016 L
359.44 231.563 L
363.78 230.576 L
368.12 231.703 L
372.46 233.087 L
376.8 232.411 L
381.14 231.767 L
385.48 231.679 L
389.82 231.265 L
394.16 231.37 L
398.5 230.881 L
S
GR
GS
[1 3] 0 setdash
2 LJ
0.5 LW
N
398.5 230.881 M
402.84 230.48 L
407.18 230.048 L
411.52 229.622 L
415.86 229.277 L
420.2 228.842 L
424.54 228.47 L
428.88 228.052 L
433.22 227.62 L
437.56 227.371 L
441.9 227.072 L
446.24 226.783 L
450.58 226.532 L
454.92 226.532 L
459.26 226.532 L
463.6 226.532 L
467.94 226.532 L
472.28 226.532 L
476.62 226.532 L
480.96 226.532 L
485.3 226.532 L
489.64 226.532 L
493.98 226.532 L
498.32 226.532 L
502.66 226.532 L
507 226.532 L
S
GR
GS
1 LJ
0.5 LW
N
77.34 276.143 M
81.68 292.786 L
86.02 292.778 L
90.36 292.962 L
94.7 285.587 L
99.04 280.225 L
103.38 274.391 L
107.72 266.327 L
112.06 260.859 L
116.4 254.754 L
120.74 249.503 L
125.08 242.68 L
129.42 237.831 L
133.76 232.656 L
138.1 226.893 L
142.44 225.099 L
146.78 220.456 L
151.12 216.402 L
155.46 214.154 L
159.8 236.333 L
164.14 233.594 L
168.48 232.093 L
172.82 229.495 L
177.16 227.35 L
181.5 227.11 L
185.84 226.351 L
190.18 223.542 L
194.52 221.134 L
198.86 218.408 L
203.2 223.635 L
207.54 220.983 L
211.88 218.291 L
216.22 215.51 L
220.56 240.805 L
224.9 238.643 L
229.24 237.278 L
233.58 236.197 L
237.92 234.693 L
242.26 233.111 L
246.6 232.81 L
250.94 231.494 L
255.28 231.486 L
259.62 237.139 L
263.96 236.501 L
268.3 242.395 L
272.64 241.905 L
276.98 241.055 L
281.32 240.336 L
285.66 240.739 L
290 239.844 L
294.34 238.777 L
298.68 237.85 L
303.02 236.95 L
307.36 236.319 L
311.7 236.389 L
316.04 241.03 L
320.38 240.339 L
324.72 239.294 L
329.06 238.451 L
333.4 237.999 L
337.74 240.607 L
342.08 242.392 L
346.42 241.699 L
350.76 242.034 L
355.1 241.057 L
359.44 240.97 L
363.78 240.109 L
368.12 239.342 L
372.46 240.437 L
376.8 241.291 L
381.14 241.462 L
385.48 241.713 L
389.82 241.793 L
394.16 243.832 L
398.5 243.987 L
402.84 245.097 L
407.18 245.469 L
411.52 245.577 L
415.86 249.323 L
420.2 259.096 L
424.54 259.285 L
428.88 259.285 L
433.22 263.053 L
437.56 263.507 L
441.9 264.121 L
446.24 267.556 L
450.58 268.222 L
454.92 269.913 L
459.26 270.229 L
463.6 272.615 L
467.94 272.853 L
472.28 277.528 L
476.62 277.62 L
480.96 283.522 L
485.3 287.015 L
489.64 287.859 L
493.98 287.866 L
498.32 288.094 L
502.66 291.536 L
507 292.186 L
S
GR
GS
1 LJ
0.5 LW
N
77.34 276.143 M
81.68 238.082 L
86.02 177.388 L
90.36 159.737 L
94.7 147.381 L
99.04 137.071 L
103.38 130.995 L
107.72 125.459 L
S
GR
GS
[1 3] 0 setdash
2 LJ
0.5 LW
N
107.72 125.459 M
112.06 119.208 L
116.4 115.235 L
120.74 111.989 L
125.08 109.928 L
129.42 107.594 L
133.76 105.579 L
138.1 103.193 L
142.44 101.405 L
146.78 99.858 L
151.12 98.605 L
155.46 97.192 L
159.8 95.902 L
164.14 94.564 L
168.48 93.277 L
172.82 91.987 L
177.16 90.923 L
181.5 90.158 L
185.84 89.3 L
190.18 88.207 L
194.52 87.383 L
198.86 86.309 L
203.2 85.125 L
207.54 84.345 L
211.88 83.795 L
216.22 82.932 L
220.56 82.183 L
224.9 81.539 L
229.24 80.796 L
233.58 79.742 L
237.92 78.988 L
242.26 77.922 L
246.6 77.194 L
250.94 76.112 L
255.28 75.287 L
259.62 74.603 L
263.96 73.966 L
268.3 72.978 L
272.64 72.281 L
276.98 71.596 L
281.32 70.851 L
285.66 70.103 L
290 69.325 L
294.34 68.614 L
298.68 67.884 L
303.02 67.236 L
307.36 66.663 L
311.7 66.29 L
316.04 65.702 L
320.38 64.92 L
324.72 64.359 L
329.06 63.917 L
333.4 63.483 L
337.74 63.483 L
342.08 63.483 L
346.42 63.483 L
350.76 63.483 L
355.1 63.483 L
359.44 63.483 L
363.78 63.483 L
368.12 63.483 L
372.46 63.483 L
376.8 63.483 L
381.14 63.483 L
385.48 63.483 L
389.82 63.483 L
394.16 63.483 L
398.5 63.483 L
402.84 63.483 L
407.18 63.483 L
411.52 63.483 L
415.86 63.483 L
420.2 63.483 L
424.54 63.483 L
428.88 63.483 L
433.22 63.483 L
437.56 63.483 L
441.9 63.483 L
446.24 63.483 L
450.58 63.483 L
454.92 63.483 L
459.26 63.483 L
463.6 63.483 L
467.94 63.483 L
472.28 63.483 L
476.62 63.483 L
480.96 63.483 L
485.3 63.483 L
489.64 63.483 L
493.98 63.483 L
498.32 63.483 L
502.66 63.483 L
507 63.483 L
S
GR
GS
1 LJ
0.5 LW
N
77.34 276.143 M
81.68 277.395 L
86.02 264.077 L
90.36 259.724 L
94.7 246.453 L
99.04 233.52 L
103.38 226.646 L
107.72 226.247 L
112.06 217.58 L
116.4 208.759 L
120.74 205.606 L
125.08 199.008 L
129.42 195.361 L
133.76 190.127 L
138.1 192.198 L
S
GR
GS
[1 3] 0 setdash
2 LJ
0.5 LW
N
138.1 192.198 M
142.44 186.463 L
146.78 183.992 L
151.12 181.095 L
155.46 177.808 L
159.8 175.474 L
164.14 172.096 L
168.48 167.783 L
172.82 164.763 L
177.16 162.802 L
181.5 161.187 L
185.84 158.692 L
190.18 156.786 L
194.52 155.179 L
198.86 153.064 L
203.2 151.219 L
207.54 149.869 L
211.88 148.282 L
216.22 146.375 L
220.56 144.738 L
224.9 142.726 L
229.24 141.061 L
233.58 139.494 L
237.92 137.973 L
242.26 136.911 L
246.6 135.073 L
250.94 133.869 L
255.28 132.637 L
259.62 131.363 L
263.96 130.239 L
268.3 128.928 L
272.64 127.691 L
276.98 126.473 L
281.32 125.026 L
285.66 123.68 L
290 122.424 L
294.34 121.274 L
298.68 120.093 L
303.02 118.939 L
307.36 118.214 L
311.7 117.105 L
316.04 115.808 L
320.38 114.949 L
324.72 114.115 L
329.06 113.475 L
333.4 112.423 L
337.74 111.811 L
342.08 110.864 L
346.42 109.883 L
350.76 109.104 L
355.1 108.157 L
359.44 107.586 L
363.78 106.887 L
368.12 106.307 L
372.46 105.669 L
376.8 104.71 L
381.14 104.143 L
385.48 103.421 L
389.82 102.933 L
394.16 102.07 L
398.5 101.314 L
402.84 100.843 L
407.18 100.397 L
411.52 99.536 L
415.86 99.063 L
420.2 98.482 L
424.54 97.9 L
428.88 97.479 L
433.22 96.856 L
437.56 96.342 L
441.9 96.047 L
446.24 95.645 L
450.58 95.112 L
454.92 94.816 L
459.26 94.511 L
463.6 94.187 L
467.94 93.703 L
472.28 93.362 L
476.62 92.981 L
480.96 92.739 L
485.3 92.401 L
489.64 92.102 L
493.98 91.736 L
498.32 91.424 L
502.66 90.946 L
507 90.676 L
S
GR
GS
1 LJ
0.5 LW
N
77.34 276.143 M
81.68 251.593 L
86.02 240.932 L
90.36 235.932 L
94.7 230.679 L
99.04 259.564 L
103.38 264.743 L
107.72 259.78 L
112.06 258.22 L
116.4 253.578 L
120.74 257.749 L
125.08 254.708 L
129.42 251.223 L
133.76 244.262 L
138.1 239.858 L
142.44 242.675 L
146.78 238.725 L
151.12 235.354 L
155.46 232.592 L
159.8 232.162 L
164.14 228.751 L
168.48 225.231 L
172.82 227.6 L
177.16 224.245 L
181.5 226.668 L
185.84 224.74 L
190.18 229.928 L
194.52 227.596 L
198.86 226.73 L
203.2 225.204 L
207.54 222.851 L
211.88 222.392 L
216.22 220.973 L
220.56 221.431 L
224.9 220.091 L
229.24 220.032 L
233.58 219.217 L
237.92 220.854 L
242.26 220.849 L
246.6 219.6 L
250.94 220.065 L
255.28 218.588 L
259.62 217.587 L
263.96 215.918 L
268.3 215.578 L
272.64 214.328 L
276.98 245.12 L
281.32 247.165 L
285.66 245.505 L
290 244.439 L
294.34 243.669 L
298.68 252.104 L
303.02 252.08 L
307.36 251.174 L
311.7 250.163 L
316.04 248.921 L
320.38 248.763 L
324.72 248.157 L
329.06 248.239 L
333.4 247.802 L
337.74 248.554 L
342.08 247.666 L
346.42 247.382 L
350.76 247.423 L
355.1 255.109 L
359.44 260.361 L
363.78 259.96 L
368.12 259.316 L
372.46 258.741 L
376.8 259.242 L
381.14 258.688 L
385.48 258.186 L
389.82 257.551 L
394.16 256.933 L
398.5 256.748 L
402.84 260.437 L
407.18 260.975 L
411.52 259.862 L
415.86 259.342 L
420.2 258.683 L
424.54 262.936 L
428.88 262.475 L
433.22 262.055 L
437.56 262.049 L
441.9 261.631 L
446.24 263.584 L
450.58 263.62 L
454.92 264.126 L
459.26 267.179 L
463.6 269.98 L
467.94 269.555 L
472.28 270.027 L
476.62 270.733 L
480.96 270.593 L
485.3 272.24 L
489.64 272 L
493.98 276.289 L
498.32 276.024 L
502.66 276.453 L
507 276.09 L
S
GR
GS
1 LJ
0.5 LW
N
77.34 276.143 M
81.68 176.663 L
86.02 149.966 L
90.36 125.991 L
94.7 96.915 L
99.04 123.538 L
103.38 122.481 L
107.72 120.968 L
112.06 120.008 L
116.4 130.74 L
120.74 129.239 L
125.08 134.09 L
129.42 132.971 L
133.76 131.967 L
138.1 149.007 L
142.44 148.229 L
146.78 147.851 L
151.12 150.559 L
155.46 149.681 L
159.8 148.622 L
164.14 147.908 L
168.48 148.572 L
172.82 169.57 L
177.16 201.069 L
181.5 200.811 L
185.84 199.644 L
190.18 198.7 L
194.52 198.138 L
198.86 197.931 L
203.2 197.332 L
207.54 197.762 L
211.88 197.151 L
216.22 196.453 L
220.56 196.513 L
224.9 196.567 L
229.24 197.571 L
233.58 197.333 L
237.92 197.981 L
242.26 199.867 L
246.6 199.255 L
250.94 200.644 L
255.28 200.108 L
259.62 199.732 L
263.96 199.58 L
268.3 199.475 L
272.64 228.765 L
276.98 228.269 L
281.32 230.987 L
285.66 230.902 L
290 230.658 L
S
GR
GS
[1 3] 0 setdash
2 LJ
0.5 LW
N
290 230.658 M
294.34 230.316 L
298.68 229.958 L
303.02 229.617 L
307.36 229.303 L
311.7 228.961 L
316.04 228.579 L
320.38 228.198 L
324.72 227.822 L
329.06 227.463 L
333.4 227.074 L
337.74 226.738 L
342.08 226.388 L
346.42 226.078 L
350.76 225.703 L
355.1 225.424 L
359.44 225.068 L
363.78 224.731 L
368.12 224.438 L
372.46 224.154 L
376.8 223.856 L
381.14 223.856 L
385.48 223.856 L
389.82 223.856 L
394.16 223.856 L
398.5 223.856 L
402.84 223.856 L
407.18 223.856 L
411.52 223.856 L
415.86 223.856 L
420.2 223.856 L
424.54 223.856 L
428.88 223.856 L
433.22 223.856 L
437.56 223.856 L
441.9 223.856 L
446.24 223.856 L
450.58 223.856 L
454.92 223.856 L
459.26 223.856 L
463.6 223.856 L
467.94 223.856 L
472.28 223.856 L
476.62 223.856 L
480.96 223.856 L
485.3 223.856 L
489.64 223.856 L
493.98 223.856 L
498.32 223.856 L
502.66 223.856 L
507 223.856 L
S
GR
GS
1 GC
N
499 89 M
499 39.5 L
339.5 39.5 L
339.5 89 L
cp
f
GR
GS
[1 0 0 1 376.5 47] CT
/Helvetica 9 F
GS
[1 0 0 1 0 0] CT
0 3.5 moveto 
1 -1 scale
(ALS and CPTT) t 
GR
GR
GS
1 0 0 RC
1 LJ
0.5 LW
N
343.5 47 M
373.5 47 L
S
GR
GS
[1 0 0 1 376.5 58.5] CT
/Helvetica 9 F
GS
[1 0 0 1 0 0] CT
0 3.5 moveto 
1 -1 scale
(Non convergent ALS, CPTT) t 
GR
GR
GS
1 0 0 RC
[1 3] 0 setdash
2 LJ
0.5 LW
N
343.5 58.5 M
373.5 58.5 L
S
GR
GS
[1 0 0 1 376.5 70] CT
/Helvetica 9 F
GS
[1 0 0 1 0 0] CT
0 3.5 moveto 
1 -1 scale
(ASVD and CPTT) t 
GR
GR
GS
1 LJ
0.5 LW
N
343.5 70 M
373.5 70 L
S
GR
GS
[1 0 0 1 376.5 81.5] CT
/Helvetica 9 F
GS
[1 0 0 1 0 0] CT
0 3.5 moveto 
1 -1 scale
(Non convergent ASVD, CPTT) t 
GR
GR
GS
[1 3] 0 setdash
2 LJ
0.5 LW
N
343.5 81.5 M
373.5 81.5 L
S
GR
GS
0.149 GC
10.0 ML
0.5 LW
N
339.5 89 M
339.5 39.5 L
499 39.5 L
499 89 L
cp
S
GR
%%Trailer
%%Pages: 1
%%EOF
