%!PS-Adobe-3.0 EPSF-3.0
%%Title: /Users/mfuentez/Documents/ADAPT-master/code/tensLib/Outputs/ASVDvsCPTTvsALS_12d/functionsL2/all_12_py.eps
%%Creator: matplotlib version 3.3.4, http://matplotlib.org/
%%CreationDate: Tue Nov 16 12:52:38 2021
%%Orientation: portrait
%%BoundingBox: 51.84000000000002 223.20000000000002 560.16 568.8
%%EndComments
%%BeginProlog
/mpldict 8 dict def
mpldict begin
/m { moveto } bind def
/l { lineto } bind def
/r { rlineto } bind def
/c { curveto } bind def
/cl { closepath } bind def
/box {
      m
      1 index 0 r
      0 exch r
      neg 0 r
      cl
    } bind def
/clipbox {
      box
      clip
      newpath
    } bind def
%!PS-Adobe-3.0 Resource-Font
%%Title: DejaVu Sans
%%Copyright: Copyright (c) 2003 by Bitstream, Inc. All Rights Reserved. Copyright (c) 2006 by Tavmjong Bah. All Rights Reserved. DejaVu changes are in public domain 
%%Creator: Converted from TrueType to type 3 by PPR
25 dict begin
/_d{bind def}bind def
/_m{moveto}_d
/_l{lineto}_d
/_cl{closepath eofill}_d
/_c{curveto}_d
/_sc{7 -1 roll{setcachedevice}{pop pop pop pop pop pop}ifelse}_d
/_e{exec}_d
/FontName /DejaVuSans def
/PaintType 0 def
/FontMatrix[.001 0 0 .001 0 0]def
/FontBBox[-1021 -463 1793 1232]def
/FontType 3 def
/Encoding [ /space /period /zero /one /two /four /six /eight /A /C /D /L /M /N /P /S /T /V /a /b /c /d /e /f /g /h /i /l /m /n /o /q /r /s /t /u /minus ] def
/FontInfo 10 dict dup begin
/FamilyName (DejaVu Sans) def
/FullName (DejaVu Sans) def
/Notice (Copyright (c) 2003 by Bitstream, Inc. All Rights Reserved. Copyright (c) 2006 by Tavmjong Bah. All Rights Reserved. DejaVu changes are in public domain ) def
/Weight (Book) def
/Version (Version 2.35) def
/ItalicAngle 0.0 def
/isFixedPitch false def
/UnderlinePosition -130 def
/UnderlineThickness 90 def
end readonly def
/CharStrings 38 dict dup begin
/.notdef 0 def
/space{318 0 0 0 0 0 _sc
}_d
/period{318 0 107 0 210 124 _sc
107 124 _m
210 124 _l
210 0 _l
107 0 _l
107 124 _l
_cl}_d
/zero{636 0 66 -13 570 742 _sc
318 664 _m
267 664 229 639 203 589 _c
177 539 165 464 165 364 _c
165 264 177 189 203 139 _c
229 89 267 64 318 64 _c
369 64 407 89 433 139 _c
458 189 471 264 471 364 _c
471 464 458 539 433 589 _c
407 639 369 664 318 664 _c
318 742 _m
399 742 461 709 505 645 _c
548 580 570 486 570 364 _c
570 241 548 147 505 83 _c
461 19 399 -13 318 -13 _c
236 -13 173 19 130 83 _c
87 147 66 241 66 364 _c
66 486 87 580 130 645 _c
173 709 236 742 318 742 _c
_cl}_d
/one{636 0 110 0 544 729 _sc
124 83 _m
285 83 _l
285 639 _l
110 604 _l
110 694 _l
284 729 _l
383 729 _l
383 83 _l
544 83 _l
544 0 _l
124 0 _l
124 83 _l
_cl}_d
/two{{636 0 73 0 536 742 _sc
192 83 _m
536 83 _l
536 0 _l
73 0 _l
73 83 _l
110 121 161 173 226 239 _c
290 304 331 346 348 365 _c
380 400 402 430 414 455 _c
426 479 433 504 433 528 _c
433 566 419 598 392 622 _c
365 646 330 659 286 659 _c
255 659 222 653 188 643 _c
154 632 117 616 78 594 _c
78 694 _l
118 710 155 722 189 730 _c
223 738 255 742 284 742 _c
}_e{359 742 419 723 464 685 _c
509 647 532 597 532 534 _c
532 504 526 475 515 449 _c
504 422 484 390 454 354 _c
446 344 420 317 376 272 _c
332 227 271 164 192 83 _c
_cl}_e}_d
/four{636 0 49 0 580 729 _sc
378 643 _m
129 254 _l
378 254 _l
378 643 _l
352 729 _m
476 729 _l
476 254 _l
580 254 _l
580 172 _l
476 172 _l
476 0 _l
378 0 _l
378 172 _l
49 172 _l
49 267 _l
352 729 _l
_cl}_d
/six{{636 0 70 -13 573 742 _sc
330 404 _m
286 404 251 388 225 358 _c
199 328 186 286 186 234 _c
186 181 199 139 225 109 _c
251 79 286 64 330 64 _c
374 64 409 79 435 109 _c
461 139 474 181 474 234 _c
474 286 461 328 435 358 _c
409 388 374 404 330 404 _c
526 713 _m
526 623 _l
501 635 476 644 451 650 _c
425 656 400 659 376 659 _c
310 659 260 637 226 593 _c
}_e{192 549 172 482 168 394 _c
187 422 211 444 240 459 _c
269 474 301 482 336 482 _c
409 482 467 459 509 415 _c
551 371 573 310 573 234 _c
573 159 550 99 506 54 _c
462 9 403 -13 330 -13 _c
246 -13 181 19 137 83 _c
92 147 70 241 70 364 _c
70 479 97 571 152 639 _c
206 707 280 742 372 742 _c
396 742 421 739 447 735 _c
472 730 498 723 526 713 _c
_cl}_e}_d
/eight{{636 0 68 -13 568 742 _sc
318 346 _m
271 346 234 333 207 308 _c
180 283 167 249 167 205 _c
167 161 180 126 207 101 _c
234 76 271 64 318 64 _c
364 64 401 76 428 102 _c
455 127 469 161 469 205 _c
469 249 455 283 429 308 _c
402 333 365 346 318 346 _c
219 388 _m
177 398 144 418 120 447 _c
96 476 85 511 85 553 _c
85 611 105 657 147 691 _c
188 725 245 742 318 742 _c
}_e{390 742 447 725 489 691 _c
530 657 551 611 551 553 _c
551 511 539 476 515 447 _c
491 418 459 398 417 388 _c
464 377 501 355 528 323 _c
554 291 568 251 568 205 _c
568 134 546 80 503 43 _c
459 5 398 -13 318 -13 _c
237 -13 175 5 132 43 _c
89 80 68 134 68 205 _c
68 251 81 291 108 323 _c
134 355 171 377 219 388 _c
183 544 _m
183 506 194 476 218 455 _c
}_e{242 434 275 424 318 424 _c
360 424 393 434 417 455 _c
441 476 453 506 453 544 _c
453 582 441 611 417 632 _c
393 653 360 664 318 664 _c
275 664 242 653 218 632 _c
194 611 183 582 183 544 _c
_cl}_e}_d
/A{684 0 8 0 676 729 _sc
342 632 _m
208 269 _l
476 269 _l
342 632 _l
286 729 _m
398 729 _l
676 0 _l
573 0 _l
507 187 _l
178 187 _l
112 0 _l
8 0 _l
286 729 _l
_cl}_d
/C{{698 0 56 -13 644 742 _sc
644 673 _m
644 569 _l
610 599 575 622 537 638 _c
499 653 460 661 418 661 _c
334 661 270 635 226 584 _c
182 533 160 460 160 364 _c
160 268 182 194 226 143 _c
270 92 334 67 418 67 _c
460 67 499 74 537 90 _c
575 105 610 128 644 159 _c
644 56 _l
609 32 572 15 534 4 _c
496 -7 455 -13 412 -13 _c
302 -13 215 20 151 87 _c
}_e{87 154 56 246 56 364 _c
56 481 87 573 151 641 _c
215 708 302 742 412 742 _c
456 742 497 736 535 725 _c
573 713 610 696 644 673 _c
_cl}_e}_d
/D{770 0 98 0 711 729 _sc
197 648 _m
197 81 _l
316 81 _l
416 81 490 103 537 149 _c
583 195 607 267 607 365 _c
607 463 583 534 537 580 _c
490 625 416 648 316 648 _c
197 648 _l
98 729 _m
301 729 _l
442 729 546 699 612 641 _c
678 582 711 490 711 365 _c
711 239 677 147 611 88 _c
545 29 441 0 301 0 _c
98 0 _l
98 729 _l
_cl}_d
/L{557 0 98 0 552 729 _sc
98 729 _m
197 729 _l
197 83 _l
552 83 _l
552 0 _l
98 0 _l
98 729 _l
_cl}_d
/M{863 0 98 0 765 729 _sc
98 729 _m
245 729 _l
431 233 _l
618 729 _l
765 729 _l
765 0 _l
669 0 _l
669 640 _l
481 140 _l
382 140 _l
194 640 _l
194 0 _l
98 0 _l
98 729 _l
_cl}_d
/N{748 0 98 0 650 729 _sc
98 729 _m
231 729 _l
554 119 _l
554 729 _l
650 729 _l
650 0 _l
517 0 _l
194 610 _l
194 0 _l
98 0 _l
98 729 _l
_cl}_d
/P{603 0 98 0 569 729 _sc
197 648 _m
197 374 _l
321 374 _l
367 374 402 385 427 409 _c
452 433 465 467 465 511 _c
465 555 452 588 427 612 _c
402 636 367 648 321 648 _c
197 648 _l
98 729 _m
321 729 _l
402 729 464 710 506 673 _c
548 636 569 582 569 511 _c
569 439 548 384 506 348 _c
464 311 402 293 321 293 _c
197 293 _l
197 0 _l
98 0 _l
98 729 _l
_cl}_d
/S{{635 0 66 -13 579 742 _sc
535 705 _m
535 609 _l
497 627 462 640 429 649 _c
395 657 363 662 333 662 _c
279 662 237 651 208 631 _c
179 610 165 580 165 542 _c
165 510 174 485 194 469 _c
213 452 250 439 304 429 _c
364 417 _l
437 403 491 378 526 343 _c
561 307 579 260 579 201 _c
579 130 555 77 508 41 _c
460 5 391 -13 300 -13 _c
265 -13 228 -9 189 -2 _c
}_e{150 5 110 16 69 32 _c
69 134 _l
109 111 148 94 186 83 _c
224 71 262 66 300 66 _c
356 66 399 77 430 99 _c
460 121 476 152 476 194 _c
476 230 465 258 443 278 _c
421 298 385 313 335 323 _c
275 335 _l
201 349 148 372 115 404 _c
82 435 66 478 66 534 _c
66 598 88 649 134 686 _c
179 723 242 742 322 742 _c
356 742 390 739 426 733 _c
461 727 497 717 535 705 _c
}_e{_cl}_e}_d
/T{611 0 -2 0 614 729 _sc
-2 729 _m
614 729 _l
614 646 _l
355 646 _l
355 0 _l
256 0 _l
256 646 _l
-2 646 _l
-2 729 _l
_cl}_d
/V{684 0 8 0 676 729 _sc
286 0 _m
8 729 _l
111 729 _l
342 115 _l
573 729 _l
676 729 _l
398 0 _l
286 0 _l
_cl}_d
/a{{613 0 60 -13 522 560 _sc
343 275 _m
270 275 220 266 192 250 _c
164 233 150 205 150 165 _c
150 133 160 107 181 89 _c
202 70 231 61 267 61 _c
317 61 357 78 387 114 _c
417 149 432 196 432 255 _c
432 275 _l
343 275 _l
522 312 _m
522 0 _l
432 0 _l
432 83 _l
411 49 385 25 355 10 _c
325 -5 287 -13 243 -13 _c
187 -13 142 2 109 33 _c
76 64 60 106 60 159 _c
}_e{60 220 80 266 122 298 _c
163 329 224 345 306 345 _c
432 345 _l
432 354 _l
432 395 418 427 391 450 _c
364 472 326 484 277 484 _c
245 484 215 480 185 472 _c
155 464 127 453 100 439 _c
100 522 _l
132 534 164 544 195 550 _c
226 556 256 560 286 560 _c
365 560 424 539 463 498 _c
502 457 522 395 522 312 _c
_cl}_e}_d
/b{{635 0 91 -13 580 760 _sc
487 273 _m
487 339 473 390 446 428 _c
418 466 381 485 334 485 _c
286 485 249 466 222 428 _c
194 390 181 339 181 273 _c
181 207 194 155 222 117 _c
249 79 286 61 334 61 _c
381 61 418 79 446 117 _c
473 155 487 207 487 273 _c
181 464 _m
199 496 223 520 252 536 _c
281 552 316 560 356 560 _c
422 560 476 533 518 481 _c
559 428 580 359 580 273 _c
}_e{580 187 559 117 518 65 _c
476 13 422 -13 356 -13 _c
316 -13 281 -5 252 10 _c
223 25 199 49 181 82 _c
181 0 _l
91 0 _l
91 760 _l
181 760 _l
181 464 _l
_cl}_e}_d
/c{{550 0 55 -13 488 560 _sc
488 526 _m
488 442 _l
462 456 437 466 411 473 _c
385 480 360 484 334 484 _c
276 484 230 465 198 428 _c
166 391 150 339 150 273 _c
150 206 166 154 198 117 _c
230 80 276 62 334 62 _c
360 62 385 65 411 72 _c
437 79 462 90 488 104 _c
488 21 _l
462 9 436 0 410 -5 _c
383 -10 354 -13 324 -13 _c
242 -13 176 12 128 64 _c
}_e{79 115 55 185 55 273 _c
55 362 79 432 128 483 _c
177 534 244 560 330 560 _c
358 560 385 557 411 551 _c
437 545 463 537 488 526 _c
_cl}_e}_d
/d{{635 0 55 -13 544 760 _sc
454 464 _m
454 760 _l
544 760 _l
544 0 _l
454 0 _l
454 82 _l
435 49 411 25 382 10 _c
353 -5 319 -13 279 -13 _c
213 -13 159 13 117 65 _c
75 117 55 187 55 273 _c
55 359 75 428 117 481 _c
159 533 213 560 279 560 _c
319 560 353 552 382 536 _c
411 520 435 496 454 464 _c
148 273 _m
148 207 161 155 188 117 _c
215 79 253 61 301 61 _c
}_e{348 61 385 79 413 117 _c
440 155 454 207 454 273 _c
454 339 440 390 413 428 _c
385 466 348 485 301 485 _c
253 485 215 466 188 428 _c
161 390 148 339 148 273 _c
_cl}_e}_d
/e{{615 0 55 -13 562 560 _sc
562 296 _m
562 252 _l
149 252 _l
153 190 171 142 205 110 _c
238 78 284 62 344 62 _c
378 62 412 66 444 74 _c
476 82 509 95 541 113 _c
541 28 _l
509 14 476 3 442 -3 _c
408 -9 373 -13 339 -13 _c
251 -13 182 12 131 62 _c
80 112 55 181 55 268 _c
55 357 79 428 127 481 _c
175 533 241 560 323 560 _c
397 560 455 536 498 489 _c
}_e{540 441 562 377 562 296 _c
472 322 _m
471 371 457 410 431 440 _c
404 469 368 484 324 484 _c
274 484 234 469 204 441 _c
174 413 156 373 152 322 _c
472 322 _l
_cl}_e}_d
/f{352 0 23 0 371 760 _sc
371 760 _m
371 685 _l
285 685 _l
253 685 230 678 218 665 _c
205 652 199 629 199 595 _c
199 547 _l
347 547 _l
347 477 _l
199 477 _l
199 0 _l
109 0 _l
109 477 _l
23 477 _l
23 547 _l
109 547 _l
109 585 _l
109 645 123 690 151 718 _c
179 746 224 760 286 760 _c
371 760 _l
_cl}_d
/g{{635 0 55 -207 544 560 _sc
454 280 _m
454 344 440 395 414 431 _c
387 467 349 485 301 485 _c
253 485 215 467 188 431 _c
161 395 148 344 148 280 _c
148 215 161 165 188 129 _c
215 93 253 75 301 75 _c
349 75 387 93 414 129 _c
440 165 454 215 454 280 _c
544 68 _m
544 -24 523 -93 482 -139 _c
440 -184 377 -207 292 -207 _c
260 -207 231 -204 203 -200 _c
175 -195 147 -188 121 -178 _c
}_e{121 -91 _l
147 -105 173 -115 199 -122 _c
225 -129 251 -133 278 -133 _c
336 -133 380 -117 410 -87 _c
439 -56 454 -10 454 52 _c
454 96 _l
435 64 411 40 382 24 _c
353 8 319 0 279 0 _c
211 0 157 25 116 76 _c
75 127 55 195 55 280 _c
55 364 75 432 116 483 _c
157 534 211 560 279 560 _c
319 560 353 552 382 536 _c
411 520 435 496 454 464 _c
454 547 _l
544 547 _l
}_e{544 68 _l
_cl}_e}_d
/h{634 0 91 0 549 760 _sc
549 330 _m
549 0 _l
459 0 _l
459 327 _l
459 379 448 417 428 443 _c
408 469 378 482 338 482 _c
289 482 251 466 223 435 _c
195 404 181 362 181 309 _c
181 0 _l
91 0 _l
91 760 _l
181 760 _l
181 462 _l
202 494 227 519 257 535 _c
286 551 320 560 358 560 _c
420 560 468 540 500 501 _c
532 462 549 405 549 330 _c
_cl}_d
/i{278 0 94 0 184 760 _sc
94 547 _m
184 547 _l
184 0 _l
94 0 _l
94 547 _l
94 760 _m
184 760 _l
184 646 _l
94 646 _l
94 760 _l
_cl}_d
/l{278 0 94 0 184 760 _sc
94 760 _m
184 760 _l
184 0 _l
94 0 _l
94 760 _l
_cl}_d
/m{{974 0 91 0 889 560 _sc
520 442 _m
542 482 569 511 600 531 _c
631 550 668 560 711 560 _c
767 560 811 540 842 500 _c
873 460 889 403 889 330 _c
889 0 _l
799 0 _l
799 327 _l
799 379 789 418 771 444 _c
752 469 724 482 686 482 _c
639 482 602 466 575 435 _c
548 404 535 362 535 309 _c
535 0 _l
445 0 _l
445 327 _l
445 379 435 418 417 444 _c
398 469 369 482 331 482 _c
}_e{285 482 248 466 221 435 _c
194 404 181 362 181 309 _c
181 0 _l
91 0 _l
91 547 _l
181 547 _l
181 462 _l
201 495 226 520 255 536 _c
283 552 317 560 357 560 _c
397 560 430 550 458 530 _c
486 510 506 480 520 442 _c
_cl}_e}_d
/n{634 0 91 0 549 560 _sc
549 330 _m
549 0 _l
459 0 _l
459 327 _l
459 379 448 417 428 443 _c
408 469 378 482 338 482 _c
289 482 251 466 223 435 _c
195 404 181 362 181 309 _c
181 0 _l
91 0 _l
91 547 _l
181 547 _l
181 462 _l
202 494 227 519 257 535 _c
286 551 320 560 358 560 _c
420 560 468 540 500 501 _c
532 462 549 405 549 330 _c
_cl}_d
/o{612 0 55 -13 557 560 _sc
306 484 _m
258 484 220 465 192 427 _c
164 389 150 338 150 273 _c
150 207 163 156 191 118 _c
219 80 257 62 306 62 _c
354 62 392 80 420 118 _c
448 156 462 207 462 273 _c
462 337 448 389 420 427 _c
392 465 354 484 306 484 _c
306 560 _m
384 560 445 534 490 484 _c
534 433 557 363 557 273 _c
557 183 534 113 490 63 _c
445 12 384 -13 306 -13 _c
227 -13 165 12 121 63 _c
77 113 55 183 55 273 _c
55 363 77 433 121 484 _c
165 534 227 560 306 560 _c
_cl}_d
/q{{635 0 55 -207 544 560 _sc
148 273 _m
148 207 161 155 188 117 _c
215 79 253 61 301 61 _c
348 61 385 79 413 117 _c
440 155 454 207 454 273 _c
454 339 440 390 413 428 _c
385 466 348 485 301 485 _c
253 485 215 466 188 428 _c
161 390 148 339 148 273 _c
454 82 _m
435 49 411 25 382 10 _c
353 -5 319 -13 279 -13 _c
213 -13 159 13 117 65 _c
75 117 55 187 55 273 _c
}_e{55 359 75 428 117 481 _c
159 533 213 560 279 560 _c
319 560 353 552 382 536 _c
411 520 435 496 454 464 _c
454 547 _l
544 547 _l
544 -207 _l
454 -207 _l
454 82 _l
_cl}_e}_d
/r{411 0 91 0 411 560 _sc
411 463 _m
401 469 390 473 378 476 _c
366 478 353 480 339 480 _c
288 480 249 463 222 430 _c
194 397 181 350 181 288 _c
181 0 _l
91 0 _l
91 547 _l
181 547 _l
181 462 _l
199 495 224 520 254 536 _c
284 552 321 560 365 560 _c
371 560 378 559 386 559 _c
393 558 401 557 411 555 _c
411 463 _l
_cl}_d
/s{{521 0 54 -13 472 560 _sc
443 531 _m
443 446 _l
417 458 391 468 364 475 _c
336 481 308 485 279 485 _c
234 485 200 478 178 464 _c
156 450 145 430 145 403 _c
145 382 153 366 169 354 _c
185 342 217 330 265 320 _c
296 313 _l
360 299 405 279 432 255 _c
458 230 472 195 472 151 _c
472 100 452 60 412 31 _c
372 1 316 -13 246 -13 _c
216 -13 186 -10 154 -5 _c
}_e{122 0 89 8 54 20 _c
54 113 _l
87 95 120 82 152 74 _c
184 65 216 61 248 61 _c
290 61 323 68 346 82 _c
368 96 380 117 380 144 _c
380 168 371 187 355 200 _c
339 213 303 226 247 238 _c
216 245 _l
160 257 119 275 95 299 _c
70 323 58 356 58 399 _c
58 450 76 490 112 518 _c
148 546 200 560 268 560 _c
301 560 332 557 362 552 _c
391 547 418 540 443 531 _c
}_e{_cl}_e}_d
/t{392 0 27 0 368 702 _sc
183 702 _m
183 547 _l
368 547 _l
368 477 _l
183 477 _l
183 180 _l
183 135 189 106 201 94 _c
213 81 238 75 276 75 _c
368 75 _l
368 0 _l
276 0 _l
206 0 158 13 132 39 _c
106 65 93 112 93 180 _c
93 477 _l
27 477 _l
27 547 _l
93 547 _l
93 702 _l
183 702 _l
_cl}_d
/u{634 0 85 -13 543 560 _sc
85 216 _m
85 547 _l
175 547 _l
175 219 _l
175 167 185 129 205 103 _c
225 77 255 64 296 64 _c
344 64 383 79 411 110 _c
439 141 453 183 453 237 _c
453 547 _l
543 547 _l
543 0 _l
453 0 _l
453 84 _l
431 50 405 26 377 10 _c
348 -5 315 -13 277 -13 _c
214 -13 166 6 134 45 _c
101 83 85 140 85 216 _c
311 560 _m
311 560 _l
_cl}_d
/minus{838 0 106 272 732 355 _sc
106 355 _m
732 355 _l
732 272 _l
106 272 _l
106 355 _l
_cl}_d
end readonly def

/BuildGlyph
 {exch begin
 CharStrings exch
 2 copy known not{pop /.notdef}if
 true 3 1 roll get exec
 end}_d

/BuildChar {
 1 index /Encoding get exch get
 1 index /BuildGlyph get exec
}_d

FontName currentdict end definefont pop
end
%%EndProlog
mpldict begin
51.84 223.2 translate
508.32 345.6 0 0 clipbox
gsave
0 0 m
508.32 0 l
508.32 345.6 l
0 345.6 l
cl
1.000 setgray
fill
grestore
gsave
63.54 38.016 m
457.488 38.016 l
457.488 304.128 l
63.54 304.128 l
cl
1.000 setgray
fill
grestore
0.800 setlinewidth
1 setlinejoin
0 setlinecap
[] 0 setdash
0.000 setgray
gsave
/o {
gsave
newpath
translate
0.8 setlinewidth
1 setlinejoin
0 setlinecap
0 0 m
0 -3.5 l

gsave
0.000 setgray
fill
grestore
stroke
grestore
} bind def
141.822 38.016 o
grestore
/DejaVuSans findfont
10.000 scalefont
setfont
gsave
135.462633 23.422250 translate
0.000000 rotate
0.000000 0 m /two glyphshow
6.362305 0 m /zero glyphshow
grestore
gsave
/o {
gsave
newpath
translate
0.8 setlinewidth
1 setlinejoin
0 setlinecap
0 0 m
0 -3.5 l

gsave
0.000 setgray
fill
grestore
stroke
grestore
} bind def
220.857 38.016 o
grestore
gsave
214.498044 23.422250 translate
0.000000 rotate
0.000000 0 m /four glyphshow
6.362305 0 m /zero glyphshow
grestore
gsave
/o {
gsave
newpath
translate
0.8 setlinewidth
1 setlinejoin
0 setlinecap
0 0 m
0 -3.5 l

gsave
0.000 setgray
fill
grestore
stroke
grestore
} bind def
299.893 38.016 o
grestore
gsave
293.533455 23.422250 translate
0.000000 rotate
0.000000 0 m /six glyphshow
6.362305 0 m /zero glyphshow
grestore
gsave
/o {
gsave
newpath
translate
0.8 setlinewidth
1 setlinejoin
0 setlinecap
0 0 m
0 -3.5 l

gsave
0.000 setgray
fill
grestore
stroke
grestore
} bind def
378.928 38.016 o
grestore
gsave
372.568866 23.422250 translate
0.000000 rotate
0.000000 0 m /eight glyphshow
6.362305 0 m /zero glyphshow
grestore
gsave
217.896813 9.750375 translate
0.000000 rotate
0.000000 0 m /N glyphshow
7.480469 0 m /u glyphshow
13.818359 0 m /m glyphshow
23.559570 0 m /b glyphshow
29.907227 0 m /e glyphshow
36.059570 0 m /r glyphshow
40.170898 0 m /space glyphshow
43.349609 0 m /o glyphshow
49.467773 0 m /f glyphshow
52.988281 0 m /space glyphshow
56.166992 0 m /t glyphshow
60.087891 0 m /e glyphshow
66.240234 0 m /r glyphshow
70.226562 0 m /m glyphshow
79.967773 0 m /s glyphshow
grestore
gsave
/o {
gsave
newpath
translate
0.8 setlinewidth
1 setlinejoin
0 setlinecap
-0 0 m
-3.5 0 l

gsave
0.000 setgray
fill
grestore
stroke
grestore
} bind def
63.54 62.935 o
grestore
gsave
32.258750 59.138130 translate
0.000000 rotate
0.000000 0 m /minus glyphshow
8.378906 0 m /zero glyphshow
14.741211 0 m /period glyphshow
17.919922 0 m /two glyphshow
grestore
gsave
/o {
gsave
newpath
translate
0.8 setlinewidth
1 setlinejoin
0 setlinecap
-0 0 m
-3.5 0 l

gsave
0.000 setgray
fill
grestore
stroke
grestore
} bind def
63.54 95.9324 o
grestore
gsave
40.633750 92.135573 translate
0.000000 rotate
0.000000 0 m /zero glyphshow
6.362305 0 m /period glyphshow
9.541016 0 m /zero glyphshow
grestore
gsave
/o {
gsave
newpath
translate
0.8 setlinewidth
1 setlinejoin
0 setlinecap
-0 0 m
-3.5 0 l

gsave
0.000 setgray
fill
grestore
stroke
grestore
} bind def
63.54 128.93 o
grestore
gsave
40.633750 125.133016 translate
0.000000 rotate
0.000000 0 m /zero glyphshow
6.362305 0 m /period glyphshow
9.541016 0 m /two glyphshow
grestore
gsave
/o {
gsave
newpath
translate
0.8 setlinewidth
1 setlinejoin
0 setlinecap
-0 0 m
-3.5 0 l

gsave
0.000 setgray
fill
grestore
stroke
grestore
} bind def
63.54 161.927 o
grestore
gsave
40.633750 158.130459 translate
0.000000 rotate
0.000000 0 m /zero glyphshow
6.362305 0 m /period glyphshow
9.541016 0 m /four glyphshow
grestore
gsave
/o {
gsave
newpath
translate
0.8 setlinewidth
1 setlinejoin
0 setlinecap
-0 0 m
-3.5 0 l

gsave
0.000 setgray
fill
grestore
stroke
grestore
} bind def
63.54 194.925 o
grestore
gsave
40.633750 191.127902 translate
0.000000 rotate
0.000000 0 m /zero glyphshow
6.362305 0 m /period glyphshow
9.541016 0 m /six glyphshow
grestore
gsave
/o {
gsave
newpath
translate
0.8 setlinewidth
1 setlinejoin
0 setlinecap
-0 0 m
-3.5 0 l

gsave
0.000 setgray
fill
grestore
stroke
grestore
} bind def
63.54 227.922 o
grestore
gsave
40.633750 224.125345 translate
0.000000 rotate
0.000000 0 m /zero glyphshow
6.362305 0 m /period glyphshow
9.541016 0 m /eight glyphshow
grestore
gsave
/o {
gsave
newpath
translate
0.8 setlinewidth
1 setlinejoin
0 setlinecap
-0 0 m
-3.5 0 l

gsave
0.000 setgray
fill
grestore
stroke
grestore
} bind def
63.54 260.92 o
grestore
gsave
40.633750 257.122788 translate
0.000000 rotate
0.000000 0 m /one glyphshow
6.362305 0 m /period glyphshow
9.541016 0 m /zero glyphshow
grestore
gsave
/o {
gsave
newpath
translate
0.8 setlinewidth
1 setlinejoin
0 setlinecap
-0 0 m
-3.5 0 l

gsave
0.000 setgray
fill
grestore
stroke
grestore
} bind def
63.54 293.917 o
grestore
gsave
40.633750 290.120230 translate
0.000000 rotate
0.000000 0 m /one glyphshow
6.362305 0 m /period glyphshow
9.541016 0 m /two glyphshow
grestore
gsave
26.180625 98.001687 translate
90.000000 rotate
0.000000 0 m /S glyphshow
6.347656 0 m /q glyphshow
12.695312 0 m /u glyphshow
19.033203 0 m /a glyphshow
25.161133 0 m /r glyphshow
29.022461 0 m /e glyphshow
35.174805 0 m /d glyphshow
41.522461 0 m /space glyphshow
44.701172 0 m /n glyphshow
51.039062 0 m /o glyphshow
57.157227 0 m /r glyphshow
61.143555 0 m /m glyphshow
70.884766 0 m /space glyphshow
74.063477 0 m /o glyphshow
80.181641 0 m /f glyphshow
83.702148 0 m /space glyphshow
86.880859 0 m /t glyphshow
90.801758 0 m /h glyphshow
97.139648 0 m /e glyphshow
103.291992 0 m /space glyphshow
106.470703 0 m /r glyphshow
110.332031 0 m /e glyphshow
116.484375 0 m /s glyphshow
121.694336 0 m /i glyphshow
124.472656 0 m /d glyphshow
130.820312 0 m /u glyphshow
137.158203 0 m /a glyphshow
143.286133 0 m /l glyphshow
grestore
1.500 setlinewidth
2 setlinecap
0.000 0.000 1.000 setrgbcolor
gsave
393.9 266.1 63.54 38.02 clipbox
62.786597 260.919663 m
66.738368 254.601386 l
70.690138 253.658587 l
74.641909 233.325102 l
78.59368 226.97224 l
82.54545 221.610192 l
86.497221 221.298394 l
90.448991 217.741149 l
94.400762 217.178188 l
98.352532 217.103531 l
102.304303 216.78439 l
106.256073 216.563769 l
110.207844 216.118731 l
114.159614 215.132091 l
118.111385 213.940888 l
122.063156 210.870633 l
126.014926 210.646686 l
129.966697 209.668853 l
133.918467 209.319811 l
137.870238 208.784709 l
141.822008 206.729901 l
145.773779 206.54281 l
149.725549 205.699587 l
153.67732 204.054372 l
157.629091 204.041606 l
161.580861 201.561945 l
165.532632 200.873054 l
169.484402 200.636129 l
173.436173 200.62377 l
177.387943 200.044645 l
181.339714 199.461447 l
185.291484 193.3392 l
189.243255 193.049268 l
193.195025 188.263944 l
197.146796 187.177911 l
201.098567 185.933512 l
205.050337 184.526217 l
209.002108 184.37858 l
212.953878 182.733726 l
216.905649 182.355558 l
220.857419 152.498937 l
224.80919 151.934931 l
228.76096 150.855375 l
232.712731 150.457669 l
236.664501 149.806555 l
240.616272 149.80015 l
244.568043 148.512786 l
248.519813 147.698322 l
252.471584 143.85507 l
256.423354 143.311432 l
260.375125 139.750512 l
264.326895 136.4837 l
268.278666 136.351169 l
272.230436 135.902972 l
276.182207 134.817923 l
280.133978 133.903673 l
284.085748 133.903673 l
288.037519 133.903673 l
291.989289 133.903673 l
295.94106 133.903673 l
299.89283 133.903673 l
303.844601 133.903673 l
307.796371 133.903673 l
311.748142 133.903673 l
315.699912 133.903673 l
319.651683 133.903673 l
323.603454 133.903673 l
327.555224 133.903673 l
331.506995 133.903673 l
335.458765 133.903673 l
339.410536 133.903673 l
343.362306 133.903673 l
347.314077 133.903673 l
351.265847 133.903673 l
355.217618 133.903673 l
359.169388 133.903673 l
363.121159 133.903673 l
367.07293 133.903673 l
371.0247 133.903673 l
374.976471 133.903673 l
378.928241 133.903673 l
382.880012 133.903673 l
386.831782 133.903673 l
390.783553 133.903673 l
394.735323 133.903673 l
398.687094 133.903673 l
402.638865 133.903673 l
406.590635 133.903673 l
410.542406 133.903673 l
414.494176 133.903673 l
418.445947 133.903673 l
422.397717 133.903673 l
426.349488 133.903673 l
430.301258 133.903673 l
434.253029 133.903673 l
438.204799 133.903673 l
442.15657 133.903673 l
446.108341 133.903673 l
450.060111 133.903673 l
454.011882 133.903673 l
stroke
grestore
0.000 setgray
gsave
393.9 266.1 63.54 38.02 clipbox
62.786597 260.919663 m
66.738368 241.602674 l
70.690138 235.627005 l
74.641909 219.404435 l
78.59368 213.698316 l
82.54545 204.670535 l
86.497221 198.858603 l
90.448991 194.356135 l
94.400762 189.783095 l
98.352532 186.915755 l
102.304303 182.896557 l
106.256073 181.256497 l
110.207844 178.98102 l
114.159614 176.794004 l
118.111385 173.900608 l
122.063156 171.963833 l
126.014926 170.155261 l
129.966697 168.546758 l
133.918467 166.623401 l
137.870238 164.287882 l
141.822008 162.633865 l
145.773779 160.722576 l
149.725549 159.272269 l
153.67732 156.954385 l
157.629091 155.298168 l
161.580861 153.447003 l
165.532632 151.451644 l
169.484402 150.129349 l
173.436173 148.850159 l
177.387943 147.693656 l
181.339714 146.512082 l
185.291484 145.314291 l
189.243255 144.353609 l
193.195025 142.919452 l
197.146796 141.764812 l
201.098567 140.821757 l
205.050337 139.953014 l
209.002108 138.97689 l
212.953878 137.546485 l
216.905649 136.633651 l
220.857419 135.329621 l
224.80919 134.32343 l
228.76096 133.392922 l
232.712731 131.978263 l
236.664501 131.086579 l
240.616272 129.940373 l
244.568043 128.891099 l
248.519813 128.072553 l
252.471584 127.036595 l
256.423354 126.116514 l
260.375125 125.570258 l
264.326895 124.683051 l
268.278666 124.051095 l
272.230436 123.12117 l
276.182207 122.344689 l
280.133978 121.387177 l
284.085748 120.872871 l
288.037519 120.028295 l
291.989289 119.107617 l
295.94106 118.466991 l
299.89283 117.652838 l
303.844601 117.042826 l
307.796371 115.832594 l
311.748142 114.957901 l
315.699912 114.251196 l
319.651683 113.28157 l
323.603454 112.553584 l
327.555224 111.70725 l
331.506995 110.895525 l
335.458765 109.792796 l
339.410536 108.922296 l
343.362306 107.913869 l
347.314077 106.952324 l
351.265847 106.454208 l
355.217618 105.815016 l
359.169388 104.852444 l
363.121159 104.106246 l
367.07293 103.487614 l
371.0247 102.965673 l
374.976471 102.513379 l
378.928241 102.020703 l
382.880012 101.536762 l
386.831782 101.056695 l
390.783553 100.778606 l
394.735323 100.235229 l
398.687094 99.88459 l
402.638865 99.56467 l
406.590635 99.187804 l
410.542406 98.850572 l
414.494176 98.50692 l
418.445947 98.1474 l
422.397717 97.916872 l
426.349488 97.693453 l
430.301258 97.455617 l
434.253029 97.215701 l
438.204799 96.909016 l
442.15657 96.61323 l
446.108341 96.488696 l
450.060111 96.340203 l
454.011882 96.115551 l
stroke
grestore
1.000 0.000 0.000 setrgbcolor
gsave
393.9 266.1 63.54 38.02 clipbox
62.786597 260.919663 m
66.738368 258.148839 l
70.690138 238.457407 l
74.641909 231.09315 l
78.59368 229.382736 l
82.54545 222.832257 l
86.497221 221.83807 l
90.448991 221.293509 l
94.400762 215.677441 l
98.352532 214.89898 l
102.304303 211.144244 l
106.256073 190.824871 l
110.207844 188.916843 l
114.159614 188.500666 l
118.111385 185.592226 l
122.063156 185.149039 l
126.014926 183.461515 l
129.966697 182.767013 l
133.918467 181.927591 l
137.870238 181.228489 l
141.822008 173.683676 l
145.773779 172.233495 l
149.725549 167.393233 l
153.67732 167.019493 l
157.629091 165.414999 l
161.580861 164.849427 l
165.532632 163.965571 l
169.484402 163.070979 l
173.436173 160.9326 l
177.387943 160.65557 l
181.339714 160.515608 l
185.291484 158.953189 l
189.243255 158.44744 l
193.195025 158.034598 l
197.146796 158.029041 l
201.098567 155.768554 l
205.050337 155.352198 l
209.002108 155.330272 l
212.953878 154.444451 l
216.905649 153.261473 l
220.857419 151.163296 l
224.80919 150.926165 l
228.76096 147.324867 l
232.712731 147.096924 l
236.664501 146.452696 l
240.616272 145.380628 l
244.568043 144.507642 l
248.519813 144.057686 l
252.471584 143.468117 l
256.423354 143.102867 l
260.375125 139.525111 l
264.326895 138.707908 l
268.278666 138.334611 l
272.230436 137.843512 l
276.182207 137.533215 l
280.133978 137.531349 l
284.085748 136.496823 l
288.037519 136.335756 l
291.989289 135.456632 l
295.94106 135.432747 l
299.89283 131.597777 l
303.844601 128.423286 l
307.796371 126.781565 l
311.748142 126.09942 l
315.699912 125.228243 l
319.651683 125.178821 l
323.603454 124.994781 l
327.555224 123.672026 l
331.506995 123.076651 l
335.458765 123.025502 l
339.410536 122.911628 l
343.362306 122.896116 l
347.314077 122.658551 l
351.265847 122.655871 l
355.217618 122.189127 l
359.169388 121.493805 l
363.121159 121.302755 l
367.07293 120.622584 l
371.0247 120.580377 l
374.976471 120.566724 l
378.928241 120.050193 l
382.880012 119.435275 l
386.831782 119.272704 l
390.783553 118.731979 l
394.735323 118.145672 l
398.687094 118.029448 l
402.638865 115.790154 l
406.590635 115.728984 l
410.542406 115.023893 l
414.494176 115.011057 l
418.445947 113.662727 l
422.397717 113.635362 l
426.349488 113.586664 l
430.301258 113.585737 l
434.253029 102.249261 l
438.204799 100.149716 l
442.15657 99.51212 l
446.108341 98.496092 l
450.060111 98.338939 l
454.011882 98.311198 l
stroke
grestore
0 setlinecap
[5.55 2.4] 0 setdash
0.000 0.000 1.000 setrgbcolor
gsave
393.9 266.1 63.54 38.02 clipbox
62.786597 298.725234 m
66.738368 292.406959 l
70.690138 291.46416 l
74.641909 271.130675 l
78.59368 264.777813 l
82.54545 259.415764 l
86.497221 259.103965 l
90.448991 255.546722 l
94.400762 254.983759 l
98.352532 254.909104 l
102.304303 254.589961 l
106.256073 254.369342 l
110.207844 253.924304 l
114.159614 252.937662 l
118.111385 251.746461 l
122.063156 248.676204 l
126.014926 248.452257 l
129.966697 247.474424 l
133.918467 247.125383 l
137.870238 246.59028 l
141.822008 244.535474 l
145.773779 244.348381 l
149.725549 243.505158 l
153.67732 241.859944 l
157.629091 241.847179 l
161.580861 239.367516 l
165.532632 238.678627 l
169.484402 238.441701 l
173.436173 238.429341 l
177.387943 237.850216 l
181.339714 237.26702 l
185.291484 231.144773 l
189.243255 230.854839 l
193.195025 226.069517 l
197.146796 224.983482 l
201.098567 223.739083 l
205.050337 222.331788 l
209.002108 222.184151 l
212.953878 220.539298 l
216.905649 220.161129 l
220.857419 190.304508 l
224.80919 189.740502 l
228.76096 188.660946 l
232.712731 188.26324 l
236.664501 187.612126 l
240.616272 187.605721 l
244.568043 186.318359 l
248.519813 185.503895 l
252.471584 181.660641 l
256.423354 181.117003 l
260.375125 177.556084 l
264.326895 174.289273 l
268.278666 174.156741 l
272.230436 173.708543 l
276.182207 172.623496 l
280.133978 171.709244 l
284.085748 171.709244 l
288.037519 171.709244 l
291.989289 171.709244 l
295.94106 171.709244 l
299.89283 171.709244 l
303.844601 171.709244 l
307.796371 171.709244 l
311.748142 171.709244 l
315.699912 171.709244 l
319.651683 171.709244 l
323.603454 171.709244 l
327.555224 171.709244 l
331.506995 171.709244 l
335.458765 171.709244 l
339.410536 171.709244 l
343.362306 171.709244 l
347.314077 171.709244 l
351.265847 171.709244 l
355.217618 171.709244 l
359.169388 171.709244 l
363.121159 171.709244 l
367.07293 171.709244 l
371.0247 171.709244 l
374.976471 171.709244 l
378.928241 171.709244 l
382.880012 171.709244 l
386.831782 171.709244 l
390.783553 171.709244 l
394.735323 171.709244 l
398.687094 171.709244 l
402.638865 171.709244 l
406.590635 171.709244 l
410.542406 171.709244 l
414.494176 171.709244 l
418.445947 171.709244 l
422.397717 171.709244 l
426.349488 171.709244 l
430.301258 171.709244 l
434.253029 171.709244 l
438.204799 171.709244 l
442.15657 171.709244 l
446.108341 171.709244 l
450.060111 171.709244 l
454.011882 171.709244 l
stroke
grestore
0.000 setgray
gsave
393.9 266.1 63.54 38.02 clipbox
62.786597 297.234388 m
66.738368 277.917399 l
70.690138 271.941731 l
74.641909 255.71916 l
78.59368 250.013041 l
82.54545 240.985261 l
86.497221 235.173329 l
90.448991 230.67086 l
94.400762 226.097821 l
98.352532 223.23048 l
102.304303 219.211282 l
106.256073 217.571222 l
110.207844 215.295745 l
114.159614 213.108729 l
118.111385 210.215333 l
122.063156 208.278558 l
126.014926 206.469986 l
129.966697 204.861483 l
133.918467 202.938127 l
137.870238 200.602607 l
141.822008 198.948591 l
145.773779 197.037301 l
149.725549 195.586994 l
153.67732 193.26911 l
157.629091 191.612893 l
161.580861 189.76173 l
165.532632 187.766369 l
169.484402 186.444074 l
173.436173 185.164884 l
177.387943 184.008381 l
181.339714 182.826807 l
185.291484 181.629017 l
189.243255 180.668334 l
193.195025 179.234178 l
197.146796 178.079538 l
201.098567 177.136482 l
205.050337 176.267739 l
209.002108 175.291615 l
212.953878 173.861211 l
216.905649 172.948376 l
220.857419 171.644347 l
224.80919 170.638156 l
228.76096 169.707648 l
232.712731 168.292988 l
236.664501 167.401305 l
240.616272 166.255099 l
244.568043 165.205825 l
248.519813 164.387278 l
252.471584 163.35132 l
256.423354 162.43124 l
260.375125 161.884983 l
264.326895 160.997776 l
268.278666 160.365821 l
272.230436 159.435895 l
276.182207 158.659414 l
280.133978 157.701903 l
284.085748 157.187596 l
288.037519 156.34302 l
291.989289 155.422342 l
295.94106 154.781716 l
299.89283 153.967564 l
303.844601 153.357552 l
307.796371 152.147319 l
311.748142 151.272626 l
315.699912 150.565922 l
319.651683 149.596295 l
323.603454 148.868311 l
327.555224 148.021976 l
331.506995 147.21025 l
335.458765 146.107522 l
339.410536 145.237021 l
343.362306 144.228595 l
347.314077 143.267049 l
351.265847 142.768933 l
355.217618 142.129741 l
359.169388 141.167169 l
363.121159 140.420972 l
367.07293 139.802339 l
371.0247 139.280399 l
374.976471 138.828104 l
378.928241 138.335428 l
382.880012 137.851487 l
386.831782 137.371421 l
390.783553 137.093331 l
394.735323 136.549954 l
398.687094 136.199315 l
402.638865 135.879395 l
406.590635 135.50253 l
410.542406 135.165297 l
414.494176 134.821646 l
418.445947 134.462125 l
422.397717 134.231597 l
426.349488 134.008178 l
430.301258 133.770342 l
434.253029 133.530426 l
438.204799 133.223741 l
442.15657 132.927955 l
446.108341 132.803421 l
450.060111 132.654928 l
454.011882 132.430276 l
stroke
grestore
1.000 0.000 0.000 setrgbcolor
gsave
393.9 266.1 63.54 38.02 clipbox
62.786597 297.70574 m
66.738368 294.934918 l
70.690138 275.243486 l
74.641909 267.879229 l
78.59368 266.168813 l
82.54545 259.618334 l
86.497221 258.624148 l
90.448991 258.079586 l
94.400762 252.46352 l
98.352532 251.685059 l
102.304303 247.930323 l
106.256073 227.610948 l
110.207844 225.702921 l
114.159614 225.286745 l
118.111385 222.378304 l
122.063156 221.935117 l
126.014926 220.247592 l
129.966697 219.55309 l
133.918467 218.713669 l
137.870238 218.014566 l
141.822008 210.469753 l
145.773779 209.019573 l
149.725549 204.179312 l
153.67732 203.805572 l
157.629091 202.201078 l
161.580861 201.635505 l
165.532632 200.751648 l
169.484402 199.857058 l
173.436173 197.718677 l
177.387943 197.441649 l
181.339714 197.301687 l
185.291484 195.739266 l
189.243255 195.233517 l
193.195025 194.820676 l
197.146796 194.81512 l
201.098567 192.554633 l
205.050337 192.138276 l
209.002108 192.116351 l
212.953878 191.230528 l
216.905649 190.047552 l
220.857419 187.949373 l
224.80919 187.712242 l
228.76096 184.110946 l
232.712731 183.883001 l
236.664501 183.238774 l
240.616272 182.166705 l
244.568043 181.293721 l
248.519813 180.843765 l
252.471584 180.254196 l
256.423354 179.888946 l
260.375125 176.31119 l
264.326895 175.493987 l
268.278666 175.12069 l
272.230436 174.629591 l
276.182207 174.319294 l
280.133978 174.317428 l
284.085748 173.282902 l
288.037519 173.121835 l
291.989289 172.242709 l
295.94106 172.218826 l
299.89283 168.383856 l
303.844601 165.209364 l
307.796371 163.567643 l
311.748142 162.885497 l
315.699912 162.01432 l
319.651683 161.964898 l
323.603454 161.78086 l
327.555224 160.458105 l
331.506995 159.86273 l
335.458765 159.811581 l
339.410536 159.697707 l
343.362306 159.682195 l
347.314077 159.444629 l
351.265847 159.44195 l
355.217618 158.975206 l
359.169388 158.279882 l
363.121159 158.088834 l
367.07293 157.408661 l
371.0247 157.366455 l
374.976471 157.352803 l
378.928241 156.836272 l
382.880012 156.221353 l
386.831782 156.058783 l
390.783553 155.518058 l
394.735323 154.931751 l
398.687094 154.815527 l
402.638865 152.576233 l
406.590635 152.515061 l
410.542406 151.809972 l
414.494176 151.797134 l
418.445947 150.448804 l
422.397717 150.421441 l
426.349488 150.372743 l
430.301258 150.371814 l
434.253029 139.035338 l
438.204799 136.935793 l
442.15657 136.298197 l
446.108341 135.282169 l
450.060111 135.125016 l
454.011882 135.097277 l
stroke
grestore
0.000 0.000 1.000 setrgbcolor
gsave
393.9 266.1 63.54 38.02 clipbox
62.786597 223.114091 m
66.738368 216.795815 l
70.690138 215.853016 l
74.641909 195.519531 l
78.59368 189.166669 l
82.54545 183.80462 l
86.497221 183.492823 l
90.448991 179.935578 l
94.400762 179.372617 l
98.352532 179.29796 l
102.304303 178.978817 l
106.256073 178.758198 l
110.207844 178.31316 l
114.159614 177.32652 l
118.111385 176.135317 l
122.063156 173.06506 l
126.014926 172.841113 l
129.966697 171.863281 l
133.918467 171.514239 l
137.870238 170.979136 l
141.822008 168.92433 l
145.773779 168.737239 l
149.725549 167.894014 l
153.67732 166.248801 l
157.629091 166.236034 l
161.580861 163.756374 l
165.532632 163.067483 l
169.484402 162.830556 l
173.436173 162.818199 l
177.387943 162.239074 l
181.339714 161.655876 l
185.291484 155.533629 l
189.243255 155.243697 l
193.195025 150.458373 l
197.146796 149.372338 l
201.098567 148.12794 l
205.050337 146.720644 l
209.002108 146.573007 l
212.953878 144.928155 l
216.905649 144.549986 l
220.857419 114.693365 l
224.80919 114.12936 l
228.76096 113.049804 l
232.712731 112.652097 l
236.664501 112.000984 l
240.616272 111.994577 l
244.568043 110.707215 l
248.519813 109.892751 l
252.471584 106.049497 l
256.423354 105.505861 l
260.375125 101.94494 l
264.326895 98.678129 l
268.278666 98.545597 l
272.230436 98.097399 l
276.182207 97.012352 l
280.133978 96.098102 l
284.085748 96.098102 l
288.037519 96.098102 l
291.989289 96.098102 l
295.94106 96.098102 l
299.89283 96.098102 l
303.844601 96.098102 l
307.796371 96.098102 l
311.748142 96.098102 l
315.699912 96.098102 l
319.651683 96.098102 l
323.603454 96.098102 l
327.555224 96.098102 l
331.506995 96.098102 l
335.458765 96.098102 l
339.410536 96.098102 l
343.362306 96.098102 l
347.314077 96.098102 l
351.265847 96.098102 l
355.217618 96.098102 l
359.169388 96.098102 l
363.121159 96.098102 l
367.07293 96.098102 l
371.0247 96.098102 l
374.976471 96.098102 l
378.928241 96.098102 l
382.880012 96.098102 l
386.831782 96.098102 l
390.783553 96.098102 l
394.735323 96.098102 l
398.687094 96.098102 l
402.638865 96.098102 l
406.590635 96.098102 l
410.542406 96.098102 l
414.494176 96.098102 l
418.445947 96.098102 l
422.397717 96.098102 l
426.349488 96.098102 l
430.301258 96.098102 l
434.253029 96.098102 l
438.204799 96.098102 l
442.15657 96.098102 l
446.108341 96.098102 l
450.060111 96.098102 l
454.011882 96.098102 l
stroke
grestore
0.000 setgray
gsave
393.9 266.1 63.54 38.02 clipbox
62.786597 224.604937 m
66.738368 205.287949 l
70.690138 199.31228 l
74.641909 183.089709 l
78.59368 177.38359 l
82.54545 168.35581 l
86.497221 162.543878 l
90.448991 158.04141 l
94.400762 153.46837 l
98.352532 150.601029 l
102.304303 146.581832 l
106.256073 144.941772 l
110.207844 142.666294 l
114.159614 140.479278 l
118.111385 137.585883 l
122.063156 135.649106 l
126.014926 133.840536 l
129.966697 132.232033 l
133.918467 130.308676 l
137.870238 127.973157 l
141.822008 126.319138 l
145.773779 124.407851 l
149.725549 122.957544 l
153.67732 120.63966 l
157.629091 118.983442 l
161.580861 117.132277 l
165.532632 115.136919 l
169.484402 113.814624 l
173.436173 112.535433 l
177.387943 111.378931 l
181.339714 110.197357 l
185.291484 108.999566 l
189.243255 108.038883 l
193.195025 106.604727 l
197.146796 105.450086 l
201.098567 104.50703 l
205.050337 103.638288 l
209.002108 102.662165 l
212.953878 101.23176 l
216.905649 100.318925 l
220.857419 99.014896 l
224.80919 98.008705 l
228.76096 97.078197 l
232.712731 95.663537 l
236.664501 94.771854 l
240.616272 93.625648 l
244.568043 92.576374 l
248.519813 91.757828 l
252.471584 90.72187 l
256.423354 89.801789 l
260.375125 89.255533 l
264.326895 88.368326 l
268.278666 87.73637 l
272.230436 86.806445 l
276.182207 86.029964 l
280.133978 85.072452 l
284.085748 84.558144 l
288.037519 83.713569 l
291.989289 82.792891 l
295.94106 82.152266 l
299.89283 81.338113 l
303.844601 80.728099 l
307.796371 79.517869 l
311.748142 78.643174 l
315.699912 77.936471 l
319.651683 76.966845 l
323.603454 76.238858 l
327.555224 75.392525 l
331.506995 74.5808 l
335.458765 73.478071 l
339.410536 72.607571 l
343.362306 71.599144 l
347.314077 70.637599 l
351.265847 70.139482 l
355.217618 69.50029 l
359.169388 68.537719 l
363.121159 67.791521 l
367.07293 67.172888 l
371.0247 66.650948 l
374.976471 66.198654 l
378.928241 65.705976 l
382.880012 65.222037 l
386.831782 64.74197 l
390.783553 64.463881 l
394.735323 63.920504 l
398.687094 63.569865 l
402.638865 63.249945 l
406.590635 62.873079 l
410.542406 62.535847 l
414.494176 62.192195 l
418.445947 61.832675 l
422.397717 61.602146 l
426.349488 61.378727 l
430.301258 61.140892 l
434.253029 60.900975 l
438.204799 60.594291 l
442.15657 60.298505 l
446.108341 60.173971 l
450.060111 60.025477 l
454.011882 59.800826 l
stroke
grestore
1.000 0.000 0.000 setrgbcolor
gsave
393.9 266.1 63.54 38.02 clipbox
62.786597 224.133585 m
66.738368 221.362762 l
70.690138 201.67133 l
74.641909 194.307073 l
78.59368 192.596657 l
82.54545 186.046178 l
86.497221 185.051991 l
90.448991 184.50743 l
94.400762 178.891364 l
98.352532 178.112903 l
102.304303 174.358167 l
106.256073 154.038792 l
110.207844 152.130764 l
114.159614 151.714589 l
118.111385 148.806148 l
122.063156 148.362961 l
126.014926 146.675436 l
129.966697 145.980934 l
133.918467 145.141513 l
137.870238 144.44241 l
141.822008 136.897599 l
145.773779 135.447417 l
149.725549 130.607156 l
153.67732 130.233416 l
157.629091 128.628921 l
161.580861 128.063349 l
165.532632 127.179492 l
169.484402 126.284902 l
173.436173 124.146521 l
177.387943 123.869492 l
181.339714 123.72953 l
185.291484 122.16711 l
189.243255 121.661361 l
193.195025 121.24852 l
197.146796 121.242964 l
201.098567 118.982477 l
205.050337 118.56612 l
209.002108 118.544195 l
212.953878 117.658372 l
216.905649 116.475396 l
220.857419 114.377217 l
224.80919 114.140086 l
228.76096 110.538789 l
232.712731 110.310845 l
236.664501 109.666618 l
240.616272 108.594549 l
244.568043 107.721565 l
248.519813 107.271609 l
252.471584 106.68204 l
256.423354 106.31679 l
260.375125 102.739034 l
264.326895 101.921831 l
268.278666 101.548534 l
272.230436 101.057435 l
276.182207 100.747138 l
280.133978 100.745272 l
284.085748 99.710746 l
288.037519 99.549679 l
291.989289 98.670553 l
295.94106 98.646669 l
299.89283 94.8117 l
303.844601 91.637207 l
307.796371 89.995487 l
311.748142 89.313341 l
315.699912 88.442164 l
319.651683 88.392742 l
323.603454 88.208704 l
327.555224 86.885949 l
331.506995 86.290574 l
335.458765 86.239425 l
339.410536 86.125551 l
343.362306 86.110038 l
347.314077 85.872473 l
351.265847 85.869794 l
355.217618 85.40305 l
359.169388 84.707726 l
363.121159 84.516678 l
367.07293 83.836505 l
371.0247 83.794299 l
374.976471 83.780647 l
378.928241 83.264116 l
382.880012 82.649197 l
386.831782 82.486627 l
390.783553 81.945901 l
394.735323 81.359595 l
398.687094 81.243371 l
402.638865 79.004077 l
406.590635 78.942905 l
410.542406 78.237815 l
414.494176 78.224978 l
418.445947 76.876649 l
422.397717 76.849285 l
426.349488 76.800587 l
430.301258 76.799658 l
434.253029 65.463182 l
438.204799 63.363637 l
442.15657 62.726041 l
446.108341 61.710013 l
450.060111 61.55286 l
454.011882 61.52512 l
stroke
grestore
0.800 setlinewidth
0 setlinejoin
2 setlinecap
[] 0 setdash
0.000 setgray
gsave
63.54 38.016 m
63.54 304.128 l
stroke
grestore
gsave
457.488 38.016 m
457.488 304.128 l
stroke
grestore
gsave
63.54 38.016 m
457.488 38.016 l
stroke
grestore
gsave
63.54 304.128 m
457.488 304.128 l
stroke
grestore
/DejaVuSans findfont
12.000 scalefont
setfont
gsave
19.842125 310.128000 translate
0.000000 rotate
0.000000 0 m /D glyphshow
9.240234 0 m /e glyphshow
16.623047 0 m /c glyphshow
23.220703 0 m /r glyphshow
27.904297 0 m /e glyphshow
35.287109 0 m /a glyphshow
42.640625 0 m /s glyphshow
48.892578 0 m /i glyphshow
52.226562 0 m /n glyphshow
59.832031 0 m /g glyphshow
67.449219 0 m /space glyphshow
71.263672 0 m /o glyphshow
78.605469 0 m /f glyphshow
82.830078 0 m /space glyphshow
86.644531 0 m /t glyphshow
91.349609 0 m /h glyphshow
98.955078 0 m /e glyphshow
106.337891 0 m /space glyphshow
110.152344 0 m /n glyphshow
117.757812 0 m /o glyphshow
125.099609 0 m /r glyphshow
129.783203 0 m /m glyphshow
141.472656 0 m /space glyphshow
145.287109 0 m /o glyphshow
152.628906 0 m /f glyphshow
156.853516 0 m /space glyphshow
160.667969 0 m /t glyphshow
165.373047 0 m /h glyphshow
172.978516 0 m /e glyphshow
180.361328 0 m /space glyphshow
184.175781 0 m /r glyphshow
188.859375 0 m /e glyphshow
196.242188 0 m /s glyphshow
202.494141 0 m /i glyphshow
205.828125 0 m /d glyphshow
213.445312 0 m /u glyphshow
221.050781 0 m /a glyphshow
228.404297 0 m /l glyphshow
231.738281 0 m /period glyphshow
235.552734 0 m /space glyphshow
239.367188 0 m /M glyphshow
249.720703 0 m /e glyphshow
257.103516 0 m /a glyphshow
264.457031 0 m /n glyphshow
272.062500 0 m /space glyphshow
275.876953 0 m /a glyphshow
283.230469 0 m /n glyphshow
290.835938 0 m /d glyphshow
298.453125 0 m /space glyphshow
302.267578 0 m /S glyphshow
309.884766 0 m /t glyphshow
314.589844 0 m /d glyphshow
322.207031 0 m /space glyphshow
326.021484 0 m /f glyphshow
330.246094 0 m /o glyphshow
337.587891 0 m /r glyphshow
342.521484 0 m /space glyphshow
346.335938 0 m /t glyphshow
351.041016 0 m /h glyphshow
358.646484 0 m /e glyphshow
366.029297 0 m /space glyphshow
369.843750 0 m /d glyphshow
377.460938 0 m /i glyphshow
380.794922 0 m /f glyphshow
385.019531 0 m /f glyphshow
389.244141 0 m /e glyphshow
396.626953 0 m /r glyphshow
401.310547 0 m /e glyphshow
408.693359 0 m /n glyphshow
416.298828 0 m /t glyphshow
421.003906 0 m /space glyphshow
424.818359 0 m /m glyphshow
436.507812 0 m /e glyphshow
443.890625 0 m /t glyphshow
448.595703 0 m /h glyphshow
456.201172 0 m /o glyphshow
463.542969 0 m /d glyphshow
471.160156 0 m /s glyphshow
477.412109 0 m /period glyphshow
grestore
1.000 setlinewidth
0 setlinecap
0.800 setgray
gsave
369.50675 227.228 m
451.888 227.228 l
452.954667 227.228 453.488 227.761333 453.488 228.828 c
453.488 298.528 l
453.488 299.594667 452.954667 300.128 451.888 300.128 c
369.50675 300.128 l
368.440083 300.128 367.90675 299.594667 367.90675 298.528 c
367.90675 228.828 l
367.90675 227.761333 368.440083 227.228 369.50675 227.228 c
cl
gsave
1.000 setgray
fill
grestore
stroke
grestore
1.500 setlinewidth
1 setlinejoin
2 setlinecap
0.000 0.000 1.000 setrgbcolor
gsave
371.10675 293.649875 m
387.10675 293.649875 l
stroke
grestore
0.000 setgray
/DejaVuSans findfont
8.000 scalefont
setfont
gsave
393.506750 290.849875 translate
0.000000 rotate
0.000000 0 m /M glyphshow
6.902344 0 m /e glyphshow
11.824219 0 m /a glyphshow
16.726562 0 m /n glyphshow
21.796875 0 m /space glyphshow
24.339844 0 m /o glyphshow
29.234375 0 m /f glyphshow
32.050781 0 m /space glyphshow
34.593750 0 m /A glyphshow
40.066406 0 m /S glyphshow
45.144531 0 m /V glyphshow
50.617188 0 m /D glyphshow
grestore
gsave
371.10675 281.899875 m
387.10675 281.899875 l
stroke
grestore
gsave
393.506750 279.099875 translate
0.000000 rotate
0.000000 0 m /M glyphshow
6.902344 0 m /e glyphshow
11.824219 0 m /a glyphshow
16.726562 0 m /n glyphshow
21.796875 0 m /space glyphshow
24.339844 0 m /o glyphshow
29.234375 0 m /f glyphshow
32.050781 0 m /space glyphshow
34.593750 0 m /C glyphshow
40.179688 0 m /P glyphshow
45.003906 0 m /T glyphshow
49.765625 0 m /T glyphshow
grestore
1.000 0.000 0.000 setrgbcolor
gsave
371.10675 270.149875 m
387.10675 270.149875 l
stroke
grestore
0.000 setgray
gsave
393.506750 267.349875 translate
0.000000 rotate
0.000000 0 m /M glyphshow
6.902344 0 m /e glyphshow
11.824219 0 m /a glyphshow
16.726562 0 m /n glyphshow
21.796875 0 m /space glyphshow
24.339844 0 m /o glyphshow
29.234375 0 m /f glyphshow
32.050781 0 m /space glyphshow
34.593750 0 m /A glyphshow
40.066406 0 m /L glyphshow
44.523438 0 m /S glyphshow
grestore
0 setlinecap
[5.55 2.4] 0 setdash
0.000 0.000 1.000 setrgbcolor
gsave
371.10675 258.399875 m
387.10675 258.399875 l
stroke
grestore
0.000 setgray
gsave
393.506750 255.599875 translate
0.000000 rotate
0.000000 0 m /S glyphshow
5.078125 0 m /t glyphshow
8.214844 0 m /d glyphshow
13.292969 0 m /space glyphshow
15.835938 0 m /o glyphshow
20.730469 0 m /f glyphshow
23.546875 0 m /space glyphshow
26.089844 0 m /A glyphshow
31.562500 0 m /S glyphshow
36.640625 0 m /V glyphshow
42.113281 0 m /D glyphshow
grestore
gsave
371.10675 246.649875 m
387.10675 246.649875 l
stroke
grestore
gsave
393.506750 243.849875 translate
0.000000 rotate
0.000000 0 m /S glyphshow
5.078125 0 m /t glyphshow
8.214844 0 m /d glyphshow
13.292969 0 m /space glyphshow
15.835938 0 m /o glyphshow
20.730469 0 m /f glyphshow
23.546875 0 m /space glyphshow
26.089844 0 m /C glyphshow
31.675781 0 m /P glyphshow
36.500000 0 m /T glyphshow
41.261719 0 m /T glyphshow
grestore
1.000 0.000 0.000 setrgbcolor
gsave
371.10675 234.899875 m
387.10675 234.899875 l
stroke
grestore
0.000 setgray
gsave
393.506750 232.099875 translate
0.000000 rotate
0.000000 0 m /S glyphshow
5.078125 0 m /t glyphshow
8.214844 0 m /d glyphshow
13.292969 0 m /space glyphshow
15.835938 0 m /o glyphshow
20.730469 0 m /f glyphshow
23.546875 0 m /space glyphshow
26.089844 0 m /A glyphshow
31.562500 0 m /L glyphshow
36.019531 0 m /S glyphshow
grestore

end
showpage
