%!PS-Adobe-3.0 EPSF-3.0
%%Title: /Users/mfuentez/Documents/ADAPT-master/code/tensLib/Outputs/ASVDvsCPTTvsALS_4d/functionsL2_beta2.1/all_4_py.eps
%%Creator: matplotlib version 3.3.4, http://matplotlib.org/
%%CreationDate: Tue Nov 16 12:48:26 2021
%%Orientation: portrait
%%BoundingBox: 51.12 223.20000000000002 560.88 568.8
%%EndComments
%%BeginProlog
/mpldict 8 dict def
mpldict begin
/m { moveto } bind def
/l { lineto } bind def
/r { rlineto } bind def
/c { curveto } bind def
/cl { closepath } bind def
/box {
      m
      1 index 0 r
      0 exch r
      neg 0 r
      cl
    } bind def
/clipbox {
      box
      clip
      newpath
    } bind def
%!PS-Adobe-3.0 Resource-Font
%%Title: DejaVu Sans
%%Copyright: Copyright (c) 2003 by Bitstream, Inc. All Rights Reserved. Copyright (c) 2006 by Tavmjong Bah. All Rights Reserved. DejaVu changes are in public domain 
%%Creator: Converted from TrueType to type 3 by PPR
25 dict begin
/_d{bind def}bind def
/_m{moveto}_d
/_l{lineto}_d
/_cl{closepath eofill}_d
/_c{curveto}_d
/_sc{7 -1 roll{setcachedevice}{pop pop pop pop pop pop}ifelse}_d
/_e{exec}_d
/FontName /DejaVuSans def
/PaintType 0 def
/FontMatrix[.001 0 0 .001 0 0]def
/FontBBox[-1021 -463 1793 1232]def
/FontType 3 def
/Encoding [ /space /period /zero /one /two /four /six /eight /A /C /D /L /M /N /P /S /T /V /a /b /c /d /e /f /g /h /i /l /m /n /o /q /r /s /t /u /minus ] def
/FontInfo 10 dict dup begin
/FamilyName (DejaVu Sans) def
/FullName (DejaVu Sans) def
/Notice (Copyright (c) 2003 by Bitstream, Inc. All Rights Reserved. Copyright (c) 2006 by Tavmjong Bah. All Rights Reserved. DejaVu changes are in public domain ) def
/Weight (Book) def
/Version (Version 2.35) def
/ItalicAngle 0.0 def
/isFixedPitch false def
/UnderlinePosition -130 def
/UnderlineThickness 90 def
end readonly def
/CharStrings 38 dict dup begin
/.notdef 0 def
/space{318 0 0 0 0 0 _sc
}_d
/period{318 0 107 0 210 124 _sc
107 124 _m
210 124 _l
210 0 _l
107 0 _l
107 124 _l
_cl}_d
/zero{636 0 66 -13 570 742 _sc
318 664 _m
267 664 229 639 203 589 _c
177 539 165 464 165 364 _c
165 264 177 189 203 139 _c
229 89 267 64 318 64 _c
369 64 407 89 433 139 _c
458 189 471 264 471 364 _c
471 464 458 539 433 589 _c
407 639 369 664 318 664 _c
318 742 _m
399 742 461 709 505 645 _c
548 580 570 486 570 364 _c
570 241 548 147 505 83 _c
461 19 399 -13 318 -13 _c
236 -13 173 19 130 83 _c
87 147 66 241 66 364 _c
66 486 87 580 130 645 _c
173 709 236 742 318 742 _c
_cl}_d
/one{636 0 110 0 544 729 _sc
124 83 _m
285 83 _l
285 639 _l
110 604 _l
110 694 _l
284 729 _l
383 729 _l
383 83 _l
544 83 _l
544 0 _l
124 0 _l
124 83 _l
_cl}_d
/two{{636 0 73 0 536 742 _sc
192 83 _m
536 83 _l
536 0 _l
73 0 _l
73 83 _l
110 121 161 173 226 239 _c
290 304 331 346 348 365 _c
380 400 402 430 414 455 _c
426 479 433 504 433 528 _c
433 566 419 598 392 622 _c
365 646 330 659 286 659 _c
255 659 222 653 188 643 _c
154 632 117 616 78 594 _c
78 694 _l
118 710 155 722 189 730 _c
223 738 255 742 284 742 _c
}_e{359 742 419 723 464 685 _c
509 647 532 597 532 534 _c
532 504 526 475 515 449 _c
504 422 484 390 454 354 _c
446 344 420 317 376 272 _c
332 227 271 164 192 83 _c
_cl}_e}_d
/four{636 0 49 0 580 729 _sc
378 643 _m
129 254 _l
378 254 _l
378 643 _l
352 729 _m
476 729 _l
476 254 _l
580 254 _l
580 172 _l
476 172 _l
476 0 _l
378 0 _l
378 172 _l
49 172 _l
49 267 _l
352 729 _l
_cl}_d
/six{{636 0 70 -13 573 742 _sc
330 404 _m
286 404 251 388 225 358 _c
199 328 186 286 186 234 _c
186 181 199 139 225 109 _c
251 79 286 64 330 64 _c
374 64 409 79 435 109 _c
461 139 474 181 474 234 _c
474 286 461 328 435 358 _c
409 388 374 404 330 404 _c
526 713 _m
526 623 _l
501 635 476 644 451 650 _c
425 656 400 659 376 659 _c
310 659 260 637 226 593 _c
}_e{192 549 172 482 168 394 _c
187 422 211 444 240 459 _c
269 474 301 482 336 482 _c
409 482 467 459 509 415 _c
551 371 573 310 573 234 _c
573 159 550 99 506 54 _c
462 9 403 -13 330 -13 _c
246 -13 181 19 137 83 _c
92 147 70 241 70 364 _c
70 479 97 571 152 639 _c
206 707 280 742 372 742 _c
396 742 421 739 447 735 _c
472 730 498 723 526 713 _c
_cl}_e}_d
/eight{{636 0 68 -13 568 742 _sc
318 346 _m
271 346 234 333 207 308 _c
180 283 167 249 167 205 _c
167 161 180 126 207 101 _c
234 76 271 64 318 64 _c
364 64 401 76 428 102 _c
455 127 469 161 469 205 _c
469 249 455 283 429 308 _c
402 333 365 346 318 346 _c
219 388 _m
177 398 144 418 120 447 _c
96 476 85 511 85 553 _c
85 611 105 657 147 691 _c
188 725 245 742 318 742 _c
}_e{390 742 447 725 489 691 _c
530 657 551 611 551 553 _c
551 511 539 476 515 447 _c
491 418 459 398 417 388 _c
464 377 501 355 528 323 _c
554 291 568 251 568 205 _c
568 134 546 80 503 43 _c
459 5 398 -13 318 -13 _c
237 -13 175 5 132 43 _c
89 80 68 134 68 205 _c
68 251 81 291 108 323 _c
134 355 171 377 219 388 _c
183 544 _m
183 506 194 476 218 455 _c
}_e{242 434 275 424 318 424 _c
360 424 393 434 417 455 _c
441 476 453 506 453 544 _c
453 582 441 611 417 632 _c
393 653 360 664 318 664 _c
275 664 242 653 218 632 _c
194 611 183 582 183 544 _c
_cl}_e}_d
/A{684 0 8 0 676 729 _sc
342 632 _m
208 269 _l
476 269 _l
342 632 _l
286 729 _m
398 729 _l
676 0 _l
573 0 _l
507 187 _l
178 187 _l
112 0 _l
8 0 _l
286 729 _l
_cl}_d
/C{{698 0 56 -13 644 742 _sc
644 673 _m
644 569 _l
610 599 575 622 537 638 _c
499 653 460 661 418 661 _c
334 661 270 635 226 584 _c
182 533 160 460 160 364 _c
160 268 182 194 226 143 _c
270 92 334 67 418 67 _c
460 67 499 74 537 90 _c
575 105 610 128 644 159 _c
644 56 _l
609 32 572 15 534 4 _c
496 -7 455 -13 412 -13 _c
302 -13 215 20 151 87 _c
}_e{87 154 56 246 56 364 _c
56 481 87 573 151 641 _c
215 708 302 742 412 742 _c
456 742 497 736 535 725 _c
573 713 610 696 644 673 _c
_cl}_e}_d
/D{770 0 98 0 711 729 _sc
197 648 _m
197 81 _l
316 81 _l
416 81 490 103 537 149 _c
583 195 607 267 607 365 _c
607 463 583 534 537 580 _c
490 625 416 648 316 648 _c
197 648 _l
98 729 _m
301 729 _l
442 729 546 699 612 641 _c
678 582 711 490 711 365 _c
711 239 677 147 611 88 _c
545 29 441 0 301 0 _c
98 0 _l
98 729 _l
_cl}_d
/L{557 0 98 0 552 729 _sc
98 729 _m
197 729 _l
197 83 _l
552 83 _l
552 0 _l
98 0 _l
98 729 _l
_cl}_d
/M{863 0 98 0 765 729 _sc
98 729 _m
245 729 _l
431 233 _l
618 729 _l
765 729 _l
765 0 _l
669 0 _l
669 640 _l
481 140 _l
382 140 _l
194 640 _l
194 0 _l
98 0 _l
98 729 _l
_cl}_d
/N{748 0 98 0 650 729 _sc
98 729 _m
231 729 _l
554 119 _l
554 729 _l
650 729 _l
650 0 _l
517 0 _l
194 610 _l
194 0 _l
98 0 _l
98 729 _l
_cl}_d
/P{603 0 98 0 569 729 _sc
197 648 _m
197 374 _l
321 374 _l
367 374 402 385 427 409 _c
452 433 465 467 465 511 _c
465 555 452 588 427 612 _c
402 636 367 648 321 648 _c
197 648 _l
98 729 _m
321 729 _l
402 729 464 710 506 673 _c
548 636 569 582 569 511 _c
569 439 548 384 506 348 _c
464 311 402 293 321 293 _c
197 293 _l
197 0 _l
98 0 _l
98 729 _l
_cl}_d
/S{{635 0 66 -13 579 742 _sc
535 705 _m
535 609 _l
497 627 462 640 429 649 _c
395 657 363 662 333 662 _c
279 662 237 651 208 631 _c
179 610 165 580 165 542 _c
165 510 174 485 194 469 _c
213 452 250 439 304 429 _c
364 417 _l
437 403 491 378 526 343 _c
561 307 579 260 579 201 _c
579 130 555 77 508 41 _c
460 5 391 -13 300 -13 _c
265 -13 228 -9 189 -2 _c
}_e{150 5 110 16 69 32 _c
69 134 _l
109 111 148 94 186 83 _c
224 71 262 66 300 66 _c
356 66 399 77 430 99 _c
460 121 476 152 476 194 _c
476 230 465 258 443 278 _c
421 298 385 313 335 323 _c
275 335 _l
201 349 148 372 115 404 _c
82 435 66 478 66 534 _c
66 598 88 649 134 686 _c
179 723 242 742 322 742 _c
356 742 390 739 426 733 _c
461 727 497 717 535 705 _c
}_e{_cl}_e}_d
/T{611 0 -2 0 614 729 _sc
-2 729 _m
614 729 _l
614 646 _l
355 646 _l
355 0 _l
256 0 _l
256 646 _l
-2 646 _l
-2 729 _l
_cl}_d
/V{684 0 8 0 676 729 _sc
286 0 _m
8 729 _l
111 729 _l
342 115 _l
573 729 _l
676 729 _l
398 0 _l
286 0 _l
_cl}_d
/a{{613 0 60 -13 522 560 _sc
343 275 _m
270 275 220 266 192 250 _c
164 233 150 205 150 165 _c
150 133 160 107 181 89 _c
202 70 231 61 267 61 _c
317 61 357 78 387 114 _c
417 149 432 196 432 255 _c
432 275 _l
343 275 _l
522 312 _m
522 0 _l
432 0 _l
432 83 _l
411 49 385 25 355 10 _c
325 -5 287 -13 243 -13 _c
187 -13 142 2 109 33 _c
76 64 60 106 60 159 _c
}_e{60 220 80 266 122 298 _c
163 329 224 345 306 345 _c
432 345 _l
432 354 _l
432 395 418 427 391 450 _c
364 472 326 484 277 484 _c
245 484 215 480 185 472 _c
155 464 127 453 100 439 _c
100 522 _l
132 534 164 544 195 550 _c
226 556 256 560 286 560 _c
365 560 424 539 463 498 _c
502 457 522 395 522 312 _c
_cl}_e}_d
/b{{635 0 91 -13 580 760 _sc
487 273 _m
487 339 473 390 446 428 _c
418 466 381 485 334 485 _c
286 485 249 466 222 428 _c
194 390 181 339 181 273 _c
181 207 194 155 222 117 _c
249 79 286 61 334 61 _c
381 61 418 79 446 117 _c
473 155 487 207 487 273 _c
181 464 _m
199 496 223 520 252 536 _c
281 552 316 560 356 560 _c
422 560 476 533 518 481 _c
559 428 580 359 580 273 _c
}_e{580 187 559 117 518 65 _c
476 13 422 -13 356 -13 _c
316 -13 281 -5 252 10 _c
223 25 199 49 181 82 _c
181 0 _l
91 0 _l
91 760 _l
181 760 _l
181 464 _l
_cl}_e}_d
/c{{550 0 55 -13 488 560 _sc
488 526 _m
488 442 _l
462 456 437 466 411 473 _c
385 480 360 484 334 484 _c
276 484 230 465 198 428 _c
166 391 150 339 150 273 _c
150 206 166 154 198 117 _c
230 80 276 62 334 62 _c
360 62 385 65 411 72 _c
437 79 462 90 488 104 _c
488 21 _l
462 9 436 0 410 -5 _c
383 -10 354 -13 324 -13 _c
242 -13 176 12 128 64 _c
}_e{79 115 55 185 55 273 _c
55 362 79 432 128 483 _c
177 534 244 560 330 560 _c
358 560 385 557 411 551 _c
437 545 463 537 488 526 _c
_cl}_e}_d
/d{{635 0 55 -13 544 760 _sc
454 464 _m
454 760 _l
544 760 _l
544 0 _l
454 0 _l
454 82 _l
435 49 411 25 382 10 _c
353 -5 319 -13 279 -13 _c
213 -13 159 13 117 65 _c
75 117 55 187 55 273 _c
55 359 75 428 117 481 _c
159 533 213 560 279 560 _c
319 560 353 552 382 536 _c
411 520 435 496 454 464 _c
148 273 _m
148 207 161 155 188 117 _c
215 79 253 61 301 61 _c
}_e{348 61 385 79 413 117 _c
440 155 454 207 454 273 _c
454 339 440 390 413 428 _c
385 466 348 485 301 485 _c
253 485 215 466 188 428 _c
161 390 148 339 148 273 _c
_cl}_e}_d
/e{{615 0 55 -13 562 560 _sc
562 296 _m
562 252 _l
149 252 _l
153 190 171 142 205 110 _c
238 78 284 62 344 62 _c
378 62 412 66 444 74 _c
476 82 509 95 541 113 _c
541 28 _l
509 14 476 3 442 -3 _c
408 -9 373 -13 339 -13 _c
251 -13 182 12 131 62 _c
80 112 55 181 55 268 _c
55 357 79 428 127 481 _c
175 533 241 560 323 560 _c
397 560 455 536 498 489 _c
}_e{540 441 562 377 562 296 _c
472 322 _m
471 371 457 410 431 440 _c
404 469 368 484 324 484 _c
274 484 234 469 204 441 _c
174 413 156 373 152 322 _c
472 322 _l
_cl}_e}_d
/f{352 0 23 0 371 760 _sc
371 760 _m
371 685 _l
285 685 _l
253 685 230 678 218 665 _c
205 652 199 629 199 595 _c
199 547 _l
347 547 _l
347 477 _l
199 477 _l
199 0 _l
109 0 _l
109 477 _l
23 477 _l
23 547 _l
109 547 _l
109 585 _l
109 645 123 690 151 718 _c
179 746 224 760 286 760 _c
371 760 _l
_cl}_d
/g{{635 0 55 -207 544 560 _sc
454 280 _m
454 344 440 395 414 431 _c
387 467 349 485 301 485 _c
253 485 215 467 188 431 _c
161 395 148 344 148 280 _c
148 215 161 165 188 129 _c
215 93 253 75 301 75 _c
349 75 387 93 414 129 _c
440 165 454 215 454 280 _c
544 68 _m
544 -24 523 -93 482 -139 _c
440 -184 377 -207 292 -207 _c
260 -207 231 -204 203 -200 _c
175 -195 147 -188 121 -178 _c
}_e{121 -91 _l
147 -105 173 -115 199 -122 _c
225 -129 251 -133 278 -133 _c
336 -133 380 -117 410 -87 _c
439 -56 454 -10 454 52 _c
454 96 _l
435 64 411 40 382 24 _c
353 8 319 0 279 0 _c
211 0 157 25 116 76 _c
75 127 55 195 55 280 _c
55 364 75 432 116 483 _c
157 534 211 560 279 560 _c
319 560 353 552 382 536 _c
411 520 435 496 454 464 _c
454 547 _l
544 547 _l
}_e{544 68 _l
_cl}_e}_d
/h{634 0 91 0 549 760 _sc
549 330 _m
549 0 _l
459 0 _l
459 327 _l
459 379 448 417 428 443 _c
408 469 378 482 338 482 _c
289 482 251 466 223 435 _c
195 404 181 362 181 309 _c
181 0 _l
91 0 _l
91 760 _l
181 760 _l
181 462 _l
202 494 227 519 257 535 _c
286 551 320 560 358 560 _c
420 560 468 540 500 501 _c
532 462 549 405 549 330 _c
_cl}_d
/i{278 0 94 0 184 760 _sc
94 547 _m
184 547 _l
184 0 _l
94 0 _l
94 547 _l
94 760 _m
184 760 _l
184 646 _l
94 646 _l
94 760 _l
_cl}_d
/l{278 0 94 0 184 760 _sc
94 760 _m
184 760 _l
184 0 _l
94 0 _l
94 760 _l
_cl}_d
/m{{974 0 91 0 889 560 _sc
520 442 _m
542 482 569 511 600 531 _c
631 550 668 560 711 560 _c
767 560 811 540 842 500 _c
873 460 889 403 889 330 _c
889 0 _l
799 0 _l
799 327 _l
799 379 789 418 771 444 _c
752 469 724 482 686 482 _c
639 482 602 466 575 435 _c
548 404 535 362 535 309 _c
535 0 _l
445 0 _l
445 327 _l
445 379 435 418 417 444 _c
398 469 369 482 331 482 _c
}_e{285 482 248 466 221 435 _c
194 404 181 362 181 309 _c
181 0 _l
91 0 _l
91 547 _l
181 547 _l
181 462 _l
201 495 226 520 255 536 _c
283 552 317 560 357 560 _c
397 560 430 550 458 530 _c
486 510 506 480 520 442 _c
_cl}_e}_d
/n{634 0 91 0 549 560 _sc
549 330 _m
549 0 _l
459 0 _l
459 327 _l
459 379 448 417 428 443 _c
408 469 378 482 338 482 _c
289 482 251 466 223 435 _c
195 404 181 362 181 309 _c
181 0 _l
91 0 _l
91 547 _l
181 547 _l
181 462 _l
202 494 227 519 257 535 _c
286 551 320 560 358 560 _c
420 560 468 540 500 501 _c
532 462 549 405 549 330 _c
_cl}_d
/o{612 0 55 -13 557 560 _sc
306 484 _m
258 484 220 465 192 427 _c
164 389 150 338 150 273 _c
150 207 163 156 191 118 _c
219 80 257 62 306 62 _c
354 62 392 80 420 118 _c
448 156 462 207 462 273 _c
462 337 448 389 420 427 _c
392 465 354 484 306 484 _c
306 560 _m
384 560 445 534 490 484 _c
534 433 557 363 557 273 _c
557 183 534 113 490 63 _c
445 12 384 -13 306 -13 _c
227 -13 165 12 121 63 _c
77 113 55 183 55 273 _c
55 363 77 433 121 484 _c
165 534 227 560 306 560 _c
_cl}_d
/q{{635 0 55 -207 544 560 _sc
148 273 _m
148 207 161 155 188 117 _c
215 79 253 61 301 61 _c
348 61 385 79 413 117 _c
440 155 454 207 454 273 _c
454 339 440 390 413 428 _c
385 466 348 485 301 485 _c
253 485 215 466 188 428 _c
161 390 148 339 148 273 _c
454 82 _m
435 49 411 25 382 10 _c
353 -5 319 -13 279 -13 _c
213 -13 159 13 117 65 _c
75 117 55 187 55 273 _c
}_e{55 359 75 428 117 481 _c
159 533 213 560 279 560 _c
319 560 353 552 382 536 _c
411 520 435 496 454 464 _c
454 547 _l
544 547 _l
544 -207 _l
454 -207 _l
454 82 _l
_cl}_e}_d
/r{411 0 91 0 411 560 _sc
411 463 _m
401 469 390 473 378 476 _c
366 478 353 480 339 480 _c
288 480 249 463 222 430 _c
194 397 181 350 181 288 _c
181 0 _l
91 0 _l
91 547 _l
181 547 _l
181 462 _l
199 495 224 520 254 536 _c
284 552 321 560 365 560 _c
371 560 378 559 386 559 _c
393 558 401 557 411 555 _c
411 463 _l
_cl}_d
/s{{521 0 54 -13 472 560 _sc
443 531 _m
443 446 _l
417 458 391 468 364 475 _c
336 481 308 485 279 485 _c
234 485 200 478 178 464 _c
156 450 145 430 145 403 _c
145 382 153 366 169 354 _c
185 342 217 330 265 320 _c
296 313 _l
360 299 405 279 432 255 _c
458 230 472 195 472 151 _c
472 100 452 60 412 31 _c
372 1 316 -13 246 -13 _c
216 -13 186 -10 154 -5 _c
}_e{122 0 89 8 54 20 _c
54 113 _l
87 95 120 82 152 74 _c
184 65 216 61 248 61 _c
290 61 323 68 346 82 _c
368 96 380 117 380 144 _c
380 168 371 187 355 200 _c
339 213 303 226 247 238 _c
216 245 _l
160 257 119 275 95 299 _c
70 323 58 356 58 399 _c
58 450 76 490 112 518 _c
148 546 200 560 268 560 _c
301 560 332 557 362 552 _c
391 547 418 540 443 531 _c
}_e{_cl}_e}_d
/t{392 0 27 0 368 702 _sc
183 702 _m
183 547 _l
368 547 _l
368 477 _l
183 477 _l
183 180 _l
183 135 189 106 201 94 _c
213 81 238 75 276 75 _c
368 75 _l
368 0 _l
276 0 _l
206 0 158 13 132 39 _c
106 65 93 112 93 180 _c
93 477 _l
27 477 _l
27 547 _l
93 547 _l
93 702 _l
183 702 _l
_cl}_d
/u{634 0 85 -13 543 560 _sc
85 216 _m
85 547 _l
175 547 _l
175 219 _l
175 167 185 129 205 103 _c
225 77 255 64 296 64 _c
344 64 383 79 411 110 _c
439 141 453 183 453 237 _c
453 547 _l
543 547 _l
543 0 _l
453 0 _l
453 84 _l
431 50 405 26 377 10 _c
348 -5 315 -13 277 -13 _c
214 -13 166 6 134 45 _c
101 83 85 140 85 216 _c
311 560 _m
311 560 _l
_cl}_d
/minus{838 0 106 272 732 355 _sc
106 355 _m
732 355 _l
732 272 _l
106 272 _l
106 355 _l
_cl}_d
end readonly def

/BuildGlyph
 {exch begin
 CharStrings exch
 2 copy known not{pop /.notdef}if
 true 3 1 roll get exec
 end}_d

/BuildChar {
 1 index /Encoding get exch get
 1 index /BuildGlyph get exec
}_d

FontName currentdict end definefont pop
end
%%EndProlog
mpldict begin
51.12 223.2 translate
509.76 345.6 0 0 clipbox
gsave
0 0 m
509.76 0 l
509.76 345.6 l
0 345.6 l
cl
1.000 setgray
fill
grestore
gsave
63.72 38.016 m
458.784 38.016 l
458.784 304.128 l
63.72 304.128 l
cl
1.000 setgray
fill
grestore
0.800 setlinewidth
1 setlinejoin
0 setlinecap
[] 0 setdash
0.000 setgray
gsave
/o {
gsave
newpath
translate
0.8 setlinewidth
1 setlinejoin
0 setlinecap
0 0 m
0 -3.5 l

gsave
0.000 setgray
fill
grestore
stroke
grestore
} bind def
69.1771 38.016 o
grestore
/DejaVuSans findfont
10.000 scalefont
setfont
gsave
65.997426 23.422250 translate
0.000000 rotate
0.000000 0 m /zero glyphshow
grestore
gsave
/o {
gsave
newpath
translate
0.8 setlinewidth
1 setlinejoin
0 setlinecap
0 0 m
0 -3.5 l

gsave
0.000 setgray
fill
grestore
stroke
grestore
} bind def
146.771 38.016 o
grestore
gsave
140.411964 23.422250 translate
0.000000 rotate
0.000000 0 m /two glyphshow
6.362305 0 m /zero glyphshow
grestore
gsave
/o {
gsave
newpath
translate
0.8 setlinewidth
1 setlinejoin
0 setlinecap
0 0 m
0 -3.5 l

gsave
0.000 setgray
fill
grestore
stroke
grestore
} bind def
224.366 38.016 o
grestore
gsave
218.006190 23.422250 translate
0.000000 rotate
0.000000 0 m /four glyphshow
6.362305 0 m /zero glyphshow
grestore
gsave
/o {
gsave
newpath
translate
0.8 setlinewidth
1 setlinejoin
0 setlinecap
0 0 m
0 -3.5 l

gsave
0.000 setgray
fill
grestore
stroke
grestore
} bind def
301.96 38.016 o
grestore
gsave
295.600416 23.422250 translate
0.000000 rotate
0.000000 0 m /six glyphshow
6.362305 0 m /zero glyphshow
grestore
gsave
/o {
gsave
newpath
translate
0.8 setlinewidth
1 setlinejoin
0 setlinecap
0 0 m
0 -3.5 l

gsave
0.000 setgray
fill
grestore
stroke
grestore
} bind def
379.554 38.016 o
grestore
gsave
373.194642 23.422250 translate
0.000000 rotate
0.000000 0 m /eight glyphshow
6.362305 0 m /zero glyphshow
grestore
gsave
/o {
gsave
newpath
translate
0.8 setlinewidth
1 setlinejoin
0 setlinecap
0 0 m
0 -3.5 l

gsave
0.000 setgray
fill
grestore
stroke
grestore
} bind def
457.148 38.016 o
grestore
gsave
447.609180 23.422250 translate
0.000000 rotate
0.000000 0 m /one glyphshow
6.362305 0 m /zero glyphshow
12.724609 0 m /zero glyphshow
grestore
gsave
218.634812 9.750375 translate
0.000000 rotate
0.000000 0 m /N glyphshow
7.480469 0 m /u glyphshow
13.818359 0 m /m glyphshow
23.559570 0 m /b glyphshow
29.907227 0 m /e glyphshow
36.059570 0 m /r glyphshow
40.170898 0 m /space glyphshow
43.349609 0 m /o glyphshow
49.467773 0 m /f glyphshow
52.988281 0 m /space glyphshow
56.166992 0 m /t glyphshow
60.087891 0 m /e glyphshow
66.240234 0 m /r glyphshow
70.226562 0 m /m glyphshow
79.967773 0 m /s glyphshow
grestore
gsave
/o {
gsave
newpath
translate
0.8 setlinewidth
1 setlinejoin
0 setlinecap
-0 0 m
-3.5 0 l

gsave
0.000 setgray
fill
grestore
stroke
grestore
} bind def
63.72 56.4809 o
grestore
gsave
32.438750 52.684030 translate
0.000000 rotate
0.000000 0 m /minus glyphshow
8.378906 0 m /zero glyphshow
14.741211 0 m /period glyphshow
17.919922 0 m /two glyphshow
grestore
gsave
/o {
gsave
newpath
translate
0.8 setlinewidth
1 setlinejoin
0 setlinecap
-0 0 m
-3.5 0 l

gsave
0.000 setgray
fill
grestore
stroke
grestore
} bind def
63.72 90.0718 o
grestore
gsave
40.813750 86.274927 translate
0.000000 rotate
0.000000 0 m /zero glyphshow
6.362305 0 m /period glyphshow
9.541016 0 m /zero glyphshow
grestore
gsave
/o {
gsave
newpath
translate
0.8 setlinewidth
1 setlinejoin
0 setlinecap
-0 0 m
-3.5 0 l

gsave
0.000 setgray
fill
grestore
stroke
grestore
} bind def
63.72 123.663 o
grestore
gsave
40.813750 119.865824 translate
0.000000 rotate
0.000000 0 m /zero glyphshow
6.362305 0 m /period glyphshow
9.541016 0 m /two glyphshow
grestore
gsave
/o {
gsave
newpath
translate
0.8 setlinewidth
1 setlinejoin
0 setlinecap
-0 0 m
-3.5 0 l

gsave
0.000 setgray
fill
grestore
stroke
grestore
} bind def
63.72 157.254 o
grestore
gsave
40.813750 153.456721 translate
0.000000 rotate
0.000000 0 m /zero glyphshow
6.362305 0 m /period glyphshow
9.541016 0 m /four glyphshow
grestore
gsave
/o {
gsave
newpath
translate
0.8 setlinewidth
1 setlinejoin
0 setlinecap
-0 0 m
-3.5 0 l

gsave
0.000 setgray
fill
grestore
stroke
grestore
} bind def
63.72 190.844 o
grestore
gsave
40.813750 187.047618 translate
0.000000 rotate
0.000000 0 m /zero glyphshow
6.362305 0 m /period glyphshow
9.541016 0 m /six glyphshow
grestore
gsave
/o {
gsave
newpath
translate
0.8 setlinewidth
1 setlinejoin
0 setlinecap
-0 0 m
-3.5 0 l

gsave
0.000 setgray
fill
grestore
stroke
grestore
} bind def
63.72 224.435 o
grestore
gsave
40.813750 220.638515 translate
0.000000 rotate
0.000000 0 m /zero glyphshow
6.362305 0 m /period glyphshow
9.541016 0 m /eight glyphshow
grestore
gsave
/o {
gsave
newpath
translate
0.8 setlinewidth
1 setlinejoin
0 setlinecap
-0 0 m
-3.5 0 l

gsave
0.000 setgray
fill
grestore
stroke
grestore
} bind def
63.72 258.026 o
grestore
gsave
40.813750 254.229412 translate
0.000000 rotate
0.000000 0 m /one glyphshow
6.362305 0 m /period glyphshow
9.541016 0 m /zero glyphshow
grestore
gsave
/o {
gsave
newpath
translate
0.8 setlinewidth
1 setlinejoin
0 setlinecap
-0 0 m
-3.5 0 l

gsave
0.000 setgray
fill
grestore
stroke
grestore
} bind def
63.72 291.617 o
grestore
gsave
40.813750 287.820309 translate
0.000000 rotate
0.000000 0 m /one glyphshow
6.362305 0 m /period glyphshow
9.541016 0 m /two glyphshow
grestore
gsave
26.360625 98.001687 translate
90.000000 rotate
0.000000 0 m /S glyphshow
6.347656 0 m /q glyphshow
12.695312 0 m /u glyphshow
19.033203 0 m /a glyphshow
25.161133 0 m /r glyphshow
29.022461 0 m /e glyphshow
35.174805 0 m /d glyphshow
41.522461 0 m /space glyphshow
44.701172 0 m /n glyphshow
51.039062 0 m /o glyphshow
57.157227 0 m /r glyphshow
61.143555 0 m /m glyphshow
70.884766 0 m /space glyphshow
74.063477 0 m /o glyphshow
80.181641 0 m /f glyphshow
83.702148 0 m /space glyphshow
86.880859 0 m /t glyphshow
90.801758 0 m /h glyphshow
97.139648 0 m /e glyphshow
103.291992 0 m /space glyphshow
106.470703 0 m /r glyphshow
110.332031 0 m /e glyphshow
116.484375 0 m /s glyphshow
121.694336 0 m /i glyphshow
124.472656 0 m /d glyphshow
130.820312 0 m /u glyphshow
137.158203 0 m /a glyphshow
143.286133 0 m /l glyphshow
grestore
1.500 setlinewidth
2 setlinecap
0.000 0.000 1.000 setrgbcolor
gsave
395.1 266.1 63.72 38.02 clipbox
69.177113 258.026287 m
73.056824 247.236023 l
76.936536 240.715686 l
80.816247 234.001949 l
84.695958 229.834773 l
88.575669 225.705141 l
92.455381 222.549209 l
96.335092 219.23649 l
100.214803 216.305248 l
104.094515 213.172344 l
107.974226 210.403608 l
111.853937 207.6058 l
115.733649 204.732363 l
119.61336 201.83439 l
123.493071 198.925865 l
127.372782 196.30116 l
131.252494 193.737462 l
135.132205 191.11077 l
139.011916 188.27506 l
142.891628 185.251745 l
146.771339 182.088961 l
150.65105 178.63124 l
154.530762 175.375754 l
158.410473 171.79933 l
162.290184 168.275322 l
166.169895 164.282691 l
170.049607 159.898708 l
173.929318 157.633805 l
177.809029 155.719485 l
181.688741 153.634285 l
185.568452 151.375749 l
189.448163 149.016205 l
193.327874 146.525836 l
197.207586 144.112181 l
201.087297 141.737807 l
204.967008 139.02128 l
208.84672 136.065515 l
212.726431 133.465558 l
216.606142 130.359544 l
220.485854 126.808018 l
224.365565 123.396868 l
228.245276 119.016198 l
232.124987 113.36365 l
236.004699 108.604142 l
239.88441 102.912684 l
243.764121 100.985738 l
247.643833 99.80191 l
251.523544 99.158017 l
255.403255 98.694119 l
259.282966 98.164138 l
263.162678 97.727697 l
267.042389 97.248331 l
270.9221 96.685066 l
274.801812 96.221607 l
278.681523 95.817942 l
282.561234 95.38734 l
286.440946 94.864825 l
290.320657 94.354815 l
294.200368 93.844048 l
298.080079 93.417288 l
301.959791 93.249471 l
305.839502 93.072978 l
309.719213 92.919073 l
313.598925 92.79521 l
317.478636 92.695639 l
321.358347 92.587279 l
325.238058 92.46906 l
329.11777 92.33536 l
332.997481 92.218284 l
336.877192 92.098865 l
340.756904 91.965662 l
344.636615 91.818428 l
348.516326 91.718336 l
352.396038 91.625642 l
356.275749 91.513457 l
360.15546 91.39561 l
364.035171 91.288471 l
367.914883 91.20963 l
371.794594 91.15287 l
375.674305 91.088275 l
379.554017 91.016128 l
383.433728 90.934543 l
387.313439 90.851694 l
391.193151 90.795728 l
395.072862 90.730995 l
398.952573 90.661706 l
402.832284 90.586022 l
406.711996 90.522955 l
410.591707 90.464228 l
414.471418 90.420751 l
418.35113 90.374001 l
422.230841 90.323338 l
426.110552 90.308672 l
429.990263 90.071802 l
433.869975 90.071802 l
437.749686 90.071802 l
441.629397 90.071802 l
445.509109 90.071802 l
449.38882 90.071802 l
453.268531 90.071802 l
stroke
grestore
0.000 0.500 0.000 setrgbcolor
gsave
395.1 266.1 63.72 38.02 clipbox
69.177113 258.026287 m
73.056824 209.506979 l
76.936536 199.793003 l
80.816247 194.416989 l
84.695958 190.345944 l
88.575669 186.474146 l
92.455381 182.956889 l
96.335092 180.358796 l
100.214803 178.386103 l
104.094515 174.378138 l
107.974226 169.09075 l
111.853937 165.231898 l
115.733649 163.233576 l
119.61336 160.014241 l
123.493071 157.822122 l
127.372782 152.610399 l
131.252494 149.587146 l
135.132205 147.477932 l
139.011916 144.71784 l
142.891628 142.384547 l
146.771339 140.573858 l
150.65105 139.185459 l
154.530762 135.381559 l
158.410473 132.184263 l
162.290184 130.925763 l
166.169895 127.962087 l
170.049607 127.012723 l
173.929318 126.291565 l
177.809029 123.743121 l
181.688741 121.413426 l
185.568452 120.094041 l
189.448163 118.460954 l
193.327874 117.315248 l
197.207586 116.427655 l
201.087297 115.716462 l
204.967008 115.009535 l
208.84672 113.165872 l
212.726431 112.328279 l
216.606142 111.115144 l
220.485854 110.297491 l
224.365565 109.748263 l
228.245276 109.286803 l
232.124987 108.645556 l
236.004699 107.821871 l
239.88441 107.340965 l
243.764121 106.660778 l
247.643833 105.994734 l
251.523544 105.377985 l
255.403255 104.761293 l
259.282966 104.315562 l
263.162678 104.080273 l
267.042389 103.692501 l
270.9221 103.26983 l
274.801812 102.870455 l
278.681523 102.313837 l
282.561234 101.9832 l
286.440946 101.649306 l
290.320657 101.318601 l
294.200368 100.966278 l
298.080079 100.461898 l
301.959791 100.185032 l
305.839502 99.954577 l
309.719213 99.543701 l
313.598925 99.316437 l
317.478636 99.107955 l
321.358347 98.773182 l
325.238058 98.590076 l
329.11777 98.326755 l
332.997481 98.109389 l
336.877192 97.881713 l
340.756904 97.702838 l
344.636615 97.43636 l
348.516326 97.267552 l
352.396038 97.074132 l
356.275749 96.907622 l
360.15546 96.71733 l
364.035171 96.500746 l
367.914883 96.378339 l
371.794594 96.219553 l
375.674305 96.098631 l
379.554017 95.923782 l
383.433728 95.767806 l
387.313439 95.641286 l
391.193151 95.472538 l
395.072862 95.330024 l
398.952573 95.170704 l
402.832284 95.049055 l
406.711996 94.913319 l
410.591707 94.799001 l
414.471418 94.671389 l
418.35113 94.565846 l
422.230841 94.452005 l
426.110552 94.337863 l
429.990263 94.225816 l
433.869975 94.116781 l
437.749686 94.043054 l
441.629397 93.961643 l
445.509109 93.887926 l
449.38882 93.798402 l
453.268531 93.723749 l
stroke
grestore
0.000 setgray
gsave
395.1 266.1 63.72 38.02 clipbox
69.177113 258.026287 m
73.056824 209.536739 l
76.936536 200.188571 l
80.816247 195.266594 l
84.695958 192.330998 l
88.575669 189.019975 l
92.455381 184.770579 l
96.335092 182.096645 l
100.214803 179.369388 l
104.094515 176.56044 l
107.974226 172.997319 l
111.853937 170.762614 l
115.733649 167.931098 l
119.61336 165.62488 l
123.493071 164.320807 l
127.372782 162.17842 l
131.252494 159.562618 l
135.132205 157.850505 l
139.011916 155.282449 l
142.891628 153.606633 l
146.771339 152.50528 l
150.65105 150.968358 l
154.530762 148.835084 l
158.410473 147.299218 l
162.290184 145.841197 l
166.169895 144.839004 l
170.049607 142.874647 l
173.929318 141.724347 l
177.809029 140.624497 l
181.688741 139.413772 l
185.568452 137.897253 l
189.448163 136.837221 l
193.327874 135.144634 l
197.207586 133.919282 l
201.087297 133.330613 l
204.967008 132.175291 l
208.84672 131.395853 l
212.726431 130.302123 l
216.606142 129.573658 l
220.485854 128.784668 l
224.365565 127.797326 l
228.245276 126.947375 l
232.124987 126.222942 l
236.004699 125.572253 l
239.88441 125.025155 l
243.764121 124.259138 l
247.643833 123.720647 l
251.523544 123.274459 l
255.403255 122.584166 l
259.282966 122.058981 l
263.162678 121.615855 l
267.042389 121.162465 l
270.9221 120.589891 l
274.801812 120.201697 l
278.681523 119.753347 l
282.561234 119.255698 l
286.440946 118.924302 l
290.320657 118.479097 l
294.200368 118.088591 l
298.080079 117.69524 l
301.959791 117.263765 l
305.839502 116.858366 l
309.719213 116.459009 l
313.598925 116.099969 l
317.478636 115.758346 l
321.358347 115.328967 l
325.238058 114.990454 l
329.11777 114.649933 l
332.997481 114.390505 l
336.877192 114.024405 l
340.756904 113.645521 l
344.636615 113.267926 l
348.516326 113.03919 l
352.396038 112.758211 l
356.275749 112.475893 l
360.15546 112.175719 l
364.035171 111.891727 l
367.914883 111.664874 l
371.794594 111.406295 l
375.674305 111.147638 l
379.554017 110.759524 l
383.433728 110.414616 l
387.313439 110.163836 l
391.193151 109.832086 l
395.072862 109.61151 l
398.952573 109.311721 l
402.832284 109.079329 l
406.711996 108.817742 l
410.591707 108.546782 l
414.471418 108.237932 l
418.35113 108.001775 l
422.230841 107.764843 l
426.110552 107.592455 l
429.990263 107.38972 l
433.869975 107.130612 l
437.749686 106.915901 l
441.629397 106.684105 l
445.509109 106.461187 l
449.38882 106.211913 l
453.268531 105.992954 l
stroke
grestore
1.000 0.000 0.000 setrgbcolor
gsave
395.1 266.1 63.72 38.02 clipbox
69.177113 258.026287 m
73.056824 209.506979 l
76.936536 205.967218 l
80.816247 195.928909 l
84.695958 190.345944 l
88.575669 186.474146 l
92.455381 182.956889 l
96.335092 180.358796 l
100.214803 178.386006 l
104.094515 174.378138 l
107.974226 172.601781 l
111.853937 168.91692 l
115.733649 165.939022 l
119.61336 160.017922 l
123.493071 154.983403 l
127.372782 152.07624 l
131.252494 150.054473 l
135.132205 148.076231 l
139.011916 145.413244 l
142.891628 143.110876 l
146.771339 141.326355 l
150.65105 137.69269 l
154.530762 134.328204 l
158.410473 131.0488 l
162.290184 130.205518 l
166.169895 128.901598 l
170.049607 128.07242 l
173.929318 126.186348 l
177.809029 124.028783 l
181.688741 122.810025 l
185.568452 119.962452 l
189.448163 119.074609 l
193.327874 117.381289 l
197.207586 115.711104 l
201.087297 114.957146 l
204.967008 113.846339 l
208.84672 113.005969 l
212.726431 112.25122 l
216.606142 111.555286 l
220.485854 111.034853 l
224.365565 110.398909 l
228.245276 109.28229 l
232.124987 108.816825 l
236.004699 108.261503 l
239.88441 107.62922 l
243.764121 106.796399 l
247.643833 106.371145 l
251.523544 106.209252 l
255.403255 105.241116 l
259.282966 104.754101 l
263.162678 104.057147 l
267.042389 103.538638 l
270.9221 103.132358 l
274.801812 102.638071 l
278.681523 102.326153 l
282.561234 102.060748 l
286.440946 101.626278 l
290.320657 101.317128 l
294.200368 101.128527 l
298.080079 100.716076 l
301.959791 100.150207 l
305.839502 99.768898 l
309.719213 99.34986 l
313.598925 99.085701 l
317.478636 98.750348 l
321.358347 98.596697 l
325.238058 98.305343 l
329.11777 98.048901 l
332.997481 97.873717 l
336.877192 97.728102 l
340.756904 97.517132 l
344.636615 97.285595 l
348.516326 97.116467 l
352.396038 96.883425 l
356.275749 96.719036 l
360.15546 96.582101 l
364.035171 96.411323 l
367.914883 96.291216 l
371.794594 96.12595 l
375.674305 95.94724 l
379.554017 95.787848 l
383.433728 95.624332 l
387.313439 95.487066 l
391.193151 95.373346 l
395.072862 95.249476 l
398.952573 95.109616 l
402.832284 94.972335 l
406.711996 94.853235 l
410.591707 94.719651 l
414.471418 94.616647 l
418.35113 94.521975 l
422.230841 94.40054 l
426.110552 94.283007 l
429.990263 94.16493 l
433.869975 94.064796 l
437.749686 93.96148 l
441.629397 93.87793 l
445.509109 93.789084 l
449.38882 93.702424 l
453.268531 93.62757 l
stroke
grestore
0 setlinecap
[5.55 2.4] 0 setdash
0.000 0.000 1.000 setrgbcolor
gsave
395.1 266.1 63.72 38.02 clipbox
69.177113 307.687615 m
73.056824 296.897351 l
76.936536 290.377014 l
80.816247 283.663278 l
84.695958 279.496101 l
88.575669 275.366471 l
92.455381 272.210539 l
96.335092 268.897818 l
100.214803 265.966576 l
104.094515 262.833674 l
107.974226 260.064937 l
111.853937 257.26713 l
115.733649 254.393691 l
119.61336 251.495718 l
123.493071 248.587195 l
127.372782 245.96249 l
131.252494 243.39879 l
135.132205 240.772098 l
139.011916 237.936388 l
142.891628 234.913073 l
146.771339 231.75029 l
150.65105 228.292568 l
154.530762 225.037082 l
158.410473 221.460658 l
162.290184 217.93665 l
166.169895 213.944019 l
170.049607 209.560038 l
173.929318 207.295133 l
177.809029 205.380815 l
181.688741 203.295613 l
185.568452 201.037078 l
189.448163 198.677535 l
193.327874 196.187164 l
197.207586 193.773509 l
201.087297 191.399135 l
204.967008 188.682608 l
208.84672 185.726843 l
212.726431 183.126887 l
216.606142 180.020872 l
220.485854 176.469348 l
224.365565 173.058196 l
228.245276 168.677526 l
232.124987 163.024978 l
236.004699 158.26547 l
239.88441 152.574012 l
243.764121 150.647066 l
247.643833 149.463238 l
251.523544 148.819347 l
255.403255 148.355447 l
259.282966 147.825466 l
263.162678 147.389025 l
267.042389 146.909661 l
270.9221 146.346395 l
274.801812 145.882935 l
278.681523 145.47927 l
282.561234 145.048668 l
286.440946 144.526153 l
290.320657 144.016143 l
294.200368 143.505376 l
298.080079 143.078616 l
301.959791 142.910799 l
305.839502 142.734307 l
309.719213 142.580401 l
313.598925 142.456538 l
317.478636 142.356967 l
321.358347 142.248608 l
325.238058 142.13039 l
329.11777 141.99669 l
332.997481 141.879614 l
336.877192 141.760195 l
340.756904 141.626992 l
344.636615 141.479756 l
348.516326 141.379664 l
352.396038 141.28697 l
356.275749 141.174786 l
360.15546 141.056939 l
364.035171 140.949801 l
367.914883 140.870958 l
371.794594 140.8142 l
375.674305 140.749603 l
379.554017 140.677458 l
383.433728 140.595871 l
387.313439 140.513022 l
391.193151 140.457056 l
395.072862 140.392323 l
398.952573 140.323035 l
402.832284 140.24735 l
406.711996 140.184285 l
410.591707 140.125556 l
414.471418 140.082079 l
418.35113 140.035329 l
422.230841 139.984667 l
426.110552 139.970002 l
429.990263 139.73313 l
433.869975 139.73313 l
437.749686 139.73313 l
441.629397 139.73313 l
445.509109 139.73313 l
449.38882 139.73313 l
453.268531 139.73313 l
stroke
grestore
0.000 0.500 0.000 setrgbcolor
gsave
395.1 266.1 63.72 38.02 clipbox
69.177113 290.544627 m
73.056824 242.025319 l
76.936536 232.311342 l
80.816247 226.935329 l
84.695958 222.864284 l
88.575669 218.992486 l
92.455381 215.475229 l
96.335092 212.877136 l
100.214803 210.904443 l
104.094515 206.896478 l
107.974226 201.609089 l
111.853937 197.750238 l
115.733649 195.751915 l
119.61336 192.53258 l
123.493071 190.340462 l
127.372782 185.128739 l
131.252494 182.105486 l
135.132205 179.996271 l
139.011916 177.236179 l
142.891628 174.902887 l
146.771339 173.092198 l
150.65105 171.703799 l
154.530762 167.899899 l
158.410473 164.702603 l
162.290184 163.444105 l
166.169895 160.480427 l
170.049607 159.531063 l
173.929318 158.809905 l
177.809029 156.261461 l
181.688741 153.931766 l
185.568452 152.612381 l
189.448163 150.979296 l
193.327874 149.833587 l
197.207586 148.945995 l
201.087297 148.234802 l
204.967008 147.527875 l
208.84672 145.684211 l
212.726431 144.846619 l
216.606142 143.633484 l
220.485854 142.815831 l
224.365565 142.266603 l
228.245276 141.805143 l
232.124987 141.163896 l
236.004699 140.34021 l
239.88441 139.859305 l
243.764121 139.179117 l
247.643833 138.513074 l
251.523544 137.896325 l
255.403255 137.279633 l
259.282966 136.833902 l
263.162678 136.598613 l
267.042389 136.210841 l
270.9221 135.78817 l
274.801812 135.388796 l
278.681523 134.832177 l
282.561234 134.50154 l
286.440946 134.167646 l
290.320657 133.83694 l
294.200368 133.484617 l
298.080079 132.980238 l
301.959791 132.703374 l
305.839502 132.472917 l
309.719213 132.062041 l
313.598925 131.834777 l
317.478636 131.626295 l
321.358347 131.291521 l
325.238058 131.108416 l
329.11777 130.845095 l
332.997481 130.627728 l
336.877192 130.400054 l
340.756904 130.221178 l
344.636615 129.954699 l
348.516326 129.785892 l
352.396038 129.592472 l
356.275749 129.425962 l
360.15546 129.235671 l
364.035171 129.019085 l
367.914883 128.89668 l
371.794594 128.737893 l
375.674305 128.61697 l
379.554017 128.442121 l
383.433728 128.286145 l
387.313439 128.159625 l
391.193151 127.99088 l
395.072862 127.848364 l
398.952573 127.689044 l
402.832284 127.567394 l
406.711996 127.431659 l
410.591707 127.31734 l
414.471418 127.189728 l
418.35113 127.084186 l
422.230841 126.970345 l
426.110552 126.856203 l
429.990263 126.744155 l
433.869975 126.635121 l
437.749686 126.561396 l
441.629397 126.479983 l
445.509109 126.406266 l
449.38882 126.316741 l
453.268531 126.242089 l
stroke
grestore
0.000 setgray
gsave
395.1 266.1 63.72 38.02 clipbox
69.177113 286.27817 m
73.056824 237.788622 l
76.936536 228.440453 l
80.816247 223.518476 l
84.695958 220.582881 l
88.575669 217.271858 l
92.455381 213.022462 l
96.335092 210.348527 l
100.214803 207.62127 l
104.094515 204.812322 l
107.974226 201.249202 l
111.853937 199.014497 l
115.733649 196.18298 l
119.61336 193.876762 l
123.493071 192.57269 l
127.372782 190.430303 l
131.252494 187.8145 l
135.132205 186.102388 l
139.011916 183.534332 l
142.891628 181.858515 l
146.771339 180.757162 l
150.65105 179.220241 l
154.530762 177.086965 l
158.410473 175.5511 l
162.290184 174.093079 l
166.169895 173.090886 l
170.049607 171.126529 l
173.929318 169.976229 l
177.809029 168.876379 l
181.688741 167.665654 l
185.568452 166.149136 l
189.448163 165.089103 l
193.327874 163.396515 l
197.207586 162.171164 l
201.087297 161.582496 l
204.967008 160.427174 l
208.84672 159.647736 l
212.726431 158.554006 l
216.606142 157.82554 l
220.485854 157.036551 l
224.365565 156.049208 l
228.245276 155.199258 l
232.124987 154.474825 l
236.004699 153.824135 l
239.88441 153.277037 l
243.764121 152.511019 l
247.643833 151.97253 l
251.523544 151.52634 l
255.403255 150.836049 l
259.282966 150.310864 l
263.162678 149.867737 l
267.042389 149.414348 l
270.9221 148.841774 l
274.801812 148.453577 l
278.681523 148.00523 l
282.561234 147.507581 l
286.440946 147.176185 l
290.320657 146.730978 l
294.200368 146.340473 l
298.080079 145.947122 l
301.959791 145.515645 l
305.839502 145.110249 l
309.719213 144.710892 l
313.598925 144.351852 l
317.478636 144.010229 l
321.358347 143.58085 l
325.238058 143.242336 l
329.11777 142.901815 l
332.997481 142.642386 l
336.877192 142.276287 l
340.756904 141.897404 l
344.636615 141.519808 l
348.516326 141.291071 l
352.396038 141.010093 l
356.275749 140.727774 l
360.15546 140.427602 l
364.035171 140.143609 l
367.914883 139.916757 l
371.794594 139.658177 l
375.674305 139.399521 l
379.554017 139.011406 l
383.433728 138.666498 l
387.313439 138.415717 l
391.193151 138.083968 l
395.072862 137.863392 l
398.952573 137.563604 l
402.832284 137.331212 l
406.711996 137.069624 l
410.591707 136.798665 l
414.471418 136.489815 l
418.35113 136.253658 l
422.230841 136.016726 l
426.110552 135.844337 l
429.990263 135.641603 l
433.869975 135.382495 l
437.749686 135.167781 l
441.629397 134.935988 l
445.509109 134.71307 l
449.38882 134.463795 l
453.268531 134.244836 l
stroke
grestore
1.000 0.000 0.000 setrgbcolor
gsave
395.1 266.1 63.72 38.02 clipbox
69.177113 290.884093 m
73.056824 242.364787 l
76.936536 238.825024 l
80.816247 228.786717 l
84.695958 223.203752 l
88.575669 219.331954 l
92.455381 215.814695 l
96.335092 213.216604 l
100.214803 211.243814 l
104.094515 207.235944 l
107.974226 205.459587 l
111.853937 201.774726 l
115.733649 198.796829 l
119.61336 192.87573 l
123.493071 187.841209 l
127.372782 184.934046 l
131.252494 182.912279 l
135.132205 180.934038 l
139.011916 178.271049 l
142.891628 175.968682 l
146.771339 174.184163 l
150.65105 170.550496 l
154.530762 167.18601 l
158.410473 163.906606 l
162.290184 163.063323 l
166.169895 161.759404 l
170.049607 160.930226 l
173.929318 159.044154 l
177.809029 156.886591 l
181.688741 155.667831 l
185.568452 152.820258 l
189.448163 151.932415 l
193.327874 150.239095 l
197.207586 148.56891 l
201.087297 147.814952 l
204.967008 146.704145 l
208.84672 145.863775 l
212.726431 145.109028 l
216.606142 144.413093 l
220.485854 143.892661 l
224.365565 143.256716 l
228.245276 142.140096 l
232.124987 141.674632 l
236.004699 141.119309 l
239.88441 140.487028 l
243.764121 139.654207 l
247.643833 139.228953 l
251.523544 139.067058 l
255.403255 138.098921 l
259.282966 137.611909 l
263.162678 136.914953 l
267.042389 136.396446 l
270.9221 135.990166 l
274.801812 135.495877 l
278.681523 135.183961 l
282.561234 134.918554 l
286.440946 134.484084 l
290.320657 134.174934 l
294.200368 133.986333 l
298.080079 133.573882 l
301.959791 133.008013 l
305.839502 132.626704 l
309.719213 132.207666 l
313.598925 131.943509 l
317.478636 131.608154 l
321.358347 131.454503 l
325.238058 131.16315 l
329.11777 130.906707 l
332.997481 130.731524 l
336.877192 130.585908 l
340.756904 130.374938 l
344.636615 130.143401 l
348.516326 129.974273 l
352.396038 129.741231 l
356.275749 129.576842 l
360.15546 129.439907 l
364.035171 129.269131 l
367.914883 129.149023 l
371.794594 128.983756 l
375.674305 128.805046 l
379.554017 128.645655 l
383.433728 128.482138 l
387.313439 128.344872 l
391.193151 128.231152 l
395.072862 128.107282 l
398.952573 127.967422 l
402.832284 127.830141 l
406.711996 127.711041 l
410.591707 127.577458 l
414.471418 127.474453 l
418.35113 127.379781 l
422.230841 127.258348 l
426.110552 127.140815 l
429.990263 127.022736 l
433.869975 126.922602 l
437.749686 126.819286 l
441.629397 126.735737 l
445.509109 126.646889 l
449.38882 126.56023 l
453.268531 126.485376 l
stroke
grestore
0.000 0.000 1.000 setrgbcolor
gsave
395.1 266.1 63.72 38.02 clipbox
69.177113 208.364959 m
73.056824 197.574695 l
76.936536 191.054358 l
80.816247 184.340621 l
84.695958 180.173445 l
88.575669 176.043813 l
92.455381 172.887882 l
96.335092 169.575162 l
100.214803 166.64392 l
104.094515 163.511016 l
107.974226 160.74228 l
111.853937 157.944472 l
115.733649 155.071035 l
119.61336 152.173062 l
123.493071 149.264537 l
127.372782 146.639832 l
131.252494 144.076134 l
135.132205 141.44944 l
139.011916 138.613731 l
142.891628 135.590415 l
146.771339 132.427633 l
150.65105 128.969912 l
154.530762 125.714426 l
158.410473 122.138 l
162.290184 118.613993 l
166.169895 114.621362 l
170.049607 110.23738 l
173.929318 107.972477 l
177.809029 106.058157 l
181.688741 103.972955 l
185.568452 101.714421 l
189.448163 99.354877 l
193.327874 96.864507 l
197.207586 94.450851 l
201.087297 92.076477 l
204.967008 89.359953 l
208.84672 86.404187 l
212.726431 83.80423 l
216.606142 80.698216 l
220.485854 77.14669 l
224.365565 73.73554 l
228.245276 69.35487 l
232.124987 63.70232 l
236.004699 58.942814 l
239.88441 53.251356 l
243.764121 51.32441 l
247.643833 50.14058 l
251.523544 49.496689 l
255.403255 49.032789 l
259.282966 48.50281 l
263.162678 48.066369 l
267.042389 47.587003 l
270.9221 47.023738 l
274.801812 46.560277 l
278.681523 46.156612 l
282.561234 45.726012 l
286.440946 45.203497 l
290.320657 44.693487 l
294.200368 44.182719 l
298.080079 43.755958 l
301.959791 43.588141 l
305.839502 43.41165 l
309.719213 43.257745 l
313.598925 43.13388 l
317.478636 43.03431 l
321.358347 42.925951 l
325.238058 42.807732 l
329.11777 42.674032 l
332.997481 42.556956 l
336.877192 42.437537 l
340.756904 42.304334 l
344.636615 42.157099 l
348.516326 42.057006 l
352.396038 41.964314 l
356.275749 41.852129 l
360.15546 41.734282 l
364.035171 41.627143 l
367.914883 41.548302 l
371.794594 41.491542 l
375.674305 41.426945 l
379.554017 41.3548 l
383.433728 41.273215 l
387.313439 41.190364 l
391.193151 41.1344 l
395.072862 41.069667 l
398.952573 41.000378 l
402.832284 40.924694 l
406.711996 40.861627 l
410.591707 40.802898 l
414.471418 40.759423 l
418.35113 40.712673 l
422.230841 40.66201 l
426.110552 40.647344 l
429.990263 40.410474 l
433.869975 40.410474 l
437.749686 40.410474 l
441.629397 40.410474 l
445.509109 40.410474 l
449.38882 40.410474 l
453.268531 40.410474 l
stroke
grestore
0.000 0.500 0.000 setrgbcolor
gsave
395.1 266.1 63.72 38.02 clipbox
69.177113 225.507948 m
73.056824 176.98864 l
76.936536 167.274663 l
80.816247 161.89865 l
84.695958 157.827604 l
88.575669 153.955807 l
92.455381 150.438549 l
96.335092 147.840456 l
100.214803 145.867764 l
104.094515 141.859799 l
107.974226 136.57241 l
111.853937 132.713558 l
115.733649 130.715236 l
119.61336 127.495901 l
123.493071 125.303783 l
127.372782 120.092059 l
131.252494 117.068806 l
135.132205 114.959592 l
139.011916 112.199498 l
142.891628 109.866208 l
146.771339 108.055517 l
150.65105 106.66712 l
154.530762 102.863219 l
158.410473 99.665924 l
162.290184 98.407424 l
166.169895 95.443748 l
170.049607 94.494383 l
173.929318 93.773225 l
177.809029 91.224781 l
181.688741 88.895086 l
185.568452 87.575701 l
189.448163 85.942615 l
193.327874 84.796908 l
197.207586 83.909316 l
201.087297 83.198122 l
204.967008 82.491195 l
208.84672 80.647532 l
212.726431 79.80994 l
216.606142 78.596803 l
220.485854 77.779151 l
224.365565 77.229924 l
228.245276 76.768464 l
232.124987 76.127217 l
236.004699 75.303531 l
239.88441 74.822625 l
243.764121 74.142438 l
247.643833 73.476394 l
251.523544 72.859645 l
255.403255 72.242953 l
259.282966 71.797222 l
263.162678 71.561933 l
267.042389 71.17416 l
270.9221 70.751491 l
274.801812 70.352115 l
278.681523 69.795497 l
282.561234 69.46486 l
286.440946 69.130967 l
290.320657 68.800261 l
294.200368 68.447938 l
298.080079 67.943559 l
301.959791 67.666693 l
305.839502 67.436237 l
309.719213 67.025362 l
313.598925 66.798097 l
317.478636 66.589614 l
321.358347 66.254842 l
325.238058 66.071736 l
329.11777 65.808416 l
332.997481 65.591049 l
336.877192 65.363373 l
340.756904 65.184498 l
344.636615 64.91802 l
348.516326 64.749212 l
352.396038 64.555791 l
356.275749 64.389282 l
360.15546 64.19899 l
364.035171 63.982406 l
367.914883 63.859999 l
371.794594 63.701213 l
375.674305 63.580291 l
379.554017 63.405442 l
383.433728 63.249464 l
387.313439 63.122946 l
391.193151 62.954199 l
395.072862 62.811684 l
398.952573 62.652364 l
402.832284 62.530715 l
406.711996 62.394979 l
410.591707 62.280661 l
414.471418 62.153047 l
418.35113 62.047507 l
422.230841 61.933665 l
426.110552 61.819523 l
429.990263 61.707476 l
433.869975 61.598442 l
437.749686 61.524715 l
441.629397 61.443304 l
445.509109 61.369587 l
449.38882 61.28006 l
453.268531 61.20541 l
stroke
grestore
0.000 setgray
gsave
395.1 266.1 63.72 38.02 clipbox
69.177113 229.774405 m
73.056824 181.284857 l
76.936536 171.936688 l
80.816247 167.014711 l
84.695958 164.079116 l
88.575669 160.768093 l
92.455381 156.518696 l
96.335092 153.844762 l
100.214803 151.117505 l
104.094515 148.308557 l
107.974226 144.745436 l
111.853937 142.510731 l
115.733649 139.679215 l
119.61336 137.372997 l
123.493071 136.068924 l
127.372782 133.926537 l
131.252494 131.310735 l
135.132205 129.598622 l
139.011916 127.030566 l
142.891628 125.35475 l
146.771339 124.253397 l
150.65105 122.716476 l
154.530762 120.583202 l
158.410473 119.047335 l
162.290184 117.589314 l
166.169895 116.587121 l
170.049607 114.622764 l
173.929318 113.472464 l
177.809029 112.372614 l
181.688741 111.161889 l
185.568452 109.645373 l
189.448163 108.585338 l
193.327874 106.892751 l
197.207586 105.667399 l
201.087297 105.07873 l
204.967008 103.923409 l
208.84672 103.14397 l
212.726431 102.050241 l
216.606142 101.321775 l
220.485854 100.532785 l
224.365565 99.545443 l
228.245276 98.695493 l
232.124987 97.97106 l
236.004699 97.32037 l
239.88441 96.773272 l
243.764121 96.007255 l
247.643833 95.468764 l
251.523544 95.022577 l
255.403255 94.332284 l
259.282966 93.807098 l
263.162678 93.363972 l
267.042389 92.910583 l
270.9221 92.338009 l
274.801812 91.949814 l
278.681523 91.501465 l
282.561234 91.003815 l
286.440946 90.672419 l
290.320657 90.227214 l
294.200368 89.836708 l
298.080079 89.443357 l
301.959791 89.011882 l
305.839502 88.606483 l
309.719213 88.207126 l
313.598925 87.848087 l
317.478636 87.506464 l
321.358347 87.077085 l
325.238058 86.738571 l
329.11777 86.39805 l
332.997481 86.138622 l
336.877192 85.772522 l
340.756904 85.393638 l
344.636615 85.016043 l
348.516326 84.787308 l
352.396038 84.506328 l
356.275749 84.22401 l
360.15546 83.923837 l
364.035171 83.639844 l
367.914883 83.412992 l
371.794594 83.154412 l
375.674305 82.895756 l
379.554017 82.507641 l
383.433728 82.162733 l
387.313439 81.911954 l
391.193151 81.580203 l
395.072862 81.359627 l
398.952573 81.059838 l
402.832284 80.827446 l
406.711996 80.565859 l
410.591707 80.2949 l
414.471418 79.98605 l
418.35113 79.749892 l
422.230841 79.512962 l
426.110552 79.340574 l
429.990263 79.137838 l
433.869975 78.878729 l
437.749686 78.664018 l
441.629397 78.432222 l
445.509109 78.209305 l
449.38882 77.96003 l
453.268531 77.741071 l
stroke
grestore
1.000 0.000 0.000 setrgbcolor
gsave
395.1 266.1 63.72 38.02 clipbox
69.177113 225.168482 m
73.056824 176.649173 l
76.936536 173.10941 l
80.816247 163.071103 l
84.695958 157.488138 l
88.575669 153.61634 l
92.455381 150.099081 l
96.335092 147.50099 l
100.214803 145.5282 l
104.094515 141.520331 l
107.974226 139.743975 l
111.853937 136.059113 l
115.733649 133.081216 l
119.61336 127.160116 l
123.493071 122.125595 l
127.372782 119.218432 l
131.252494 117.196665 l
135.132205 115.218425 l
139.011916 112.555436 l
142.891628 110.253069 l
146.771339 108.468549 l
150.65105 104.834882 l
154.530762 101.470396 l
158.410473 98.190994 l
162.290184 97.347712 l
166.169895 96.04379 l
170.049607 95.214614 l
173.929318 93.328541 l
177.809029 91.170977 l
181.688741 89.952217 l
185.568452 87.104646 l
189.448163 86.216802 l
193.327874 84.523483 l
197.207586 82.853297 l
201.087297 82.099339 l
204.967008 80.988532 l
208.84672 80.148161 l
212.726431 79.393414 l
216.606142 78.69748 l
220.485854 78.177047 l
224.365565 77.541103 l
228.245276 76.424483 l
232.124987 75.959019 l
236.004699 75.403696 l
239.88441 74.771414 l
243.764121 73.938593 l
247.643833 73.513339 l
251.523544 73.351445 l
255.403255 72.383308 l
259.282966 71.896295 l
263.162678 71.19934 l
267.042389 70.680832 l
270.9221 70.274552 l
274.801812 69.780264 l
278.681523 69.468347 l
282.561234 69.20294 l
286.440946 68.768471 l
290.320657 68.45932 l
294.200368 68.270719 l
298.080079 67.858268 l
301.959791 67.292399 l
305.839502 66.911092 l
309.719213 66.492052 l
313.598925 66.227895 l
317.478636 65.892542 l
321.358347 65.738889 l
325.238058 65.447537 l
329.11777 65.191096 l
332.997481 65.015911 l
336.877192 64.870296 l
340.756904 64.659325 l
344.636615 64.427789 l
348.516326 64.258659 l
352.396038 64.025617 l
356.275749 63.861229 l
360.15546 63.724294 l
364.035171 63.553517 l
367.914883 63.43341 l
371.794594 63.268144 l
375.674305 63.089432 l
379.554017 62.930042 l
383.433728 62.766525 l
387.313439 62.629261 l
391.193151 62.515539 l
395.072862 62.391669 l
398.952573 62.25181 l
402.832284 62.114529 l
406.711996 61.995427 l
410.591707 61.861845 l
414.471418 61.75884 l
418.35113 61.664169 l
422.230841 61.542734 l
426.110552 61.425202 l
429.990263 61.307123 l
433.869975 61.206988 l
437.749686 61.103675 l
441.629397 61.020124 l
445.509109 60.931276 l
449.38882 60.844617 l
453.268531 60.769764 l
stroke
grestore
0.800 setlinewidth
0 setlinejoin
2 setlinecap
[] 0 setdash
0.000 setgray
gsave
63.72 38.016 m
63.72 304.128 l
stroke
grestore
gsave
458.784 38.016 m
458.784 304.128 l
stroke
grestore
gsave
63.72 38.016 m
458.784 38.016 l
stroke
grestore
gsave
63.72 304.128 m
458.784 304.128 l
stroke
grestore
/DejaVuSans findfont
12.000 scalefont
setfont
gsave
20.580125 310.128000 translate
0.000000 rotate
0.000000 0 m /D glyphshow
9.240234 0 m /e glyphshow
16.623047 0 m /c glyphshow
23.220703 0 m /r glyphshow
27.904297 0 m /e glyphshow
35.287109 0 m /a glyphshow
42.640625 0 m /s glyphshow
48.892578 0 m /i glyphshow
52.226562 0 m /n glyphshow
59.832031 0 m /g glyphshow
67.449219 0 m /space glyphshow
71.263672 0 m /o glyphshow
78.605469 0 m /f glyphshow
82.830078 0 m /space glyphshow
86.644531 0 m /t glyphshow
91.349609 0 m /h glyphshow
98.955078 0 m /e glyphshow
106.337891 0 m /space glyphshow
110.152344 0 m /n glyphshow
117.757812 0 m /o glyphshow
125.099609 0 m /r glyphshow
129.783203 0 m /m glyphshow
141.472656 0 m /space glyphshow
145.287109 0 m /o glyphshow
152.628906 0 m /f glyphshow
156.853516 0 m /space glyphshow
160.667969 0 m /t glyphshow
165.373047 0 m /h glyphshow
172.978516 0 m /e glyphshow
180.361328 0 m /space glyphshow
184.175781 0 m /r glyphshow
188.859375 0 m /e glyphshow
196.242188 0 m /s glyphshow
202.494141 0 m /i glyphshow
205.828125 0 m /d glyphshow
213.445312 0 m /u glyphshow
221.050781 0 m /a glyphshow
228.404297 0 m /l glyphshow
231.738281 0 m /period glyphshow
235.552734 0 m /space glyphshow
239.367188 0 m /M glyphshow
249.720703 0 m /e glyphshow
257.103516 0 m /a glyphshow
264.457031 0 m /n glyphshow
272.062500 0 m /space glyphshow
275.876953 0 m /a glyphshow
283.230469 0 m /n glyphshow
290.835938 0 m /d glyphshow
298.453125 0 m /space glyphshow
302.267578 0 m /S glyphshow
309.884766 0 m /t glyphshow
314.589844 0 m /d glyphshow
322.207031 0 m /space glyphshow
326.021484 0 m /f glyphshow
330.246094 0 m /o glyphshow
337.587891 0 m /r glyphshow
342.521484 0 m /space glyphshow
346.335938 0 m /t glyphshow
351.041016 0 m /h glyphshow
358.646484 0 m /e glyphshow
366.029297 0 m /space glyphshow
369.843750 0 m /d glyphshow
377.460938 0 m /i glyphshow
380.794922 0 m /f glyphshow
385.019531 0 m /f glyphshow
389.244141 0 m /e glyphshow
396.626953 0 m /r glyphshow
401.310547 0 m /e glyphshow
408.693359 0 m /n glyphshow
416.298828 0 m /t glyphshow
421.003906 0 m /space glyphshow
424.818359 0 m /m glyphshow
436.507812 0 m /e glyphshow
443.890625 0 m /t glyphshow
448.595703 0 m /h glyphshow
456.201172 0 m /o glyphshow
463.542969 0 m /d glyphshow
471.160156 0 m /s glyphshow
477.412109 0 m /period glyphshow
grestore
1.000 setlinewidth
0 setlinecap
0.800 setgray
gsave
370.80275 203.728 m
453.184 203.728 l
454.250667 203.728 454.784 204.261333 454.784 205.328 c
454.784 298.528 l
454.784 299.594667 454.250667 300.128 453.184 300.128 c
370.80275 300.128 l
369.736083 300.128 369.20275 299.594667 369.20275 298.528 c
369.20275 205.328 l
369.20275 204.261333 369.736083 203.728 370.80275 203.728 c
cl
gsave
1.000 setgray
fill
grestore
stroke
grestore
1.500 setlinewidth
1 setlinejoin
2 setlinecap
0.000 0.000 1.000 setrgbcolor
gsave
372.40275 293.649875 m
388.40275 293.649875 l
stroke
grestore
0.000 setgray
/DejaVuSans findfont
8.000 scalefont
setfont
gsave
394.802750 290.849875 translate
0.000000 rotate
0.000000 0 m /M glyphshow
6.902344 0 m /e glyphshow
11.824219 0 m /a glyphshow
16.726562 0 m /n glyphshow
21.796875 0 m /space glyphshow
24.339844 0 m /o glyphshow
29.234375 0 m /f glyphshow
32.050781 0 m /space glyphshow
34.593750 0 m /T glyphshow
39.355469 0 m /T glyphshow
43.117188 0 m /r glyphshow
46.406250 0 m /one glyphshow
grestore
0.000 0.500 0.000 setrgbcolor
gsave
372.40275 281.899875 m
388.40275 281.899875 l
stroke
grestore
0.000 setgray
gsave
394.802750 279.099875 translate
0.000000 rotate
0.000000 0 m /M glyphshow
6.902344 0 m /e glyphshow
11.824219 0 m /a glyphshow
16.726562 0 m /n glyphshow
21.796875 0 m /space glyphshow
24.339844 0 m /o glyphshow
29.234375 0 m /f glyphshow
32.050781 0 m /space glyphshow
34.593750 0 m /A glyphshow
40.066406 0 m /S glyphshow
45.144531 0 m /V glyphshow
50.617188 0 m /D glyphshow
grestore
gsave
372.40275 270.149875 m
388.40275 270.149875 l
stroke
grestore
gsave
394.802750 267.349875 translate
0.000000 rotate
0.000000 0 m /M glyphshow
6.902344 0 m /e glyphshow
11.824219 0 m /a glyphshow
16.726562 0 m /n glyphshow
21.796875 0 m /space glyphshow
24.339844 0 m /o glyphshow
29.234375 0 m /f glyphshow
32.050781 0 m /space glyphshow
34.593750 0 m /C glyphshow
40.179688 0 m /P glyphshow
45.003906 0 m /T glyphshow
49.765625 0 m /T glyphshow
grestore
1.000 0.000 0.000 setrgbcolor
gsave
372.40275 258.399875 m
388.40275 258.399875 l
stroke
grestore
0.000 setgray
gsave
394.802750 255.599875 translate
0.000000 rotate
0.000000 0 m /M glyphshow
6.902344 0 m /e glyphshow
11.824219 0 m /a glyphshow
16.726562 0 m /n glyphshow
21.796875 0 m /space glyphshow
24.339844 0 m /o glyphshow
29.234375 0 m /f glyphshow
32.050781 0 m /space glyphshow
34.593750 0 m /A glyphshow
40.066406 0 m /L glyphshow
44.523438 0 m /S glyphshow
grestore
0 setlinecap
[5.55 2.4] 0 setdash
0.000 0.000 1.000 setrgbcolor
gsave
372.40275 246.649875 m
388.40275 246.649875 l
stroke
grestore
0.000 setgray
gsave
394.802750 243.849875 translate
0.000000 rotate
0.000000 0 m /S glyphshow
5.078125 0 m /t glyphshow
8.214844 0 m /d glyphshow
13.292969 0 m /space glyphshow
15.835938 0 m /o glyphshow
20.730469 0 m /f glyphshow
23.546875 0 m /space glyphshow
26.089844 0 m /T glyphshow
30.851562 0 m /T glyphshow
34.613281 0 m /r glyphshow
37.902344 0 m /one glyphshow
grestore
0.000 0.500 0.000 setrgbcolor
gsave
372.40275 234.899875 m
388.40275 234.899875 l
stroke
grestore
0.000 setgray
gsave
394.802750 232.099875 translate
0.000000 rotate
0.000000 0 m /S glyphshow
5.078125 0 m /t glyphshow
8.214844 0 m /d glyphshow
13.292969 0 m /space glyphshow
15.835938 0 m /o glyphshow
20.730469 0 m /f glyphshow
23.546875 0 m /space glyphshow
26.089844 0 m /A glyphshow
31.562500 0 m /S glyphshow
36.640625 0 m /V glyphshow
42.113281 0 m /D glyphshow
grestore
gsave
372.40275 223.149875 m
388.40275 223.149875 l
stroke
grestore
gsave
394.802750 220.349875 translate
0.000000 rotate
0.000000 0 m /S glyphshow
5.078125 0 m /t glyphshow
8.214844 0 m /d glyphshow
13.292969 0 m /space glyphshow
15.835938 0 m /o glyphshow
20.730469 0 m /f glyphshow
23.546875 0 m /space glyphshow
26.089844 0 m /C glyphshow
31.675781 0 m /P glyphshow
36.500000 0 m /T glyphshow
41.261719 0 m /T glyphshow
grestore
1.000 0.000 0.000 setrgbcolor
gsave
372.40275 211.399875 m
388.40275 211.399875 l
stroke
grestore
0.000 setgray
gsave
394.802750 208.599875 translate
0.000000 rotate
0.000000 0 m /S glyphshow
5.078125 0 m /t glyphshow
8.214844 0 m /d glyphshow
13.292969 0 m /space glyphshow
15.835938 0 m /o glyphshow
20.730469 0 m /f glyphshow
23.546875 0 m /space glyphshow
26.089844 0 m /A glyphshow
31.562500 0 m /L glyphshow
36.019531 0 m /S glyphshow
grestore

end
showpage
