%!PS-Adobe-3.0 EPSF-3.0
%%Title: /Users/mfuentez/Documents/ADAPT-master/code/tensLib/Outputs/CPTTvsALS_16d/ASVDvsALSvsCPTT_dim16_beta8.1/all_16_py.eps
%%Creator: matplotlib version 3.3.4, http://matplotlib.org/
%%CreationDate: Tue Nov 16 12:53:50 2021
%%Orientation: portrait
%%BoundingBox: 50.40000000000001 223.20000000000002 561.6 568.8
%%EndComments
%%BeginProlog
/mpldict 8 dict def
mpldict begin
/m { moveto } bind def
/l { lineto } bind def
/r { rlineto } bind def
/c { curveto } bind def
/cl { closepath } bind def
/box {
      m
      1 index 0 r
      0 exch r
      neg 0 r
      cl
    } bind def
/clipbox {
      box
      clip
      newpath
    } bind def
%!PS-Adobe-3.0 Resource-Font
%%Title: DejaVu Sans
%%Copyright: Copyright (c) 2003 by Bitstream, Inc. All Rights Reserved. Copyright (c) 2006 by Tavmjong Bah. All Rights Reserved. DejaVu changes are in public domain 
%%Creator: Converted from TrueType to type 3 by PPR
25 dict begin
/_d{bind def}bind def
/_m{moveto}_d
/_l{lineto}_d
/_cl{closepath eofill}_d
/_c{curveto}_d
/_sc{7 -1 roll{setcachedevice}{pop pop pop pop pop pop}ifelse}_d
/_e{exec}_d
/FontName /DejaVuSans def
/PaintType 0 def
/FontMatrix[.001 0 0 .001 0 0]def
/FontBBox[-1021 -463 1793 1232]def
/FontType 3 def
/Encoding [ /space /period /zero /one /two /four /six /eight /A /C /D /L /M /N /P /S /T /V /a /b /c /d /e /f /g /h /i /l /m /n /o /q /r /s /t /u /minus ] def
/FontInfo 10 dict dup begin
/FamilyName (DejaVu Sans) def
/FullName (DejaVu Sans) def
/Notice (Copyright (c) 2003 by Bitstream, Inc. All Rights Reserved. Copyright (c) 2006 by Tavmjong Bah. All Rights Reserved. DejaVu changes are in public domain ) def
/Weight (Book) def
/Version (Version 2.35) def
/ItalicAngle 0.0 def
/isFixedPitch false def
/UnderlinePosition -130 def
/UnderlineThickness 90 def
end readonly def
/CharStrings 38 dict dup begin
/.notdef 0 def
/space{318 0 0 0 0 0 _sc
}_d
/period{318 0 107 0 210 124 _sc
107 124 _m
210 124 _l
210 0 _l
107 0 _l
107 124 _l
_cl}_d
/zero{636 0 66 -13 570 742 _sc
318 664 _m
267 664 229 639 203 589 _c
177 539 165 464 165 364 _c
165 264 177 189 203 139 _c
229 89 267 64 318 64 _c
369 64 407 89 433 139 _c
458 189 471 264 471 364 _c
471 464 458 539 433 589 _c
407 639 369 664 318 664 _c
318 742 _m
399 742 461 709 505 645 _c
548 580 570 486 570 364 _c
570 241 548 147 505 83 _c
461 19 399 -13 318 -13 _c
236 -13 173 19 130 83 _c
87 147 66 241 66 364 _c
66 486 87 580 130 645 _c
173 709 236 742 318 742 _c
_cl}_d
/one{636 0 110 0 544 729 _sc
124 83 _m
285 83 _l
285 639 _l
110 604 _l
110 694 _l
284 729 _l
383 729 _l
383 83 _l
544 83 _l
544 0 _l
124 0 _l
124 83 _l
_cl}_d
/two{{636 0 73 0 536 742 _sc
192 83 _m
536 83 _l
536 0 _l
73 0 _l
73 83 _l
110 121 161 173 226 239 _c
290 304 331 346 348 365 _c
380 400 402 430 414 455 _c
426 479 433 504 433 528 _c
433 566 419 598 392 622 _c
365 646 330 659 286 659 _c
255 659 222 653 188 643 _c
154 632 117 616 78 594 _c
78 694 _l
118 710 155 722 189 730 _c
223 738 255 742 284 742 _c
}_e{359 742 419 723 464 685 _c
509 647 532 597 532 534 _c
532 504 526 475 515 449 _c
504 422 484 390 454 354 _c
446 344 420 317 376 272 _c
332 227 271 164 192 83 _c
_cl}_e}_d
/four{636 0 49 0 580 729 _sc
378 643 _m
129 254 _l
378 254 _l
378 643 _l
352 729 _m
476 729 _l
476 254 _l
580 254 _l
580 172 _l
476 172 _l
476 0 _l
378 0 _l
378 172 _l
49 172 _l
49 267 _l
352 729 _l
_cl}_d
/six{{636 0 70 -13 573 742 _sc
330 404 _m
286 404 251 388 225 358 _c
199 328 186 286 186 234 _c
186 181 199 139 225 109 _c
251 79 286 64 330 64 _c
374 64 409 79 435 109 _c
461 139 474 181 474 234 _c
474 286 461 328 435 358 _c
409 388 374 404 330 404 _c
526 713 _m
526 623 _l
501 635 476 644 451 650 _c
425 656 400 659 376 659 _c
310 659 260 637 226 593 _c
}_e{192 549 172 482 168 394 _c
187 422 211 444 240 459 _c
269 474 301 482 336 482 _c
409 482 467 459 509 415 _c
551 371 573 310 573 234 _c
573 159 550 99 506 54 _c
462 9 403 -13 330 -13 _c
246 -13 181 19 137 83 _c
92 147 70 241 70 364 _c
70 479 97 571 152 639 _c
206 707 280 742 372 742 _c
396 742 421 739 447 735 _c
472 730 498 723 526 713 _c
_cl}_e}_d
/eight{{636 0 68 -13 568 742 _sc
318 346 _m
271 346 234 333 207 308 _c
180 283 167 249 167 205 _c
167 161 180 126 207 101 _c
234 76 271 64 318 64 _c
364 64 401 76 428 102 _c
455 127 469 161 469 205 _c
469 249 455 283 429 308 _c
402 333 365 346 318 346 _c
219 388 _m
177 398 144 418 120 447 _c
96 476 85 511 85 553 _c
85 611 105 657 147 691 _c
188 725 245 742 318 742 _c
}_e{390 742 447 725 489 691 _c
530 657 551 611 551 553 _c
551 511 539 476 515 447 _c
491 418 459 398 417 388 _c
464 377 501 355 528 323 _c
554 291 568 251 568 205 _c
568 134 546 80 503 43 _c
459 5 398 -13 318 -13 _c
237 -13 175 5 132 43 _c
89 80 68 134 68 205 _c
68 251 81 291 108 323 _c
134 355 171 377 219 388 _c
183 544 _m
183 506 194 476 218 455 _c
}_e{242 434 275 424 318 424 _c
360 424 393 434 417 455 _c
441 476 453 506 453 544 _c
453 582 441 611 417 632 _c
393 653 360 664 318 664 _c
275 664 242 653 218 632 _c
194 611 183 582 183 544 _c
_cl}_e}_d
/A{684 0 8 0 676 729 _sc
342 632 _m
208 269 _l
476 269 _l
342 632 _l
286 729 _m
398 729 _l
676 0 _l
573 0 _l
507 187 _l
178 187 _l
112 0 _l
8 0 _l
286 729 _l
_cl}_d
/C{{698 0 56 -13 644 742 _sc
644 673 _m
644 569 _l
610 599 575 622 537 638 _c
499 653 460 661 418 661 _c
334 661 270 635 226 584 _c
182 533 160 460 160 364 _c
160 268 182 194 226 143 _c
270 92 334 67 418 67 _c
460 67 499 74 537 90 _c
575 105 610 128 644 159 _c
644 56 _l
609 32 572 15 534 4 _c
496 -7 455 -13 412 -13 _c
302 -13 215 20 151 87 _c
}_e{87 154 56 246 56 364 _c
56 481 87 573 151 641 _c
215 708 302 742 412 742 _c
456 742 497 736 535 725 _c
573 713 610 696 644 673 _c
_cl}_e}_d
/D{770 0 98 0 711 729 _sc
197 648 _m
197 81 _l
316 81 _l
416 81 490 103 537 149 _c
583 195 607 267 607 365 _c
607 463 583 534 537 580 _c
490 625 416 648 316 648 _c
197 648 _l
98 729 _m
301 729 _l
442 729 546 699 612 641 _c
678 582 711 490 711 365 _c
711 239 677 147 611 88 _c
545 29 441 0 301 0 _c
98 0 _l
98 729 _l
_cl}_d
/L{557 0 98 0 552 729 _sc
98 729 _m
197 729 _l
197 83 _l
552 83 _l
552 0 _l
98 0 _l
98 729 _l
_cl}_d
/M{863 0 98 0 765 729 _sc
98 729 _m
245 729 _l
431 233 _l
618 729 _l
765 729 _l
765 0 _l
669 0 _l
669 640 _l
481 140 _l
382 140 _l
194 640 _l
194 0 _l
98 0 _l
98 729 _l
_cl}_d
/N{748 0 98 0 650 729 _sc
98 729 _m
231 729 _l
554 119 _l
554 729 _l
650 729 _l
650 0 _l
517 0 _l
194 610 _l
194 0 _l
98 0 _l
98 729 _l
_cl}_d
/P{603 0 98 0 569 729 _sc
197 648 _m
197 374 _l
321 374 _l
367 374 402 385 427 409 _c
452 433 465 467 465 511 _c
465 555 452 588 427 612 _c
402 636 367 648 321 648 _c
197 648 _l
98 729 _m
321 729 _l
402 729 464 710 506 673 _c
548 636 569 582 569 511 _c
569 439 548 384 506 348 _c
464 311 402 293 321 293 _c
197 293 _l
197 0 _l
98 0 _l
98 729 _l
_cl}_d
/S{{635 0 66 -13 579 742 _sc
535 705 _m
535 609 _l
497 627 462 640 429 649 _c
395 657 363 662 333 662 _c
279 662 237 651 208 631 _c
179 610 165 580 165 542 _c
165 510 174 485 194 469 _c
213 452 250 439 304 429 _c
364 417 _l
437 403 491 378 526 343 _c
561 307 579 260 579 201 _c
579 130 555 77 508 41 _c
460 5 391 -13 300 -13 _c
265 -13 228 -9 189 -2 _c
}_e{150 5 110 16 69 32 _c
69 134 _l
109 111 148 94 186 83 _c
224 71 262 66 300 66 _c
356 66 399 77 430 99 _c
460 121 476 152 476 194 _c
476 230 465 258 443 278 _c
421 298 385 313 335 323 _c
275 335 _l
201 349 148 372 115 404 _c
82 435 66 478 66 534 _c
66 598 88 649 134 686 _c
179 723 242 742 322 742 _c
356 742 390 739 426 733 _c
461 727 497 717 535 705 _c
}_e{_cl}_e}_d
/T{611 0 -2 0 614 729 _sc
-2 729 _m
614 729 _l
614 646 _l
355 646 _l
355 0 _l
256 0 _l
256 646 _l
-2 646 _l
-2 729 _l
_cl}_d
/V{684 0 8 0 676 729 _sc
286 0 _m
8 729 _l
111 729 _l
342 115 _l
573 729 _l
676 729 _l
398 0 _l
286 0 _l
_cl}_d
/a{{613 0 60 -13 522 560 _sc
343 275 _m
270 275 220 266 192 250 _c
164 233 150 205 150 165 _c
150 133 160 107 181 89 _c
202 70 231 61 267 61 _c
317 61 357 78 387 114 _c
417 149 432 196 432 255 _c
432 275 _l
343 275 _l
522 312 _m
522 0 _l
432 0 _l
432 83 _l
411 49 385 25 355 10 _c
325 -5 287 -13 243 -13 _c
187 -13 142 2 109 33 _c
76 64 60 106 60 159 _c
}_e{60 220 80 266 122 298 _c
163 329 224 345 306 345 _c
432 345 _l
432 354 _l
432 395 418 427 391 450 _c
364 472 326 484 277 484 _c
245 484 215 480 185 472 _c
155 464 127 453 100 439 _c
100 522 _l
132 534 164 544 195 550 _c
226 556 256 560 286 560 _c
365 560 424 539 463 498 _c
502 457 522 395 522 312 _c
_cl}_e}_d
/b{{635 0 91 -13 580 760 _sc
487 273 _m
487 339 473 390 446 428 _c
418 466 381 485 334 485 _c
286 485 249 466 222 428 _c
194 390 181 339 181 273 _c
181 207 194 155 222 117 _c
249 79 286 61 334 61 _c
381 61 418 79 446 117 _c
473 155 487 207 487 273 _c
181 464 _m
199 496 223 520 252 536 _c
281 552 316 560 356 560 _c
422 560 476 533 518 481 _c
559 428 580 359 580 273 _c
}_e{580 187 559 117 518 65 _c
476 13 422 -13 356 -13 _c
316 -13 281 -5 252 10 _c
223 25 199 49 181 82 _c
181 0 _l
91 0 _l
91 760 _l
181 760 _l
181 464 _l
_cl}_e}_d
/c{{550 0 55 -13 488 560 _sc
488 526 _m
488 442 _l
462 456 437 466 411 473 _c
385 480 360 484 334 484 _c
276 484 230 465 198 428 _c
166 391 150 339 150 273 _c
150 206 166 154 198 117 _c
230 80 276 62 334 62 _c
360 62 385 65 411 72 _c
437 79 462 90 488 104 _c
488 21 _l
462 9 436 0 410 -5 _c
383 -10 354 -13 324 -13 _c
242 -13 176 12 128 64 _c
}_e{79 115 55 185 55 273 _c
55 362 79 432 128 483 _c
177 534 244 560 330 560 _c
358 560 385 557 411 551 _c
437 545 463 537 488 526 _c
_cl}_e}_d
/d{{635 0 55 -13 544 760 _sc
454 464 _m
454 760 _l
544 760 _l
544 0 _l
454 0 _l
454 82 _l
435 49 411 25 382 10 _c
353 -5 319 -13 279 -13 _c
213 -13 159 13 117 65 _c
75 117 55 187 55 273 _c
55 359 75 428 117 481 _c
159 533 213 560 279 560 _c
319 560 353 552 382 536 _c
411 520 435 496 454 464 _c
148 273 _m
148 207 161 155 188 117 _c
215 79 253 61 301 61 _c
}_e{348 61 385 79 413 117 _c
440 155 454 207 454 273 _c
454 339 440 390 413 428 _c
385 466 348 485 301 485 _c
253 485 215 466 188 428 _c
161 390 148 339 148 273 _c
_cl}_e}_d
/e{{615 0 55 -13 562 560 _sc
562 296 _m
562 252 _l
149 252 _l
153 190 171 142 205 110 _c
238 78 284 62 344 62 _c
378 62 412 66 444 74 _c
476 82 509 95 541 113 _c
541 28 _l
509 14 476 3 442 -3 _c
408 -9 373 -13 339 -13 _c
251 -13 182 12 131 62 _c
80 112 55 181 55 268 _c
55 357 79 428 127 481 _c
175 533 241 560 323 560 _c
397 560 455 536 498 489 _c
}_e{540 441 562 377 562 296 _c
472 322 _m
471 371 457 410 431 440 _c
404 469 368 484 324 484 _c
274 484 234 469 204 441 _c
174 413 156 373 152 322 _c
472 322 _l
_cl}_e}_d
/f{352 0 23 0 371 760 _sc
371 760 _m
371 685 _l
285 685 _l
253 685 230 678 218 665 _c
205 652 199 629 199 595 _c
199 547 _l
347 547 _l
347 477 _l
199 477 _l
199 0 _l
109 0 _l
109 477 _l
23 477 _l
23 547 _l
109 547 _l
109 585 _l
109 645 123 690 151 718 _c
179 746 224 760 286 760 _c
371 760 _l
_cl}_d
/g{{635 0 55 -207 544 560 _sc
454 280 _m
454 344 440 395 414 431 _c
387 467 349 485 301 485 _c
253 485 215 467 188 431 _c
161 395 148 344 148 280 _c
148 215 161 165 188 129 _c
215 93 253 75 301 75 _c
349 75 387 93 414 129 _c
440 165 454 215 454 280 _c
544 68 _m
544 -24 523 -93 482 -139 _c
440 -184 377 -207 292 -207 _c
260 -207 231 -204 203 -200 _c
175 -195 147 -188 121 -178 _c
}_e{121 -91 _l
147 -105 173 -115 199 -122 _c
225 -129 251 -133 278 -133 _c
336 -133 380 -117 410 -87 _c
439 -56 454 -10 454 52 _c
454 96 _l
435 64 411 40 382 24 _c
353 8 319 0 279 0 _c
211 0 157 25 116 76 _c
75 127 55 195 55 280 _c
55 364 75 432 116 483 _c
157 534 211 560 279 560 _c
319 560 353 552 382 536 _c
411 520 435 496 454 464 _c
454 547 _l
544 547 _l
}_e{544 68 _l
_cl}_e}_d
/h{634 0 91 0 549 760 _sc
549 330 _m
549 0 _l
459 0 _l
459 327 _l
459 379 448 417 428 443 _c
408 469 378 482 338 482 _c
289 482 251 466 223 435 _c
195 404 181 362 181 309 _c
181 0 _l
91 0 _l
91 760 _l
181 760 _l
181 462 _l
202 494 227 519 257 535 _c
286 551 320 560 358 560 _c
420 560 468 540 500 501 _c
532 462 549 405 549 330 _c
_cl}_d
/i{278 0 94 0 184 760 _sc
94 547 _m
184 547 _l
184 0 _l
94 0 _l
94 547 _l
94 760 _m
184 760 _l
184 646 _l
94 646 _l
94 760 _l
_cl}_d
/l{278 0 94 0 184 760 _sc
94 760 _m
184 760 _l
184 0 _l
94 0 _l
94 760 _l
_cl}_d
/m{{974 0 91 0 889 560 _sc
520 442 _m
542 482 569 511 600 531 _c
631 550 668 560 711 560 _c
767 560 811 540 842 500 _c
873 460 889 403 889 330 _c
889 0 _l
799 0 _l
799 327 _l
799 379 789 418 771 444 _c
752 469 724 482 686 482 _c
639 482 602 466 575 435 _c
548 404 535 362 535 309 _c
535 0 _l
445 0 _l
445 327 _l
445 379 435 418 417 444 _c
398 469 369 482 331 482 _c
}_e{285 482 248 466 221 435 _c
194 404 181 362 181 309 _c
181 0 _l
91 0 _l
91 547 _l
181 547 _l
181 462 _l
201 495 226 520 255 536 _c
283 552 317 560 357 560 _c
397 560 430 550 458 530 _c
486 510 506 480 520 442 _c
_cl}_e}_d
/n{634 0 91 0 549 560 _sc
549 330 _m
549 0 _l
459 0 _l
459 327 _l
459 379 448 417 428 443 _c
408 469 378 482 338 482 _c
289 482 251 466 223 435 _c
195 404 181 362 181 309 _c
181 0 _l
91 0 _l
91 547 _l
181 547 _l
181 462 _l
202 494 227 519 257 535 _c
286 551 320 560 358 560 _c
420 560 468 540 500 501 _c
532 462 549 405 549 330 _c
_cl}_d
/o{612 0 55 -13 557 560 _sc
306 484 _m
258 484 220 465 192 427 _c
164 389 150 338 150 273 _c
150 207 163 156 191 118 _c
219 80 257 62 306 62 _c
354 62 392 80 420 118 _c
448 156 462 207 462 273 _c
462 337 448 389 420 427 _c
392 465 354 484 306 484 _c
306 560 _m
384 560 445 534 490 484 _c
534 433 557 363 557 273 _c
557 183 534 113 490 63 _c
445 12 384 -13 306 -13 _c
227 -13 165 12 121 63 _c
77 113 55 183 55 273 _c
55 363 77 433 121 484 _c
165 534 227 560 306 560 _c
_cl}_d
/q{{635 0 55 -207 544 560 _sc
148 273 _m
148 207 161 155 188 117 _c
215 79 253 61 301 61 _c
348 61 385 79 413 117 _c
440 155 454 207 454 273 _c
454 339 440 390 413 428 _c
385 466 348 485 301 485 _c
253 485 215 466 188 428 _c
161 390 148 339 148 273 _c
454 82 _m
435 49 411 25 382 10 _c
353 -5 319 -13 279 -13 _c
213 -13 159 13 117 65 _c
75 117 55 187 55 273 _c
}_e{55 359 75 428 117 481 _c
159 533 213 560 279 560 _c
319 560 353 552 382 536 _c
411 520 435 496 454 464 _c
454 547 _l
544 547 _l
544 -207 _l
454 -207 _l
454 82 _l
_cl}_e}_d
/r{411 0 91 0 411 560 _sc
411 463 _m
401 469 390 473 378 476 _c
366 478 353 480 339 480 _c
288 480 249 463 222 430 _c
194 397 181 350 181 288 _c
181 0 _l
91 0 _l
91 547 _l
181 547 _l
181 462 _l
199 495 224 520 254 536 _c
284 552 321 560 365 560 _c
371 560 378 559 386 559 _c
393 558 401 557 411 555 _c
411 463 _l
_cl}_d
/s{{521 0 54 -13 472 560 _sc
443 531 _m
443 446 _l
417 458 391 468 364 475 _c
336 481 308 485 279 485 _c
234 485 200 478 178 464 _c
156 450 145 430 145 403 _c
145 382 153 366 169 354 _c
185 342 217 330 265 320 _c
296 313 _l
360 299 405 279 432 255 _c
458 230 472 195 472 151 _c
472 100 452 60 412 31 _c
372 1 316 -13 246 -13 _c
216 -13 186 -10 154 -5 _c
}_e{122 0 89 8 54 20 _c
54 113 _l
87 95 120 82 152 74 _c
184 65 216 61 248 61 _c
290 61 323 68 346 82 _c
368 96 380 117 380 144 _c
380 168 371 187 355 200 _c
339 213 303 226 247 238 _c
216 245 _l
160 257 119 275 95 299 _c
70 323 58 356 58 399 _c
58 450 76 490 112 518 _c
148 546 200 560 268 560 _c
301 560 332 557 362 552 _c
391 547 418 540 443 531 _c
}_e{_cl}_e}_d
/t{392 0 27 0 368 702 _sc
183 702 _m
183 547 _l
368 547 _l
368 477 _l
183 477 _l
183 180 _l
183 135 189 106 201 94 _c
213 81 238 75 276 75 _c
368 75 _l
368 0 _l
276 0 _l
206 0 158 13 132 39 _c
106 65 93 112 93 180 _c
93 477 _l
27 477 _l
27 547 _l
93 547 _l
93 702 _l
183 702 _l
_cl}_d
/u{634 0 85 -13 543 560 _sc
85 216 _m
85 547 _l
175 547 _l
175 219 _l
175 167 185 129 205 103 _c
225 77 255 64 296 64 _c
344 64 383 79 411 110 _c
439 141 453 183 453 237 _c
453 547 _l
543 547 _l
543 0 _l
453 0 _l
453 84 _l
431 50 405 26 377 10 _c
348 -5 315 -13 277 -13 _c
214 -13 166 6 134 45 _c
101 83 85 140 85 216 _c
311 560 _m
311 560 _l
_cl}_d
/minus{838 0 106 272 732 355 _sc
106 355 _m
732 355 _l
732 272 _l
106 272 _l
106 355 _l
_cl}_d
end readonly def

/BuildGlyph
 {exch begin
 CharStrings exch
 2 copy known not{pop /.notdef}if
 true 3 1 roll get exec
 end}_d

/BuildChar {
 1 index /Encoding get exch get
 1 index /BuildGlyph get exec
}_d

FontName currentdict end definefont pop
end
%%EndProlog
mpldict begin
50.4 223.2 translate
511.2 345.6 0 0 clipbox
gsave
0 0 m
511.2 0 l
511.2 345.6 l
0 345.6 l
cl
1.000 setgray
fill
grestore
gsave
63.9 38.016 m
460.08 38.016 l
460.08 304.128 l
63.9 304.128 l
cl
1.000 setgray
fill
grestore
0.800 setlinewidth
1 setlinejoin
0 setlinecap
[] 0 setdash
0.000 setgray
gsave
/o {
gsave
newpath
translate
0.8 setlinewidth
1 setlinejoin
0 setlinecap
0 0 m
0 -3.5 l

gsave
0.000 setgray
fill
grestore
stroke
grestore
} bind def
142.565 38.016 o
grestore
/DejaVuSans findfont
10.000 scalefont
setfont
gsave
136.205658 23.422250 translate
0.000000 rotate
0.000000 0 m /two glyphshow
6.362305 0 m /zero glyphshow
grestore
gsave
/o {
gsave
newpath
translate
0.8 setlinewidth
1 setlinejoin
0 setlinecap
0 0 m
0 -3.5 l

gsave
0.000 setgray
fill
grestore
stroke
grestore
} bind def
221.677 38.016 o
grestore
gsave
215.317552 23.422250 translate
0.000000 rotate
0.000000 0 m /four glyphshow
6.362305 0 m /zero glyphshow
grestore
gsave
/o {
gsave
newpath
translate
0.8 setlinewidth
1 setlinejoin
0 setlinecap
0 0 m
0 -3.5 l

gsave
0.000 setgray
fill
grestore
stroke
grestore
} bind def
300.789 38.016 o
grestore
gsave
294.429445 23.422250 translate
0.000000 rotate
0.000000 0 m /six glyphshow
6.362305 0 m /zero glyphshow
grestore
gsave
/o {
gsave
newpath
translate
0.8 setlinewidth
1 setlinejoin
0 setlinecap
0 0 m
0 -3.5 l

gsave
0.000 setgray
fill
grestore
stroke
grestore
} bind def
379.901 38.016 o
grestore
gsave
373.541339 23.422250 translate
0.000000 rotate
0.000000 0 m /eight glyphshow
6.362305 0 m /zero glyphshow
grestore
gsave
/o {
gsave
newpath
translate
0.8 setlinewidth
1 setlinejoin
0 setlinecap
0 0 m
0 -3.5 l

gsave
0.000 setgray
fill
grestore
stroke
grestore
} bind def
459.013 38.016 o
grestore
gsave
449.473544 23.422250 translate
0.000000 rotate
0.000000 0 m /one glyphshow
6.362305 0 m /zero glyphshow
12.724609 0 m /zero glyphshow
grestore
gsave
219.372813 9.750375 translate
0.000000 rotate
0.000000 0 m /N glyphshow
7.480469 0 m /u glyphshow
13.818359 0 m /m glyphshow
23.559570 0 m /b glyphshow
29.907227 0 m /e glyphshow
36.059570 0 m /r glyphshow
40.170898 0 m /space glyphshow
43.349609 0 m /o glyphshow
49.467773 0 m /f glyphshow
52.988281 0 m /space glyphshow
56.166992 0 m /t glyphshow
60.087891 0 m /e glyphshow
66.240234 0 m /r glyphshow
70.226562 0 m /m glyphshow
79.967773 0 m /s glyphshow
grestore
gsave
/o {
gsave
newpath
translate
0.8 setlinewidth
1 setlinejoin
0 setlinecap
-0 0 m
-3.5 0 l

gsave
0.000 setgray
fill
grestore
stroke
grestore
} bind def
63.9 65.3352 o
grestore
gsave
32.618750 61.538308 translate
0.000000 rotate
0.000000 0 m /minus glyphshow
8.378906 0 m /zero glyphshow
14.741211 0 m /period glyphshow
17.919922 0 m /two glyphshow
grestore
gsave
/o {
gsave
newpath
translate
0.8 setlinewidth
1 setlinejoin
0 setlinecap
-0 0 m
-3.5 0 l

gsave
0.000 setgray
fill
grestore
stroke
grestore
} bind def
63.9 96.974 o
grestore
gsave
40.993750 93.177089 translate
0.000000 rotate
0.000000 0 m /zero glyphshow
6.362305 0 m /period glyphshow
9.541016 0 m /zero glyphshow
grestore
gsave
/o {
gsave
newpath
translate
0.8 setlinewidth
1 setlinejoin
0 setlinecap
-0 0 m
-3.5 0 l

gsave
0.000 setgray
fill
grestore
stroke
grestore
} bind def
63.9 128.613 o
grestore
gsave
40.993750 124.815869 translate
0.000000 rotate
0.000000 0 m /zero glyphshow
6.362305 0 m /period glyphshow
9.541016 0 m /two glyphshow
grestore
gsave
/o {
gsave
newpath
translate
0.8 setlinewidth
1 setlinejoin
0 setlinecap
-0 0 m
-3.5 0 l

gsave
0.000 setgray
fill
grestore
stroke
grestore
} bind def
63.9 160.252 o
grestore
gsave
40.993750 156.454650 translate
0.000000 rotate
0.000000 0 m /zero glyphshow
6.362305 0 m /period glyphshow
9.541016 0 m /four glyphshow
grestore
gsave
/o {
gsave
newpath
translate
0.8 setlinewidth
1 setlinejoin
0 setlinecap
-0 0 m
-3.5 0 l

gsave
0.000 setgray
fill
grestore
stroke
grestore
} bind def
63.9 191.89 o
grestore
gsave
40.993750 188.093431 translate
0.000000 rotate
0.000000 0 m /zero glyphshow
6.362305 0 m /period glyphshow
9.541016 0 m /six glyphshow
grestore
gsave
/o {
gsave
newpath
translate
0.8 setlinewidth
1 setlinejoin
0 setlinecap
-0 0 m
-3.5 0 l

gsave
0.000 setgray
fill
grestore
stroke
grestore
} bind def
63.9 223.529 o
grestore
gsave
40.993750 219.732211 translate
0.000000 rotate
0.000000 0 m /zero glyphshow
6.362305 0 m /period glyphshow
9.541016 0 m /eight glyphshow
grestore
gsave
/o {
gsave
newpath
translate
0.8 setlinewidth
1 setlinejoin
0 setlinecap
-0 0 m
-3.5 0 l

gsave
0.000 setgray
fill
grestore
stroke
grestore
} bind def
63.9 255.168 o
grestore
gsave
40.993750 251.370992 translate
0.000000 rotate
0.000000 0 m /one glyphshow
6.362305 0 m /period glyphshow
9.541016 0 m /zero glyphshow
grestore
gsave
/o {
gsave
newpath
translate
0.8 setlinewidth
1 setlinejoin
0 setlinecap
-0 0 m
-3.5 0 l

gsave
0.000 setgray
fill
grestore
stroke
grestore
} bind def
63.9 286.807 o
grestore
gsave
40.993750 283.009773 translate
0.000000 rotate
0.000000 0 m /one glyphshow
6.362305 0 m /period glyphshow
9.541016 0 m /two glyphshow
grestore
gsave
26.540625 98.001687 translate
90.000000 rotate
0.000000 0 m /S glyphshow
6.347656 0 m /q glyphshow
12.695312 0 m /u glyphshow
19.033203 0 m /a glyphshow
25.161133 0 m /r glyphshow
29.022461 0 m /e glyphshow
35.174805 0 m /d glyphshow
41.522461 0 m /space glyphshow
44.701172 0 m /n glyphshow
51.039062 0 m /o glyphshow
57.157227 0 m /r glyphshow
61.143555 0 m /m glyphshow
70.884766 0 m /space glyphshow
74.063477 0 m /o glyphshow
80.181641 0 m /f glyphshow
83.702148 0 m /space glyphshow
86.880859 0 m /t glyphshow
90.801758 0 m /h glyphshow
97.139648 0 m /e glyphshow
103.291992 0 m /space glyphshow
106.470703 0 m /r glyphshow
110.332031 0 m /e glyphshow
116.484375 0 m /s glyphshow
121.694336 0 m /i glyphshow
124.472656 0 m /d glyphshow
130.820312 0 m /u glyphshow
137.158203 0 m /a glyphshow
143.286133 0 m /l glyphshow
grestore
1.500 setlinewidth
2 setlinecap
0.000 0.000 1.000 setrgbcolor
gsave
396.2 266.1 63.9 38.02 clipbox
63.45314 255.167867 m
67.408735 252.404791 l
71.364329 249.500309 l
75.319924 247.297285 l
79.275519 245.810668 l
83.231113 245.397302 l
87.186708 237.925885 l
91.142303 236.258007 l
95.097897 234.800715 l
99.053492 229.16091 l
103.009087 228.867852 l
106.964681 228.607114 l
110.920276 212.698478 l
114.875871 212.256314 l
118.831465 211.908279 l
122.78706 211.906531 l
126.742655 211.824693 l
130.698249 205.887628 l
134.653844 204.315684 l
138.609439 200.145004 l
142.565033 197.838476 l
146.520628 197.380496 l
150.476223 197.138888 l
154.431817 197.110001 l
158.387412 194.689132 l
162.343007 194.072829 l
166.298601 193.230346 l
170.254196 193.187339 l
174.209791 191.132766 l
178.165385 190.119762 l
182.12098 190.060211 l
186.076575 189.029731 l
190.03217 187.85725 l
193.987764 187.69883 l
197.943359 187.080648 l
201.898954 186.685124 l
205.854548 178.410015 l
209.810143 178.384155 l
213.765738 177.059877 l
217.721332 164.534309 l
221.676927 164.481413 l
225.632522 163.952327 l
229.588116 163.922683 l
233.543711 163.859994 l
237.499306 162.676914 l
241.4549 162.673796 l
245.410495 161.689076 l
249.36609 161.685909 l
253.321684 161.677339 l
257.277279 161.504837 l
261.232874 160.826471 l
265.188468 160.808723 l
269.144063 160.613982 l
273.099658 160.600784 l
277.055252 153.512572 l
281.010847 151.384697 l
284.966442 150.927417 l
288.922036 150.729171 l
292.877631 150.729171 l
296.833226 150.729171 l
300.78882 150.729171 l
304.744415 150.729171 l
308.70001 150.729171 l
312.655604 150.729171 l
316.611199 150.729171 l
320.566794 150.729171 l
324.522388 150.729171 l
328.477983 150.729171 l
332.433578 150.729171 l
336.389172 150.729171 l
340.344767 150.729171 l
344.300362 150.729171 l
348.255956 150.729171 l
352.211551 150.729171 l
356.167146 150.729171 l
360.12274 150.729171 l
364.078335 150.729171 l
368.03393 150.729171 l
371.989524 150.729171 l
375.945119 150.729171 l
379.900714 150.729171 l
383.856308 150.729171 l
387.811903 150.729171 l
391.767498 150.729171 l
395.723092 150.729171 l
399.678687 150.729171 l
403.634282 150.729171 l
407.589876 150.729171 l
411.545471 150.729171 l
415.501066 150.729171 l
419.45666 150.729171 l
423.412255 150.729171 l
427.36785 150.729171 l
431.323444 150.729171 l
435.279039 150.729171 l
439.234634 150.729171 l
443.190228 150.729171 l
447.145823 150.729171 l
451.101418 150.729171 l
455.057012 150.729171 l
stroke
grestore
0.000 setgray
gsave
396.2 266.1 63.9 38.02 clipbox
63.45314 255.167867 m
67.408735 243.632991 l
71.364329 240.735874 l
75.319924 232.516908 l
79.275519 227.280139 l
83.231113 221.685249 l
87.186708 216.942039 l
91.142303 212.686737 l
95.097897 209.527062 l
99.053492 205.151376 l
103.009087 201.289969 l
106.964681 199.154026 l
110.920276 195.43554 l
114.875871 192.722986 l
118.831465 190.995836 l
122.78706 189.266222 l
126.742655 187.407573 l
130.698249 183.900768 l
134.653844 182.022482 l
138.609439 179.149832 l
142.565033 177.553983 l
146.520628 176.527574 l
150.476223 174.513044 l
154.431817 170.792442 l
158.387412 168.738549 l
162.343007 165.935973 l
166.298601 163.675224 l
170.254196 161.915464 l
174.209791 160.04813 l
178.165385 158.614535 l
182.12098 156.338925 l
186.076575 154.391868 l
190.03217 152.858203 l
193.987764 150.611858 l
197.943359 148.799147 l
201.898954 147.235101 l
205.854548 146.156227 l
209.810143 144.249282 l
213.765738 143.024407 l
217.721332 141.712905 l
221.676927 140.13478 l
225.632522 138.244429 l
229.588116 136.681492 l
233.543711 135.39617 l
237.499306 133.97962 l
241.4549 132.543241 l
245.410495 131.20662 l
249.36609 129.900403 l
253.321684 128.937497 l
257.277279 128.100388 l
261.232874 127.014081 l
265.188468 125.705689 l
269.144063 124.722188 l
273.099658 123.855564 l
277.055252 122.887505 l
281.010847 122.284208 l
284.966442 121.45982 l
288.922036 120.638702 l
292.877631 120.0766 l
296.833226 119.186379 l
300.78882 118.584474 l
304.744415 117.29395 l
308.70001 116.686375 l
312.655604 115.983557 l
316.611199 115.315215 l
320.566794 114.503911 l
324.522388 113.846864 l
328.477983 113.24778 l
332.433578 112.564867 l
336.389172 111.953988 l
340.344767 111.468347 l
344.300362 110.984247 l
348.255956 110.465032 l
352.211551 109.868034 l
356.167146 109.278842 l
360.12274 108.716234 l
364.078335 108.211315 l
368.03393 107.748247 l
371.989524 107.088448 l
375.945119 106.59147 l
379.900714 105.849713 l
383.856308 105.320301 l
387.811903 104.721687 l
391.767498 104.314433 l
395.723092 103.780546 l
399.678687 103.219785 l
403.634282 102.710867 l
407.589876 102.266331 l
411.545471 101.870802 l
415.501066 101.294302 l
419.45666 101.294302 l
423.412255 101.294302 l
427.36785 101.294302 l
431.323444 101.294302 l
435.279039 101.294302 l
439.234634 101.294302 l
443.190228 101.294302 l
447.145823 101.294302 l
451.101418 101.294302 l
455.057012 101.294302 l
stroke
grestore
1.000 0.000 0.000 setrgbcolor
gsave
396.2 266.1 63.9 38.02 clipbox
63.45314 255.167867 m
67.408735 254.09076 l
71.364329 253.080424 l
75.319924 252.336772 l
79.275519 251.062063 l
83.231113 249.223946 l
87.186708 245.363624 l
91.142303 242.913147 l
95.097897 239.565682 l
99.053492 239.078266 l
103.009087 236.428436 l
106.964681 235.324446 l
110.920276 235.226078 l
114.875871 226.65839 l
118.831465 226.417424 l
122.78706 226.315518 l
126.742655 220.816515 l
130.698249 220.795107 l
134.653844 217.34959 l
138.609439 201.72978 l
142.565033 198.717823 l
146.520628 193.663775 l
150.476223 193.655837 l
154.431817 192.827125 l
158.387412 191.101885 l
162.343007 190.94685 l
166.298601 189.628734 l
170.254196 189.085377 l
174.209791 189.03007 l
178.165385 187.72217 l
182.12098 187.619092 l
186.076575 187.327305 l
190.03217 187.285599 l
193.987764 185.614655 l
197.943359 184.709627 l
201.898954 184.09598 l
205.854548 184.077159 l
209.810143 183.41868 l
213.765738 183.185123 l
217.721332 178.287402 l
221.676927 175.528343 l
225.632522 174.301944 l
229.588116 174.296981 l
233.543711 174.233525 l
237.499306 171.059472 l
241.4549 169.842832 l
245.410495 168.969162 l
249.36609 168.357276 l
253.321684 167.700751 l
257.277279 167.514664 l
261.232874 156.549209 l
265.188468 156.366302 l
269.144063 156.241126 l
273.099658 156.030157 l
277.055252 155.992755 l
281.010847 151.346917 l
284.966442 150.355334 l
288.922036 149.910029 l
292.877631 147.397106 l
296.833226 144.08504 l
300.78882 144.061932 l
304.744415 143.802974 l
308.70001 142.676383 l
312.655604 139.557409 l
316.611199 139.192955 l
320.566794 138.583244 l
324.522388 138.310727 l
328.477983 137.650947 l
332.433578 136.160014 l
336.389172 133.73808 l
340.344767 133.67141 l
344.300362 133.483957 l
348.255956 133.298223 l
352.211551 132.728701 l
356.167146 131.63669 l
360.12274 131.468926 l
364.078335 131.268418 l
368.03393 128.78182 l
371.989524 128.533328 l
375.945119 127.462336 l
379.900714 127.303918 l
383.856308 127.202537 l
387.811903 126.541344 l
391.767498 126.533792 l
395.723092 123.43178 l
399.678687 123.17004 l
403.634282 122.89539 l
407.589876 122.866819 l
411.545471 122.480465 l
415.501066 122.408152 l
419.45666 122.406932 l
423.412255 122.327585 l
427.36785 122.207035 l
431.323444 114.708614 l
435.279039 106.30857 l
439.234634 105.907925 l
443.190228 105.382209 l
447.145823 105.333569 l
451.101418 104.430756 l
455.057012 97.206551 l
stroke
grestore
0 setlinecap
[5.55 2.4] 0 setdash
0.000 0.000 1.000 setrgbcolor
gsave
396.2 266.1 63.9 38.02 clipbox
63.45314 286.436812 m
67.408735 283.673734 l
71.364329 280.769255 l
75.319924 278.566229 l
79.275519 277.079613 l
83.231113 276.666246 l
87.186708 269.194829 l
91.142303 267.526952 l
95.097897 266.069661 l
99.053492 260.429855 l
103.009087 260.136798 l
106.964681 259.876059 l
110.920276 243.967424 l
114.875871 243.525259 l
118.831465 243.177225 l
122.78706 243.175477 l
126.742655 243.093637 l
130.698249 237.156572 l
134.653844 235.584628 l
138.609439 231.41395 l
142.565033 229.107421 l
146.520628 228.649442 l
150.476223 228.407834 l
154.431817 228.378946 l
158.387412 225.958078 l
162.343007 225.341775 l
166.298601 224.499291 l
170.254196 224.456285 l
174.209791 222.401711 l
178.165385 221.388707 l
182.12098 221.329156 l
186.076575 220.298677 l
190.03217 219.126196 l
193.987764 218.967776 l
197.943359 218.349593 l
201.898954 217.954067 l
205.854548 209.67896 l
209.810143 209.6531 l
213.765738 208.328823 l
217.721332 195.803252 l
221.676927 195.750359 l
225.632522 195.221271 l
229.588116 195.191629 l
233.543711 195.128938 l
237.499306 193.94586 l
241.4549 193.94274 l
245.410495 192.95802 l
249.36609 192.954853 l
253.321684 192.946283 l
257.277279 192.773782 l
261.232874 192.095417 l
265.188468 192.077667 l
269.144063 191.882928 l
273.099658 191.869729 l
277.055252 184.781518 l
281.010847 182.653641 l
284.966442 182.196362 l
288.922036 181.998115 l
292.877631 181.998115 l
296.833226 181.998115 l
300.78882 181.998115 l
304.744415 181.998115 l
308.70001 181.998115 l
312.655604 181.998115 l
316.611199 181.998115 l
320.566794 181.998115 l
324.522388 181.998115 l
328.477983 181.998115 l
332.433578 181.998115 l
336.389172 181.998115 l
340.344767 181.998115 l
344.300362 181.998115 l
348.255956 181.998115 l
352.211551 181.998115 l
356.167146 181.998115 l
360.12274 181.998115 l
364.078335 181.998115 l
368.03393 181.998115 l
371.989524 181.998115 l
375.945119 181.998115 l
379.900714 181.998115 l
383.856308 181.998115 l
387.811903 181.998115 l
391.767498 181.998115 l
395.723092 181.998115 l
399.678687 181.998115 l
403.634282 181.998115 l
407.589876 181.998115 l
411.545471 181.998115 l
415.501066 181.998115 l
419.45666 181.998115 l
423.412255 181.998115 l
427.36785 181.998115 l
431.323444 181.998115 l
435.279039 181.998115 l
439.234634 181.998115 l
443.190228 181.998115 l
447.145823 181.998115 l
451.101418 181.998115 l
455.057012 181.998115 l
stroke
grestore
0.000 setgray
gsave
396.2 266.1 63.9 38.02 clipbox
63.45314 295.303543 m
67.408735 283.768668 l
71.364329 280.871549 l
75.319924 272.652585 l
79.275519 267.415816 l
83.231113 261.820927 l
87.186708 257.077717 l
91.142303 252.822413 l
95.097897 249.662738 l
99.053492 245.287052 l
103.009087 241.425645 l
106.964681 239.289701 l
110.920276 235.571218 l
114.875871 232.858664 l
118.831465 231.131512 l
122.78706 229.401899 l
126.742655 227.543249 l
130.698249 224.036444 l
134.653844 222.158159 l
138.609439 219.285508 l
142.565033 217.689661 l
146.520628 216.663249 l
150.476223 214.64872 l
154.431817 210.928119 l
158.387412 208.874225 l
162.343007 206.071649 l
166.298601 203.8109 l
170.254196 202.051141 l
174.209791 200.183808 l
178.165385 198.75021 l
182.12098 196.4746 l
186.076575 194.527544 l
190.03217 192.993879 l
193.987764 190.747533 l
197.943359 188.934823 l
201.898954 187.370777 l
205.854548 186.291904 l
209.810143 184.384957 l
213.765738 183.160082 l
217.721332 181.848581 l
221.676927 180.270456 l
225.632522 178.380105 l
229.588116 176.81717 l
233.543711 175.531847 l
237.499306 174.115297 l
241.4549 172.678917 l
245.410495 171.342297 l
249.36609 170.036079 l
253.321684 169.073175 l
257.277279 168.236063 l
261.232874 167.149757 l
265.188468 165.841365 l
269.144063 164.857864 l
273.099658 163.99124 l
277.055252 163.02318 l
281.010847 162.419886 l
284.966442 161.595498 l
288.922036 160.774378 l
292.877631 160.212277 l
296.833226 159.322057 l
300.78882 158.72015 l
304.744415 157.429626 l
308.70001 156.82205 l
312.655604 156.119233 l
316.611199 155.450891 l
320.566794 154.639588 l
324.522388 153.98254 l
328.477983 153.383456 l
332.433578 152.700542 l
336.389172 152.089664 l
340.344767 151.604023 l
344.300362 151.119923 l
348.255956 150.600708 l
352.211551 150.00371 l
356.167146 149.414518 l
360.12274 148.851911 l
364.078335 148.346991 l
368.03393 147.883922 l
371.989524 147.224124 l
375.945119 146.727145 l
379.900714 145.98539 l
383.856308 145.455978 l
387.811903 144.857365 l
391.767498 144.450109 l
395.723092 143.916222 l
399.678687 143.355461 l
403.634282 142.846543 l
407.589876 142.402007 l
411.545471 142.006478 l
415.501066 141.429978 l
419.45666 141.429978 l
423.412255 141.429978 l
427.36785 141.429978 l
431.323444 141.429978 l
435.279039 141.429978 l
439.234634 141.429978 l
443.190228 141.429978 l
447.145823 141.429978 l
451.101418 141.429978 l
455.057012 141.429978 l
stroke
grestore
1.000 0.000 0.000 setrgbcolor
gsave
396.2 266.1 63.9 38.02 clipbox
63.45314 295.303543 m
67.408735 294.226437 l
71.364329 293.2161 l
75.319924 292.472448 l
79.275519 291.19774 l
83.231113 289.359622 l
87.186708 285.4993 l
91.142303 283.048824 l
95.097897 279.701357 l
99.053492 279.213941 l
103.009087 276.564111 l
106.964681 275.460123 l
110.920276 275.361755 l
114.875871 266.794067 l
118.831465 266.553101 l
122.78706 266.451194 l
126.742655 260.952192 l
130.698249 260.930782 l
134.653844 257.485267 l
138.609439 241.865457 l
142.565033 238.853499 l
146.520628 233.799451 l
150.476223 233.791512 l
154.431817 232.962801 l
158.387412 231.237562 l
162.343007 231.082526 l
166.298601 229.764411 l
170.254196 229.221053 l
174.209791 229.165746 l
178.165385 227.857846 l
182.12098 227.75477 l
186.076575 227.462981 l
190.03217 227.421275 l
193.987764 225.750331 l
197.943359 224.845302 l
201.898954 224.231656 l
205.854548 224.212835 l
209.810143 223.554358 l
213.765738 223.3208 l
217.721332 218.423078 l
221.676927 215.664019 l
225.632522 214.437619 l
229.588116 214.432657 l
233.543711 214.369201 l
237.499306 211.195149 l
241.4549 209.978508 l
245.410495 209.104838 l
249.36609 208.492952 l
253.321684 207.836428 l
257.277279 207.650342 l
261.232874 196.684886 l
265.188468 196.501978 l
269.144063 196.376802 l
273.099658 196.165833 l
277.055252 196.128431 l
281.010847 191.482593 l
284.966442 190.491009 l
288.922036 190.045706 l
292.877631 187.532783 l
296.833226 184.220717 l
300.78882 184.19761 l
304.744415 183.938651 l
308.70001 182.812059 l
312.655604 179.693084 l
316.611199 179.328631 l
320.566794 178.718922 l
324.522388 178.446402 l
328.477983 177.786625 l
332.433578 176.295691 l
336.389172 173.873755 l
340.344767 173.807088 l
344.300362 173.619633 l
348.255956 173.433899 l
352.211551 172.864377 l
356.167146 171.772366 l
360.12274 171.604603 l
364.078335 171.404094 l
368.03393 168.917496 l
371.989524 168.669004 l
375.945119 167.598012 l
379.900714 167.439593 l
383.856308 167.338213 l
387.811903 166.67702 l
391.767498 166.669469 l
395.723092 163.567457 l
399.678687 163.305716 l
403.634282 163.031068 l
407.589876 163.002495 l
411.545471 162.616141 l
415.501066 162.543829 l
419.45666 162.542608 l
423.412255 162.463262 l
427.36785 162.342711 l
431.323444 154.84429 l
435.279039 146.444246 l
439.234634 146.043601 l
443.190228 145.517884 l
447.145823 145.469246 l
451.101418 144.566432 l
455.057012 137.342229 l
stroke
grestore
0.000 0.000 1.000 setrgbcolor
gsave
396.2 266.1 63.9 38.02 clipbox
63.45314 223.898922 m
67.408735 221.135845 l
71.364329 218.231364 l
75.319924 216.02834 l
79.275519 214.541722 l
83.231113 214.128357 l
87.186708 206.656939 l
91.142303 204.989061 l
95.097897 203.531771 l
99.053492 197.891966 l
103.009087 197.598907 l
106.964681 197.33817 l
110.920276 181.429534 l
114.875871 180.98737 l
118.831465 180.639335 l
122.78706 180.637587 l
126.742655 180.555747 l
130.698249 174.618683 l
134.653844 173.046738 l
138.609439 168.87606 l
142.565033 166.569532 l
146.520628 166.111552 l
150.476223 165.869944 l
154.431817 165.841057 l
158.387412 163.420187 l
162.343007 162.803886 l
166.298601 161.961402 l
170.254196 161.918394 l
174.209791 159.863822 l
178.165385 158.850818 l
182.12098 158.791267 l
186.076575 157.760787 l
190.03217 156.588306 l
193.987764 156.429886 l
197.943359 155.811702 l
201.898954 155.416178 l
205.854548 147.141069 l
209.810143 147.115211 l
213.765738 145.790933 l
217.721332 133.265363 l
221.676927 133.212468 l
225.632522 132.683382 l
229.588116 132.65374 l
233.543711 132.591049 l
237.499306 131.407971 l
241.4549 131.404851 l
245.410495 130.42013 l
249.36609 130.416963 l
253.321684 130.408394 l
257.277279 130.235893 l
261.232874 129.557527 l
265.188468 129.539778 l
269.144063 129.345037 l
273.099658 129.33184 l
277.055252 122.243627 l
281.010847 120.115751 l
284.966442 119.658471 l
288.922036 119.460226 l
292.877631 119.460226 l
296.833226 119.460226 l
300.78882 119.460226 l
304.744415 119.460226 l
308.70001 119.460226 l
312.655604 119.460226 l
316.611199 119.460226 l
320.566794 119.460226 l
324.522388 119.460226 l
328.477983 119.460226 l
332.433578 119.460226 l
336.389172 119.460226 l
340.344767 119.460226 l
344.300362 119.460226 l
348.255956 119.460226 l
352.211551 119.460226 l
356.167146 119.460226 l
360.12274 119.460226 l
364.078335 119.460226 l
368.03393 119.460226 l
371.989524 119.460226 l
375.945119 119.460226 l
379.900714 119.460226 l
383.856308 119.460226 l
387.811903 119.460226 l
391.767498 119.460226 l
395.723092 119.460226 l
399.678687 119.460226 l
403.634282 119.460226 l
407.589876 119.460226 l
411.545471 119.460226 l
415.501066 119.460226 l
419.45666 119.460226 l
423.412255 119.460226 l
427.36785 119.460226 l
431.323444 119.460226 l
435.279039 119.460226 l
439.234634 119.460226 l
443.190228 119.460226 l
447.145823 119.460226 l
451.101418 119.460226 l
455.057012 119.460226 l
stroke
grestore
0.000 setgray
gsave
396.2 266.1 63.9 38.02 clipbox
63.45314 214.573038 m
67.408735 203.038162 l
71.364329 200.141045 l
75.319924 191.922079 l
79.275519 186.68531 l
83.231113 181.090421 l
87.186708 176.34721 l
91.142303 172.091908 l
95.097897 168.932234 l
99.053492 164.556547 l
103.009087 160.69514 l
106.964681 158.559197 l
110.920276 154.840711 l
114.875871 152.128157 l
118.831465 150.401007 l
122.78706 148.671393 l
126.742655 146.812744 l
130.698249 143.30594 l
134.653844 141.427653 l
138.609439 138.555003 l
142.565033 136.959154 l
146.520628 135.932745 l
150.476223 133.918215 l
154.431817 130.197613 l
158.387412 128.14372 l
162.343007 125.341144 l
166.298601 123.080395 l
170.254196 121.320635 l
174.209791 119.453302 l
178.165385 118.019706 l
182.12098 115.744096 l
186.076575 113.797039 l
190.03217 112.263374 l
193.987764 110.017029 l
197.943359 108.204318 l
201.898954 106.640272 l
205.854548 105.561398 l
209.810143 103.654453 l
213.765738 102.429578 l
217.721332 101.118076 l
221.676927 99.539951 l
225.632522 97.6496 l
229.588116 96.086664 l
233.543711 94.801341 l
237.499306 93.384791 l
241.4549 91.948412 l
245.410495 90.611791 l
249.36609 89.305574 l
253.321684 88.342669 l
257.277279 87.505559 l
261.232874 86.419252 l
265.188468 85.110861 l
269.144063 84.12736 l
273.099658 83.260735 l
277.055252 82.292676 l
281.010847 81.689379 l
284.966442 80.864992 l
288.922036 80.043873 l
292.877631 79.481771 l
296.833226 78.591551 l
300.78882 77.989645 l
304.744415 76.699121 l
308.70001 76.091546 l
312.655604 75.388728 l
316.611199 74.720386 l
320.566794 73.909082 l
324.522388 73.252035 l
328.477983 72.652951 l
332.433578 71.970038 l
336.389172 71.359159 l
340.344767 70.873518 l
344.300362 70.389418 l
348.255956 69.870204 l
352.211551 69.273205 l
356.167146 68.684014 l
360.12274 68.121405 l
364.078335 67.616486 l
368.03393 67.153418 l
371.989524 66.49362 l
375.945119 65.996641 l
379.900714 65.254884 l
383.856308 64.725472 l
387.811903 64.126858 l
391.767498 63.719604 l
395.723092 63.185717 l
399.678687 62.624956 l
403.634282 62.116038 l
407.589876 61.671502 l
411.545471 61.275973 l
415.501066 60.699474 l
419.45666 56.379135 l
423.412255 56.379135 l
427.36785 56.379135 l
431.323444 56.379135 l
435.279039 56.379135 l
439.234634 56.379135 l
443.190228 56.379135 l
447.145823 56.379135 l
451.101418 56.379135 l
455.057012 56.379135 l
stroke
grestore
1.000 0.000 0.000 setrgbcolor
gsave
396.2 266.1 63.9 38.02 clipbox
63.45314 214.573038 m
67.408735 213.495931 l
71.364329 212.485595 l
75.319924 211.741943 l
79.275519 210.467234 l
83.231113 208.629117 l
87.186708 204.768795 l
91.142303 202.31832 l
95.097897 198.970853 l
99.053492 198.483437 l
103.009087 195.833607 l
106.964681 194.729617 l
110.920276 194.631249 l
114.875871 186.063561 l
118.831465 185.822595 l
122.78706 185.72069 l
126.742655 180.221686 l
130.698249 180.200278 l
134.653844 176.754761 l
138.609439 161.134951 l
142.565033 158.122994 l
146.520628 153.068946 l
150.476223 153.061008 l
154.431817 152.232296 l
158.387412 150.507056 l
162.343007 150.352021 l
166.298601 149.033905 l
170.254196 148.490549 l
174.209791 148.435241 l
178.165385 147.127341 l
182.12098 147.024264 l
186.076575 146.732477 l
190.03217 146.69077 l
193.987764 145.019827 l
197.943359 144.114798 l
201.898954 143.501151 l
205.854548 143.482331 l
209.810143 142.823852 l
213.765738 142.590294 l
217.721332 137.692573 l
221.676927 134.933515 l
225.632522 133.707115 l
229.588116 133.702152 l
233.543711 133.638696 l
237.499306 130.464644 l
241.4549 129.248004 l
245.410495 128.374333 l
249.36609 127.762447 l
253.321684 127.105922 l
257.277279 126.919835 l
261.232874 115.95438 l
265.188468 115.771473 l
269.144063 115.646297 l
273.099658 115.435328 l
277.055252 115.397926 l
281.010847 110.752088 l
284.966442 109.760505 l
288.922036 109.3152 l
292.877631 106.802277 l
296.833226 103.490211 l
300.78882 103.467104 l
304.744415 103.208145 l
308.70001 102.081554 l
312.655604 98.96258 l
316.611199 98.598126 l
320.566794 97.988417 l
324.522388 97.715898 l
328.477983 97.056119 l
332.433578 95.565185 l
336.389172 93.143251 l
340.344767 93.076582 l
344.300362 92.889128 l
348.255956 92.703394 l
352.211551 92.133873 l
356.167146 91.041862 l
360.12274 90.874097 l
364.078335 90.673589 l
368.03393 88.186992 l
371.989524 87.938499 l
375.945119 86.867507 l
379.900714 86.709089 l
383.856308 86.607709 l
387.811903 85.946515 l
391.767498 85.938963 l
395.723092 82.836951 l
399.678687 82.575212 l
403.634282 82.300562 l
407.589876 82.27199 l
411.545471 81.885636 l
415.501066 81.813323 l
419.45666 81.812103 l
423.412255 81.732756 l
427.36785 81.612206 l
431.323444 74.113785 l
435.279039 65.713741 l
439.234634 65.313096 l
443.190228 64.78738 l
447.145823 64.73874 l
451.101418 63.835927 l
455.057012 56.611723 l
stroke
grestore
0.800 setlinewidth
0 setlinejoin
2 setlinecap
[] 0 setdash
0.000 setgray
gsave
63.9 38.016 m
63.9 304.128 l
stroke
grestore
gsave
460.08 38.016 m
460.08 304.128 l
stroke
grestore
gsave
63.9 38.016 m
460.08 38.016 l
stroke
grestore
gsave
63.9 304.128 m
460.08 304.128 l
stroke
grestore
/DejaVuSans findfont
12.000 scalefont
setfont
gsave
21.318125 310.128000 translate
0.000000 rotate
0.000000 0 m /D glyphshow
9.240234 0 m /e glyphshow
16.623047 0 m /c glyphshow
23.220703 0 m /r glyphshow
27.904297 0 m /e glyphshow
35.287109 0 m /a glyphshow
42.640625 0 m /s glyphshow
48.892578 0 m /i glyphshow
52.226562 0 m /n glyphshow
59.832031 0 m /g glyphshow
67.449219 0 m /space glyphshow
71.263672 0 m /o glyphshow
78.605469 0 m /f glyphshow
82.830078 0 m /space glyphshow
86.644531 0 m /t glyphshow
91.349609 0 m /h glyphshow
98.955078 0 m /e glyphshow
106.337891 0 m /space glyphshow
110.152344 0 m /n glyphshow
117.757812 0 m /o glyphshow
125.099609 0 m /r glyphshow
129.783203 0 m /m glyphshow
141.472656 0 m /space glyphshow
145.287109 0 m /o glyphshow
152.628906 0 m /f glyphshow
156.853516 0 m /space glyphshow
160.667969 0 m /t glyphshow
165.373047 0 m /h glyphshow
172.978516 0 m /e glyphshow
180.361328 0 m /space glyphshow
184.175781 0 m /r glyphshow
188.859375 0 m /e glyphshow
196.242188 0 m /s glyphshow
202.494141 0 m /i glyphshow
205.828125 0 m /d glyphshow
213.445312 0 m /u glyphshow
221.050781 0 m /a glyphshow
228.404297 0 m /l glyphshow
231.738281 0 m /period glyphshow
235.552734 0 m /space glyphshow
239.367188 0 m /M glyphshow
249.720703 0 m /e glyphshow
257.103516 0 m /a glyphshow
264.457031 0 m /n glyphshow
272.062500 0 m /space glyphshow
275.876953 0 m /a glyphshow
283.230469 0 m /n glyphshow
290.835938 0 m /d glyphshow
298.453125 0 m /space glyphshow
302.267578 0 m /S glyphshow
309.884766 0 m /t glyphshow
314.589844 0 m /d glyphshow
322.207031 0 m /space glyphshow
326.021484 0 m /f glyphshow
330.246094 0 m /o glyphshow
337.587891 0 m /r glyphshow
342.521484 0 m /space glyphshow
346.335938 0 m /t glyphshow
351.041016 0 m /h glyphshow
358.646484 0 m /e glyphshow
366.029297 0 m /space glyphshow
369.843750 0 m /d glyphshow
377.460938 0 m /i glyphshow
380.794922 0 m /f glyphshow
385.019531 0 m /f glyphshow
389.244141 0 m /e glyphshow
396.626953 0 m /r glyphshow
401.310547 0 m /e glyphshow
408.693359 0 m /n glyphshow
416.298828 0 m /t glyphshow
421.003906 0 m /space glyphshow
424.818359 0 m /m glyphshow
436.507812 0 m /e glyphshow
443.890625 0 m /t glyphshow
448.595703 0 m /h glyphshow
456.201172 0 m /o glyphshow
463.542969 0 m /d glyphshow
471.160156 0 m /s glyphshow
477.412109 0 m /period glyphshow
grestore
1.000 setlinewidth
0 setlinecap
0.800 setgray
gsave
372.09875 227.228 m
454.48 227.228 l
455.546667 227.228 456.08 227.761333 456.08 228.828 c
456.08 298.528 l
456.08 299.594667 455.546667 300.128 454.48 300.128 c
372.09875 300.128 l
371.032083 300.128 370.49875 299.594667 370.49875 298.528 c
370.49875 228.828 l
370.49875 227.761333 371.032083 227.228 372.09875 227.228 c
cl
gsave
1.000 setgray
fill
grestore
stroke
grestore
1.500 setlinewidth
1 setlinejoin
2 setlinecap
0.000 0.000 1.000 setrgbcolor
gsave
373.69875 293.649875 m
389.69875 293.649875 l
stroke
grestore
0.000 setgray
/DejaVuSans findfont
8.000 scalefont
setfont
gsave
396.098750 290.849875 translate
0.000000 rotate
0.000000 0 m /M glyphshow
6.902344 0 m /e glyphshow
11.824219 0 m /a glyphshow
16.726562 0 m /n glyphshow
21.796875 0 m /space glyphshow
24.339844 0 m /o glyphshow
29.234375 0 m /f glyphshow
32.050781 0 m /space glyphshow
34.593750 0 m /A glyphshow
40.066406 0 m /S glyphshow
45.144531 0 m /V glyphshow
50.617188 0 m /D glyphshow
grestore
gsave
373.69875 281.899875 m
389.69875 281.899875 l
stroke
grestore
gsave
396.098750 279.099875 translate
0.000000 rotate
0.000000 0 m /M glyphshow
6.902344 0 m /e glyphshow
11.824219 0 m /a glyphshow
16.726562 0 m /n glyphshow
21.796875 0 m /space glyphshow
24.339844 0 m /o glyphshow
29.234375 0 m /f glyphshow
32.050781 0 m /space glyphshow
34.593750 0 m /C glyphshow
40.179688 0 m /P glyphshow
45.003906 0 m /T glyphshow
49.765625 0 m /T glyphshow
grestore
1.000 0.000 0.000 setrgbcolor
gsave
373.69875 270.149875 m
389.69875 270.149875 l
stroke
grestore
0.000 setgray
gsave
396.098750 267.349875 translate
0.000000 rotate
0.000000 0 m /M glyphshow
6.902344 0 m /e glyphshow
11.824219 0 m /a glyphshow
16.726562 0 m /n glyphshow
21.796875 0 m /space glyphshow
24.339844 0 m /o glyphshow
29.234375 0 m /f glyphshow
32.050781 0 m /space glyphshow
34.593750 0 m /A glyphshow
40.066406 0 m /L glyphshow
44.523438 0 m /S glyphshow
grestore
0 setlinecap
[5.55 2.4] 0 setdash
0.000 0.000 1.000 setrgbcolor
gsave
373.69875 258.399875 m
389.69875 258.399875 l
stroke
grestore
0.000 setgray
gsave
396.098750 255.599875 translate
0.000000 rotate
0.000000 0 m /S glyphshow
5.078125 0 m /t glyphshow
8.214844 0 m /d glyphshow
13.292969 0 m /space glyphshow
15.835938 0 m /o glyphshow
20.730469 0 m /f glyphshow
23.546875 0 m /space glyphshow
26.089844 0 m /A glyphshow
31.562500 0 m /S glyphshow
36.640625 0 m /V glyphshow
42.113281 0 m /D glyphshow
grestore
gsave
373.69875 246.649875 m
389.69875 246.649875 l
stroke
grestore
gsave
396.098750 243.849875 translate
0.000000 rotate
0.000000 0 m /S glyphshow
5.078125 0 m /t glyphshow
8.214844 0 m /d glyphshow
13.292969 0 m /space glyphshow
15.835938 0 m /o glyphshow
20.730469 0 m /f glyphshow
23.546875 0 m /space glyphshow
26.089844 0 m /C glyphshow
31.675781 0 m /P glyphshow
36.500000 0 m /T glyphshow
41.261719 0 m /T glyphshow
grestore
1.000 0.000 0.000 setrgbcolor
gsave
373.69875 234.899875 m
389.69875 234.899875 l
stroke
grestore
0.000 setgray
gsave
396.098750 232.099875 translate
0.000000 rotate
0.000000 0 m /S glyphshow
5.078125 0 m /t glyphshow
8.214844 0 m /d glyphshow
13.292969 0 m /space glyphshow
15.835938 0 m /o glyphshow
20.730469 0 m /f glyphshow
23.546875 0 m /space glyphshow
26.089844 0 m /A glyphshow
31.562500 0 m /L glyphshow
36.019531 0 m /S glyphshow
grestore

end
showpage
