%!PS-Adobe-3.0 EPSF-3.0
%%Title: /Users/mfuentez/Documents/ADAPT-master/code/tensLib/Outputs/CPTTvsALS_16d/ASVDvsALSvsCPTT_dim16_beta8.1/time_16_py.eps
%%Creator: matplotlib version 3.3.4, http://matplotlib.org/
%%CreationDate: Tue Nov 16 12:31:41 2021
%%Orientation: portrait
%%BoundingBox: 75.6 223.20000000000002 536.4 568.8
%%EndComments
%%BeginProlog
/mpldict 8 dict def
mpldict begin
/m { moveto } bind def
/l { lineto } bind def
/r { rlineto } bind def
/c { curveto } bind def
/cl { closepath } bind def
/box {
      m
      1 index 0 r
      0 exch r
      neg 0 r
      cl
    } bind def
/clipbox {
      box
      clip
      newpath
    } bind def
%!PS-Adobe-3.0 Resource-Font
%%Title: DejaVu Sans
%%Copyright: Copyright (c) 2003 by Bitstream, Inc. All Rights Reserved. Copyright (c) 2006 by Tavmjong Bah. All Rights Reserved. DejaVu changes are in public domain 
%%Creator: Converted from TrueType to type 3 by PPR
25 dict begin
/_d{bind def}bind def
/_m{moveto}_d
/_l{lineto}_d
/_cl{closepath eofill}_d
/_c{curveto}_d
/_sc{7 -1 roll{setcachedevice}{pop pop pop pop pop pop}ifelse}_d
/_e{exec}_d
/FontName /DejaVuSans def
/PaintType 0 def
/FontMatrix[.001 0 0 .001 0 0]def
/FontBBox[-1021 -463 1793 1232]def
/FontType 3 def
/Encoding [ /space /period /zero /one /two /four /five /six /eight /A /C /D /L /M /P /S /T /V /a /c /d /e /f /g /h /i /l /m /n /o /q /r /s /t /u /w ] def
/FontInfo 10 dict dup begin
/FamilyName (DejaVu Sans) def
/FullName (DejaVu Sans) def
/Notice (Copyright (c) 2003 by Bitstream, Inc. All Rights Reserved. Copyright (c) 2006 by Tavmjong Bah. All Rights Reserved. DejaVu changes are in public domain ) def
/Weight (Book) def
/Version (Version 2.35) def
/ItalicAngle 0.0 def
/isFixedPitch false def
/UnderlinePosition -130 def
/UnderlineThickness 90 def
end readonly def
/CharStrings 37 dict dup begin
/.notdef 0 def
/space{318 0 0 0 0 0 _sc
}_d
/period{318 0 107 0 210 124 _sc
107 124 _m
210 124 _l
210 0 _l
107 0 _l
107 124 _l
_cl}_d
/zero{636 0 66 -13 570 742 _sc
318 664 _m
267 664 229 639 203 589 _c
177 539 165 464 165 364 _c
165 264 177 189 203 139 _c
229 89 267 64 318 64 _c
369 64 407 89 433 139 _c
458 189 471 264 471 364 _c
471 464 458 539 433 589 _c
407 639 369 664 318 664 _c
318 742 _m
399 742 461 709 505 645 _c
548 580 570 486 570 364 _c
570 241 548 147 505 83 _c
461 19 399 -13 318 -13 _c
236 -13 173 19 130 83 _c
87 147 66 241 66 364 _c
66 486 87 580 130 645 _c
173 709 236 742 318 742 _c
_cl}_d
/one{636 0 110 0 544 729 _sc
124 83 _m
285 83 _l
285 639 _l
110 604 _l
110 694 _l
284 729 _l
383 729 _l
383 83 _l
544 83 _l
544 0 _l
124 0 _l
124 83 _l
_cl}_d
/two{{636 0 73 0 536 742 _sc
192 83 _m
536 83 _l
536 0 _l
73 0 _l
73 83 _l
110 121 161 173 226 239 _c
290 304 331 346 348 365 _c
380 400 402 430 414 455 _c
426 479 433 504 433 528 _c
433 566 419 598 392 622 _c
365 646 330 659 286 659 _c
255 659 222 653 188 643 _c
154 632 117 616 78 594 _c
78 694 _l
118 710 155 722 189 730 _c
223 738 255 742 284 742 _c
}_e{359 742 419 723 464 685 _c
509 647 532 597 532 534 _c
532 504 526 475 515 449 _c
504 422 484 390 454 354 _c
446 344 420 317 376 272 _c
332 227 271 164 192 83 _c
_cl}_e}_d
/four{636 0 49 0 580 729 _sc
378 643 _m
129 254 _l
378 254 _l
378 643 _l
352 729 _m
476 729 _l
476 254 _l
580 254 _l
580 172 _l
476 172 _l
476 0 _l
378 0 _l
378 172 _l
49 172 _l
49 267 _l
352 729 _l
_cl}_d
/five{{636 0 77 -13 549 729 _sc
108 729 _m
495 729 _l
495 646 _l
198 646 _l
198 467 _l
212 472 227 476 241 478 _c
255 480 270 482 284 482 _c
365 482 429 459 477 415 _c
525 370 549 310 549 234 _c
549 155 524 94 475 51 _c
426 8 357 -13 269 -13 _c
238 -13 207 -10 175 -6 _c
143 -1 111 6 77 17 _c
77 116 _l
106 100 136 88 168 80 _c
199 72 232 69 267 69 _c
}_e{323 69 368 83 401 113 _c
433 143 450 183 450 234 _c
450 284 433 324 401 354 _c
368 384 323 399 267 399 _c
241 399 214 396 188 390 _c
162 384 135 375 108 363 _c
108 729 _l
_cl}_e}_d
/six{{636 0 70 -13 573 742 _sc
330 404 _m
286 404 251 388 225 358 _c
199 328 186 286 186 234 _c
186 181 199 139 225 109 _c
251 79 286 64 330 64 _c
374 64 409 79 435 109 _c
461 139 474 181 474 234 _c
474 286 461 328 435 358 _c
409 388 374 404 330 404 _c
526 713 _m
526 623 _l
501 635 476 644 451 650 _c
425 656 400 659 376 659 _c
310 659 260 637 226 593 _c
}_e{192 549 172 482 168 394 _c
187 422 211 444 240 459 _c
269 474 301 482 336 482 _c
409 482 467 459 509 415 _c
551 371 573 310 573 234 _c
573 159 550 99 506 54 _c
462 9 403 -13 330 -13 _c
246 -13 181 19 137 83 _c
92 147 70 241 70 364 _c
70 479 97 571 152 639 _c
206 707 280 742 372 742 _c
396 742 421 739 447 735 _c
472 730 498 723 526 713 _c
_cl}_e}_d
/eight{{636 0 68 -13 568 742 _sc
318 346 _m
271 346 234 333 207 308 _c
180 283 167 249 167 205 _c
167 161 180 126 207 101 _c
234 76 271 64 318 64 _c
364 64 401 76 428 102 _c
455 127 469 161 469 205 _c
469 249 455 283 429 308 _c
402 333 365 346 318 346 _c
219 388 _m
177 398 144 418 120 447 _c
96 476 85 511 85 553 _c
85 611 105 657 147 691 _c
188 725 245 742 318 742 _c
}_e{390 742 447 725 489 691 _c
530 657 551 611 551 553 _c
551 511 539 476 515 447 _c
491 418 459 398 417 388 _c
464 377 501 355 528 323 _c
554 291 568 251 568 205 _c
568 134 546 80 503 43 _c
459 5 398 -13 318 -13 _c
237 -13 175 5 132 43 _c
89 80 68 134 68 205 _c
68 251 81 291 108 323 _c
134 355 171 377 219 388 _c
183 544 _m
183 506 194 476 218 455 _c
}_e{242 434 275 424 318 424 _c
360 424 393 434 417 455 _c
441 476 453 506 453 544 _c
453 582 441 611 417 632 _c
393 653 360 664 318 664 _c
275 664 242 653 218 632 _c
194 611 183 582 183 544 _c
_cl}_e}_d
/A{684 0 8 0 676 729 _sc
342 632 _m
208 269 _l
476 269 _l
342 632 _l
286 729 _m
398 729 _l
676 0 _l
573 0 _l
507 187 _l
178 187 _l
112 0 _l
8 0 _l
286 729 _l
_cl}_d
/C{{698 0 56 -13 644 742 _sc
644 673 _m
644 569 _l
610 599 575 622 537 638 _c
499 653 460 661 418 661 _c
334 661 270 635 226 584 _c
182 533 160 460 160 364 _c
160 268 182 194 226 143 _c
270 92 334 67 418 67 _c
460 67 499 74 537 90 _c
575 105 610 128 644 159 _c
644 56 _l
609 32 572 15 534 4 _c
496 -7 455 -13 412 -13 _c
302 -13 215 20 151 87 _c
}_e{87 154 56 246 56 364 _c
56 481 87 573 151 641 _c
215 708 302 742 412 742 _c
456 742 497 736 535 725 _c
573 713 610 696 644 673 _c
_cl}_e}_d
/D{770 0 98 0 711 729 _sc
197 648 _m
197 81 _l
316 81 _l
416 81 490 103 537 149 _c
583 195 607 267 607 365 _c
607 463 583 534 537 580 _c
490 625 416 648 316 648 _c
197 648 _l
98 729 _m
301 729 _l
442 729 546 699 612 641 _c
678 582 711 490 711 365 _c
711 239 677 147 611 88 _c
545 29 441 0 301 0 _c
98 0 _l
98 729 _l
_cl}_d
/L{557 0 98 0 552 729 _sc
98 729 _m
197 729 _l
197 83 _l
552 83 _l
552 0 _l
98 0 _l
98 729 _l
_cl}_d
/M{863 0 98 0 765 729 _sc
98 729 _m
245 729 _l
431 233 _l
618 729 _l
765 729 _l
765 0 _l
669 0 _l
669 640 _l
481 140 _l
382 140 _l
194 640 _l
194 0 _l
98 0 _l
98 729 _l
_cl}_d
/P{603 0 98 0 569 729 _sc
197 648 _m
197 374 _l
321 374 _l
367 374 402 385 427 409 _c
452 433 465 467 465 511 _c
465 555 452 588 427 612 _c
402 636 367 648 321 648 _c
197 648 _l
98 729 _m
321 729 _l
402 729 464 710 506 673 _c
548 636 569 582 569 511 _c
569 439 548 384 506 348 _c
464 311 402 293 321 293 _c
197 293 _l
197 0 _l
98 0 _l
98 729 _l
_cl}_d
/S{{635 0 66 -13 579 742 _sc
535 705 _m
535 609 _l
497 627 462 640 429 649 _c
395 657 363 662 333 662 _c
279 662 237 651 208 631 _c
179 610 165 580 165 542 _c
165 510 174 485 194 469 _c
213 452 250 439 304 429 _c
364 417 _l
437 403 491 378 526 343 _c
561 307 579 260 579 201 _c
579 130 555 77 508 41 _c
460 5 391 -13 300 -13 _c
265 -13 228 -9 189 -2 _c
}_e{150 5 110 16 69 32 _c
69 134 _l
109 111 148 94 186 83 _c
224 71 262 66 300 66 _c
356 66 399 77 430 99 _c
460 121 476 152 476 194 _c
476 230 465 258 443 278 _c
421 298 385 313 335 323 _c
275 335 _l
201 349 148 372 115 404 _c
82 435 66 478 66 534 _c
66 598 88 649 134 686 _c
179 723 242 742 322 742 _c
356 742 390 739 426 733 _c
461 727 497 717 535 705 _c
}_e{_cl}_e}_d
/T{611 0 -2 0 614 729 _sc
-2 729 _m
614 729 _l
614 646 _l
355 646 _l
355 0 _l
256 0 _l
256 646 _l
-2 646 _l
-2 729 _l
_cl}_d
/V{684 0 8 0 676 729 _sc
286 0 _m
8 729 _l
111 729 _l
342 115 _l
573 729 _l
676 729 _l
398 0 _l
286 0 _l
_cl}_d
/a{{613 0 60 -13 522 560 _sc
343 275 _m
270 275 220 266 192 250 _c
164 233 150 205 150 165 _c
150 133 160 107 181 89 _c
202 70 231 61 267 61 _c
317 61 357 78 387 114 _c
417 149 432 196 432 255 _c
432 275 _l
343 275 _l
522 312 _m
522 0 _l
432 0 _l
432 83 _l
411 49 385 25 355 10 _c
325 -5 287 -13 243 -13 _c
187 -13 142 2 109 33 _c
76 64 60 106 60 159 _c
}_e{60 220 80 266 122 298 _c
163 329 224 345 306 345 _c
432 345 _l
432 354 _l
432 395 418 427 391 450 _c
364 472 326 484 277 484 _c
245 484 215 480 185 472 _c
155 464 127 453 100 439 _c
100 522 _l
132 534 164 544 195 550 _c
226 556 256 560 286 560 _c
365 560 424 539 463 498 _c
502 457 522 395 522 312 _c
_cl}_e}_d
/c{{550 0 55 -13 488 560 _sc
488 526 _m
488 442 _l
462 456 437 466 411 473 _c
385 480 360 484 334 484 _c
276 484 230 465 198 428 _c
166 391 150 339 150 273 _c
150 206 166 154 198 117 _c
230 80 276 62 334 62 _c
360 62 385 65 411 72 _c
437 79 462 90 488 104 _c
488 21 _l
462 9 436 0 410 -5 _c
383 -10 354 -13 324 -13 _c
242 -13 176 12 128 64 _c
}_e{79 115 55 185 55 273 _c
55 362 79 432 128 483 _c
177 534 244 560 330 560 _c
358 560 385 557 411 551 _c
437 545 463 537 488 526 _c
_cl}_e}_d
/d{{635 0 55 -13 544 760 _sc
454 464 _m
454 760 _l
544 760 _l
544 0 _l
454 0 _l
454 82 _l
435 49 411 25 382 10 _c
353 -5 319 -13 279 -13 _c
213 -13 159 13 117 65 _c
75 117 55 187 55 273 _c
55 359 75 428 117 481 _c
159 533 213 560 279 560 _c
319 560 353 552 382 536 _c
411 520 435 496 454 464 _c
148 273 _m
148 207 161 155 188 117 _c
215 79 253 61 301 61 _c
}_e{348 61 385 79 413 117 _c
440 155 454 207 454 273 _c
454 339 440 390 413 428 _c
385 466 348 485 301 485 _c
253 485 215 466 188 428 _c
161 390 148 339 148 273 _c
_cl}_e}_d
/e{{615 0 55 -13 562 560 _sc
562 296 _m
562 252 _l
149 252 _l
153 190 171 142 205 110 _c
238 78 284 62 344 62 _c
378 62 412 66 444 74 _c
476 82 509 95 541 113 _c
541 28 _l
509 14 476 3 442 -3 _c
408 -9 373 -13 339 -13 _c
251 -13 182 12 131 62 _c
80 112 55 181 55 268 _c
55 357 79 428 127 481 _c
175 533 241 560 323 560 _c
397 560 455 536 498 489 _c
}_e{540 441 562 377 562 296 _c
472 322 _m
471 371 457 410 431 440 _c
404 469 368 484 324 484 _c
274 484 234 469 204 441 _c
174 413 156 373 152 322 _c
472 322 _l
_cl}_e}_d
/f{352 0 23 0 371 760 _sc
371 760 _m
371 685 _l
285 685 _l
253 685 230 678 218 665 _c
205 652 199 629 199 595 _c
199 547 _l
347 547 _l
347 477 _l
199 477 _l
199 0 _l
109 0 _l
109 477 _l
23 477 _l
23 547 _l
109 547 _l
109 585 _l
109 645 123 690 151 718 _c
179 746 224 760 286 760 _c
371 760 _l
_cl}_d
/g{{635 0 55 -207 544 560 _sc
454 280 _m
454 344 440 395 414 431 _c
387 467 349 485 301 485 _c
253 485 215 467 188 431 _c
161 395 148 344 148 280 _c
148 215 161 165 188 129 _c
215 93 253 75 301 75 _c
349 75 387 93 414 129 _c
440 165 454 215 454 280 _c
544 68 _m
544 -24 523 -93 482 -139 _c
440 -184 377 -207 292 -207 _c
260 -207 231 -204 203 -200 _c
175 -195 147 -188 121 -178 _c
}_e{121 -91 _l
147 -105 173 -115 199 -122 _c
225 -129 251 -133 278 -133 _c
336 -133 380 -117 410 -87 _c
439 -56 454 -10 454 52 _c
454 96 _l
435 64 411 40 382 24 _c
353 8 319 0 279 0 _c
211 0 157 25 116 76 _c
75 127 55 195 55 280 _c
55 364 75 432 116 483 _c
157 534 211 560 279 560 _c
319 560 353 552 382 536 _c
411 520 435 496 454 464 _c
454 547 _l
544 547 _l
}_e{544 68 _l
_cl}_e}_d
/h{634 0 91 0 549 760 _sc
549 330 _m
549 0 _l
459 0 _l
459 327 _l
459 379 448 417 428 443 _c
408 469 378 482 338 482 _c
289 482 251 466 223 435 _c
195 404 181 362 181 309 _c
181 0 _l
91 0 _l
91 760 _l
181 760 _l
181 462 _l
202 494 227 519 257 535 _c
286 551 320 560 358 560 _c
420 560 468 540 500 501 _c
532 462 549 405 549 330 _c
_cl}_d
/i{278 0 94 0 184 760 _sc
94 547 _m
184 547 _l
184 0 _l
94 0 _l
94 547 _l
94 760 _m
184 760 _l
184 646 _l
94 646 _l
94 760 _l
_cl}_d
/l{278 0 94 0 184 760 _sc
94 760 _m
184 760 _l
184 0 _l
94 0 _l
94 760 _l
_cl}_d
/m{{974 0 91 0 889 560 _sc
520 442 _m
542 482 569 511 600 531 _c
631 550 668 560 711 560 _c
767 560 811 540 842 500 _c
873 460 889 403 889 330 _c
889 0 _l
799 0 _l
799 327 _l
799 379 789 418 771 444 _c
752 469 724 482 686 482 _c
639 482 602 466 575 435 _c
548 404 535 362 535 309 _c
535 0 _l
445 0 _l
445 327 _l
445 379 435 418 417 444 _c
398 469 369 482 331 482 _c
}_e{285 482 248 466 221 435 _c
194 404 181 362 181 309 _c
181 0 _l
91 0 _l
91 547 _l
181 547 _l
181 462 _l
201 495 226 520 255 536 _c
283 552 317 560 357 560 _c
397 560 430 550 458 530 _c
486 510 506 480 520 442 _c
_cl}_e}_d
/n{634 0 91 0 549 560 _sc
549 330 _m
549 0 _l
459 0 _l
459 327 _l
459 379 448 417 428 443 _c
408 469 378 482 338 482 _c
289 482 251 466 223 435 _c
195 404 181 362 181 309 _c
181 0 _l
91 0 _l
91 547 _l
181 547 _l
181 462 _l
202 494 227 519 257 535 _c
286 551 320 560 358 560 _c
420 560 468 540 500 501 _c
532 462 549 405 549 330 _c
_cl}_d
/o{612 0 55 -13 557 560 _sc
306 484 _m
258 484 220 465 192 427 _c
164 389 150 338 150 273 _c
150 207 163 156 191 118 _c
219 80 257 62 306 62 _c
354 62 392 80 420 118 _c
448 156 462 207 462 273 _c
462 337 448 389 420 427 _c
392 465 354 484 306 484 _c
306 560 _m
384 560 445 534 490 484 _c
534 433 557 363 557 273 _c
557 183 534 113 490 63 _c
445 12 384 -13 306 -13 _c
227 -13 165 12 121 63 _c
77 113 55 183 55 273 _c
55 363 77 433 121 484 _c
165 534 227 560 306 560 _c
_cl}_d
/q{{635 0 55 -207 544 560 _sc
148 273 _m
148 207 161 155 188 117 _c
215 79 253 61 301 61 _c
348 61 385 79 413 117 _c
440 155 454 207 454 273 _c
454 339 440 390 413 428 _c
385 466 348 485 301 485 _c
253 485 215 466 188 428 _c
161 390 148 339 148 273 _c
454 82 _m
435 49 411 25 382 10 _c
353 -5 319 -13 279 -13 _c
213 -13 159 13 117 65 _c
75 117 55 187 55 273 _c
}_e{55 359 75 428 117 481 _c
159 533 213 560 279 560 _c
319 560 353 552 382 536 _c
411 520 435 496 454 464 _c
454 547 _l
544 547 _l
544 -207 _l
454 -207 _l
454 82 _l
_cl}_e}_d
/r{411 0 91 0 411 560 _sc
411 463 _m
401 469 390 473 378 476 _c
366 478 353 480 339 480 _c
288 480 249 463 222 430 _c
194 397 181 350 181 288 _c
181 0 _l
91 0 _l
91 547 _l
181 547 _l
181 462 _l
199 495 224 520 254 536 _c
284 552 321 560 365 560 _c
371 560 378 559 386 559 _c
393 558 401 557 411 555 _c
411 463 _l
_cl}_d
/s{{521 0 54 -13 472 560 _sc
443 531 _m
443 446 _l
417 458 391 468 364 475 _c
336 481 308 485 279 485 _c
234 485 200 478 178 464 _c
156 450 145 430 145 403 _c
145 382 153 366 169 354 _c
185 342 217 330 265 320 _c
296 313 _l
360 299 405 279 432 255 _c
458 230 472 195 472 151 _c
472 100 452 60 412 31 _c
372 1 316 -13 246 -13 _c
216 -13 186 -10 154 -5 _c
}_e{122 0 89 8 54 20 _c
54 113 _l
87 95 120 82 152 74 _c
184 65 216 61 248 61 _c
290 61 323 68 346 82 _c
368 96 380 117 380 144 _c
380 168 371 187 355 200 _c
339 213 303 226 247 238 _c
216 245 _l
160 257 119 275 95 299 _c
70 323 58 356 58 399 _c
58 450 76 490 112 518 _c
148 546 200 560 268 560 _c
301 560 332 557 362 552 _c
391 547 418 540 443 531 _c
}_e{_cl}_e}_d
/t{392 0 27 0 368 702 _sc
183 702 _m
183 547 _l
368 547 _l
368 477 _l
183 477 _l
183 180 _l
183 135 189 106 201 94 _c
213 81 238 75 276 75 _c
368 75 _l
368 0 _l
276 0 _l
206 0 158 13 132 39 _c
106 65 93 112 93 180 _c
93 477 _l
27 477 _l
27 547 _l
93 547 _l
93 702 _l
183 702 _l
_cl}_d
/u{634 0 85 -13 543 560 _sc
85 216 _m
85 547 _l
175 547 _l
175 219 _l
175 167 185 129 205 103 _c
225 77 255 64 296 64 _c
344 64 383 79 411 110 _c
439 141 453 183 453 237 _c
453 547 _l
543 547 _l
543 0 _l
453 0 _l
453 84 _l
431 50 405 26 377 10 _c
348 -5 315 -13 277 -13 _c
214 -13 166 6 134 45 _c
101 83 85 140 85 216 _c
311 560 _m
311 560 _l
_cl}_d
/w{818 0 42 0 776 547 _sc
42 547 _m
132 547 _l
244 120 _l
356 547 _l
462 547 _l
574 120 _l
686 547 _l
776 547 _l
633 0 _l
527 0 _l
409 448 _l
291 0 _l
185 0 _l
42 547 _l
_cl}_d
end readonly def

/BuildGlyph
 {exch begin
 CharStrings exch
 2 copy known not{pop /.notdef}if
 true 3 1 roll get exec
 end}_d

/BuildChar {
 1 index /Encoding get exch get
 1 index /BuildGlyph get exec
}_d

FontName currentdict end definefont pop
end
%%EndProlog
mpldict begin
75.6 223.2 translate
460.8 345.6 0 0 clipbox
gsave
0 0 m
460.8 0 l
460.8 345.6 l
0 345.6 l
cl
1.000 setgray
fill
grestore
gsave
57.6 38.016 m
414.72 38.016 l
414.72 304.128 l
57.6 304.128 l
cl
1.000 setgray
fill
grestore
0.800 setlinewidth
1 setlinejoin
0 setlinecap
[] 0 setdash
0.000 setgray
gsave
/o {
gsave
newpath
translate
0.8 setlinewidth
1 setlinejoin
0 setlinecap
0 0 m
0 -3.5 l

gsave
0.000 setgray
fill
grestore
stroke
grestore
} bind def
129.548 38.016 o
grestore
/DejaVuSans findfont
10.000 scalefont
setfont
gsave
123.188331 23.422250 translate
0.000000 rotate
0.000000 0 m /five glyphshow
6.362305 0 m /zero glyphshow
grestore
gsave
/o {
gsave
newpath
translate
0.8 setlinewidth
1 setlinejoin
0 setlinecap
0 0 m
0 -3.5 l

gsave
0.000 setgray
fill
grestore
stroke
grestore
} bind def
202.903 38.016 o
grestore
gsave
193.364193 23.422250 translate
0.000000 rotate
0.000000 0 m /one glyphshow
6.362305 0 m /zero glyphshow
12.724609 0 m /zero glyphshow
grestore
gsave
/o {
gsave
newpath
translate
0.8 setlinewidth
1 setlinejoin
0 setlinecap
0 0 m
0 -3.5 l

gsave
0.000 setgray
fill
grestore
stroke
grestore
} bind def
276.259 38.016 o
grestore
gsave
266.719743 23.422250 translate
0.000000 rotate
0.000000 0 m /one glyphshow
6.362305 0 m /five glyphshow
12.724609 0 m /zero glyphshow
grestore
gsave
/o {
gsave
newpath
translate
0.8 setlinewidth
1 setlinejoin
0 setlinecap
0 0 m
0 -3.5 l

gsave
0.000 setgray
fill
grestore
stroke
grestore
} bind def
349.614 38.016 o
grestore
gsave
340.075293 23.422250 translate
0.000000 rotate
0.000000 0 m /two glyphshow
6.362305 0 m /zero glyphshow
12.724609 0 m /zero glyphshow
grestore
gsave
190.519375 9.750375 translate
0.000000 rotate
0.000000 0 m /A glyphshow
6.715820 0 m /c glyphshow
12.213867 0 m /c glyphshow
17.711914 0 m /u glyphshow
24.049805 0 m /m glyphshow
33.791016 0 m /u glyphshow
40.128906 0 m /l glyphshow
42.907227 0 m /a glyphshow
49.035156 0 m /t glyphshow
52.956055 0 m /e glyphshow
59.108398 0 m /d glyphshow
65.456055 0 m /space glyphshow
68.634766 0 m /t glyphshow
72.555664 0 m /i glyphshow
75.333984 0 m /m glyphshow
85.075195 0 m /e glyphshow
grestore
gsave
/o {
gsave
newpath
translate
0.8 setlinewidth
1 setlinejoin
0 setlinecap
-0 0 m
-3.5 0 l

gsave
0.000 setgray
fill
grestore
stroke
grestore
} bind def
57.6 68.6365 o
grestore
gsave
34.693750 64.839670 translate
0.000000 rotate
0.000000 0 m /zero glyphshow
6.362305 0 m /period glyphshow
9.541016 0 m /zero glyphshow
grestore
gsave
/o {
gsave
newpath
translate
0.8 setlinewidth
1 setlinejoin
0 setlinecap
-0 0 m
-3.5 0 l

gsave
0.000 setgray
fill
grestore
stroke
grestore
} bind def
57.6 111.456 o
grestore
gsave
34.693750 107.659415 translate
0.000000 rotate
0.000000 0 m /zero glyphshow
6.362305 0 m /period glyphshow
9.541016 0 m /two glyphshow
grestore
gsave
/o {
gsave
newpath
translate
0.8 setlinewidth
1 setlinejoin
0 setlinecap
-0 0 m
-3.5 0 l

gsave
0.000 setgray
fill
grestore
stroke
grestore
} bind def
57.6 154.276 o
grestore
gsave
34.693750 150.479159 translate
0.000000 rotate
0.000000 0 m /zero glyphshow
6.362305 0 m /period glyphshow
9.541016 0 m /four glyphshow
grestore
gsave
/o {
gsave
newpath
translate
0.8 setlinewidth
1 setlinejoin
0 setlinecap
-0 0 m
-3.5 0 l

gsave
0.000 setgray
fill
grestore
stroke
grestore
} bind def
57.6 197.096 o
grestore
gsave
34.693750 193.298903 translate
0.000000 rotate
0.000000 0 m /zero glyphshow
6.362305 0 m /period glyphshow
9.541016 0 m /six glyphshow
grestore
gsave
/o {
gsave
newpath
translate
0.8 setlinewidth
1 setlinejoin
0 setlinecap
-0 0 m
-3.5 0 l

gsave
0.000 setgray
fill
grestore
stroke
grestore
} bind def
57.6 239.916 o
grestore
gsave
34.693750 236.118647 translate
0.000000 rotate
0.000000 0 m /zero glyphshow
6.362305 0 m /period glyphshow
9.541016 0 m /eight glyphshow
grestore
gsave
/o {
gsave
newpath
translate
0.8 setlinewidth
1 setlinejoin
0 setlinecap
-0 0 m
-3.5 0 l

gsave
0.000 setgray
fill
grestore
stroke
grestore
} bind def
57.6 282.735 o
grestore
gsave
34.693750 278.938391 translate
0.000000 rotate
0.000000 0 m /one glyphshow
6.362305 0 m /period glyphshow
9.541016 0 m /zero glyphshow
grestore
gsave
28.615625 98.001687 translate
90.000000 rotate
0.000000 0 m /S glyphshow
6.347656 0 m /q glyphshow
12.695312 0 m /u glyphshow
19.033203 0 m /a glyphshow
25.161133 0 m /r glyphshow
29.022461 0 m /e glyphshow
35.174805 0 m /d glyphshow
41.522461 0 m /space glyphshow
44.701172 0 m /n glyphshow
51.039062 0 m /o glyphshow
57.157227 0 m /r glyphshow
61.143555 0 m /m glyphshow
70.884766 0 m /space glyphshow
74.063477 0 m /o glyphshow
80.181641 0 m /f glyphshow
83.702148 0 m /space glyphshow
86.880859 0 m /t glyphshow
90.801758 0 m /h glyphshow
97.139648 0 m /e glyphshow
103.291992 0 m /space glyphshow
106.470703 0 m /r glyphshow
110.332031 0 m /e glyphshow
116.484375 0 m /s glyphshow
121.694336 0 m /i glyphshow
124.472656 0 m /d glyphshow
130.820312 0 m /u glyphshow
137.158203 0 m /a glyphshow
143.286133 0 m /l glyphshow
grestore
1.500 setlinewidth
2 setlinecap
0.000 0.000 1.000 setrgbcolor
gsave
357.1 266.1 57.6 38.02 clipbox
59.920642 282.735266 m
63.962739 278.995734 l
68.14355 275.064826 l
72.120287 272.083266 l
76.152935 270.071286 l
80.399341 269.511839 l
86.468339 259.400066 l
90.956818 257.14277 l
95.484469 255.170479 l
100.229987 247.537599 l
104.953644 247.140977 l
110.075915 246.788095 l
115.237505 225.257439 l
121.659197 224.659016 l
127.057285 224.187988 l
132.616609 224.185622 l
138.144683 224.074863 l
143.729241 216.039673 l
149.420898 213.912213 l
155.39204 208.267639 l
161.760915 205.145997 l
167.729416 204.52617 l
173.679872 204.199179 l
179.55037 204.160083 l
185.520778 200.883693 l
191.474608 200.049593 l
197.960559 198.90938 l
204.977751 198.851175 l
211.78808 196.070527 l
218.563198 194.699533 l
225.530509 194.618938 l
232.643063 193.224293 l
239.878854 191.637463 l
247.067698 191.423059 l
254.397385 190.586414 l
262.551587 190.051114 l
269.529167 178.851629 l
276.795768 178.81663 l
283.846704 177.024361 l
290.99887 160.072328 l
298.290411 160.00074 l
306.073435 159.284678 l
313.940084 159.244558 l
321.868352 159.159715 l
329.815693 157.558542 l
339.742166 157.554322 l
348.392252 156.221606 l
357.049674 156.21732 l
365.259627 156.205722 l
373.842226 155.972258 l
382.160746 155.054163 l
390.727207 155.030143 l
399.278997 154.766581 l
407.90561 154.748719 l
416.749355 145.155574 l
425.610705 142.275719 l
435.092644 141.656839 l
435.092644 141.388535 l
stroke
grestore
0.000 setgray
gsave
357.1 266.1 57.6 38.02 clipbox
59.502692 282.735266 m
63.096674 267.124031 l
66.743941 263.203089 l
70.061226 252.079588 l
73.938184 244.992175 l
77.802261 237.420083 l
81.713725 231.00065 l
86.090851 225.241549 l
90.461375 220.965263 l
94.912296 215.043234 l
99.418674 209.817228 l
104.433113 206.926454 l
109.686104 201.893878 l
115.050448 198.222723 l
120.145285 195.885208 l
125.347074 193.544357 l
131.259678 191.028873 l
136.841155 186.282784 l
142.546016 183.740721 l
148.227403 179.852894 l
153.94004 177.693081 l
159.947126 176.303944 l
166.115007 173.577491 l
172.45102 168.54205 l
178.821656 165.762323 l
185.656779 161.969333 l
193.274313 158.909648 l
200.263189 156.527999 l
207.988262 154.00076 l
215.54095 152.06054 l
223.17873 148.980743 l
230.79597 146.345607 l
238.429348 144.269954 l
246.279859 141.229763 l
254.350437 138.776451 l
262.412212 136.65968 l
270.554678 135.199538 l
279.081527 132.618689 l
287.570231 130.960951 l
296.327417 129.185972 l
305.26359 127.050146 l
315.006674 124.491756 l
324.607448 122.376487 l
334.503112 120.636939 l
344.576296 118.719788 l
354.642145 116.775801 l
365.641076 114.966826 l
375.938728 113.199 l
386.560612 111.895808 l
397.336542 110.762869 l
408.747731 109.292668 l
419.224371 107.521898 l
430.521126 106.190833 l
443.070793 105.017949 l
454.625759 103.707783 l
461.8 103.218839 l
stroke
grestore
1.000 0.000 0.000 setrgbcolor
gsave
357.1 266.1 57.6 38.02 clipbox
58.355235 282.735266 m
59.899545 281.277515 l
61.706028 279.910132 l
64.183304 278.903678 l
65.74098 277.178494 l
67.269049 274.690797 l
69.660587 269.46626 l
71.309561 266.149798 l
72.928958 261.619358 l
74.614082 260.959692 l
76.310209 257.373427 l
78.238726 255.879294 l
80.099023 255.746163 l
81.909731 244.150703 l
83.92877 243.824581 l
85.992995 243.686663 l
88.225498 236.244343 l
90.132448 236.215369 l
92.108207 231.552226 l
94.169204 210.412465 l
96.221693 206.336101 l
98.258043 199.495981 l
100.597645 199.485237 l
102.903796 198.363664 l
105.15992 196.028733 l
107.752451 195.81891 l
109.995077 194.034979 l
112.31414 193.299604 l
114.692473 193.224751 l
117.086065 191.454647 l
119.888687 191.315142 l
122.410944 190.920239 l
124.909581 190.863794 l
127.672151 188.602349 l
130.290504 187.377488 l
133.352071 186.546982 l
136.020746 186.52151 l
138.803269 185.630329 l
141.842976 185.314233 l
144.880776 178.685686 l
147.728145 174.951592 l
150.580796 173.291789 l
153.780858 173.285073 l
156.838464 173.199192 l
160.068163 168.903447 l
163.242697 167.256854 l
166.569958 166.074434 l
169.964413 165.246311 l
173.197779 164.357773 l
176.624804 164.105925 l
180.056963 149.26534 l
183.499686 149.017795 l
187.43213 148.848383 l
191.406094 148.562858 l
194.995821 148.512239 l
198.588776 142.224588 l
202.248191 140.882585 l
205.753852 140.279912 l
209.958592 136.878937 l
213.912457 132.396405 l
218.186151 132.365132 l
222.044653 132.014659 l
225.948635 130.489938 l
230.033072 126.268735 l
234.00014 125.775486 l
238.050834 124.950307 l
243.071288 124.581483 l
248.286867 123.688542 l
253.035906 121.670721 l
257.261185 118.392889 l
261.771084 118.302659 l
266.168016 118.048961 l
270.856903 117.79759 l
277.596811 117.026802 l
285.77302 115.548881 l
296.573892 115.321829 l
304.942293 115.050463 l
313.362043 111.685116 l
321.872754 111.348808 l
331.24906 109.899334 l
336.276849 109.684931 l
341.598061 109.547724 l
346.470337 108.652868 l
351.502527 108.642647 l
356.77239 104.444402 l
362.340076 104.090165 l
367.489636 103.718456 l
372.793242 103.679787 l
378.409343 103.156898 l
383.796575 103.059029 l
389.381866 103.057379 l
395.985333 102.949991 l
401.913928 102.786839 l
407.550569 92.638519 l
413.178407 81.269948 l
418.898672 80.727717 l
424.950505 80.016216 l
431.017009 79.950387 l
436.866381 78.728525 l
442.8742 68.951328 l
stroke
grestore
0 setlinecap
[5.55 2.4] 0 setdash
0.000 0.000 1.000 setrgbcolor
gsave
357.1 266.1 57.6 38.02 clipbox
59.920642 323.854276 m
63.962739 320.114744 l
68.14355 316.183836 l
72.120287 313.202276 l
76.152935 311.190296 l
80.399341 310.630849 l
86.468339 300.519076 l
90.956818 298.26178 l
95.484469 296.28949 l
100.229987 288.656609 l
104.953644 288.259987 l
110.075915 287.907105 l
115.237505 266.376449 l
121.659197 265.778026 l
127.057285 265.306998 l
132.616609 265.304632 l
138.144683 265.193873 l
143.729241 257.158681 l
149.420898 255.031223 l
155.39204 249.38665 l
161.760915 246.265007 l
167.729416 245.64518 l
173.679872 245.318189 l
179.55037 245.279093 l
185.520778 242.002704 l
191.474608 241.168603 l
197.960559 240.02839 l
204.977751 239.970185 l
211.78808 237.189537 l
218.563198 235.818543 l
225.530509 235.737948 l
232.643063 234.343303 l
239.878854 232.756474 l
247.067698 232.542069 l
254.397385 231.705424 l
262.551587 231.170122 l
269.529167 219.970639 l
276.795768 219.935641 l
283.846704 218.143371 l
290.99887 201.191338 l
298.290411 201.11975 l
306.073435 200.403686 l
313.940084 200.363568 l
321.868352 200.278725 l
329.815693 198.677552 l
339.742166 198.673332 l
348.392252 197.340617 l
357.049674 197.33633 l
365.259627 197.324733 l
373.842226 197.091269 l
382.160746 196.173173 l
390.727207 196.149153 l
399.278997 195.885591 l
407.90561 195.867729 l
416.749355 186.274584 l
425.610705 183.394727 l
435.092644 182.775849 l
435.092644 182.507545 l
stroke
grestore
0.000 setgray
gsave
357.1 266.1 57.6 38.02 clipbox
59.502692 337.676074 m
63.096674 322.064839 l
66.743941 318.143897 l
70.061226 307.020396 l
73.938184 299.932983 l
77.802261 292.360891 l
81.713725 285.941458 l
86.090851 280.182357 l
90.461375 275.906071 l
94.912296 269.984043 l
99.418674 264.758036 l
104.433113 261.867263 l
109.686104 256.834686 l
115.050448 253.163531 l
120.145285 250.826016 l
125.347074 248.485165 l
131.259678 245.969681 l
136.841155 241.223592 l
142.546016 238.681529 l
148.227403 234.793702 l
153.94004 232.633889 l
159.947126 231.244753 l
166.115007 228.5183 l
172.45102 223.482858 l
178.821656 220.703131 l
185.656779 216.910139 l
193.274313 213.850456 l
200.263189 211.468807 l
207.988262 208.941569 l
215.54095 207.001348 l
223.17873 203.921551 l
230.79597 201.286415 l
238.429348 199.210762 l
246.279859 196.170571 l
254.350437 193.717257 l
262.412212 191.600489 l
270.554678 190.140346 l
279.081527 187.559497 l
287.570231 185.901759 l
296.327417 184.12678 l
305.26359 181.990954 l
315.006674 179.432565 l
324.607448 177.317295 l
334.503112 175.577747 l
344.576296 173.660596 l
354.642145 171.716609 l
365.641076 169.907634 l
375.938728 168.139808 l
386.560612 166.836617 l
397.336542 165.703677 l
408.747731 164.233476 l
419.224371 162.462706 l
430.521126 161.131642 l
443.070793 159.958757 l
454.625759 158.648591 l
461.8 158.159648 l
stroke
grestore
1.000 0.000 0.000 setrgbcolor
gsave
357.1 266.1 57.6 38.02 clipbox
58.355235 341.010252 m
59.899545 339.552504 l
61.706028 338.185119 l
64.183304 337.178665 l
65.74098 335.453481 l
67.269049 332.965784 l
69.660587 327.741247 l
71.309561 324.424787 l
72.928958 319.894344 l
74.614082 319.234678 l
76.310209 315.648414 l
78.238726 314.154283 l
80.099023 314.02115 l
81.909731 302.425692 l
83.92877 302.09957 l
85.992995 301.96165 l
88.225498 294.519332 l
90.132448 294.490356 l
92.108207 289.827215 l
94.169204 268.687452 l
96.221693 264.611087 l
98.258043 257.770967 l
100.597645 257.760224 l
102.903796 256.638651 l
105.15992 254.303722 l
107.752451 254.093897 l
109.995077 252.309968 l
112.31414 251.574591 l
114.692473 251.499738 l
117.086065 249.729634 l
119.888687 249.590131 l
122.410944 249.195226 l
124.909581 249.138781 l
127.672151 246.877335 l
130.290504 245.652475 l
133.352071 244.821968 l
136.020746 244.796497 l
138.803269 243.905318 l
141.842976 243.589222 l
144.880776 236.960672 l
147.728145 233.226579 l
150.580796 231.566776 l
153.780858 231.56006 l
156.838464 231.474179 l
160.068163 227.178435 l
163.242697 225.531841 l
166.569958 224.349421 l
169.964413 223.521297 l
173.197779 222.632762 l
176.624804 222.380914 l
180.056963 207.540329 l
183.499686 207.292782 l
187.43213 207.123369 l
191.406094 206.837845 l
194.995821 206.787226 l
198.588776 200.499575 l
202.248191 199.157572 l
205.753852 198.554899 l
209.958592 195.153926 l
213.912457 190.671394 l
218.186151 190.640119 l
222.044653 190.289648 l
225.948635 188.764924 l
230.033072 184.543722 l
234.00014 184.050473 l
238.050834 183.225296 l
243.071288 182.85647 l
248.286867 181.963531 l
253.035906 179.945708 l
257.261185 176.667876 l
261.771084 176.577646 l
266.168016 176.323948 l
270.856903 176.072576 l
277.596811 175.301789 l
285.77302 173.823868 l
296.573892 173.596816 l
304.942293 173.32545 l
313.362043 169.960103 l
321.872754 169.623795 l
331.24906 168.17432 l
336.276849 167.959918 l
341.598061 167.82271 l
346.470337 166.927855 l
351.502527 166.917636 l
356.77239 162.719389 l
362.340076 162.365152 l
367.489636 161.993445 l
372.793242 161.954774 l
378.409343 161.431885 l
383.796575 161.334018 l
389.381866 161.332366 l
395.985333 161.22498 l
401.913928 161.061826 l
407.550569 150.913506 l
413.178407 139.544935 l
418.898672 139.002704 l
424.950505 138.291203 l
431.017009 138.225376 l
436.866381 137.003512 l
442.8742 127.226317 l
stroke
grestore
0.000 0.000 1.000 setrgbcolor
gsave
357.1 266.1 57.6 38.02 clipbox
59.920642 241.616255 m
63.962739 237.876724 l
68.14355 233.945816 l
72.120287 230.964255 l
76.152935 228.952276 l
80.399341 228.392829 l
86.468339 218.281056 l
90.956818 216.023759 l
95.484469 214.051469 l
100.229987 206.418589 l
104.953644 206.021966 l
110.075915 205.669085 l
115.237505 184.138429 l
121.659197 183.540006 l
127.057285 183.068978 l
132.616609 183.066612 l
138.144683 182.955852 l
143.729241 174.920663 l
149.420898 172.793203 l
155.39204 167.148629 l
161.760915 164.026986 l
167.729416 163.40716 l
173.679872 163.080169 l
179.55037 163.041072 l
185.520778 159.764683 l
191.474608 158.930583 l
197.960559 157.79037 l
204.977751 157.732165 l
211.78808 154.951517 l
218.563198 153.580525 l
225.530509 153.499928 l
232.643063 152.105282 l
239.878854 150.518453 l
247.067698 150.304048 l
254.397385 149.467404 l
262.551587 148.932104 l
269.529167 137.732619 l
276.795768 137.69762 l
283.846704 135.905351 l
290.99887 118.953318 l
298.290411 118.88173 l
306.073435 118.165668 l
313.940084 118.125548 l
321.868352 118.040705 l
329.815693 116.439531 l
339.742166 116.435312 l
348.392252 115.102596 l
357.049674 115.09831 l
365.259627 115.086712 l
373.842226 114.85325 l
382.160746 113.935152 l
390.727207 113.911133 l
399.278997 113.647571 l
407.90561 113.629708 l
416.749355 104.036563 l
425.610705 101.156709 l
435.092644 100.537829 l
435.092644 100.269524 l
stroke
grestore
0.000 setgray
gsave
357.1 266.1 57.6 38.02 clipbox
59.502692 227.794457 m
63.096674 212.183222 l
66.743941 208.26228 l
70.061226 197.138779 l
73.938184 190.051367 l
77.802261 182.479275 l
81.713725 176.059842 l
86.090851 170.30074 l
90.461375 166.024455 l
94.912296 160.102426 l
99.418674 154.87642 l
104.433113 151.985646 l
109.686104 146.953069 l
115.050448 143.281914 l
120.145285 140.9444 l
125.347074 138.603549 l
131.259678 136.088065 l
136.841155 131.341976 l
142.546016 128.799913 l
148.227403 124.912086 l
153.94004 122.752273 l
159.947126 121.363136 l
166.115007 118.636683 l
172.45102 113.601242 l
178.821656 110.821515 l
185.656779 107.028525 l
193.274313 103.96884 l
200.263189 101.587191 l
207.988262 99.059952 l
215.54095 97.119732 l
223.17873 94.039935 l
230.79597 91.404799 l
238.429348 89.329146 l
246.279859 86.288955 l
254.350437 83.835643 l
262.412212 81.718872 l
270.554678 80.25873 l
279.081527 77.677881 l
287.570231 76.020142 l
296.327417 74.245163 l
305.26359 72.109338 l
315.006674 69.550948 l
324.607448 67.435679 l
334.503112 65.696131 l
344.576296 63.77898 l
354.642145 61.834993 l
365.641076 60.026017 l
375.938728 58.258191 l
386.560612 56.955 l
397.336542 55.822061 l
408.747731 54.35186 l
419.224371 52.58109 l
430.521126 51.250025 l
443.070793 50.077141 l
454.625759 48.766975 l
461.8 48.278031 l
stroke
grestore
1.000 0.000 0.000 setrgbcolor
gsave
357.1 266.1 57.6 38.02 clipbox
58.355235 224.460279 m
59.899545 223.002528 l
61.706028 221.635146 l
64.183304 220.628691 l
65.74098 218.903507 l
67.269049 216.415808 l
69.660587 211.191273 l
71.309561 207.874811 l
72.928958 203.344371 l
74.614082 202.684705 l
76.310209 199.09844 l
78.238726 197.604307 l
80.099023 197.471176 l
81.909731 185.875716 l
83.92877 185.549594 l
85.992995 185.411676 l
88.225498 177.969356 l
90.132448 177.940382 l
92.108207 173.277239 l
94.169204 152.137479 l
96.221693 148.061112 l
98.258043 141.220992 l
100.597645 141.21025 l
102.903796 140.088677 l
105.15992 137.753746 l
107.752451 137.543921 l
109.995077 135.759993 l
112.31414 135.024617 l
114.692473 134.949764 l
117.086065 133.17966 l
119.888687 133.040155 l
122.410944 132.64525 l
124.909581 132.588807 l
127.672151 130.327362 l
130.290504 129.102501 l
133.352071 128.271995 l
136.020746 128.246523 l
138.803269 127.355342 l
141.842976 127.039246 l
144.880776 120.410699 l
147.728145 116.676605 l
150.580796 115.0168 l
153.780858 115.010086 l
156.838464 114.924205 l
160.068163 110.62846 l
163.242697 108.981867 l
166.569958 107.799447 l
169.964413 106.971324 l
173.197779 106.082786 l
176.624804 105.830938 l
180.056963 90.990353 l
183.499686 90.742806 l
187.43213 90.573394 l
191.406094 90.287872 l
194.995821 90.237252 l
198.588776 83.949599 l
202.248191 82.607596 l
205.753852 82.004925 l
209.958592 78.60395 l
213.912457 74.121419 l
218.186151 74.090145 l
222.044653 73.739672 l
225.948635 72.214951 l
230.033072 67.993748 l
234.00014 67.500499 l
238.050834 66.67532 l
243.071288 66.306494 l
248.286867 65.413555 l
253.035906 63.395734 l
257.261185 60.117902 l
261.771084 60.027672 l
266.168016 59.773972 l
270.856903 59.522603 l
277.596811 58.751813 l
285.77302 57.273894 l
296.573892 57.046842 l
304.942293 56.775476 l
313.362043 53.410129 l
321.872754 53.073819 l
331.24906 51.624347 l
336.276849 51.409944 l
341.598061 51.272737 l
346.470337 50.377881 l
351.502527 50.36766 l
356.77239 46.169415 l
362.340076 45.815176 l
367.489636 45.443469 l
372.793242 45.4048 l
378.409343 44.881911 l
383.796575 44.784043 l
389.381866 44.782392 l
395.985333 44.675004 l
401.913928 44.51185 l
407.550569 34.363532 l
413.178407 22.994959 l
418.898672 22.45273 l
424.950505 21.741227 l
431.017009 21.6754 l
436.866381 20.453539 l
442.8742 10.676342 l
stroke
grestore
0.800 setlinewidth
0 setlinejoin
2 setlinecap
[] 0 setdash
0.000 setgray
gsave
57.6 38.016 m
57.6 304.128 l
stroke
grestore
gsave
414.72 38.016 m
414.72 304.128 l
stroke
grestore
gsave
57.6 38.016 m
414.72 38.016 l
stroke
grestore
gsave
57.6 304.128 m
414.72 304.128 l
stroke
grestore
/DejaVuSans findfont
12.000 scalefont
setfont
gsave
76.511562 310.128000 translate
0.000000 rotate
0.000000 0 m /D glyphshow
9.240234 0 m /e glyphshow
16.623047 0 m /c glyphshow
23.220703 0 m /r glyphshow
27.904297 0 m /e glyphshow
35.287109 0 m /a glyphshow
42.640625 0 m /s glyphshow
48.892578 0 m /i glyphshow
52.226562 0 m /n glyphshow
59.832031 0 m /g glyphshow
67.449219 0 m /space glyphshow
71.263672 0 m /o glyphshow
78.605469 0 m /f glyphshow
82.830078 0 m /space glyphshow
86.644531 0 m /t glyphshow
91.349609 0 m /h glyphshow
98.955078 0 m /e glyphshow
106.337891 0 m /space glyphshow
110.152344 0 m /n glyphshow
117.757812 0 m /o glyphshow
125.099609 0 m /r glyphshow
129.783203 0 m /m glyphshow
141.472656 0 m /space glyphshow
145.287109 0 m /o glyphshow
152.628906 0 m /f glyphshow
156.853516 0 m /space glyphshow
160.667969 0 m /t glyphshow
165.373047 0 m /h glyphshow
172.978516 0 m /e glyphshow
180.361328 0 m /space glyphshow
184.175781 0 m /r glyphshow
188.859375 0 m /e glyphshow
196.242188 0 m /s glyphshow
202.494141 0 m /i glyphshow
205.828125 0 m /d glyphshow
213.445312 0 m /u glyphshow
221.050781 0 m /a glyphshow
228.404297 0 m /l glyphshow
231.738281 0 m /space glyphshow
235.552734 0 m /w glyphshow
245.367188 0 m /i glyphshow
248.701172 0 m /t glyphshow
253.406250 0 m /h glyphshow
261.011719 0 m /space glyphshow
264.826172 0 m /t glyphshow
269.531250 0 m /h glyphshow
277.136719 0 m /e glyphshow
284.519531 0 m /space glyphshow
288.333984 0 m /t glyphshow
293.039062 0 m /i glyphshow
296.373047 0 m /m glyphshow
308.062500 0 m /e glyphshow
315.445312 0 m /period glyphshow
grestore
1.000 setlinewidth
0 setlinecap
0.800 setgray
gsave
326.73875 227.228 m
409.12 227.228 l
410.186667 227.228 410.72 227.761333 410.72 228.828 c
410.72 298.528 l
410.72 299.594667 410.186667 300.128 409.12 300.128 c
326.73875 300.128 l
325.672083 300.128 325.13875 299.594667 325.13875 298.528 c
325.13875 228.828 l
325.13875 227.761333 325.672083 227.228 326.73875 227.228 c
cl
gsave
1.000 setgray
fill
grestore
stroke
grestore
1.500 setlinewidth
1 setlinejoin
2 setlinecap
0.000 0.000 1.000 setrgbcolor
gsave
328.33875 293.649875 m
344.33875 293.649875 l
stroke
grestore
0.000 setgray
/DejaVuSans findfont
8.000 scalefont
setfont
gsave
350.738750 290.849875 translate
0.000000 rotate
0.000000 0 m /M glyphshow
6.902344 0 m /e glyphshow
11.824219 0 m /a glyphshow
16.726562 0 m /n glyphshow
21.796875 0 m /space glyphshow
24.339844 0 m /o glyphshow
29.234375 0 m /f glyphshow
32.050781 0 m /space glyphshow
34.593750 0 m /A glyphshow
40.066406 0 m /S glyphshow
45.144531 0 m /V glyphshow
50.617188 0 m /D glyphshow
grestore
gsave
328.33875 281.899875 m
344.33875 281.899875 l
stroke
grestore
gsave
350.738750 279.099875 translate
0.000000 rotate
0.000000 0 m /M glyphshow
6.902344 0 m /e glyphshow
11.824219 0 m /a glyphshow
16.726562 0 m /n glyphshow
21.796875 0 m /space glyphshow
24.339844 0 m /o glyphshow
29.234375 0 m /f glyphshow
32.050781 0 m /space glyphshow
34.593750 0 m /C glyphshow
40.179688 0 m /P glyphshow
45.003906 0 m /T glyphshow
49.765625 0 m /T glyphshow
grestore
1.000 0.000 0.000 setrgbcolor
gsave
328.33875 270.149875 m
344.33875 270.149875 l
stroke
grestore
0.000 setgray
gsave
350.738750 267.349875 translate
0.000000 rotate
0.000000 0 m /M glyphshow
6.902344 0 m /e glyphshow
11.824219 0 m /a glyphshow
16.726562 0 m /n glyphshow
21.796875 0 m /space glyphshow
24.339844 0 m /o glyphshow
29.234375 0 m /f glyphshow
32.050781 0 m /space glyphshow
34.593750 0 m /A glyphshow
40.066406 0 m /L glyphshow
44.523438 0 m /S glyphshow
grestore
0 setlinecap
[5.55 2.4] 0 setdash
0.000 0.000 1.000 setrgbcolor
gsave
328.33875 258.399875 m
344.33875 258.399875 l
stroke
grestore
0.000 setgray
gsave
350.738750 255.599875 translate
0.000000 rotate
0.000000 0 m /S glyphshow
5.078125 0 m /t glyphshow
8.214844 0 m /d glyphshow
13.292969 0 m /space glyphshow
15.835938 0 m /o glyphshow
20.730469 0 m /f glyphshow
23.546875 0 m /space glyphshow
26.089844 0 m /A glyphshow
31.562500 0 m /S glyphshow
36.640625 0 m /V glyphshow
42.113281 0 m /D glyphshow
grestore
gsave
328.33875 246.649875 m
344.33875 246.649875 l
stroke
grestore
gsave
350.738750 243.849875 translate
0.000000 rotate
0.000000 0 m /S glyphshow
5.078125 0 m /t glyphshow
8.214844 0 m /d glyphshow
13.292969 0 m /space glyphshow
15.835938 0 m /o glyphshow
20.730469 0 m /f glyphshow
23.546875 0 m /space glyphshow
26.089844 0 m /C glyphshow
31.675781 0 m /P glyphshow
36.500000 0 m /T glyphshow
41.261719 0 m /T glyphshow
grestore
1.000 0.000 0.000 setrgbcolor
gsave
328.33875 234.899875 m
344.33875 234.899875 l
stroke
grestore
0.000 setgray
gsave
350.738750 232.099875 translate
0.000000 rotate
0.000000 0 m /S glyphshow
5.078125 0 m /t glyphshow
8.214844 0 m /d glyphshow
13.292969 0 m /space glyphshow
15.835938 0 m /o glyphshow
20.730469 0 m /f glyphshow
23.546875 0 m /space glyphshow
26.089844 0 m /A glyphshow
31.562500 0 m /L glyphshow
36.019531 0 m /S glyphshow
grestore

end
showpage
