%!PS-Adobe-3.0 EPSF-3.0
%%Title: /Users/mfuentez/Documents/ADAPT-master/code/tensLib/Outputs/ASVDvsCPTTvsALS_4d/functionsL2_beta2.1/time_4_py.eps
%%Creator: matplotlib version 3.3.4, http://matplotlib.org/
%%CreationDate: Tue Nov 16 12:41:10 2021
%%Orientation: portrait
%%BoundingBox: 75.6 223.20000000000002 536.4 568.8
%%EndComments
%%BeginProlog
/mpldict 8 dict def
mpldict begin
/m { moveto } bind def
/l { lineto } bind def
/r { rlineto } bind def
/c { curveto } bind def
/cl { closepath } bind def
/box {
      m
      1 index 0 r
      0 exch r
      neg 0 r
      cl
    } bind def
/clipbox {
      box
      clip
      newpath
    } bind def
%!PS-Adobe-3.0 Resource-Font
%%Title: DejaVu Sans
%%Copyright: Copyright (c) 2003 by Bitstream, Inc. All Rights Reserved. Copyright (c) 2006 by Tavmjong Bah. All Rights Reserved. DejaVu changes are in public domain 
%%Creator: Converted from TrueType to type 3 by PPR
25 dict begin
/_d{bind def}bind def
/_m{moveto}_d
/_l{lineto}_d
/_cl{closepath eofill}_d
/_c{curveto}_d
/_sc{7 -1 roll{setcachedevice}{pop pop pop pop pop pop}ifelse}_d
/_e{exec}_d
/FontName /DejaVuSans def
/PaintType 0 def
/FontMatrix[.001 0 0 .001 0 0]def
/FontBBox[-1021 -463 1793 1232]def
/FontType 3 def
/Encoding [ /space /period /zero /one /two /three /four /five /six /eight /A /C /D /L /M /P /S /T /V /a /c /d /e /f /g /h /i /l /m /n /o /q /r /s /t /u /w ] def
/FontInfo 10 dict dup begin
/FamilyName (DejaVu Sans) def
/FullName (DejaVu Sans) def
/Notice (Copyright (c) 2003 by Bitstream, Inc. All Rights Reserved. Copyright (c) 2006 by Tavmjong Bah. All Rights Reserved. DejaVu changes are in public domain ) def
/Weight (Book) def
/Version (Version 2.35) def
/ItalicAngle 0.0 def
/isFixedPitch false def
/UnderlinePosition -130 def
/UnderlineThickness 90 def
end readonly def
/CharStrings 38 dict dup begin
/.notdef 0 def
/space{318 0 0 0 0 0 _sc
}_d
/period{318 0 107 0 210 124 _sc
107 124 _m
210 124 _l
210 0 _l
107 0 _l
107 124 _l
_cl}_d
/zero{636 0 66 -13 570 742 _sc
318 664 _m
267 664 229 639 203 589 _c
177 539 165 464 165 364 _c
165 264 177 189 203 139 _c
229 89 267 64 318 64 _c
369 64 407 89 433 139 _c
458 189 471 264 471 364 _c
471 464 458 539 433 589 _c
407 639 369 664 318 664 _c
318 742 _m
399 742 461 709 505 645 _c
548 580 570 486 570 364 _c
570 241 548 147 505 83 _c
461 19 399 -13 318 -13 _c
236 -13 173 19 130 83 _c
87 147 66 241 66 364 _c
66 486 87 580 130 645 _c
173 709 236 742 318 742 _c
_cl}_d
/one{636 0 110 0 544 729 _sc
124 83 _m
285 83 _l
285 639 _l
110 604 _l
110 694 _l
284 729 _l
383 729 _l
383 83 _l
544 83 _l
544 0 _l
124 0 _l
124 83 _l
_cl}_d
/two{{636 0 73 0 536 742 _sc
192 83 _m
536 83 _l
536 0 _l
73 0 _l
73 83 _l
110 121 161 173 226 239 _c
290 304 331 346 348 365 _c
380 400 402 430 414 455 _c
426 479 433 504 433 528 _c
433 566 419 598 392 622 _c
365 646 330 659 286 659 _c
255 659 222 653 188 643 _c
154 632 117 616 78 594 _c
78 694 _l
118 710 155 722 189 730 _c
223 738 255 742 284 742 _c
}_e{359 742 419 723 464 685 _c
509 647 532 597 532 534 _c
532 504 526 475 515 449 _c
504 422 484 390 454 354 _c
446 344 420 317 376 272 _c
332 227 271 164 192 83 _c
_cl}_e}_d
/three{{636 0 76 -13 556 742 _sc
406 393 _m
453 383 490 362 516 330 _c
542 298 556 258 556 212 _c
556 140 531 84 482 45 _c
432 6 362 -13 271 -13 _c
240 -13 208 -10 176 -4 _c
144 1 110 10 76 22 _c
76 117 _l
103 101 133 89 166 81 _c
198 73 232 69 268 69 _c
330 69 377 81 409 105 _c
441 129 458 165 458 212 _c
458 254 443 288 413 312 _c
383 336 341 349 287 349 _c
}_e{202 349 _l
202 430 _l
291 430 _l
339 430 376 439 402 459 _c
428 478 441 506 441 543 _c
441 580 427 609 401 629 _c
374 649 336 659 287 659 _c
260 659 231 656 200 650 _c
169 644 135 635 98 623 _c
98 711 _l
135 721 170 729 203 734 _c
235 739 266 742 296 742 _c
370 742 429 725 473 691 _c
517 657 539 611 539 553 _c
539 513 527 479 504 451 _c
481 423 448 403 406 393 _c
_cl}_e}_d
/four{636 0 49 0 580 729 _sc
378 643 _m
129 254 _l
378 254 _l
378 643 _l
352 729 _m
476 729 _l
476 254 _l
580 254 _l
580 172 _l
476 172 _l
476 0 _l
378 0 _l
378 172 _l
49 172 _l
49 267 _l
352 729 _l
_cl}_d
/five{{636 0 77 -13 549 729 _sc
108 729 _m
495 729 _l
495 646 _l
198 646 _l
198 467 _l
212 472 227 476 241 478 _c
255 480 270 482 284 482 _c
365 482 429 459 477 415 _c
525 370 549 310 549 234 _c
549 155 524 94 475 51 _c
426 8 357 -13 269 -13 _c
238 -13 207 -10 175 -6 _c
143 -1 111 6 77 17 _c
77 116 _l
106 100 136 88 168 80 _c
199 72 232 69 267 69 _c
}_e{323 69 368 83 401 113 _c
433 143 450 183 450 234 _c
450 284 433 324 401 354 _c
368 384 323 399 267 399 _c
241 399 214 396 188 390 _c
162 384 135 375 108 363 _c
108 729 _l
_cl}_e}_d
/six{{636 0 70 -13 573 742 _sc
330 404 _m
286 404 251 388 225 358 _c
199 328 186 286 186 234 _c
186 181 199 139 225 109 _c
251 79 286 64 330 64 _c
374 64 409 79 435 109 _c
461 139 474 181 474 234 _c
474 286 461 328 435 358 _c
409 388 374 404 330 404 _c
526 713 _m
526 623 _l
501 635 476 644 451 650 _c
425 656 400 659 376 659 _c
310 659 260 637 226 593 _c
}_e{192 549 172 482 168 394 _c
187 422 211 444 240 459 _c
269 474 301 482 336 482 _c
409 482 467 459 509 415 _c
551 371 573 310 573 234 _c
573 159 550 99 506 54 _c
462 9 403 -13 330 -13 _c
246 -13 181 19 137 83 _c
92 147 70 241 70 364 _c
70 479 97 571 152 639 _c
206 707 280 742 372 742 _c
396 742 421 739 447 735 _c
472 730 498 723 526 713 _c
_cl}_e}_d
/eight{{636 0 68 -13 568 742 _sc
318 346 _m
271 346 234 333 207 308 _c
180 283 167 249 167 205 _c
167 161 180 126 207 101 _c
234 76 271 64 318 64 _c
364 64 401 76 428 102 _c
455 127 469 161 469 205 _c
469 249 455 283 429 308 _c
402 333 365 346 318 346 _c
219 388 _m
177 398 144 418 120 447 _c
96 476 85 511 85 553 _c
85 611 105 657 147 691 _c
188 725 245 742 318 742 _c
}_e{390 742 447 725 489 691 _c
530 657 551 611 551 553 _c
551 511 539 476 515 447 _c
491 418 459 398 417 388 _c
464 377 501 355 528 323 _c
554 291 568 251 568 205 _c
568 134 546 80 503 43 _c
459 5 398 -13 318 -13 _c
237 -13 175 5 132 43 _c
89 80 68 134 68 205 _c
68 251 81 291 108 323 _c
134 355 171 377 219 388 _c
183 544 _m
183 506 194 476 218 455 _c
}_e{242 434 275 424 318 424 _c
360 424 393 434 417 455 _c
441 476 453 506 453 544 _c
453 582 441 611 417 632 _c
393 653 360 664 318 664 _c
275 664 242 653 218 632 _c
194 611 183 582 183 544 _c
_cl}_e}_d
/A{684 0 8 0 676 729 _sc
342 632 _m
208 269 _l
476 269 _l
342 632 _l
286 729 _m
398 729 _l
676 0 _l
573 0 _l
507 187 _l
178 187 _l
112 0 _l
8 0 _l
286 729 _l
_cl}_d
/C{{698 0 56 -13 644 742 _sc
644 673 _m
644 569 _l
610 599 575 622 537 638 _c
499 653 460 661 418 661 _c
334 661 270 635 226 584 _c
182 533 160 460 160 364 _c
160 268 182 194 226 143 _c
270 92 334 67 418 67 _c
460 67 499 74 537 90 _c
575 105 610 128 644 159 _c
644 56 _l
609 32 572 15 534 4 _c
496 -7 455 -13 412 -13 _c
302 -13 215 20 151 87 _c
}_e{87 154 56 246 56 364 _c
56 481 87 573 151 641 _c
215 708 302 742 412 742 _c
456 742 497 736 535 725 _c
573 713 610 696 644 673 _c
_cl}_e}_d
/D{770 0 98 0 711 729 _sc
197 648 _m
197 81 _l
316 81 _l
416 81 490 103 537 149 _c
583 195 607 267 607 365 _c
607 463 583 534 537 580 _c
490 625 416 648 316 648 _c
197 648 _l
98 729 _m
301 729 _l
442 729 546 699 612 641 _c
678 582 711 490 711 365 _c
711 239 677 147 611 88 _c
545 29 441 0 301 0 _c
98 0 _l
98 729 _l
_cl}_d
/L{557 0 98 0 552 729 _sc
98 729 _m
197 729 _l
197 83 _l
552 83 _l
552 0 _l
98 0 _l
98 729 _l
_cl}_d
/M{863 0 98 0 765 729 _sc
98 729 _m
245 729 _l
431 233 _l
618 729 _l
765 729 _l
765 0 _l
669 0 _l
669 640 _l
481 140 _l
382 140 _l
194 640 _l
194 0 _l
98 0 _l
98 729 _l
_cl}_d
/P{603 0 98 0 569 729 _sc
197 648 _m
197 374 _l
321 374 _l
367 374 402 385 427 409 _c
452 433 465 467 465 511 _c
465 555 452 588 427 612 _c
402 636 367 648 321 648 _c
197 648 _l
98 729 _m
321 729 _l
402 729 464 710 506 673 _c
548 636 569 582 569 511 _c
569 439 548 384 506 348 _c
464 311 402 293 321 293 _c
197 293 _l
197 0 _l
98 0 _l
98 729 _l
_cl}_d
/S{{635 0 66 -13 579 742 _sc
535 705 _m
535 609 _l
497 627 462 640 429 649 _c
395 657 363 662 333 662 _c
279 662 237 651 208 631 _c
179 610 165 580 165 542 _c
165 510 174 485 194 469 _c
213 452 250 439 304 429 _c
364 417 _l
437 403 491 378 526 343 _c
561 307 579 260 579 201 _c
579 130 555 77 508 41 _c
460 5 391 -13 300 -13 _c
265 -13 228 -9 189 -2 _c
}_e{150 5 110 16 69 32 _c
69 134 _l
109 111 148 94 186 83 _c
224 71 262 66 300 66 _c
356 66 399 77 430 99 _c
460 121 476 152 476 194 _c
476 230 465 258 443 278 _c
421 298 385 313 335 323 _c
275 335 _l
201 349 148 372 115 404 _c
82 435 66 478 66 534 _c
66 598 88 649 134 686 _c
179 723 242 742 322 742 _c
356 742 390 739 426 733 _c
461 727 497 717 535 705 _c
}_e{_cl}_e}_d
/T{611 0 -2 0 614 729 _sc
-2 729 _m
614 729 _l
614 646 _l
355 646 _l
355 0 _l
256 0 _l
256 646 _l
-2 646 _l
-2 729 _l
_cl}_d
/V{684 0 8 0 676 729 _sc
286 0 _m
8 729 _l
111 729 _l
342 115 _l
573 729 _l
676 729 _l
398 0 _l
286 0 _l
_cl}_d
/a{{613 0 60 -13 522 560 _sc
343 275 _m
270 275 220 266 192 250 _c
164 233 150 205 150 165 _c
150 133 160 107 181 89 _c
202 70 231 61 267 61 _c
317 61 357 78 387 114 _c
417 149 432 196 432 255 _c
432 275 _l
343 275 _l
522 312 _m
522 0 _l
432 0 _l
432 83 _l
411 49 385 25 355 10 _c
325 -5 287 -13 243 -13 _c
187 -13 142 2 109 33 _c
76 64 60 106 60 159 _c
}_e{60 220 80 266 122 298 _c
163 329 224 345 306 345 _c
432 345 _l
432 354 _l
432 395 418 427 391 450 _c
364 472 326 484 277 484 _c
245 484 215 480 185 472 _c
155 464 127 453 100 439 _c
100 522 _l
132 534 164 544 195 550 _c
226 556 256 560 286 560 _c
365 560 424 539 463 498 _c
502 457 522 395 522 312 _c
_cl}_e}_d
/c{{550 0 55 -13 488 560 _sc
488 526 _m
488 442 _l
462 456 437 466 411 473 _c
385 480 360 484 334 484 _c
276 484 230 465 198 428 _c
166 391 150 339 150 273 _c
150 206 166 154 198 117 _c
230 80 276 62 334 62 _c
360 62 385 65 411 72 _c
437 79 462 90 488 104 _c
488 21 _l
462 9 436 0 410 -5 _c
383 -10 354 -13 324 -13 _c
242 -13 176 12 128 64 _c
}_e{79 115 55 185 55 273 _c
55 362 79 432 128 483 _c
177 534 244 560 330 560 _c
358 560 385 557 411 551 _c
437 545 463 537 488 526 _c
_cl}_e}_d
/d{{635 0 55 -13 544 760 _sc
454 464 _m
454 760 _l
544 760 _l
544 0 _l
454 0 _l
454 82 _l
435 49 411 25 382 10 _c
353 -5 319 -13 279 -13 _c
213 -13 159 13 117 65 _c
75 117 55 187 55 273 _c
55 359 75 428 117 481 _c
159 533 213 560 279 560 _c
319 560 353 552 382 536 _c
411 520 435 496 454 464 _c
148 273 _m
148 207 161 155 188 117 _c
215 79 253 61 301 61 _c
}_e{348 61 385 79 413 117 _c
440 155 454 207 454 273 _c
454 339 440 390 413 428 _c
385 466 348 485 301 485 _c
253 485 215 466 188 428 _c
161 390 148 339 148 273 _c
_cl}_e}_d
/e{{615 0 55 -13 562 560 _sc
562 296 _m
562 252 _l
149 252 _l
153 190 171 142 205 110 _c
238 78 284 62 344 62 _c
378 62 412 66 444 74 _c
476 82 509 95 541 113 _c
541 28 _l
509 14 476 3 442 -3 _c
408 -9 373 -13 339 -13 _c
251 -13 182 12 131 62 _c
80 112 55 181 55 268 _c
55 357 79 428 127 481 _c
175 533 241 560 323 560 _c
397 560 455 536 498 489 _c
}_e{540 441 562 377 562 296 _c
472 322 _m
471 371 457 410 431 440 _c
404 469 368 484 324 484 _c
274 484 234 469 204 441 _c
174 413 156 373 152 322 _c
472 322 _l
_cl}_e}_d
/f{352 0 23 0 371 760 _sc
371 760 _m
371 685 _l
285 685 _l
253 685 230 678 218 665 _c
205 652 199 629 199 595 _c
199 547 _l
347 547 _l
347 477 _l
199 477 _l
199 0 _l
109 0 _l
109 477 _l
23 477 _l
23 547 _l
109 547 _l
109 585 _l
109 645 123 690 151 718 _c
179 746 224 760 286 760 _c
371 760 _l
_cl}_d
/g{{635 0 55 -207 544 560 _sc
454 280 _m
454 344 440 395 414 431 _c
387 467 349 485 301 485 _c
253 485 215 467 188 431 _c
161 395 148 344 148 280 _c
148 215 161 165 188 129 _c
215 93 253 75 301 75 _c
349 75 387 93 414 129 _c
440 165 454 215 454 280 _c
544 68 _m
544 -24 523 -93 482 -139 _c
440 -184 377 -207 292 -207 _c
260 -207 231 -204 203 -200 _c
175 -195 147 -188 121 -178 _c
}_e{121 -91 _l
147 -105 173 -115 199 -122 _c
225 -129 251 -133 278 -133 _c
336 -133 380 -117 410 -87 _c
439 -56 454 -10 454 52 _c
454 96 _l
435 64 411 40 382 24 _c
353 8 319 0 279 0 _c
211 0 157 25 116 76 _c
75 127 55 195 55 280 _c
55 364 75 432 116 483 _c
157 534 211 560 279 560 _c
319 560 353 552 382 536 _c
411 520 435 496 454 464 _c
454 547 _l
544 547 _l
}_e{544 68 _l
_cl}_e}_d
/h{634 0 91 0 549 760 _sc
549 330 _m
549 0 _l
459 0 _l
459 327 _l
459 379 448 417 428 443 _c
408 469 378 482 338 482 _c
289 482 251 466 223 435 _c
195 404 181 362 181 309 _c
181 0 _l
91 0 _l
91 760 _l
181 760 _l
181 462 _l
202 494 227 519 257 535 _c
286 551 320 560 358 560 _c
420 560 468 540 500 501 _c
532 462 549 405 549 330 _c
_cl}_d
/i{278 0 94 0 184 760 _sc
94 547 _m
184 547 _l
184 0 _l
94 0 _l
94 547 _l
94 760 _m
184 760 _l
184 646 _l
94 646 _l
94 760 _l
_cl}_d
/l{278 0 94 0 184 760 _sc
94 760 _m
184 760 _l
184 0 _l
94 0 _l
94 760 _l
_cl}_d
/m{{974 0 91 0 889 560 _sc
520 442 _m
542 482 569 511 600 531 _c
631 550 668 560 711 560 _c
767 560 811 540 842 500 _c
873 460 889 403 889 330 _c
889 0 _l
799 0 _l
799 327 _l
799 379 789 418 771 444 _c
752 469 724 482 686 482 _c
639 482 602 466 575 435 _c
548 404 535 362 535 309 _c
535 0 _l
445 0 _l
445 327 _l
445 379 435 418 417 444 _c
398 469 369 482 331 482 _c
}_e{285 482 248 466 221 435 _c
194 404 181 362 181 309 _c
181 0 _l
91 0 _l
91 547 _l
181 547 _l
181 462 _l
201 495 226 520 255 536 _c
283 552 317 560 357 560 _c
397 560 430 550 458 530 _c
486 510 506 480 520 442 _c
_cl}_e}_d
/n{634 0 91 0 549 560 _sc
549 330 _m
549 0 _l
459 0 _l
459 327 _l
459 379 448 417 428 443 _c
408 469 378 482 338 482 _c
289 482 251 466 223 435 _c
195 404 181 362 181 309 _c
181 0 _l
91 0 _l
91 547 _l
181 547 _l
181 462 _l
202 494 227 519 257 535 _c
286 551 320 560 358 560 _c
420 560 468 540 500 501 _c
532 462 549 405 549 330 _c
_cl}_d
/o{612 0 55 -13 557 560 _sc
306 484 _m
258 484 220 465 192 427 _c
164 389 150 338 150 273 _c
150 207 163 156 191 118 _c
219 80 257 62 306 62 _c
354 62 392 80 420 118 _c
448 156 462 207 462 273 _c
462 337 448 389 420 427 _c
392 465 354 484 306 484 _c
306 560 _m
384 560 445 534 490 484 _c
534 433 557 363 557 273 _c
557 183 534 113 490 63 _c
445 12 384 -13 306 -13 _c
227 -13 165 12 121 63 _c
77 113 55 183 55 273 _c
55 363 77 433 121 484 _c
165 534 227 560 306 560 _c
_cl}_d
/q{{635 0 55 -207 544 560 _sc
148 273 _m
148 207 161 155 188 117 _c
215 79 253 61 301 61 _c
348 61 385 79 413 117 _c
440 155 454 207 454 273 _c
454 339 440 390 413 428 _c
385 466 348 485 301 485 _c
253 485 215 466 188 428 _c
161 390 148 339 148 273 _c
454 82 _m
435 49 411 25 382 10 _c
353 -5 319 -13 279 -13 _c
213 -13 159 13 117 65 _c
75 117 55 187 55 273 _c
}_e{55 359 75 428 117 481 _c
159 533 213 560 279 560 _c
319 560 353 552 382 536 _c
411 520 435 496 454 464 _c
454 547 _l
544 547 _l
544 -207 _l
454 -207 _l
454 82 _l
_cl}_e}_d
/r{411 0 91 0 411 560 _sc
411 463 _m
401 469 390 473 378 476 _c
366 478 353 480 339 480 _c
288 480 249 463 222 430 _c
194 397 181 350 181 288 _c
181 0 _l
91 0 _l
91 547 _l
181 547 _l
181 462 _l
199 495 224 520 254 536 _c
284 552 321 560 365 560 _c
371 560 378 559 386 559 _c
393 558 401 557 411 555 _c
411 463 _l
_cl}_d
/s{{521 0 54 -13 472 560 _sc
443 531 _m
443 446 _l
417 458 391 468 364 475 _c
336 481 308 485 279 485 _c
234 485 200 478 178 464 _c
156 450 145 430 145 403 _c
145 382 153 366 169 354 _c
185 342 217 330 265 320 _c
296 313 _l
360 299 405 279 432 255 _c
458 230 472 195 472 151 _c
472 100 452 60 412 31 _c
372 1 316 -13 246 -13 _c
216 -13 186 -10 154 -5 _c
}_e{122 0 89 8 54 20 _c
54 113 _l
87 95 120 82 152 74 _c
184 65 216 61 248 61 _c
290 61 323 68 346 82 _c
368 96 380 117 380 144 _c
380 168 371 187 355 200 _c
339 213 303 226 247 238 _c
216 245 _l
160 257 119 275 95 299 _c
70 323 58 356 58 399 _c
58 450 76 490 112 518 _c
148 546 200 560 268 560 _c
301 560 332 557 362 552 _c
391 547 418 540 443 531 _c
}_e{_cl}_e}_d
/t{392 0 27 0 368 702 _sc
183 702 _m
183 547 _l
368 547 _l
368 477 _l
183 477 _l
183 180 _l
183 135 189 106 201 94 _c
213 81 238 75 276 75 _c
368 75 _l
368 0 _l
276 0 _l
206 0 158 13 132 39 _c
106 65 93 112 93 180 _c
93 477 _l
27 477 _l
27 547 _l
93 547 _l
93 702 _l
183 702 _l
_cl}_d
/u{634 0 85 -13 543 560 _sc
85 216 _m
85 547 _l
175 547 _l
175 219 _l
175 167 185 129 205 103 _c
225 77 255 64 296 64 _c
344 64 383 79 411 110 _c
439 141 453 183 453 237 _c
453 547 _l
543 547 _l
543 0 _l
453 0 _l
453 84 _l
431 50 405 26 377 10 _c
348 -5 315 -13 277 -13 _c
214 -13 166 6 134 45 _c
101 83 85 140 85 216 _c
311 560 _m
311 560 _l
_cl}_d
/w{818 0 42 0 776 547 _sc
42 547 _m
132 547 _l
244 120 _l
356 547 _l
462 547 _l
574 120 _l
686 547 _l
776 547 _l
633 0 _l
527 0 _l
409 448 _l
291 0 _l
185 0 _l
42 547 _l
_cl}_d
end readonly def

/BuildGlyph
 {exch begin
 CharStrings exch
 2 copy known not{pop /.notdef}if
 true 3 1 roll get exec
 end}_d

/BuildChar {
 1 index /Encoding get exch get
 1 index /BuildGlyph get exec
}_d

FontName currentdict end definefont pop
end
%%EndProlog
mpldict begin
75.6 223.2 translate
460.8 345.6 0 0 clipbox
gsave
0 0 m
460.8 0 l
460.8 345.6 l
0 345.6 l
cl
1.000 setgray
fill
grestore
gsave
57.6 38.016 m
414.72 38.016 l
414.72 304.128 l
57.6 304.128 l
cl
1.000 setgray
fill
grestore
0.800 setlinewidth
1 setlinejoin
0 setlinecap
[] 0 setdash
0.000 setgray
gsave
/o {
gsave
newpath
translate
0.8 setlinewidth
1 setlinejoin
0 setlinecap
0 0 m
0 -3.5 l

gsave
0.000 setgray
fill
grestore
stroke
grestore
} bind def
61.7548 38.016 o
grestore
/DejaVuSans findfont
10.000 scalefont
setfont
gsave
58.575117 23.422250 translate
0.000000 rotate
0.000000 0 m /zero glyphshow
grestore
gsave
/o {
gsave
newpath
translate
0.8 setlinewidth
1 setlinejoin
0 setlinecap
0 0 m
0 -3.5 l

gsave
0.000 setgray
fill
grestore
stroke
grestore
} bind def
103.834 38.016 o
grestore
gsave
100.654077 23.422250 translate
0.000000 rotate
0.000000 0 m /five glyphshow
grestore
gsave
/o {
gsave
newpath
translate
0.8 setlinewidth
1 setlinejoin
0 setlinecap
0 0 m
0 -3.5 l

gsave
0.000 setgray
fill
grestore
stroke
grestore
} bind def
145.913 38.016 o
grestore
gsave
139.553349 23.422250 translate
0.000000 rotate
0.000000 0 m /one glyphshow
6.362305 0 m /zero glyphshow
grestore
gsave
/o {
gsave
newpath
translate
0.8 setlinewidth
1 setlinejoin
0 setlinecap
0 0 m
0 -3.5 l

gsave
0.000 setgray
fill
grestore
stroke
grestore
} bind def
187.992 38.016 o
grestore
gsave
181.632309 23.422250 translate
0.000000 rotate
0.000000 0 m /one glyphshow
6.362305 0 m /five glyphshow
grestore
gsave
/o {
gsave
newpath
translate
0.8 setlinewidth
1 setlinejoin
0 setlinecap
0 0 m
0 -3.5 l

gsave
0.000 setgray
fill
grestore
stroke
grestore
} bind def
230.071 38.016 o
grestore
gsave
223.711269 23.422250 translate
0.000000 rotate
0.000000 0 m /two glyphshow
6.362305 0 m /zero glyphshow
grestore
gsave
/o {
gsave
newpath
translate
0.8 setlinewidth
1 setlinejoin
0 setlinecap
0 0 m
0 -3.5 l

gsave
0.000 setgray
fill
grestore
stroke
grestore
} bind def
272.15 38.016 o
grestore
gsave
265.790229 23.422250 translate
0.000000 rotate
0.000000 0 m /two glyphshow
6.362305 0 m /five glyphshow
grestore
gsave
/o {
gsave
newpath
translate
0.8 setlinewidth
1 setlinejoin
0 setlinecap
0 0 m
0 -3.5 l

gsave
0.000 setgray
fill
grestore
stroke
grestore
} bind def
314.229 38.016 o
grestore
gsave
307.869189 23.422250 translate
0.000000 rotate
0.000000 0 m /three glyphshow
6.362305 0 m /zero glyphshow
grestore
gsave
/o {
gsave
newpath
translate
0.8 setlinewidth
1 setlinejoin
0 setlinecap
0 0 m
0 -3.5 l

gsave
0.000 setgray
fill
grestore
stroke
grestore
} bind def
356.308 38.016 o
grestore
gsave
349.948149 23.422250 translate
0.000000 rotate
0.000000 0 m /three glyphshow
6.362305 0 m /five glyphshow
grestore
gsave
/o {
gsave
newpath
translate
0.8 setlinewidth
1 setlinejoin
0 setlinecap
0 0 m
0 -3.5 l

gsave
0.000 setgray
fill
grestore
stroke
grestore
} bind def
398.386 38.016 o
grestore
gsave
392.027109 23.422250 translate
0.000000 rotate
0.000000 0 m /four glyphshow
6.362305 0 m /zero glyphshow
grestore
gsave
190.519375 9.750375 translate
0.000000 rotate
0.000000 0 m /A glyphshow
6.715820 0 m /c glyphshow
12.213867 0 m /c glyphshow
17.711914 0 m /u glyphshow
24.049805 0 m /m glyphshow
33.791016 0 m /u glyphshow
40.128906 0 m /l glyphshow
42.907227 0 m /a glyphshow
49.035156 0 m /t glyphshow
52.956055 0 m /e glyphshow
59.108398 0 m /d glyphshow
65.456055 0 m /space glyphshow
68.634766 0 m /t glyphshow
72.555664 0 m /i glyphshow
75.333984 0 m /m glyphshow
85.075195 0 m /e glyphshow
grestore
gsave
/o {
gsave
newpath
translate
0.8 setlinewidth
1 setlinejoin
0 setlinecap
-0 0 m
-3.5 0 l

gsave
0.000 setgray
fill
grestore
stroke
grestore
} bind def
57.6 56.7384 o
grestore
gsave
34.693750 52.941528 translate
0.000000 rotate
0.000000 0 m /zero glyphshow
6.362305 0 m /period glyphshow
9.541016 0 m /zero glyphshow
grestore
gsave
/o {
gsave
newpath
translate
0.8 setlinewidth
1 setlinejoin
0 setlinecap
-0 0 m
-3.5 0 l

gsave
0.000 setgray
fill
grestore
stroke
grestore
} bind def
57.6 97.4932 o
grestore
gsave
34.693750 93.696364 translate
0.000000 rotate
0.000000 0 m /zero glyphshow
6.362305 0 m /period glyphshow
9.541016 0 m /two glyphshow
grestore
gsave
/o {
gsave
newpath
translate
0.8 setlinewidth
1 setlinejoin
0 setlinecap
-0 0 m
-3.5 0 l

gsave
0.000 setgray
fill
grestore
stroke
grestore
} bind def
57.6 138.248 o
grestore
gsave
34.693750 134.451200 translate
0.000000 rotate
0.000000 0 m /zero glyphshow
6.362305 0 m /period glyphshow
9.541016 0 m /four glyphshow
grestore
gsave
/o {
gsave
newpath
translate
0.8 setlinewidth
1 setlinejoin
0 setlinecap
-0 0 m
-3.5 0 l

gsave
0.000 setgray
fill
grestore
stroke
grestore
} bind def
57.6 179.003 o
grestore
gsave
34.693750 175.206036 translate
0.000000 rotate
0.000000 0 m /zero glyphshow
6.362305 0 m /period glyphshow
9.541016 0 m /six glyphshow
grestore
gsave
/o {
gsave
newpath
translate
0.8 setlinewidth
1 setlinejoin
0 setlinecap
-0 0 m
-3.5 0 l

gsave
0.000 setgray
fill
grestore
stroke
grestore
} bind def
57.6 219.758 o
grestore
gsave
34.693750 215.960872 translate
0.000000 rotate
0.000000 0 m /zero glyphshow
6.362305 0 m /period glyphshow
9.541016 0 m /eight glyphshow
grestore
gsave
/o {
gsave
newpath
translate
0.8 setlinewidth
1 setlinejoin
0 setlinecap
-0 0 m
-3.5 0 l

gsave
0.000 setgray
fill
grestore
stroke
grestore
} bind def
57.6 260.513 o
grestore
gsave
34.693750 256.715708 translate
0.000000 rotate
0.000000 0 m /one glyphshow
6.362305 0 m /period glyphshow
9.541016 0 m /zero glyphshow
grestore
gsave
/o {
gsave
newpath
translate
0.8 setlinewidth
1 setlinejoin
0 setlinecap
-0 0 m
-3.5 0 l

gsave
0.000 setgray
fill
grestore
stroke
grestore
} bind def
57.6 301.267 o
grestore
gsave
34.693750 297.470543 translate
0.000000 rotate
0.000000 0 m /one glyphshow
6.362305 0 m /period glyphshow
9.541016 0 m /two glyphshow
grestore
gsave
28.615625 98.001687 translate
90.000000 rotate
0.000000 0 m /S glyphshow
6.347656 0 m /q glyphshow
12.695312 0 m /u glyphshow
19.033203 0 m /a glyphshow
25.161133 0 m /r glyphshow
29.022461 0 m /e glyphshow
35.174805 0 m /d glyphshow
41.522461 0 m /space glyphshow
44.701172 0 m /n glyphshow
51.039062 0 m /o glyphshow
57.157227 0 m /r glyphshow
61.143555 0 m /m glyphshow
70.884766 0 m /space glyphshow
74.063477 0 m /o glyphshow
80.181641 0 m /f glyphshow
83.702148 0 m /space glyphshow
86.880859 0 m /t glyphshow
90.801758 0 m /h glyphshow
97.139648 0 m /e glyphshow
103.291992 0 m /space glyphshow
106.470703 0 m /r glyphshow
110.332031 0 m /e glyphshow
116.484375 0 m /s glyphshow
121.694336 0 m /i glyphshow
124.472656 0 m /d glyphshow
130.820312 0 m /u glyphshow
137.158203 0 m /a glyphshow
143.286133 0 m /l glyphshow
grestore
1.500 setlinewidth
2 setlinecap
0.000 0.000 1.000 setrgbcolor
gsave
357.1 266.1 57.6 38.02 clipbox
64.845386 260.512583 m
68.751525 201.64555 l
74.535615 197.350862 l
81.855334 185.171681 l
105.86096 178.398035 l
112.680529 173.700499 l
127.25079 169.433115 l
146.952074 166.280926 l
156.00915 163.887398 l
177.300262 159.024772 l
230.927372 156.86957 l
248.247072 152.398838 l
268.827891 148.785843 l
297.482821 141.601949 l
334.010725 135.493716 l
368.686312 131.966542 l
392.308599 129.513592 l
409.412854 127.11345 l
418.358 123.882527 l
426.673644 121.089133 l
434.178847 118.924026 l
441.968504 114.515409 l
452.884628 110.433378 l
461.8 108.568254 l
stroke
grestore
0.000 setgray
gsave
357.1 266.1 57.6 38.02 clipbox
62.916604 260.512583 m
63.935799 201.681656 l
65.208309 190.339801 l
66.376572 184.368114 l
67.517922 180.806442 l
68.951072 176.789277 l
70.175393 171.633611 l
71.582009 168.389406 l
73.050733 165.080506 l
74.651416 161.672493 l
76.190581 157.349465 l
77.877105 154.638164 l
79.538551 151.202769 l
81.270269 148.404703 l
82.850754 146.822511 l
84.666714 144.223216 l
86.372763 141.049542 l
88.336588 138.972286 l
90.016464 135.85654 l
91.798929 133.823322 l
93.709987 132.487083 l
95.666911 130.622382 l
97.534039 128.034144 l
99.527488 126.170723 l
101.704148 124.401749 l
103.887541 123.185819 l
106.065716 120.802523 l
108.146269 119.406898 l
110.747337 118.072483 l
113.080195 116.603546 l
115.34884 114.7636 l
117.692806 113.477493 l
119.991327 111.423928 l
122.243646 109.937245 l
124.803141 109.223031 l
127.385526 107.821313 l
129.960422 106.875644 l
132.437863 105.548654 l
134.951323 104.664828 l
137.63756 103.707571 l
140.163644 102.509658 l
142.858381 101.478438 l
145.780512 100.599505 l
148.647857 99.810043 l
151.535315 99.146265 l
154.48505 98.216879 l
157.659487 97.563545 l
160.942487 97.022198 l
164.127023 96.184686 l
167.219826 95.547495 l
170.422877 95.009863 l
173.763105 94.459779 l
176.966155 93.765092 l
180.133018 93.294107 l
183.506909 92.750138 l
187.013769 92.146355 l
190.529045 91.744282 l
194.026649 91.204128 l
197.711924 90.730338 l
201.395516 90.253097 l
205.127078 89.729601 l
208.949531 89.237743 l
212.883914 88.753215 l
216.835128 88.317603 l
220.873025 87.903122 l
225.132257 87.38217 l
229.2905 86.971461 l
233.480723 86.558317 l
237.676837 86.243561 l
241.887258 85.799382 l
246.302182 85.339694 l
251.222896 84.881569 l
255.93069 84.604051 l
260.795017 84.263147 l
265.859641 83.920619 l
270.718078 83.556428 l
275.788592 83.211868 l
280.896978 82.936634 l
286.092888 82.622907 l
291.422609 82.309087 l
296.497332 81.8382 l
301.615816 81.419733 l
307.276278 81.11547 l
312.838275 80.712967 l
318.655271 80.445348 l
324.569889 80.081623 l
330.748764 79.799669 l
336.933529 79.482293 l
343.424629 79.153546 l
349.60687 78.778828 l
355.648567 78.492305 l
362.113579 78.204843 l
368.357255 77.995689 l
374.779346 77.749717 l
381.258664 77.435349 l
387.688329 77.174846 l
394.706258 76.893615 l
401.865572 76.623156 l
409.108203 76.320718 l
416.364299 76.055062 l
stroke
grestore
1.000 0.000 0.000 setrgbcolor
gsave
357.1 266.1 57.6 38.02 clipbox
70.105904 260.512583 m
74.939994 201.64555 l
82.655592 189.85987 l
90.102726 183.337314 l
111.327185 178.398035 l
116.1204 173.700499 l
133.992344 169.433115 l
149.555079 166.280926 l
155.334203 163.887517 l
162.317627 159.024772 l
168.078237 152.609741 l
173.653699 147.927911 l
177.933971 145.503405 l
182.456618 141.597482 l
187.813269 138.93785 l
193.737145 132.614621 l
199.380775 128.946598 l
204.542181 126.387551 l
213.274406 123.038814 l
218.279278 120.2079 l
222.994646 118.011045 l
229.094412 116.326541 l
240.523899 111.711382 l
254.010206 107.832198 l
261.684567 106.305298 l
279.641342 102.709558 l
292.328148 101.557722 l
298.961476 100.682763 l
303.709666 97.590812 l
313.08065 94.764262 l
328.362887 93.163492 l
335.663586 91.182116 l
345.065709 89.792064 l
353.79541 88.715175 l
363.671342 87.852305 l
375.539292 86.994612 l
383.125287 84.75775 l
401.320229 83.741524 l
408.002368 82.269663 l
416.897018 81.277629 l
431.367131 80.611267 l
438.904314 80.051391 l
444.500816 79.273386 l
453.736306 78.274032 l
461.8 77.985412 l
stroke
grestore
0 setlinecap
[5.55 2.4] 0 setdash
0.000 0.000 1.000 setrgbcolor
gsave
357.1 266.1 57.6 38.02 clipbox
64.845386 300.377981 m
68.751525 241.51095 l
74.535615 237.21626 l
81.855334 225.037081 l
105.86096 218.263436 l
112.680529 213.565899 l
127.25079 209.298513 l
146.952074 206.146326 l
156.00915 203.752799 l
177.300262 198.89017 l
230.927372 196.734969 l
248.247072 192.264237 l
268.827891 188.651243 l
297.482821 181.467349 l
334.010725 175.359114 l
368.686312 171.83194 l
392.308599 169.37899 l
409.412854 166.97885 l
418.358 163.747925 l
426.673644 160.954532 l
434.178847 158.789427 l
441.968504 154.380807 l
452.884628 150.298776 l
461.8 148.433652 l
stroke
grestore
0.000 setgray
gsave
357.1 266.1 57.6 38.02 clipbox
62.916604 294.789751 m
63.935799 235.958825 l
65.208309 224.61697 l
66.376572 218.645282 l
67.517922 215.083611 l
68.951072 211.066446 l
70.175393 205.91078 l
71.582009 202.666574 l
73.050733 199.357675 l
74.651416 195.949662 l
76.190581 191.626633 l
77.877105 188.915332 l
79.538551 185.479938 l
81.270269 182.681872 l
82.850754 181.09968 l
84.666714 178.500385 l
86.372763 175.32671 l
88.336588 173.249455 l
90.016464 170.133709 l
91.798929 168.100491 l
93.709987 166.764252 l
95.666911 164.899551 l
97.534039 162.311311 l
99.527488 160.447892 l
101.704148 158.678918 l
103.887541 157.462987 l
106.065716 155.079691 l
108.146269 153.684067 l
110.747337 152.349651 l
113.080195 150.880715 l
115.34884 149.040768 l
117.692806 147.754662 l
119.991327 145.701095 l
122.243646 144.214413 l
124.803141 143.500199 l
127.385526 142.098481 l
129.960422 141.152812 l
132.437863 139.825823 l
134.951323 138.941997 l
137.63756 137.984739 l
140.163644 136.786826 l
142.858381 135.755607 l
145.780512 134.876674 l
148.647857 134.087212 l
151.535315 133.423434 l
154.48505 132.494046 l
157.659487 131.840713 l
160.942487 131.299365 l
164.127023 130.461855 l
167.219826 129.824663 l
170.422877 129.287032 l
173.763105 128.736947 l
176.966155 128.042261 l
180.133018 127.571273 l
183.506909 127.027306 l
187.013769 126.423524 l
190.529045 126.021451 l
194.026649 125.481294 l
197.711924 125.007507 l
201.395516 124.530266 l
205.127078 124.006768 l
208.949531 123.514912 l
212.883914 123.030384 l
216.835128 122.594772 l
220.873025 122.180291 l
225.132257 121.659338 l
229.2905 121.248629 l
233.480723 120.835485 l
237.676837 120.520728 l
241.887258 120.076551 l
246.302182 119.616863 l
251.222896 119.158738 l
255.93069 118.881218 l
260.795017 118.540316 l
265.859641 118.197785 l
270.718078 117.833596 l
275.788592 117.489036 l
280.896978 117.213803 l
286.092888 116.900076 l
291.422609 116.586256 l
296.497332 116.115368 l
301.615816 115.696902 l
307.276278 115.392636 l
312.838275 114.990135 l
318.655271 114.722517 l
324.569889 114.358792 l
330.748764 114.076838 l
336.933529 113.759462 l
343.424629 113.430715 l
349.60687 113.055996 l
355.648567 112.769474 l
362.113579 112.482011 l
368.357255 112.272858 l
374.779346 112.026886 l
381.258664 111.712517 l
387.688329 111.452012 l
394.706258 111.170784 l
401.865572 110.900324 l
409.108203 110.597887 l
416.364299 110.332231 l
stroke
grestore
1.000 0.000 0.000 setrgbcolor
gsave
357.1 266.1 57.6 38.02 clipbox
70.105904 299.966117 m
74.939994 241.099084 l
82.655592 229.313405 l
90.102726 222.790848 l
111.327185 217.85157 l
116.1204 213.154033 l
133.992344 208.886649 l
149.555079 205.73446 l
155.334203 203.341051 l
162.317627 198.478306 l
168.078237 192.063275 l
173.653699 187.381445 l
177.933971 184.956939 l
182.456618 181.051016 l
187.813269 178.391384 l
193.737145 172.068155 l
199.380775 168.400132 l
204.542181 165.841085 l
213.274406 162.492348 l
218.279278 159.661434 l
222.994646 157.464579 l
229.094412 155.780076 l
240.523899 151.164916 l
254.010206 147.285733 l
261.684567 145.758834 l
279.641342 142.163092 l
292.328148 141.011257 l
298.961476 140.136297 l
303.709666 137.044346 l
313.08065 134.217796 l
328.362887 132.617026 l
335.663586 130.635652 l
345.065709 129.245598 l
353.79541 128.168709 l
363.671342 127.305839 l
375.539292 126.448146 l
383.125287 124.211284 l
401.320229 123.195058 l
408.002368 121.723197 l
416.897018 120.731163 l
431.367131 120.064801 l
438.904314 119.504926 l
444.500816 118.72692 l
453.736306 117.727566 l
461.8 117.438946 l
stroke
grestore
0.000 0.000 1.000 setrgbcolor
gsave
357.1 266.1 57.6 38.02 clipbox
64.845386 220.647184 m
68.751525 161.780151 l
74.535615 157.485462 l
81.855334 145.306282 l
105.86096 138.532637 l
112.680529 133.8351 l
127.25079 129.567714 l
146.952074 126.415527 l
156.00915 124.022 l
177.300262 119.159371 l
230.927372 117.004172 l
248.247072 112.533438 l
268.827891 108.920444 l
297.482821 101.736551 l
334.010725 95.628316 l
368.686312 92.101142 l
392.308599 89.648191 l
409.412854 87.248052 l
418.358 84.017126 l
426.673644 81.223733 l
434.178847 79.058628 l
441.968504 74.650008 l
452.884628 70.567978 l
461.8 68.702855 l
stroke
grestore
0.000 setgray
gsave
357.1 266.1 57.6 38.02 clipbox
62.916604 226.235414 m
63.935799 167.404488 l
65.208309 156.062633 l
66.376572 150.090945 l
67.517922 146.529274 l
68.951072 142.512108 l
70.175393 137.356442 l
71.582009 134.112237 l
73.050733 130.803338 l
74.651416 127.395325 l
76.190581 123.072296 l
77.877105 120.360995 l
79.538551 116.925601 l
81.270269 114.127535 l
82.850754 112.545342 l
84.666714 109.946048 l
86.372763 106.772373 l
88.336588 104.695117 l
90.016464 101.579371 l
91.798929 99.546153 l
93.709987 98.209914 l
95.666911 96.345214 l
97.534039 93.756976 l
99.527488 91.893555 l
101.704148 90.124581 l
103.887541 88.90865 l
106.065716 86.525354 l
108.146269 85.129729 l
110.747337 83.795314 l
113.080195 82.326377 l
115.34884 80.486433 l
117.692806 79.200325 l
119.991327 77.14676 l
122.243646 75.660076 l
124.803141 74.945862 l
127.385526 73.544144 l
129.960422 72.598475 l
132.437863 71.271485 l
134.951323 70.38766 l
137.63756 69.430402 l
140.163644 68.232489 l
142.858381 67.201269 l
145.780512 66.322336 l
148.647857 65.532874 l
151.535315 64.869096 l
154.48505 63.939711 l
157.659487 63.286376 l
160.942487 62.74503 l
164.127023 61.907518 l
167.219826 61.270326 l
170.422877 60.732694 l
173.763105 60.18261 l
176.966155 59.487924 l
180.133018 59.016938 l
183.506909 58.472969 l
187.013769 57.869186 l
190.529045 57.467113 l
194.026649 56.926959 l
197.711924 56.45317 l
201.395516 55.975929 l
205.127078 55.452433 l
208.949531 54.960575 l
212.883914 54.476047 l
216.835128 54.040435 l
220.873025 53.625954 l
225.132257 53.105001 l
229.2905 52.694292 l
233.480723 52.281148 l
237.676837 51.966392 l
241.887258 51.522214 l
246.302182 51.062526 l
251.222896 50.6044 l
255.93069 50.326882 l
260.795017 49.985978 l
265.859641 49.64345 l
270.718078 49.279259 l
275.788592 48.934699 l
280.896978 48.659466 l
286.092888 48.345739 l
291.422609 48.031918 l
296.497332 47.561031 l
301.615816 47.142564 l
307.276278 46.838301 l
312.838275 46.435798 l
318.655271 46.168179 l
324.569889 45.804455 l
330.748764 45.522501 l
336.933529 45.205124 l
343.424629 44.876378 l
349.60687 44.501659 l
355.648567 44.215136 l
362.113579 43.927676 l
368.357255 43.718522 l
374.779346 43.472549 l
381.258664 43.15818 l
387.688329 42.897677 l
394.706258 42.616446 l
401.865572 42.345987 l
409.108203 42.04355 l
416.364299 41.777893 l
stroke
grestore
1.000 0.000 0.000 setrgbcolor
gsave
357.1 266.1 57.6 38.02 clipbox
70.105904 221.059048 m
74.939994 162.192016 l
82.655592 150.406336 l
90.102726 143.88378 l
111.327185 138.944501 l
116.1204 134.246964 l
133.992344 129.979581 l
149.555079 126.827392 l
155.334203 124.433982 l
162.317627 119.571238 l
168.078237 113.156206 l
173.653699 108.474376 l
177.933971 106.049871 l
182.456618 102.143948 l
187.813269 99.484316 l
193.737145 93.161087 l
199.380775 89.493064 l
204.542181 86.934017 l
213.274406 83.585278 l
218.279278 80.754366 l
222.994646 78.557509 l
229.094412 76.873007 l
240.523899 72.257848 l
254.010206 68.378664 l
261.684567 66.851764 l
279.641342 63.256024 l
292.328148 62.104188 l
298.961476 61.229229 l
303.709666 58.137278 l
313.08065 55.310728 l
328.362887 53.709958 l
335.663586 51.728582 l
345.065709 50.33853 l
353.79541 49.261641 l
363.671342 48.398771 l
375.539292 47.541077 l
383.125287 45.304216 l
401.320229 44.28799 l
408.002368 42.816127 l
416.897018 41.824095 l
431.367131 41.157733 l
438.904314 40.597857 l
444.500816 39.819852 l
453.736306 38.820498 l
461.8 38.531878 l
stroke
grestore
0.800 setlinewidth
0 setlinejoin
2 setlinecap
[] 0 setdash
0.000 setgray
gsave
57.6 38.016 m
57.6 304.128 l
stroke
grestore
gsave
414.72 38.016 m
414.72 304.128 l
stroke
grestore
gsave
57.6 38.016 m
414.72 38.016 l
stroke
grestore
gsave
57.6 304.128 m
414.72 304.128 l
stroke
grestore
/DejaVuSans findfont
12.000 scalefont
setfont
gsave
76.511562 310.128000 translate
0.000000 rotate
0.000000 0 m /D glyphshow
9.240234 0 m /e glyphshow
16.623047 0 m /c glyphshow
23.220703 0 m /r glyphshow
27.904297 0 m /e glyphshow
35.287109 0 m /a glyphshow
42.640625 0 m /s glyphshow
48.892578 0 m /i glyphshow
52.226562 0 m /n glyphshow
59.832031 0 m /g glyphshow
67.449219 0 m /space glyphshow
71.263672 0 m /o glyphshow
78.605469 0 m /f glyphshow
82.830078 0 m /space glyphshow
86.644531 0 m /t glyphshow
91.349609 0 m /h glyphshow
98.955078 0 m /e glyphshow
106.337891 0 m /space glyphshow
110.152344 0 m /n glyphshow
117.757812 0 m /o glyphshow
125.099609 0 m /r glyphshow
129.783203 0 m /m glyphshow
141.472656 0 m /space glyphshow
145.287109 0 m /o glyphshow
152.628906 0 m /f glyphshow
156.853516 0 m /space glyphshow
160.667969 0 m /t glyphshow
165.373047 0 m /h glyphshow
172.978516 0 m /e glyphshow
180.361328 0 m /space glyphshow
184.175781 0 m /r glyphshow
188.859375 0 m /e glyphshow
196.242188 0 m /s glyphshow
202.494141 0 m /i glyphshow
205.828125 0 m /d glyphshow
213.445312 0 m /u glyphshow
221.050781 0 m /a glyphshow
228.404297 0 m /l glyphshow
231.738281 0 m /space glyphshow
235.552734 0 m /w glyphshow
245.367188 0 m /i glyphshow
248.701172 0 m /t glyphshow
253.406250 0 m /h glyphshow
261.011719 0 m /space glyphshow
264.826172 0 m /t glyphshow
269.531250 0 m /h glyphshow
277.136719 0 m /e glyphshow
284.519531 0 m /space glyphshow
288.333984 0 m /t glyphshow
293.039062 0 m /i glyphshow
296.373047 0 m /m glyphshow
308.062500 0 m /e glyphshow
315.445312 0 m /period glyphshow
grestore
1.000 setlinewidth
0 setlinecap
0.800 setgray
gsave
326.73875 227.228 m
409.12 227.228 l
410.186667 227.228 410.72 227.761333 410.72 228.828 c
410.72 298.528 l
410.72 299.594667 410.186667 300.128 409.12 300.128 c
326.73875 300.128 l
325.672083 300.128 325.13875 299.594667 325.13875 298.528 c
325.13875 228.828 l
325.13875 227.761333 325.672083 227.228 326.73875 227.228 c
cl
gsave
1.000 setgray
fill
grestore
stroke
grestore
1.500 setlinewidth
1 setlinejoin
2 setlinecap
0.000 0.000 1.000 setrgbcolor
gsave
328.33875 293.649875 m
344.33875 293.649875 l
stroke
grestore
0.000 setgray
/DejaVuSans findfont
8.000 scalefont
setfont
gsave
350.738750 290.849875 translate
0.000000 rotate
0.000000 0 m /M glyphshow
6.902344 0 m /e glyphshow
11.824219 0 m /a glyphshow
16.726562 0 m /n glyphshow
21.796875 0 m /space glyphshow
24.339844 0 m /o glyphshow
29.234375 0 m /f glyphshow
32.050781 0 m /space glyphshow
34.593750 0 m /A glyphshow
40.066406 0 m /S glyphshow
45.144531 0 m /V glyphshow
50.617188 0 m /D glyphshow
grestore
gsave
328.33875 281.899875 m
344.33875 281.899875 l
stroke
grestore
gsave
350.738750 279.099875 translate
0.000000 rotate
0.000000 0 m /M glyphshow
6.902344 0 m /e glyphshow
11.824219 0 m /a glyphshow
16.726562 0 m /n glyphshow
21.796875 0 m /space glyphshow
24.339844 0 m /o glyphshow
29.234375 0 m /f glyphshow
32.050781 0 m /space glyphshow
34.593750 0 m /C glyphshow
40.179688 0 m /P glyphshow
45.003906 0 m /T glyphshow
49.765625 0 m /T glyphshow
grestore
1.000 0.000 0.000 setrgbcolor
gsave
328.33875 270.149875 m
344.33875 270.149875 l
stroke
grestore
0.000 setgray
gsave
350.738750 267.349875 translate
0.000000 rotate
0.000000 0 m /M glyphshow
6.902344 0 m /e glyphshow
11.824219 0 m /a glyphshow
16.726562 0 m /n glyphshow
21.796875 0 m /space glyphshow
24.339844 0 m /o glyphshow
29.234375 0 m /f glyphshow
32.050781 0 m /space glyphshow
34.593750 0 m /A glyphshow
40.066406 0 m /L glyphshow
44.523438 0 m /S glyphshow
grestore
0 setlinecap
[5.55 2.4] 0 setdash
0.000 0.000 1.000 setrgbcolor
gsave
328.33875 258.399875 m
344.33875 258.399875 l
stroke
grestore
0.000 setgray
gsave
350.738750 255.599875 translate
0.000000 rotate
0.000000 0 m /S glyphshow
5.078125 0 m /t glyphshow
8.214844 0 m /d glyphshow
13.292969 0 m /space glyphshow
15.835938 0 m /o glyphshow
20.730469 0 m /f glyphshow
23.546875 0 m /space glyphshow
26.089844 0 m /A glyphshow
31.562500 0 m /S glyphshow
36.640625 0 m /V glyphshow
42.113281 0 m /D glyphshow
grestore
gsave
328.33875 246.649875 m
344.33875 246.649875 l
stroke
grestore
gsave
350.738750 243.849875 translate
0.000000 rotate
0.000000 0 m /S glyphshow
5.078125 0 m /t glyphshow
8.214844 0 m /d glyphshow
13.292969 0 m /space glyphshow
15.835938 0 m /o glyphshow
20.730469 0 m /f glyphshow
23.546875 0 m /space glyphshow
26.089844 0 m /C glyphshow
31.675781 0 m /P glyphshow
36.500000 0 m /T glyphshow
41.261719 0 m /T glyphshow
grestore
1.000 0.000 0.000 setrgbcolor
gsave
328.33875 234.899875 m
344.33875 234.899875 l
stroke
grestore
0.000 setgray
gsave
350.738750 232.099875 translate
0.000000 rotate
0.000000 0 m /S glyphshow
5.078125 0 m /t glyphshow
8.214844 0 m /d glyphshow
13.292969 0 m /space glyphshow
15.835938 0 m /o glyphshow
20.730469 0 m /f glyphshow
23.546875 0 m /space glyphshow
26.089844 0 m /A glyphshow
31.562500 0 m /L glyphshow
36.019531 0 m /S glyphshow
grestore

end
showpage
