%!PS-Adobe-3.0 EPSF-3.0
%%Title: /Users/mfuentez/Documents/ADAPT-master/code/tensLib/Outputs/ASVDvsCPTTvsALS_12d/functionsL2/time_12_py.eps
%%Creator: matplotlib version 3.3.4, http://matplotlib.org/
%%CreationDate: Tue Nov 16 12:20:06 2021
%%Orientation: portrait
%%BoundingBox: 75.6 223.20000000000002 536.4 568.8
%%EndComments
%%BeginProlog
/mpldict 8 dict def
mpldict begin
/m { moveto } bind def
/l { lineto } bind def
/r { rlineto } bind def
/c { curveto } bind def
/cl { closepath } bind def
/box {
      m
      1 index 0 r
      0 exch r
      neg 0 r
      cl
    } bind def
/clipbox {
      box
      clip
      newpath
    } bind def
%!PS-Adobe-3.0 Resource-Font
%%Title: DejaVu Sans
%%Copyright: Copyright (c) 2003 by Bitstream, Inc. All Rights Reserved. Copyright (c) 2006 by Tavmjong Bah. All Rights Reserved. DejaVu changes are in public domain 
%%Creator: Converted from TrueType to type 3 by PPR
25 dict begin
/_d{bind def}bind def
/_m{moveto}_d
/_l{lineto}_d
/_cl{closepath eofill}_d
/_c{curveto}_d
/_sc{7 -1 roll{setcachedevice}{pop pop pop pop pop pop}ifelse}_d
/_e{exec}_d
/FontName /DejaVuSans def
/PaintType 0 def
/FontMatrix[.001 0 0 .001 0 0]def
/FontBBox[-1021 -463 1793 1232]def
/FontType 3 def
/Encoding [ /space /period /zero /one /two /four /six /eight /A /C /D /L /M /P /S /T /V /a /c /d /e /f /g /h /i /l /m /n /o /q /r /s /t /u /w /minus ] def
/FontInfo 10 dict dup begin
/FamilyName (DejaVu Sans) def
/FullName (DejaVu Sans) def
/Notice (Copyright (c) 2003 by Bitstream, Inc. All Rights Reserved. Copyright (c) 2006 by Tavmjong Bah. All Rights Reserved. DejaVu changes are in public domain ) def
/Weight (Book) def
/Version (Version 2.35) def
/ItalicAngle 0.0 def
/isFixedPitch false def
/UnderlinePosition -130 def
/UnderlineThickness 90 def
end readonly def
/CharStrings 37 dict dup begin
/.notdef 0 def
/space{318 0 0 0 0 0 _sc
}_d
/period{318 0 107 0 210 124 _sc
107 124 _m
210 124 _l
210 0 _l
107 0 _l
107 124 _l
_cl}_d
/zero{636 0 66 -13 570 742 _sc
318 664 _m
267 664 229 639 203 589 _c
177 539 165 464 165 364 _c
165 264 177 189 203 139 _c
229 89 267 64 318 64 _c
369 64 407 89 433 139 _c
458 189 471 264 471 364 _c
471 464 458 539 433 589 _c
407 639 369 664 318 664 _c
318 742 _m
399 742 461 709 505 645 _c
548 580 570 486 570 364 _c
570 241 548 147 505 83 _c
461 19 399 -13 318 -13 _c
236 -13 173 19 130 83 _c
87 147 66 241 66 364 _c
66 486 87 580 130 645 _c
173 709 236 742 318 742 _c
_cl}_d
/one{636 0 110 0 544 729 _sc
124 83 _m
285 83 _l
285 639 _l
110 604 _l
110 694 _l
284 729 _l
383 729 _l
383 83 _l
544 83 _l
544 0 _l
124 0 _l
124 83 _l
_cl}_d
/two{{636 0 73 0 536 742 _sc
192 83 _m
536 83 _l
536 0 _l
73 0 _l
73 83 _l
110 121 161 173 226 239 _c
290 304 331 346 348 365 _c
380 400 402 430 414 455 _c
426 479 433 504 433 528 _c
433 566 419 598 392 622 _c
365 646 330 659 286 659 _c
255 659 222 653 188 643 _c
154 632 117 616 78 594 _c
78 694 _l
118 710 155 722 189 730 _c
223 738 255 742 284 742 _c
}_e{359 742 419 723 464 685 _c
509 647 532 597 532 534 _c
532 504 526 475 515 449 _c
504 422 484 390 454 354 _c
446 344 420 317 376 272 _c
332 227 271 164 192 83 _c
_cl}_e}_d
/four{636 0 49 0 580 729 _sc
378 643 _m
129 254 _l
378 254 _l
378 643 _l
352 729 _m
476 729 _l
476 254 _l
580 254 _l
580 172 _l
476 172 _l
476 0 _l
378 0 _l
378 172 _l
49 172 _l
49 267 _l
352 729 _l
_cl}_d
/six{{636 0 70 -13 573 742 _sc
330 404 _m
286 404 251 388 225 358 _c
199 328 186 286 186 234 _c
186 181 199 139 225 109 _c
251 79 286 64 330 64 _c
374 64 409 79 435 109 _c
461 139 474 181 474 234 _c
474 286 461 328 435 358 _c
409 388 374 404 330 404 _c
526 713 _m
526 623 _l
501 635 476 644 451 650 _c
425 656 400 659 376 659 _c
310 659 260 637 226 593 _c
}_e{192 549 172 482 168 394 _c
187 422 211 444 240 459 _c
269 474 301 482 336 482 _c
409 482 467 459 509 415 _c
551 371 573 310 573 234 _c
573 159 550 99 506 54 _c
462 9 403 -13 330 -13 _c
246 -13 181 19 137 83 _c
92 147 70 241 70 364 _c
70 479 97 571 152 639 _c
206 707 280 742 372 742 _c
396 742 421 739 447 735 _c
472 730 498 723 526 713 _c
_cl}_e}_d
/eight{{636 0 68 -13 568 742 _sc
318 346 _m
271 346 234 333 207 308 _c
180 283 167 249 167 205 _c
167 161 180 126 207 101 _c
234 76 271 64 318 64 _c
364 64 401 76 428 102 _c
455 127 469 161 469 205 _c
469 249 455 283 429 308 _c
402 333 365 346 318 346 _c
219 388 _m
177 398 144 418 120 447 _c
96 476 85 511 85 553 _c
85 611 105 657 147 691 _c
188 725 245 742 318 742 _c
}_e{390 742 447 725 489 691 _c
530 657 551 611 551 553 _c
551 511 539 476 515 447 _c
491 418 459 398 417 388 _c
464 377 501 355 528 323 _c
554 291 568 251 568 205 _c
568 134 546 80 503 43 _c
459 5 398 -13 318 -13 _c
237 -13 175 5 132 43 _c
89 80 68 134 68 205 _c
68 251 81 291 108 323 _c
134 355 171 377 219 388 _c
183 544 _m
183 506 194 476 218 455 _c
}_e{242 434 275 424 318 424 _c
360 424 393 434 417 455 _c
441 476 453 506 453 544 _c
453 582 441 611 417 632 _c
393 653 360 664 318 664 _c
275 664 242 653 218 632 _c
194 611 183 582 183 544 _c
_cl}_e}_d
/A{684 0 8 0 676 729 _sc
342 632 _m
208 269 _l
476 269 _l
342 632 _l
286 729 _m
398 729 _l
676 0 _l
573 0 _l
507 187 _l
178 187 _l
112 0 _l
8 0 _l
286 729 _l
_cl}_d
/C{{698 0 56 -13 644 742 _sc
644 673 _m
644 569 _l
610 599 575 622 537 638 _c
499 653 460 661 418 661 _c
334 661 270 635 226 584 _c
182 533 160 460 160 364 _c
160 268 182 194 226 143 _c
270 92 334 67 418 67 _c
460 67 499 74 537 90 _c
575 105 610 128 644 159 _c
644 56 _l
609 32 572 15 534 4 _c
496 -7 455 -13 412 -13 _c
302 -13 215 20 151 87 _c
}_e{87 154 56 246 56 364 _c
56 481 87 573 151 641 _c
215 708 302 742 412 742 _c
456 742 497 736 535 725 _c
573 713 610 696 644 673 _c
_cl}_e}_d
/D{770 0 98 0 711 729 _sc
197 648 _m
197 81 _l
316 81 _l
416 81 490 103 537 149 _c
583 195 607 267 607 365 _c
607 463 583 534 537 580 _c
490 625 416 648 316 648 _c
197 648 _l
98 729 _m
301 729 _l
442 729 546 699 612 641 _c
678 582 711 490 711 365 _c
711 239 677 147 611 88 _c
545 29 441 0 301 0 _c
98 0 _l
98 729 _l
_cl}_d
/L{557 0 98 0 552 729 _sc
98 729 _m
197 729 _l
197 83 _l
552 83 _l
552 0 _l
98 0 _l
98 729 _l
_cl}_d
/M{863 0 98 0 765 729 _sc
98 729 _m
245 729 _l
431 233 _l
618 729 _l
765 729 _l
765 0 _l
669 0 _l
669 640 _l
481 140 _l
382 140 _l
194 640 _l
194 0 _l
98 0 _l
98 729 _l
_cl}_d
/P{603 0 98 0 569 729 _sc
197 648 _m
197 374 _l
321 374 _l
367 374 402 385 427 409 _c
452 433 465 467 465 511 _c
465 555 452 588 427 612 _c
402 636 367 648 321 648 _c
197 648 _l
98 729 _m
321 729 _l
402 729 464 710 506 673 _c
548 636 569 582 569 511 _c
569 439 548 384 506 348 _c
464 311 402 293 321 293 _c
197 293 _l
197 0 _l
98 0 _l
98 729 _l
_cl}_d
/S{{635 0 66 -13 579 742 _sc
535 705 _m
535 609 _l
497 627 462 640 429 649 _c
395 657 363 662 333 662 _c
279 662 237 651 208 631 _c
179 610 165 580 165 542 _c
165 510 174 485 194 469 _c
213 452 250 439 304 429 _c
364 417 _l
437 403 491 378 526 343 _c
561 307 579 260 579 201 _c
579 130 555 77 508 41 _c
460 5 391 -13 300 -13 _c
265 -13 228 -9 189 -2 _c
}_e{150 5 110 16 69 32 _c
69 134 _l
109 111 148 94 186 83 _c
224 71 262 66 300 66 _c
356 66 399 77 430 99 _c
460 121 476 152 476 194 _c
476 230 465 258 443 278 _c
421 298 385 313 335 323 _c
275 335 _l
201 349 148 372 115 404 _c
82 435 66 478 66 534 _c
66 598 88 649 134 686 _c
179 723 242 742 322 742 _c
356 742 390 739 426 733 _c
461 727 497 717 535 705 _c
}_e{_cl}_e}_d
/T{611 0 -2 0 614 729 _sc
-2 729 _m
614 729 _l
614 646 _l
355 646 _l
355 0 _l
256 0 _l
256 646 _l
-2 646 _l
-2 729 _l
_cl}_d
/V{684 0 8 0 676 729 _sc
286 0 _m
8 729 _l
111 729 _l
342 115 _l
573 729 _l
676 729 _l
398 0 _l
286 0 _l
_cl}_d
/a{{613 0 60 -13 522 560 _sc
343 275 _m
270 275 220 266 192 250 _c
164 233 150 205 150 165 _c
150 133 160 107 181 89 _c
202 70 231 61 267 61 _c
317 61 357 78 387 114 _c
417 149 432 196 432 255 _c
432 275 _l
343 275 _l
522 312 _m
522 0 _l
432 0 _l
432 83 _l
411 49 385 25 355 10 _c
325 -5 287 -13 243 -13 _c
187 -13 142 2 109 33 _c
76 64 60 106 60 159 _c
}_e{60 220 80 266 122 298 _c
163 329 224 345 306 345 _c
432 345 _l
432 354 _l
432 395 418 427 391 450 _c
364 472 326 484 277 484 _c
245 484 215 480 185 472 _c
155 464 127 453 100 439 _c
100 522 _l
132 534 164 544 195 550 _c
226 556 256 560 286 560 _c
365 560 424 539 463 498 _c
502 457 522 395 522 312 _c
_cl}_e}_d
/c{{550 0 55 -13 488 560 _sc
488 526 _m
488 442 _l
462 456 437 466 411 473 _c
385 480 360 484 334 484 _c
276 484 230 465 198 428 _c
166 391 150 339 150 273 _c
150 206 166 154 198 117 _c
230 80 276 62 334 62 _c
360 62 385 65 411 72 _c
437 79 462 90 488 104 _c
488 21 _l
462 9 436 0 410 -5 _c
383 -10 354 -13 324 -13 _c
242 -13 176 12 128 64 _c
}_e{79 115 55 185 55 273 _c
55 362 79 432 128 483 _c
177 534 244 560 330 560 _c
358 560 385 557 411 551 _c
437 545 463 537 488 526 _c
_cl}_e}_d
/d{{635 0 55 -13 544 760 _sc
454 464 _m
454 760 _l
544 760 _l
544 0 _l
454 0 _l
454 82 _l
435 49 411 25 382 10 _c
353 -5 319 -13 279 -13 _c
213 -13 159 13 117 65 _c
75 117 55 187 55 273 _c
55 359 75 428 117 481 _c
159 533 213 560 279 560 _c
319 560 353 552 382 536 _c
411 520 435 496 454 464 _c
148 273 _m
148 207 161 155 188 117 _c
215 79 253 61 301 61 _c
}_e{348 61 385 79 413 117 _c
440 155 454 207 454 273 _c
454 339 440 390 413 428 _c
385 466 348 485 301 485 _c
253 485 215 466 188 428 _c
161 390 148 339 148 273 _c
_cl}_e}_d
/e{{615 0 55 -13 562 560 _sc
562 296 _m
562 252 _l
149 252 _l
153 190 171 142 205 110 _c
238 78 284 62 344 62 _c
378 62 412 66 444 74 _c
476 82 509 95 541 113 _c
541 28 _l
509 14 476 3 442 -3 _c
408 -9 373 -13 339 -13 _c
251 -13 182 12 131 62 _c
80 112 55 181 55 268 _c
55 357 79 428 127 481 _c
175 533 241 560 323 560 _c
397 560 455 536 498 489 _c
}_e{540 441 562 377 562 296 _c
472 322 _m
471 371 457 410 431 440 _c
404 469 368 484 324 484 _c
274 484 234 469 204 441 _c
174 413 156 373 152 322 _c
472 322 _l
_cl}_e}_d
/f{352 0 23 0 371 760 _sc
371 760 _m
371 685 _l
285 685 _l
253 685 230 678 218 665 _c
205 652 199 629 199 595 _c
199 547 _l
347 547 _l
347 477 _l
199 477 _l
199 0 _l
109 0 _l
109 477 _l
23 477 _l
23 547 _l
109 547 _l
109 585 _l
109 645 123 690 151 718 _c
179 746 224 760 286 760 _c
371 760 _l
_cl}_d
/g{{635 0 55 -207 544 560 _sc
454 280 _m
454 344 440 395 414 431 _c
387 467 349 485 301 485 _c
253 485 215 467 188 431 _c
161 395 148 344 148 280 _c
148 215 161 165 188 129 _c
215 93 253 75 301 75 _c
349 75 387 93 414 129 _c
440 165 454 215 454 280 _c
544 68 _m
544 -24 523 -93 482 -139 _c
440 -184 377 -207 292 -207 _c
260 -207 231 -204 203 -200 _c
175 -195 147 -188 121 -178 _c
}_e{121 -91 _l
147 -105 173 -115 199 -122 _c
225 -129 251 -133 278 -133 _c
336 -133 380 -117 410 -87 _c
439 -56 454 -10 454 52 _c
454 96 _l
435 64 411 40 382 24 _c
353 8 319 0 279 0 _c
211 0 157 25 116 76 _c
75 127 55 195 55 280 _c
55 364 75 432 116 483 _c
157 534 211 560 279 560 _c
319 560 353 552 382 536 _c
411 520 435 496 454 464 _c
454 547 _l
544 547 _l
}_e{544 68 _l
_cl}_e}_d
/h{634 0 91 0 549 760 _sc
549 330 _m
549 0 _l
459 0 _l
459 327 _l
459 379 448 417 428 443 _c
408 469 378 482 338 482 _c
289 482 251 466 223 435 _c
195 404 181 362 181 309 _c
181 0 _l
91 0 _l
91 760 _l
181 760 _l
181 462 _l
202 494 227 519 257 535 _c
286 551 320 560 358 560 _c
420 560 468 540 500 501 _c
532 462 549 405 549 330 _c
_cl}_d
/i{278 0 94 0 184 760 _sc
94 547 _m
184 547 _l
184 0 _l
94 0 _l
94 547 _l
94 760 _m
184 760 _l
184 646 _l
94 646 _l
94 760 _l
_cl}_d
/l{278 0 94 0 184 760 _sc
94 760 _m
184 760 _l
184 0 _l
94 0 _l
94 760 _l
_cl}_d
/m{{974 0 91 0 889 560 _sc
520 442 _m
542 482 569 511 600 531 _c
631 550 668 560 711 560 _c
767 560 811 540 842 500 _c
873 460 889 403 889 330 _c
889 0 _l
799 0 _l
799 327 _l
799 379 789 418 771 444 _c
752 469 724 482 686 482 _c
639 482 602 466 575 435 _c
548 404 535 362 535 309 _c
535 0 _l
445 0 _l
445 327 _l
445 379 435 418 417 444 _c
398 469 369 482 331 482 _c
}_e{285 482 248 466 221 435 _c
194 404 181 362 181 309 _c
181 0 _l
91 0 _l
91 547 _l
181 547 _l
181 462 _l
201 495 226 520 255 536 _c
283 552 317 560 357 560 _c
397 560 430 550 458 530 _c
486 510 506 480 520 442 _c
_cl}_e}_d
/n{634 0 91 0 549 560 _sc
549 330 _m
549 0 _l
459 0 _l
459 327 _l
459 379 448 417 428 443 _c
408 469 378 482 338 482 _c
289 482 251 466 223 435 _c
195 404 181 362 181 309 _c
181 0 _l
91 0 _l
91 547 _l
181 547 _l
181 462 _l
202 494 227 519 257 535 _c
286 551 320 560 358 560 _c
420 560 468 540 500 501 _c
532 462 549 405 549 330 _c
_cl}_d
/o{612 0 55 -13 557 560 _sc
306 484 _m
258 484 220 465 192 427 _c
164 389 150 338 150 273 _c
150 207 163 156 191 118 _c
219 80 257 62 306 62 _c
354 62 392 80 420 118 _c
448 156 462 207 462 273 _c
462 337 448 389 420 427 _c
392 465 354 484 306 484 _c
306 560 _m
384 560 445 534 490 484 _c
534 433 557 363 557 273 _c
557 183 534 113 490 63 _c
445 12 384 -13 306 -13 _c
227 -13 165 12 121 63 _c
77 113 55 183 55 273 _c
55 363 77 433 121 484 _c
165 534 227 560 306 560 _c
_cl}_d
/q{{635 0 55 -207 544 560 _sc
148 273 _m
148 207 161 155 188 117 _c
215 79 253 61 301 61 _c
348 61 385 79 413 117 _c
440 155 454 207 454 273 _c
454 339 440 390 413 428 _c
385 466 348 485 301 485 _c
253 485 215 466 188 428 _c
161 390 148 339 148 273 _c
454 82 _m
435 49 411 25 382 10 _c
353 -5 319 -13 279 -13 _c
213 -13 159 13 117 65 _c
75 117 55 187 55 273 _c
}_e{55 359 75 428 117 481 _c
159 533 213 560 279 560 _c
319 560 353 552 382 536 _c
411 520 435 496 454 464 _c
454 547 _l
544 547 _l
544 -207 _l
454 -207 _l
454 82 _l
_cl}_e}_d
/r{411 0 91 0 411 560 _sc
411 463 _m
401 469 390 473 378 476 _c
366 478 353 480 339 480 _c
288 480 249 463 222 430 _c
194 397 181 350 181 288 _c
181 0 _l
91 0 _l
91 547 _l
181 547 _l
181 462 _l
199 495 224 520 254 536 _c
284 552 321 560 365 560 _c
371 560 378 559 386 559 _c
393 558 401 557 411 555 _c
411 463 _l
_cl}_d
/s{{521 0 54 -13 472 560 _sc
443 531 _m
443 446 _l
417 458 391 468 364 475 _c
336 481 308 485 279 485 _c
234 485 200 478 178 464 _c
156 450 145 430 145 403 _c
145 382 153 366 169 354 _c
185 342 217 330 265 320 _c
296 313 _l
360 299 405 279 432 255 _c
458 230 472 195 472 151 _c
472 100 452 60 412 31 _c
372 1 316 -13 246 -13 _c
216 -13 186 -10 154 -5 _c
}_e{122 0 89 8 54 20 _c
54 113 _l
87 95 120 82 152 74 _c
184 65 216 61 248 61 _c
290 61 323 68 346 82 _c
368 96 380 117 380 144 _c
380 168 371 187 355 200 _c
339 213 303 226 247 238 _c
216 245 _l
160 257 119 275 95 299 _c
70 323 58 356 58 399 _c
58 450 76 490 112 518 _c
148 546 200 560 268 560 _c
301 560 332 557 362 552 _c
391 547 418 540 443 531 _c
}_e{_cl}_e}_d
/t{392 0 27 0 368 702 _sc
183 702 _m
183 547 _l
368 547 _l
368 477 _l
183 477 _l
183 180 _l
183 135 189 106 201 94 _c
213 81 238 75 276 75 _c
368 75 _l
368 0 _l
276 0 _l
206 0 158 13 132 39 _c
106 65 93 112 93 180 _c
93 477 _l
27 477 _l
27 547 _l
93 547 _l
93 702 _l
183 702 _l
_cl}_d
/u{634 0 85 -13 543 560 _sc
85 216 _m
85 547 _l
175 547 _l
175 219 _l
175 167 185 129 205 103 _c
225 77 255 64 296 64 _c
344 64 383 79 411 110 _c
439 141 453 183 453 237 _c
453 547 _l
543 547 _l
543 0 _l
453 0 _l
453 84 _l
431 50 405 26 377 10 _c
348 -5 315 -13 277 -13 _c
214 -13 166 6 134 45 _c
101 83 85 140 85 216 _c
311 560 _m
311 560 _l
_cl}_d
/w{818 0 42 0 776 547 _sc
42 547 _m
132 547 _l
244 120 _l
356 547 _l
462 547 _l
574 120 _l
686 547 _l
776 547 _l
633 0 _l
527 0 _l
409 448 _l
291 0 _l
185 0 _l
42 547 _l
_cl}_d
/minus{838 0 106 272 732 355 _sc
106 355 _m
732 355 _l
732 272 _l
106 272 _l
106 355 _l
_cl}_d
end readonly def

/BuildGlyph
 {exch begin
 CharStrings exch
 2 copy known not{pop /.notdef}if
 true 3 1 roll get exec
 end}_d

/BuildChar {
 1 index /Encoding get exch get
 1 index /BuildGlyph get exec
}_d

FontName currentdict end definefont pop
end
%%EndProlog
mpldict begin
75.6 223.2 translate
460.8 345.6 0 0 clipbox
gsave
0 0 m
460.8 0 l
460.8 345.6 l
0 345.6 l
cl
1.000 setgray
fill
grestore
gsave
57.6 38.016 m
414.72 38.016 l
414.72 304.128 l
57.6 304.128 l
cl
1.000 setgray
fill
grestore
0.800 setlinewidth
1 setlinejoin
0 setlinecap
[] 0 setdash
0.000 setgray
gsave
/o {
gsave
newpath
translate
0.8 setlinewidth
1 setlinejoin
0 setlinecap
0 0 m
0 -3.5 l

gsave
0.000 setgray
fill
grestore
stroke
grestore
} bind def
99.4945 38.016 o
grestore
/DejaVuSans findfont
10.000 scalefont
setfont
gsave
93.135076 23.422250 translate
0.000000 rotate
0.000000 0 m /two glyphshow
6.362305 0 m /zero glyphshow
grestore
gsave
/o {
gsave
newpath
translate
0.8 setlinewidth
1 setlinejoin
0 setlinecap
0 0 m
0 -3.5 l

gsave
0.000 setgray
fill
grestore
stroke
grestore
} bind def
144.212 38.016 o
grestore
gsave
137.852647 23.422250 translate
0.000000 rotate
0.000000 0 m /four glyphshow
6.362305 0 m /zero glyphshow
grestore
gsave
/o {
gsave
newpath
translate
0.8 setlinewidth
1 setlinejoin
0 setlinecap
0 0 m
0 -3.5 l

gsave
0.000 setgray
fill
grestore
stroke
grestore
} bind def
188.93 38.016 o
grestore
gsave
182.570217 23.422250 translate
0.000000 rotate
0.000000 0 m /six glyphshow
6.362305 0 m /zero glyphshow
grestore
gsave
/o {
gsave
newpath
translate
0.8 setlinewidth
1 setlinejoin
0 setlinecap
0 0 m
0 -3.5 l

gsave
0.000 setgray
fill
grestore
stroke
grestore
} bind def
233.647 38.016 o
grestore
gsave
227.287787 23.422250 translate
0.000000 rotate
0.000000 0 m /eight glyphshow
6.362305 0 m /zero glyphshow
grestore
gsave
/o {
gsave
newpath
translate
0.8 setlinewidth
1 setlinejoin
0 setlinecap
0 0 m
0 -3.5 l

gsave
0.000 setgray
fill
grestore
stroke
grestore
} bind def
278.365 38.016 o
grestore
gsave
268.825670 23.422250 translate
0.000000 rotate
0.000000 0 m /one glyphshow
6.362305 0 m /zero glyphshow
12.724609 0 m /zero glyphshow
grestore
gsave
/o {
gsave
newpath
translate
0.8 setlinewidth
1 setlinejoin
0 setlinecap
0 0 m
0 -3.5 l

gsave
0.000 setgray
fill
grestore
stroke
grestore
} bind def
323.082 38.016 o
grestore
gsave
313.543240 23.422250 translate
0.000000 rotate
0.000000 0 m /one glyphshow
6.362305 0 m /two glyphshow
12.724609 0 m /zero glyphshow
grestore
gsave
/o {
gsave
newpath
translate
0.8 setlinewidth
1 setlinejoin
0 setlinecap
0 0 m
0 -3.5 l

gsave
0.000 setgray
fill
grestore
stroke
grestore
} bind def
367.8 38.016 o
grestore
gsave
358.260810 23.422250 translate
0.000000 rotate
0.000000 0 m /one glyphshow
6.362305 0 m /four glyphshow
12.724609 0 m /zero glyphshow
grestore
gsave
/o {
gsave
newpath
translate
0.8 setlinewidth
1 setlinejoin
0 setlinecap
0 0 m
0 -3.5 l

gsave
0.000 setgray
fill
grestore
stroke
grestore
} bind def
412.517 38.016 o
grestore
gsave
402.978380 23.422250 translate
0.000000 rotate
0.000000 0 m /one glyphshow
6.362305 0 m /six glyphshow
12.724609 0 m /zero glyphshow
grestore
gsave
190.519375 9.750375 translate
0.000000 rotate
0.000000 0 m /A glyphshow
6.715820 0 m /c glyphshow
12.213867 0 m /c glyphshow
17.711914 0 m /u glyphshow
24.049805 0 m /m glyphshow
33.791016 0 m /u glyphshow
40.128906 0 m /l glyphshow
42.907227 0 m /a glyphshow
49.035156 0 m /t glyphshow
52.956055 0 m /e glyphshow
59.108398 0 m /d glyphshow
65.456055 0 m /space glyphshow
68.634766 0 m /t glyphshow
72.555664 0 m /i glyphshow
75.333984 0 m /m glyphshow
85.075195 0 m /e glyphshow
grestore
gsave
/o {
gsave
newpath
translate
0.8 setlinewidth
1 setlinejoin
0 setlinecap
-0 0 m
-3.5 0 l

gsave
0.000 setgray
fill
grestore
stroke
grestore
} bind def
57.6 41.5538 o
grestore
gsave
26.318750 37.756919 translate
0.000000 rotate
0.000000 0 m /minus glyphshow
8.378906 0 m /zero glyphshow
14.741211 0 m /period glyphshow
17.919922 0 m /two glyphshow
grestore
gsave
/o {
gsave
newpath
translate
0.8 setlinewidth
1 setlinejoin
0 setlinecap
-0 0 m
-3.5 0 l

gsave
0.000 setgray
fill
grestore
stroke
grestore
} bind def
57.6 78.6252 o
grestore
gsave
34.693750 74.828293 translate
0.000000 rotate
0.000000 0 m /zero glyphshow
6.362305 0 m /period glyphshow
9.541016 0 m /zero glyphshow
grestore
gsave
/o {
gsave
newpath
translate
0.8 setlinewidth
1 setlinejoin
0 setlinecap
-0 0 m
-3.5 0 l

gsave
0.000 setgray
fill
grestore
stroke
grestore
} bind def
57.6 115.697 o
grestore
gsave
34.693750 111.899668 translate
0.000000 rotate
0.000000 0 m /zero glyphshow
6.362305 0 m /period glyphshow
9.541016 0 m /two glyphshow
grestore
gsave
/o {
gsave
newpath
translate
0.8 setlinewidth
1 setlinejoin
0 setlinecap
-0 0 m
-3.5 0 l

gsave
0.000 setgray
fill
grestore
stroke
grestore
} bind def
57.6 152.768 o
grestore
gsave
34.693750 148.971042 translate
0.000000 rotate
0.000000 0 m /zero glyphshow
6.362305 0 m /period glyphshow
9.541016 0 m /four glyphshow
grestore
gsave
/o {
gsave
newpath
translate
0.8 setlinewidth
1 setlinejoin
0 setlinecap
-0 0 m
-3.5 0 l

gsave
0.000 setgray
fill
grestore
stroke
grestore
} bind def
57.6 189.839 o
grestore
gsave
34.693750 186.042417 translate
0.000000 rotate
0.000000 0 m /zero glyphshow
6.362305 0 m /period glyphshow
9.541016 0 m /six glyphshow
grestore
gsave
/o {
gsave
newpath
translate
0.8 setlinewidth
1 setlinejoin
0 setlinecap
-0 0 m
-3.5 0 l

gsave
0.000 setgray
fill
grestore
stroke
grestore
} bind def
57.6 226.911 o
grestore
gsave
34.693750 223.113792 translate
0.000000 rotate
0.000000 0 m /zero glyphshow
6.362305 0 m /period glyphshow
9.541016 0 m /eight glyphshow
grestore
gsave
/o {
gsave
newpath
translate
0.8 setlinewidth
1 setlinejoin
0 setlinecap
-0 0 m
-3.5 0 l

gsave
0.000 setgray
fill
grestore
stroke
grestore
} bind def
57.6 263.982 o
grestore
gsave
34.693750 260.185166 translate
0.000000 rotate
0.000000 0 m /one glyphshow
6.362305 0 m /period glyphshow
9.541016 0 m /zero glyphshow
grestore
gsave
/o {
gsave
newpath
translate
0.8 setlinewidth
1 setlinejoin
0 setlinecap
-0 0 m
-3.5 0 l

gsave
0.000 setgray
fill
grestore
stroke
grestore
} bind def
57.6 301.053 o
grestore
gsave
34.693750 297.256541 translate
0.000000 rotate
0.000000 0 m /one glyphshow
6.362305 0 m /period glyphshow
9.541016 0 m /two glyphshow
grestore
gsave
20.240625 98.001687 translate
90.000000 rotate
0.000000 0 m /S glyphshow
6.347656 0 m /q glyphshow
12.695312 0 m /u glyphshow
19.033203 0 m /a glyphshow
25.161133 0 m /r glyphshow
29.022461 0 m /e glyphshow
35.174805 0 m /d glyphshow
41.522461 0 m /space glyphshow
44.701172 0 m /n glyphshow
51.039062 0 m /o glyphshow
57.157227 0 m /r glyphshow
61.143555 0 m /m glyphshow
70.884766 0 m /space glyphshow
74.063477 0 m /o glyphshow
80.181641 0 m /f glyphshow
83.702148 0 m /space glyphshow
86.880859 0 m /t glyphshow
90.801758 0 m /h glyphshow
97.139648 0 m /e glyphshow
103.291992 0 m /space glyphshow
106.470703 0 m /r glyphshow
110.332031 0 m /e glyphshow
116.484375 0 m /s glyphshow
121.694336 0 m /i glyphshow
124.472656 0 m /d glyphshow
130.820312 0 m /u glyphshow
137.158203 0 m /a glyphshow
143.286133 0 m /l glyphshow
grestore
1.500 setlinewidth
2 setlinecap
0.000 0.000 1.000 setrgbcolor
gsave
357.1 266.1 57.6 38.02 clipbox
58.763229 263.982041 m
62.501104 256.883698 l
66.407228 255.824498 l
70.39456 232.9806 l
74.475127 225.8434 l
78.70883 219.819343 l
84.09931 219.46905 l
88.877606 215.47262 l
93.580329 214.840155 l
98.446719 214.756281 l
103.315121 214.397737 l
108.537238 214.149878 l
114.973215 213.649895 l
120.174763 212.541442 l
125.558982 211.203171 l
131.267403 207.753856 l
137.006009 207.50226 l
143.130304 206.403701 l
148.937104 206.011566 l
154.808968 205.4104 l
160.820798 203.101901 l
167.479691 202.891711 l
174.368433 201.944382 l
180.620397 200.096046 l
187.066658 200.081703 l
193.596765 197.295899 l
200.621448 196.521956 l
207.604767 196.25578 l
214.948287 196.241895 l
222.130823 195.59127 l
229.909668 194.936068 l
238.049607 188.057957 l
245.513417 187.732229 l
253.116521 182.356099 l
261.075802 181.135982 l
269.218871 179.737947 l
277.181058 178.156904 l
284.929272 177.99104 l
292.830866 176.143109 l
300.649733 175.718251 l
309.324942 142.175471 l
317.834696 141.541832 l
326.836343 140.328992 l
335.896122 139.882184 l
345.087819 139.150682 l
356.569055 139.143486 l
366.415864 137.697182 l
376.381174 136.782162 l
385.977565 132.464415 l
395.641032 131.853658 l
407.553793 127.853099 l
417.089815 124.182961 l
427.097607 124.034067 l
436.57326 123.530534 l
446.449135 122.311524 l
446.449135 121.284398 l
stroke
grestore
0.000 setgray
gsave
357.1 266.1 57.6 38.02 clipbox
58.934922 263.982041 m
63.310246 242.280138 l
67.941287 235.566701 l
72.330517 217.341258 l
76.940318 210.93065 l
81.797697 200.788282 l
86.796227 194.258797 l
90.662508 189.200445 l
94.110232 184.062808 l
97.676235 180.841459 l
101.276447 176.326044 l
105.436299 174.483498 l
109.658084 171.927086 l
114.02878 169.470056 l
118.199587 166.219436 l
122.327243 164.043543 l
126.852437 162.011681 l
131.107314 160.204589 l
135.40512 158.043771 l
139.945742 155.419903 l
144.633708 153.561678 l
149.384727 151.414417 l
154.150949 149.785053 l
159.0037 147.180998 l
164.08205 145.3203 l
169.469623 143.240587 l
175.513874 140.998877 l
180.887137 139.513329 l
186.62932 138.076207 l
192.747578 136.77692 l
198.731683 135.449467 l
204.795833 134.103794 l
211.231586 133.024504 l
217.627093 131.413284 l
223.962901 130.11609 l
230.439571 129.056603 l
237.05397 128.080602 l
244.162499 126.983964 l
251.276841 125.376959 l
258.400573 124.351424 l
265.674109 122.886397 l
277.708278 121.755979 l
289.577663 120.710589 l
301.593274 119.121272 l
313.879427 118.1195 l
325.66027 116.831781 l
338.453967 115.652962 l
350.737884 114.733356 l
359.97877 113.569497 l
367.862477 112.535821 l
376.188889 111.922123 l
384.150852 110.925379 l
392.273799 110.215401 l
400.919941 109.170665 l
409.789671 108.298318 l
418.518541 107.22259 l
428.322868 106.644786 l
437.601764 105.695937 l
447.119899 104.66159 l
456.644741 103.941872 l
461.8 103.444243 l
stroke
grestore
1.000 0.000 0.000 setrgbcolor
gsave
357.1 266.1 57.6 38.02 clipbox
60.531451 263.982041 m
65.453671 260.869126 l
70.265125 238.74655 l
74.668374 230.473087 l
79.473277 228.551501 l
84.125917 221.192287 l
89.342445 220.075356 l
94.048969 219.463561 l
98.662481 213.154123 l
103.474986 212.279551 l
108.554678 208.061248 l
113.16506 185.233203 l
118.029661 183.089607 l
122.716062 182.622048 l
127.919846 179.354525 l
132.903395 178.856621 l
137.939488 176.960752 l
143.099225 176.180505 l
148.477631 175.237447 l
153.691476 174.452032 l
158.982235 165.975721 l
164.269417 164.346498 l
169.741953 158.908648 l
175.220079 158.488764 l
180.985516 156.686176 l
186.703998 156.050778 l
192.549703 155.057799 l
198.511673 154.052759 l
204.319591 151.650371 l
210.375021 151.339138 l
216.332295 151.181896 l
222.171963 149.426578 l
228.378314 148.858389 l
234.345427 148.394576 l
240.383417 148.388333 l
246.997816 145.848762 l
253.301876 145.381001 l
259.714822 145.356369 l
266.672653 144.361182 l
273.384537 143.032151 l
280.059528 140.674929 l
286.79623 140.408521 l
293.767699 136.3626 l
300.871085 136.106514 l
308.383637 135.382749 l
315.563043 134.178321 l
322.626183 133.197555 l
330.006818 132.692046 l
337.175045 132.029688 l
344.678653 131.619343 l
352.142016 127.59987 l
360.036903 126.681773 l
367.632182 126.262389 l
375.667929 125.710657 l
383.209547 125.362051 l
391.001584 125.359955 l
399.312344 124.197704 l
407.658879 124.016751 l
415.772882 123.029088 l
424.517403 123.002254 l
432.691775 118.693812 l
441.060668 115.127391 l
450.245657 113.282979 l
458.889563 112.516616 l
461.8 112.177602 l
stroke
grestore
0 setlinecap
[5.55 2.4] 0 setdash
0.000 0.000 1.000 setrgbcolor
gsave
357.1 266.1 57.6 38.02 clipbox
58.763229 301.842246 m
62.501104 294.743905 l
66.407228 293.684705 l
70.39456 270.840807 l
74.475127 263.703607 l
78.70883 257.67955 l
84.09931 257.329255 l
88.877606 253.332825 l
93.580329 252.70036 l
98.446719 252.616488 l
103.315121 252.257943 l
108.537238 252.010085 l
114.973215 251.510102 l
120.174763 250.401647 l
125.558982 249.063378 l
131.267403 245.614061 l
137.006009 245.362465 l
143.130304 244.263907 l
148.937104 243.871773 l
154.808968 243.270605 l
160.820798 240.962108 l
167.479691 240.751917 l
174.368433 239.804587 l
180.620397 237.956251 l
187.066658 237.94191 l
193.596765 235.156104 l
200.621448 234.382163 l
207.604767 234.115985 l
214.948287 234.1021 l
222.130823 233.451475 l
229.909668 232.796276 l
238.049607 225.918164 l
245.513417 225.592434 l
253.116521 220.216307 l
261.075802 218.996188 l
269.218871 217.598152 l
277.181058 216.01711 l
284.929272 215.851245 l
292.830866 214.003315 l
300.649733 213.578456 l
309.324942 180.035676 l
317.834696 179.402037 l
326.836343 178.189197 l
335.896122 177.742389 l
345.087819 177.010887 l
356.569055 177.003692 l
366.415864 175.557389 l
376.381174 174.642369 l
385.977565 170.32462 l
395.641032 169.713864 l
407.553793 165.713306 l
417.089815 162.043168 l
427.097607 161.894272 l
436.57326 161.390739 l
446.449135 160.171731 l
446.449135 159.144603 l
stroke
grestore
0.000 setgray
gsave
357.1 266.1 57.6 38.02 clipbox
58.934922 304.780257 m
63.310246 283.078353 l
67.941287 276.364916 l
72.330517 258.139474 l
76.940318 251.728866 l
81.797697 241.586497 l
86.796227 235.057012 l
90.662508 229.99866 l
94.110232 224.861024 l
97.676235 221.639675 l
101.276447 217.124259 l
105.436299 215.281714 l
109.658084 212.725301 l
114.02878 210.268272 l
118.199587 207.017652 l
122.327243 204.841758 l
126.852437 202.809897 l
131.107314 201.002804 l
135.40512 198.841986 l
139.945742 196.218119 l
144.633708 194.359894 l
149.384727 192.212633 l
154.150949 190.583268 l
159.0037 187.979213 l
164.08205 186.118516 l
169.469623 184.038804 l
175.513874 181.797093 l
180.887137 180.311545 l
186.62932 178.874423 l
192.747578 177.575136 l
198.731683 176.247682 l
204.795833 174.90201 l
211.231586 173.822719 l
217.627093 172.211499 l
223.962901 170.914305 l
230.439571 169.854818 l
237.05397 168.878818 l
244.162499 167.78218 l
251.276841 166.175175 l
258.400573 165.14964 l
265.674109 163.684612 l
277.708278 162.554195 l
289.577663 161.508804 l
301.593274 159.919488 l
313.879427 158.917715 l
325.66027 157.629997 l
338.453967 156.451177 l
350.737884 155.531572 l
359.97877 154.367712 l
367.862477 153.334036 l
376.188889 152.720338 l
384.150852 151.723594 l
392.273799 151.013616 l
400.919941 149.96888 l
409.789671 149.096533 l
418.518541 148.020805 l
428.322868 147.443002 l
437.601764 146.494152 l
447.119899 145.459806 l
456.644741 144.740087 l
461.8 144.242458 l
stroke
grestore
1.000 0.000 0.000 setrgbcolor
gsave
357.1 266.1 57.6 38.02 clipbox
60.531451 305.309803 m
65.453671 302.19689 l
70.265125 280.074313 l
74.668374 271.80085 l
79.473277 269.879263 l
84.125917 262.520048 l
89.342445 261.403117 l
94.048969 260.791323 l
98.662481 254.481886 l
103.474986 253.607315 l
108.554678 249.389011 l
113.16506 226.560965 l
118.029661 224.417368 l
122.716062 223.949811 l
127.919846 220.682288 l
132.903395 220.184384 l
137.939488 218.288514 l
143.099225 217.508267 l
148.477631 216.56521 l
153.691476 215.779794 l
158.982235 207.303483 l
164.269417 205.674261 l
169.741953 200.236411 l
175.220079 199.816528 l
180.985516 198.01394 l
186.703998 197.37854 l
192.549703 196.385561 l
198.511673 195.380523 l
204.319591 192.978133 l
210.375021 192.666902 l
216.332295 192.50966 l
222.171963 190.754339 l
228.378314 190.18615 l
234.345427 189.722339 l
240.383417 189.716096 l
246.997816 187.176526 l
253.301876 186.708764 l
259.714822 186.684132 l
266.672653 185.688944 l
273.384537 184.359915 l
280.059528 182.002691 l
286.79623 181.736283 l
293.767699 177.690363 l
300.871085 177.434276 l
308.383637 176.710511 l
315.563043 175.506082 l
322.626183 174.525318 l
330.006818 174.019809 l
337.175045 173.357451 l
344.678653 172.947107 l
352.142016 168.927633 l
360.036903 168.009537 l
367.632182 167.590152 l
375.667929 167.038421 l
383.209547 166.689814 l
391.001584 166.687718 l
399.312344 165.525467 l
407.658879 165.344515 l
415.772882 164.35685 l
424.517403 164.330018 l
432.691775 160.021575 l
441.060668 156.455153 l
450.245657 154.610743 l
458.889563 153.844377 l
461.8 153.505363 l
stroke
grestore
0.000 0.000 1.000 setrgbcolor
gsave
357.1 266.1 57.6 38.02 clipbox
58.763229 226.121836 m
62.501104 219.023492 l
66.407228 217.964293 l
70.39456 195.120395 l
74.475127 187.983195 l
78.70883 181.959137 l
84.09931 181.608844 l
88.877606 177.612415 l
93.580329 176.979949 l
98.446719 176.896075 l
103.315121 176.53753 l
108.537238 176.289673 l
114.973215 175.78969 l
120.174763 174.681237 l
125.558982 173.342966 l
131.267403 169.893649 l
137.006009 169.642053 l
143.130304 168.543496 l
148.937104 168.151361 l
154.808968 167.550193 l
160.820798 165.241695 l
167.479691 165.031506 l
174.368433 164.084175 l
180.620397 162.235841 l
187.066658 162.221498 l
193.596765 159.435693 l
200.621448 158.661751 l
207.604767 158.395573 l
214.948287 158.381689 l
222.130823 157.731064 l
229.909668 157.075863 l
238.049607 150.197751 l
245.513417 149.872024 l
253.116521 144.495894 l
261.075802 143.275775 l
269.218871 141.877741 l
277.181058 140.296697 l
284.929272 140.130833 l
292.830866 138.282904 l
300.649733 137.858046 l
309.324942 104.315266 l
317.834696 103.681627 l
326.836343 102.468787 l
335.896122 102.021978 l
345.087819 101.290477 l
356.569055 101.283279 l
366.415864 99.836977 l
376.381174 98.921957 l
385.977565 94.604208 l
395.641032 93.993453 l
407.553793 89.992894 l
417.089815 86.322755 l
427.097607 86.17386 l
436.57326 85.670327 l
446.449135 84.451318 l
446.449135 83.424193 l
stroke
grestore
0.000 setgray
gsave
357.1 266.1 57.6 38.02 clipbox
58.934922 223.183826 m
63.310246 201.481922 l
67.941287 194.768485 l
72.330517 176.543043 l
76.940318 170.132435 l
81.797697 159.990066 l
86.796227 153.460581 l
90.662508 148.402229 l
94.110232 143.264593 l
97.676235 140.043244 l
101.276447 135.527828 l
105.436299 133.685283 l
109.658084 131.12887 l
114.02878 128.671841 l
118.199587 125.421221 l
122.327243 123.245326 l
126.852437 121.213466 l
131.107314 119.406373 l
135.40512 117.245555 l
139.945742 114.621688 l
144.633708 112.763461 l
149.384727 110.616202 l
154.150949 108.986837 l
159.0037 106.382782 l
164.08205 104.522085 l
169.469623 102.442372 l
175.513874 100.200662 l
180.887137 98.715114 l
186.62932 97.277992 l
192.747578 95.978705 l
198.731683 94.651251 l
204.795833 93.305579 l
211.231586 92.226288 l
217.627093 90.615068 l
223.962901 89.317872 l
230.439571 88.258385 l
237.05397 87.282387 l
244.162499 86.185749 l
251.276841 84.578744 l
258.400573 83.553209 l
265.674109 82.088181 l
277.708278 80.957764 l
289.577663 79.912373 l
301.593274 78.323057 l
313.879427 77.321284 l
325.66027 76.033566 l
338.453967 74.854746 l
350.737884 73.935141 l
359.97877 72.771281 l
367.862477 71.737605 l
376.188889 71.123907 l
384.150852 70.127163 l
392.273799 69.417185 l
400.919941 68.372449 l
409.789671 67.500102 l
418.518541 66.424374 l
428.322868 65.846569 l
437.601764 64.897722 l
447.119899 63.863375 l
456.644741 63.143656 l
461.8 62.646027 l
stroke
grestore
1.000 0.000 0.000 setrgbcolor
gsave
357.1 266.1 57.6 38.02 clipbox
60.531451 222.65428 m
65.453671 219.541365 l
70.265125 197.418788 l
74.668374 189.145325 l
79.473277 187.223738 l
84.125917 179.864523 l
89.342445 178.747592 l
94.048969 178.135798 l
98.662481 171.826361 l
103.474986 170.95179 l
108.554678 166.733486 l
113.16506 143.90544 l
118.029661 141.761843 l
122.716062 141.294286 l
127.919846 138.026763 l
132.903395 137.528859 l
137.939488 135.632989 l
143.099225 134.852742 l
148.477631 133.909685 l
153.691476 133.124269 l
158.982235 124.64796 l
164.269417 123.018736 l
169.741953 117.580886 l
175.220079 117.161003 l
180.985516 115.358415 l
186.703998 114.723015 l
192.549703 113.730036 l
198.511673 112.724998 l
204.319591 110.322608 l
210.375021 110.011377 l
216.332295 109.854135 l
222.171963 108.098815 l
228.378314 107.530625 l
234.345427 107.066814 l
240.383417 107.060571 l
246.997816 104.521001 l
253.301876 104.05324 l
259.714822 104.028607 l
266.672653 103.033419 l
273.384537 101.70439 l
280.059528 99.347166 l
286.79623 99.080758 l
293.767699 95.034838 l
300.871085 94.778751 l
308.383637 94.054986 l
315.563043 92.850557 l
322.626183 91.869793 l
330.006818 91.364284 l
337.175045 90.701926 l
344.678653 90.291582 l
352.142016 86.272109 l
360.036903 85.354012 l
367.632182 84.934627 l
375.667929 84.382896 l
383.209547 84.034289 l
391.001584 84.032193 l
399.312344 82.869942 l
407.658879 82.68899 l
415.772882 81.701325 l
424.517403 81.674493 l
432.691775 77.36605 l
441.060668 73.799628 l
450.245657 71.955218 l
458.889563 71.188852 l
461.8 70.849838 l
stroke
grestore
0.800 setlinewidth
0 setlinejoin
2 setlinecap
[] 0 setdash
0.000 setgray
gsave
57.6 38.016 m
57.6 304.128 l
stroke
grestore
gsave
414.72 38.016 m
414.72 304.128 l
stroke
grestore
gsave
57.6 38.016 m
414.72 38.016 l
stroke
grestore
gsave
57.6 304.128 m
414.72 304.128 l
stroke
grestore
/DejaVuSans findfont
12.000 scalefont
setfont
gsave
76.511562 310.128000 translate
0.000000 rotate
0.000000 0 m /D glyphshow
9.240234 0 m /e glyphshow
16.623047 0 m /c glyphshow
23.220703 0 m /r glyphshow
27.904297 0 m /e glyphshow
35.287109 0 m /a glyphshow
42.640625 0 m /s glyphshow
48.892578 0 m /i glyphshow
52.226562 0 m /n glyphshow
59.832031 0 m /g glyphshow
67.449219 0 m /space glyphshow
71.263672 0 m /o glyphshow
78.605469 0 m /f glyphshow
82.830078 0 m /space glyphshow
86.644531 0 m /t glyphshow
91.349609 0 m /h glyphshow
98.955078 0 m /e glyphshow
106.337891 0 m /space glyphshow
110.152344 0 m /n glyphshow
117.757812 0 m /o glyphshow
125.099609 0 m /r glyphshow
129.783203 0 m /m glyphshow
141.472656 0 m /space glyphshow
145.287109 0 m /o glyphshow
152.628906 0 m /f glyphshow
156.853516 0 m /space glyphshow
160.667969 0 m /t glyphshow
165.373047 0 m /h glyphshow
172.978516 0 m /e glyphshow
180.361328 0 m /space glyphshow
184.175781 0 m /r glyphshow
188.859375 0 m /e glyphshow
196.242188 0 m /s glyphshow
202.494141 0 m /i glyphshow
205.828125 0 m /d glyphshow
213.445312 0 m /u glyphshow
221.050781 0 m /a glyphshow
228.404297 0 m /l glyphshow
231.738281 0 m /space glyphshow
235.552734 0 m /w glyphshow
245.367188 0 m /i glyphshow
248.701172 0 m /t glyphshow
253.406250 0 m /h glyphshow
261.011719 0 m /space glyphshow
264.826172 0 m /t glyphshow
269.531250 0 m /h glyphshow
277.136719 0 m /e glyphshow
284.519531 0 m /space glyphshow
288.333984 0 m /t glyphshow
293.039062 0 m /i glyphshow
296.373047 0 m /m glyphshow
308.062500 0 m /e glyphshow
315.445312 0 m /period glyphshow
grestore
1.000 setlinewidth
0 setlinecap
0.800 setgray
gsave
326.73875 227.228 m
409.12 227.228 l
410.186667 227.228 410.72 227.761333 410.72 228.828 c
410.72 298.528 l
410.72 299.594667 410.186667 300.128 409.12 300.128 c
326.73875 300.128 l
325.672083 300.128 325.13875 299.594667 325.13875 298.528 c
325.13875 228.828 l
325.13875 227.761333 325.672083 227.228 326.73875 227.228 c
cl
gsave
1.000 setgray
fill
grestore
stroke
grestore
1.500 setlinewidth
1 setlinejoin
2 setlinecap
0.000 0.000 1.000 setrgbcolor
gsave
328.33875 293.649875 m
344.33875 293.649875 l
stroke
grestore
0.000 setgray
/DejaVuSans findfont
8.000 scalefont
setfont
gsave
350.738750 290.849875 translate
0.000000 rotate
0.000000 0 m /M glyphshow
6.902344 0 m /e glyphshow
11.824219 0 m /a glyphshow
16.726562 0 m /n glyphshow
21.796875 0 m /space glyphshow
24.339844 0 m /o glyphshow
29.234375 0 m /f glyphshow
32.050781 0 m /space glyphshow
34.593750 0 m /A glyphshow
40.066406 0 m /S glyphshow
45.144531 0 m /V glyphshow
50.617188 0 m /D glyphshow
grestore
gsave
328.33875 281.899875 m
344.33875 281.899875 l
stroke
grestore
gsave
350.738750 279.099875 translate
0.000000 rotate
0.000000 0 m /M glyphshow
6.902344 0 m /e glyphshow
11.824219 0 m /a glyphshow
16.726562 0 m /n glyphshow
21.796875 0 m /space glyphshow
24.339844 0 m /o glyphshow
29.234375 0 m /f glyphshow
32.050781 0 m /space glyphshow
34.593750 0 m /C glyphshow
40.179688 0 m /P glyphshow
45.003906 0 m /T glyphshow
49.765625 0 m /T glyphshow
grestore
1.000 0.000 0.000 setrgbcolor
gsave
328.33875 270.149875 m
344.33875 270.149875 l
stroke
grestore
0.000 setgray
gsave
350.738750 267.349875 translate
0.000000 rotate
0.000000 0 m /M glyphshow
6.902344 0 m /e glyphshow
11.824219 0 m /a glyphshow
16.726562 0 m /n glyphshow
21.796875 0 m /space glyphshow
24.339844 0 m /o glyphshow
29.234375 0 m /f glyphshow
32.050781 0 m /space glyphshow
34.593750 0 m /A glyphshow
40.066406 0 m /L glyphshow
44.523438 0 m /S glyphshow
grestore
0 setlinecap
[5.55 2.4] 0 setdash
0.000 0.000 1.000 setrgbcolor
gsave
328.33875 258.399875 m
344.33875 258.399875 l
stroke
grestore
0.000 setgray
gsave
350.738750 255.599875 translate
0.000000 rotate
0.000000 0 m /S glyphshow
5.078125 0 m /t glyphshow
8.214844 0 m /d glyphshow
13.292969 0 m /space glyphshow
15.835938 0 m /o glyphshow
20.730469 0 m /f glyphshow
23.546875 0 m /space glyphshow
26.089844 0 m /A glyphshow
31.562500 0 m /S glyphshow
36.640625 0 m /V glyphshow
42.113281 0 m /D glyphshow
grestore
gsave
328.33875 246.649875 m
344.33875 246.649875 l
stroke
grestore
gsave
350.738750 243.849875 translate
0.000000 rotate
0.000000 0 m /S glyphshow
5.078125 0 m /t glyphshow
8.214844 0 m /d glyphshow
13.292969 0 m /space glyphshow
15.835938 0 m /o glyphshow
20.730469 0 m /f glyphshow
23.546875 0 m /space glyphshow
26.089844 0 m /C glyphshow
31.675781 0 m /P glyphshow
36.500000 0 m /T glyphshow
41.261719 0 m /T glyphshow
grestore
1.000 0.000 0.000 setrgbcolor
gsave
328.33875 234.899875 m
344.33875 234.899875 l
stroke
grestore
0.000 setgray
gsave
350.738750 232.099875 translate
0.000000 rotate
0.000000 0 m /S glyphshow
5.078125 0 m /t glyphshow
8.214844 0 m /d glyphshow
13.292969 0 m /space glyphshow
15.835938 0 m /o glyphshow
20.730469 0 m /f glyphshow
23.546875 0 m /space glyphshow
26.089844 0 m /A glyphshow
31.562500 0 m /L glyphshow
36.019531 0 m /S glyphshow
grestore

end
showpage
