\relax 
\providecommand\hyper@newdestlabel[2]{}
\providecommand\HyperFirstAtBeginDocument{\AtBeginDocument}
\HyperFirstAtBeginDocument{\ifx\hyper@anchor\@undefined
\global\let\oldcontentsline\contentsline
\gdef\contentsline#1#2#3#4{\oldcontentsline{#1}{#2}{#3}}
\global\let\oldnewlabel\newlabel
\gdef\newlabel#1#2{\newlabelxx{#1}#2}
\gdef\newlabelxx#1#2#3#4#5#6{\oldnewlabel{#1}{{#2}{#3}}}
\AtEndDocument{\ifx\hyper@anchor\@undefined
\let\contentsline\oldcontentsline
\let\newlabel\oldnewlabel
\fi}
\fi}
\global\let\hyper@last\relax 
\gdef\HyperFirstAtBeginDocument#1{#1}
\providecommand\HyField@AuxAddToFields[1]{}
\providecommand\HyField@AuxAddToCoFields[2]{}
\citation{cichocki2016tensor}
\citation{kolda2018tensor}
\citation{kolda2008scalable}
\citation{OseTyrt09}
\citation{Kolda2009TensorDA}
\citation{Os16}
\citation{Domanov2020OnUA}
\citation{Otta14}
\citation{hackbusch2012tensor}
\citation{khoromskij2018tensor}
\citation{deSilvLim08}
\citation{Beylkin05algorithmsfor}
\citation{8081290}
\citation{els}
\citation{bigoni2016}
\citation{wang2019distributed}
\citation{rakhuba2016}
\newlabel{sec:intro}{{1}{1}{Introduction}{section.1}{}}
\newlabel{sec:intro@cref}{{[section][1][]1}{[1][1][]1}}
\@writefile{toc}{\contentsline {section}{\numberline {1}Introduction}{1}{section.1}\protected@file@percent }
\citation{Os20}
\citation{grasedyck2013literature}
\citation{kour2020efficient}
\citation{khoromskij2009multigrid}
\citation{sorber2013optimization}
\citation{temlyakov1999greedy}
\newlabel{sec:prelim}{{2}{2}{Preliminaries}{section.2}{}}
\newlabel{sec:prelim@cref}{{[section][2][]2}{[1][2][]2}}
\@writefile{toc}{\contentsline {section}{\numberline {2}Preliminaries}{2}{section.2}\protected@file@percent }
\citation{hitchcock1927expression}
\citation{Kolda2009TensorDA}
\citation{DomDeLath14}
\citation{Oseledets2011TensorTrainD}
\newlabel{sec:Notation}{{2.1}{3}{Notation and Singular Value Decomposition (SVD)}{subsection.3}{}}
\newlabel{sec:Notation@cref}{{[subsection][1][2]2.1}{[1][2][]3}}
\@writefile{toc}{\contentsline {subsection}{\numberline {2.1}Notation and Singular Value Decomposition (SVD)}{3}{subsection.3}\protected@file@percent }
\newlabel{eq:SVD}{{2.1}{3}{Notation and Singular Value Decomposition (SVD)}{equation.4}{}}
\newlabel{eq:SVD@cref}{{[equation][1][2]2.1}{[1][3][]3}}
\newlabel{eq:costSVD}{{2.2}{3}{Notation and Singular Value Decomposition (SVD)}{equation.5}{}}
\newlabel{eq:costSVD@cref}{{[equation][2][2]2.2}{[1][3][]3}}
\newlabel{sec:format}{{2.2}{3}{Canonical Polyadic (CP) and Tensor Train (TT) formats}{subsection.6}{}}
\newlabel{sec:format@cref}{{[subsection][2][2]2.2}{[1][3][]3}}
\@writefile{toc}{\contentsline {subsection}{\numberline {2.2}Canonical Polyadic (CP) and Tensor Train (TT) formats}{3}{subsection.6}\protected@file@percent }
\citation{deSilvLim08}
\citation{Beylkin05algorithmsfor}
\citation{8081290}
\citation{els}
\newlabel{sec:TT-SVD}{{2.3}{4}{TT-SVD algorithm}{subsection.7}{}}
\newlabel{sec:TT-SVD@cref}{{[subsection][3][2]2.3}{[1][4][]4}}
\@writefile{toc}{\contentsline {subsection}{\numberline {2.3} TT-SVD algorithm}{4}{subsection.7}\protected@file@percent }
\newlabel{sec:SoTT}{{3}{4}{The Sum of Tensor Trains (SoTT) algorithm}{section.19}{}}
\newlabel{sec:SoTT@cref}{{[section][3][]3}{[1][4][]4}}
\@writefile{toc}{\contentsline {section}{\numberline {3}The Sum of Tensor Trains (SoTT) algorithm}{4}{section.19}\protected@file@percent }
\newlabel{sec:genSoTT}{{3.1}{4}{Presentation of the SoTT algorithm}{subsection.20}{}}
\newlabel{sec:genSoTT@cref}{{[subsection][1][3]3.1}{[1][4][]4}}
\@writefile{toc}{\contentsline {subsection}{\numberline {3.1}Presentation of the SoTT algorithm}{4}{subsection.20}\protected@file@percent }
\@writefile{loa}{\contentsline {algorithm}{\numberline {2.1}{\ignorespaces TT-SVD algorithm}}{5}{algorithm.8}\protected@file@percent }
\newlabel{alg:TT-SVD}{{2.1}{5}{TT-SVD algorithm}{ALC@unique.18}{}}
\newlabel{alg:TT-SVD@cref}{{[algorithm][1][2]2.1}{[1][4][]5}}
\@writefile{loa}{\contentsline {algorithm}{\numberline {3.1}{\ignorespaces SoTT algorithm}}{6}{algorithm.21}\protected@file@percent }
\newlabel{alg:SoTT}{{3.1}{6}{Presentation of the SoTT algorithm}{ALC@unique.41}{}}
\newlabel{alg:SoTT@cref}{{[algorithm][1][3]3.1}{[1][4][]6}}
\newlabel{eq:beta}{{3.1}{7}{Presentation of the SoTT algorithm}{equation.42}{}}
\newlabel{eq:beta@cref}{{[equation][1][3]3.1}{[1][7][]7}}
\newlabel{sec:conv}{{3.2}{7}{Exponential convergence of the SoTT algorithm in finite dimension}{subsection.43}{}}
\newlabel{sec:conv@cref}{{[subsection][2][3]3.2}{[1][7][]7}}
\@writefile{toc}{\contentsline {subsection}{\numberline {3.2}Exponential convergence of the SoTT algorithm in finite dimension}{7}{subsection.43}\protected@file@percent }
\@writefile{thm}{\contentsline {proposition}{{Proposition}{3.1}{}}{7}{theorem.44}\protected@file@percent }
\newlabel{prop:convergence}{{3.1}{7}{Exponential convergence of the SoTT algorithm in finite dimension}{theorem.44}{}}
\newlabel{prop:convergence@cref}{{[proposition][1][3]3.1}{[1][7][]7}}
\newlabel{eq:est1}{{3.2}{7}{Exponential convergence of the SoTT algorithm in finite dimension}{equation.45}{}}
\newlabel{eq:est1@cref}{{[equation][2][3]3.2}{[1][7][]7}}
\@writefile{thm}{\contentsline {proof}{{Proof}{1}{}}{8}{proof.46}\protected@file@percent }
\newlabel{eq:rel1}{{3.3}{8}{Exponential convergence of the SoTT algorithm in finite dimension}{equation.47}{}}
\newlabel{eq:rel1@cref}{{[equation][3][3]3.3}{[1][8][]8}}
\newlabel{eq:rel2}{{3.4}{8}{Exponential convergence of the SoTT algorithm in finite dimension}{equation.48}{}}
\newlabel{eq:rel2@cref}{{[equation][4][3]3.4}{[1][8][]8}}
\newlabel{eq:relmin}{{3.5}{8}{Exponential convergence of the SoTT algorithm in finite dimension}{equation.49}{}}
\newlabel{eq:relmin@cref}{{[equation][5][3]3.5}{[1][8][]8}}
\newlabel{sec:complexity}{{3.3}{9}{Complexity estimate of the SoTT algorithm}{subsection.50}{}}
\newlabel{sec:complexity@cref}{{[subsection][3][3]3.3}{[1][9][]9}}
\@writefile{toc}{\contentsline {subsection}{\numberline {3.3}Complexity estimate of the SoTT algorithm}{9}{subsection.50}\protected@file@percent }
\@writefile{toc}{\contentsline {subsubsection}{\numberline {3.3.1}Case 1: Unbounded ranks}{9}{subsubsection.51}\protected@file@percent }
\citation{zhang2001rank}
\citation{uschmajew2012local}
\citation{rohwedder2013local}
\citation{espig2015convergence}
\citation{wang2015accelerating}
\citation{oseledets2018alternating}
\citation{friedland2013best}
\@writefile{toc}{\contentsline {subsubsection}{\numberline {3.3.2}Case 2: Bounded ranks}{10}{subsubsection.52}\protected@file@percent }
\newlabel{sec:CPTT}{{4}{10}{CP-TT: fixed-rank SoTT algorithm with rank $1$}{section.54}{}}
\newlabel{sec:CPTT@cref}{{[section][4][]4}{[1][10][]10}}
\@writefile{toc}{\contentsline {section}{\numberline {4}CP-TT: fixed-rank SoTT algorithm with rank $1$}{10}{section.54}\protected@file@percent }
\citation{batselier2015constructive}
\@writefile{loa}{\contentsline {algorithm}{\numberline {4.1}{\ignorespaces ALS algorithm}}{11}{algorithm.55}\protected@file@percent }
\newlabel{alg:ALS}{{4.1}{11}{CP-TT: fixed-rank SoTT algorithm with rank $1$}{ALC@unique.71}{}}
\newlabel{alg:ALS@cref}{{[algorithm][1][4]4.1}{[1][11][]11}}
\newlabel{sec:numExp}{{5}{11}{Numerical Experiments}{section.92}{}}
\newlabel{sec:numExp@cref}{{[section][5][]5}{[1][11][]11}}
\@writefile{toc}{\contentsline {section}{\numberline {5}Numerical Experiments}{11}{section.92}\protected@file@percent }
\@writefile{loa}{\contentsline {algorithm}{\numberline {4.2}{\ignorespaces ASVD algorithm}}{12}{algorithm.72}\protected@file@percent }
\newlabel{alg:ASVD}{{4.2}{12}{CP-TT: fixed-rank SoTT algorithm with rank $1$}{ALC@unique.91}{}}
\newlabel{alg:ASVD@cref}{{[algorithm][2][4]4.2}{[1][11][]12}}
\@writefile{toc}{\contentsline {subsection}{\numberline {5.1}Comparison between CP-TT and other rank-one update methods}{12}{subsection.93}\protected@file@percent }
\newlabel{refF}{{5.1}{12}{Comparison between CP-TT and other rank-one update methods}{equation.94}{}}
\newlabel{refF@cref}{{[equation][1][5]5.1}{[1][12][]12}}
\citation{khoromskij2007low}
\citation{khoromskij2009multigrid}
\newlabel{sec:L2}{{5.1.1}{13}{Results for functions with $\beta = \frac {d}{2}+0.1$}{subsubsection.95}{}}
\newlabel{sec:L2@cref}{{[subsubsection][1][5,1]5.1.1}{[1][13][]13}}
\@writefile{toc}{\contentsline {subsubsection}{\numberline {5.1.1}Results for functions with $\beta = \frac  {d}{2}+0.1$}{13}{subsubsection.95}\protected@file@percent }
\@writefile{lof}{\contentsline {figure}{\numberline {1}{\ignorespaces Case $d=4$ and $\beta = \frac  {d}{2}+0.1$. Mean and standard deviation of the $L^2$ norm of the difference between the exact function $W$ and its approximation given by ALS (red), TTr1 (blue), CP-TT (black) and ASVD (green) as a function of the number of terms.}}{13}{figure.96}\protected@file@percent }
\newlabel{ref_all}{{1}{13}{Case $d=4$ and $\beta = \frac {d}{2}+0.1$. Mean and standard deviation of the $L^2$ norm of the difference between the exact function $W$ and its approximation given by ALS (red), TTr1 (blue), CP-TT (black) and ASVD (green) as a function of the number of terms}{figure.96}{}}
\newlabel{ref_all@cref}{{[figure][1][]1}{[1][13][]13}}
\@writefile{lof}{\contentsline {figure}{\numberline {2}{\ignorespaces Case $\beta = \frac  {d}{2}+0.1$. Mean and standard deviation of the $L^2$ norm of the difference between the exact function $W$ and its approximation given by ALS (red), ASVD (blue) and CP-TT (black) as a function of the number of terms. Left: case $d=12$. Right: case $d=16$. }}{14}{figure.98}\protected@file@percent }
\newlabel{refI3}{{2}{14}{Case $\beta = \frac {d}{2}+0.1$. Mean and standard deviation of the $L^2$ norm of the difference between the exact function $W$ and its approximation given by ALS (red), ASVD (blue) and CP-TT (black) as a function of the number of terms. Left: case $d=12$. Right: case $d=16$}{figure.98}{}}
\newlabel{refI3@cref}{{[figure][2][]2}{[1][13][]14}}
\@writefile{toc}{\contentsline {subsubsection}{\numberline {5.1.2}Results for functions with $\beta = \frac  {d}{2}+1.1$}{14}{subsubsection.102}\protected@file@percent }
\@writefile{toc}{\contentsline {subsubsection}{\numberline {5.1.3}Comparison of the norm of the residual with respect to computational time}{14}{subsubsection.109}\protected@file@percent }
\@writefile{lot}{\contentsline {table}{\numberline {1}{\ignorespaces Mean and standard deviation of the norm of the residual for 32 random functions in the case where $\beta = \frac  {d}{2} +0.1$.}}{15}{table.100}\protected@file@percent }
\newlabel{tab:tableL2}{{1}{15}{Mean and standard deviation of the norm of the residual for 32 random functions in the case where $\beta = \frac {d}{2} +0.1$}{table.100}{}}
\newlabel{tab:tableL2@cref}{{[table][1][]1}{[1][14][]15}}
\newlabel{subsec:FKPP}{{5.2}{15}{SoTT for the compression of the solution of a parametric reaction diffusion equation}{subsection.112}{}}
\newlabel{subsec:FKPP@cref}{{[subsection][2][5]5.2}{[1][15][]15}}
\@writefile{toc}{\contentsline {subsection}{\numberline {5.2}SoTT for the compression of the solution of a parametric reaction diffusion equation}{15}{subsection.112}\protected@file@percent }
\@writefile{lof}{\contentsline {figure}{\numberline {3}{\ignorespaces Case $d=4$ and $\beta = \frac  {d}{2}+1.1$. Mean and standard deviation of the $L^2$ norm of the difference between the exact function $W$ and its approximation given by ALS (red), TTr1 (blue), CP-TT (black) and ASVD (green) as a function of the number of terms.}}{16}{figure.103}\protected@file@percent }
\newlabel{ref_all_H1}{{3}{16}{Case $d=4$ and $\beta = \frac {d}{2}+1.1$. Mean and standard deviation of the $L^2$ norm of the difference between the exact function $W$ and its approximation given by ALS (red), TTr1 (blue), CP-TT (black) and ASVD (green) as a function of the number of terms}{figure.103}{}}
\newlabel{ref_all_H1@cref}{{[figure][3][]3}{[1][14][]16}}
\@writefile{lof}{\contentsline {figure}{\numberline {4}{\ignorespaces Case $\beta = \frac  {d}{2}+1.1$. Mean and standard deviation of the $L^2$ norm of the difference between the exact function $W$ and its approximation given by ALS (red), ASVD (blue) and CP-TT (black) as a function of the number of terms. Left: case $d=12$. Right: case $d=16$.}}{16}{figure.105}\protected@file@percent }
\newlabel{refI8}{{4}{16}{Case $\beta = \frac {d}{2}+1.1$. Mean and standard deviation of the $L^2$ norm of the difference between the exact function $W$ and its approximation given by ALS (red), ASVD (blue) and CP-TT (black) as a function of the number of terms. Left: case $d=12$. Right: case $d=16$}{figure.105}{}}
\newlabel{refI8@cref}{{[figure][4][]4}{[1][14][]16}}
\newlabel{eq:FKPP}{{5.2}{16}{SoTT for the compression of the solution of a parametric reaction diffusion equation}{equation.113}{}}
\newlabel{eq:FKPP@cref}{{[equation][2][5]5.2}{[1][15][]16}}
\@writefile{lot}{\contentsline {table}{\numberline {2}{\ignorespaces Mean and standard deviation of the norm of the residual for 32 random functions in the case where $\beta = \frac  {d}{2} +1.1$.}}{17}{table.107}\protected@file@percent }
\newlabel{tab:tableH1}{{2}{17}{Mean and standard deviation of the norm of the residual for 32 random functions in the case where $\beta = \frac {d}{2} +1.1$}{table.107}{}}
\newlabel{tab:tableH1@cref}{{[table][2][]2}{[1][14][]17}}
\@writefile{lof}{\contentsline {figure}{\numberline {5}{\ignorespaces Left: $\beta = \frac  {d}{2} +0.1$. Right: $\beta = \frac  {d}{2} +1.1$. From top to bottom: $d=4,12,16$. Mean and standard deviation of the norm of the residual as a function of the \leavevmode {\color  {red}accumulated} time of computation for ALS (red), ASVD (blue) and CP-TT (black). }}{18}{figure.110}\protected@file@percent }
\newlabel{refI6}{{5}{18}{Left: $\beta = \frac {d}{2} +0.1$. Right: $\beta = \frac {d}{2} +1.1$. From top to bottom: $d=4,12,16$. Mean and standard deviation of the norm of the residual as a function of the \red {accumulated} time of computation for ALS (red), ASVD (blue) and CP-TT (black)}{figure.110}{}}
\newlabel{refI6@cref}{{[figure][5][]5}{[1][15][]18}}
\@writefile{toc}{\contentsline {section}{\numberline {6}Conclusions and perspectives}{18}{section.120}\protected@file@percent }
\@writefile{lof}{\contentsline {figure}{\numberline {6}{\ignorespaces Three slices of the full tensor used in Section\nobreakspace  {}\ref  {subsec:FKPP}. The horizontal axis is the space coordinate, the vertical axis is the time coordinate, the color represents the solution value, from $0$ (black), to $1$ (white) for different values of the parameters determining the initial condition and the reaction coefficient.}}{19}{figure.114}\protected@file@percent }
\newlabel{fig:FKPP_sol}{{6}{19}{Three slices of the full tensor used in Section~\ref {subsec:FKPP}. The horizontal axis is the space coordinate, the vertical axis is the time coordinate, the color represents the solution value, from $0$ (black), to $1$ (white) for different values of the parameters determining the initial condition and the reaction coefficient}{figure.114}{}}
\newlabel{fig:FKPP_sol@cref}{{[figure][6][]6}{[1][17][]19}}
\@writefile{lof}{\contentsline {figure}{\numberline {7}{\ignorespaces Compression test performed in Section\ref  {subsec:FKPP}, double logarithmic plot of the memory as function of the residual norm for the TT-SVD runs (obtained by considering all the possible permutations of the indices), for several tolerances, and the SoTT approximations.}}{19}{figure.116}\protected@file@percent }
\newlabel{fig:SoTT}{{7}{19}{Compression test performed in Section\ref {subsec:FKPP}, double logarithmic plot of the memory as function of the residual norm for the TT-SVD runs (obtained by considering all the possible permutations of the indices), for several tolerances, and the SoTT approximations}{figure.116}{}}
\newlabel{fig:SoTT@cref}{{[figure][7][]7}{[1][17][]19}}
\bibstyle{siamplain}
\bibdata{biblioCPTT}
\bibcite{batselier2015constructive}{1}
\bibcite{Beylkin05algorithmsfor}{2}
\bibcite{bigoni2016}{3}
\bibcite{Os16}{4}
\@writefile{lof}{\contentsline {figure}{\numberline {8}{\ignorespaces Compression test performed in Section\ref  {subsec:FKPP}, double logarithmic plot of the memory as function of the residual norm for the SoTT and the CP-TT algorithms.}}{20}{figure.118}\protected@file@percent }
\newlabel{fig:SoTTvsCPTT}{{8}{20}{Compression test performed in Section\ref {subsec:FKPP}, double logarithmic plot of the memory as function of the residual norm for the SoTT and the CP-TT algorithms}{figure.118}{}}
\newlabel{fig:SoTTvsCPTT@cref}{{[figure][8][]8}{[1][18][]20}}
\@writefile{toc}{\contentsline {section}{References}{20}{section*.121}\protected@file@percent }
\bibcite{cichocki2016tensor}{5}
\bibcite{deSilvLim08}{6}
\bibcite{Domanov2020OnUA}{7}
\bibcite{DomDeLath14}{8}
\bibcite{espig2015convergence}{9}
\bibcite{friedland2013best}{10}
\bibcite{Otta14}{11}
\bibcite{grasedyck2013literature}{12}
\bibcite{hackbusch2012tensor}{13}
\bibcite{hitchcock1927expression}{14}
\bibcite{khoromskij2007low}{15}
\bibcite{khoromskij2018tensor}{16}
\bibcite{khoromskij2009multigrid}{17}
\bibcite{Kolda2009TensorDA}{18}
\bibcite{kolda2018tensor}{19}
\bibcite{kolda2008scalable}{20}
\bibcite{kour2020efficient}{21}
\bibcite{Oseledets2011TensorTrainD}{22}
\bibcite{OseTyrt09}{23}
\bibcite{oseledets2018alternating}{24}
\bibcite{Os20}{25}
\bibcite{els}{26}
\bibcite{rakhuba2016}{27}
\bibcite{rohwedder2013local}{28}
\bibcite{sorber2013optimization}{29}
\bibcite{temlyakov1999greedy}{30}
\bibcite{uschmajew2012local}{31}
\bibcite{8081290}{32}
\bibcite{wang2015accelerating}{33}
\bibcite{wang2019distributed}{34}
\bibcite{zhang2001rank}{35}
